Rk,Player,Pos,Age,Tm,G,GS,MP,FG,FGA,FG%,3P,3PA,3P%,2P,2PA,2P%,FT,FTA,FT%,ORB,DRB,TRB,AST,STL,BLK,TOV,PF,PTS
1,Alaa Abdelnaby\abdelal01,PF,26,TOT,54,0,506,8.4,16.4,.511,0.0,0.1,.000,8.4,16.3,.515,1.4,2.5,.571,2.6,5.5,8.1,0.9,1.1,0.9,3.2,7.4,18.2
1,Alaa Abdelnaby\abdelal01,PF,26,SAC,51,0,476,8.8,16.6,.532,0.0,0.2,.000,8.8,16.5,.537,1.5,2.6,.571,2.6,5.4,8.0,1.0,1.1,0.9,3.0,7.7,19.2
1,Alaa Abdelnaby\abdelal01,PF,26,PHI,3,0,30,1.2,13.2,.091,0.0,0.0,,1.2,13.2,.091,0.0,0.0,,3.6,6.0,9.6,0.0,0.0,0.0,6.0,2.4,2.4
2,Mahmoud Abdul-Rauf\abdulma02,PG,25,DEN,73,43,2082,8.2,17.4,.470,1.4,3.7,.386,6.7,13.7,.492,2.4,2.7,.885,0.6,1.8,2.4,4.5,1.3,0.2,2.1,2.2,20.1
3,Michael Adams\adamsmi01,PG,32,CHH,29,0,443,5.4,12.0,.453,2.4,6.6,.358,3.1,5.4,.567,2.0,2.4,.833,0.5,1.9,2.4,7.7,1.9,0.1,2.1,3.3,15.3
4,Rafael Addison\addisra01,SF,30,DET,79,16,1776,5.7,11.9,.476,0.5,1.7,.289,5.2,10.2,.507,1.5,2.0,.747,1.4,3.5,4.9,2.2,1.1,0.5,1.5,4.8,13.3
5,Danny Ainge\aingeda01,SG,35,PHO,74,1,1374,5.1,11.1,.460,2.0,5.6,.364,3.0,5.4,.558,2.8,3.4,.808,0.7,2.2,2.9,5.5,1.2,0.2,2.1,4.1,15.0
6,Victor Alexander\alexavi01,C,25,GSW,50,29,1237,6.7,13.0,.515,0.2,0.7,.240,6.5,12.3,.531,1.0,1.7,.600,2.5,5.9,8.5,1.7,0.8,0.8,2.2,4.2,14.6
7,Derrick Alston\alstode01,C,22,PHI,64,1,1032,4.2,9.0,.465,0.0,0.1,.000,4.2,8.9,.472,2.1,4.2,.492,3.4,4.2,7.6,1.2,1.4,1.2,1.8,3.7,10.4
8,Greg Anderson\andergr01,PF,30,ATL,51,0,622,3.3,6.0,.548,0.0,0.0,,3.3,6.0,.548,2.0,4.1,.479,3.6,7.3,10.9,1.0,1.3,1.9,1.9,6.0,8.6
9,Kenny Anderson\anderke01,PG,24,NJN,72,70,2689,5.5,13.8,.399,1.3,3.9,.330,4.2,9.9,.426,4.7,5.5,.841,1.0,2.4,3.3,9.1,1.4,0.2,3.0,2.5,17.0
10,Nick Anderson\anderni01,SG,27,ORL,76,76,2588,6.1,12.8,.476,2.5,6.0,.415,3.6,6.8,.528,2.0,2.8,.704,1.2,3.5,4.7,4.4,1.7,0.3,2.0,1.7,16.7
11,Willie Anderson\anderwi01,SG,28,SAS,38,11,556,4.9,10.5,.469,0.2,1.2,.158,4.7,9.3,.510,1.9,2.7,.732,1.0,2.6,3.6,3.4,1.7,0.6,2.5,4.6,12.0
12,Greg Anthony\anthogr01,PG,27,NYK,61,2,943,4.9,11.2,.437,2.1,5.9,.361,2.7,5.3,.522,2.3,2.9,.789,0.3,2.2,2.4,6.1,1.9,0.3,2.2,3.8,14.2
13,B.J. Armstrong\armstbj01,PG,27,CHI,82,82,2577,5.8,12.5,.468,1.5,3.5,.427,4.3,9.0,.484,2.9,3.3,.884,0.3,2.2,2.6,3.4,1.2,0.1,1.4,2.2,16.1
14,Darrell Armstrong\armstda01,PG,26,ORL,3,0,8,13.5,36.0,.375,9.0,27.0,.333,4.5,9.0,.500,9.0,9.0,1.000,4.5,0.0,4.5,13.5,4.5,0.0,4.5,13.5,45.0
15,Vincent Askew\askewvi01,SG,28,SEA,71,1,1721,5.2,10.5,.492,0.6,2.0,.330,4.5,8.6,.529,3.7,5.0,.739,1.4,2.4,3.8,3.7,1.0,0.3,1.8,4.0,14.7
16,Keith Askins\askinke01,SF,27,MIA,50,5,854,3.4,8.7,.391,0.9,3.3,.269,2.5,5.4,.465,1.9,2.4,.807,3.6,4.7,8.3,1.6,1.5,0.7,1.1,4.6,9.7
17,Stacey Augmon\augmost01,SG,26,ATL,76,76,2362,6.1,13.4,.453,0.1,0.4,.269,5.9,13.0,.459,3.8,5.3,.728,2.4,3.2,5.6,3.0,1.5,0.7,2.3,2.5,16.0
18,Anthony Avent\aventan01,PF,25,ORL,71,3,1066,3.5,8.2,.430,0.0,0.0,,3.5,8.2,.430,1.6,2.5,.640,3.3,6.6,9.9,1.4,0.9,1.7,1.8,5.7,8.7
19,Vin Baker\bakervi01,PF,23,MIL,82,82,3361,6.4,13.2,.483,0.1,0.3,.292,6.3,12.9,.487,2.7,4.6,.593,3.1,6.0,9.1,3.2,0.9,1.2,2.4,3.0,15.5
20,Charles Barkley*\barklch01,PF,31,PHO,68,66,2382,8.4,17.2,.486,1.1,3.3,.338,7.3,13.9,.521,5.7,7.7,.748,3.1,8.4,11.4,4.2,1.7,0.7,2.3,3.0,23.6
21,Dana Barros\barroda01,PG,27,PHI,82,82,3318,6.2,12.6,.490,2.1,4.6,.464,4.1,8.0,.505,3.8,4.2,.899,0.3,2.7,3.0,6.7,1.6,0.0,2.6,1.7,18.3
22,Jon Barry\barryjo01,SG,25,MIL,52,0,602,3.4,8.0,.425,1.0,2.9,.333,2.5,5.1,.477,3.6,4.8,.763,0.9,2.0,2.9,5.1,1.8,0.2,2.5,3.2,11.4
23,John Battle\battljo01,SG,32,CLE,28,0,280,5.5,14.7,.377,1.4,4.0,.355,4.1,10.7,.386,2.4,3.3,.731,0.4,1.0,1.4,4.8,1.0,0.1,2.2,3.6,14.9
24,Sergei Bazarevich\bazarse01,PG,29,ATL,10,0,74,5.4,10.7,.500,0.5,2.9,.167,4.9,7.8,.625,3.4,4.4,.778,0.5,2.9,3.4,6.8,0.5,0.5,3.4,4.9,14.6
25,Benoit Benjamin\benjabe01,C,30,NJN,61,57,1598,6.1,12.0,.510,0.0,0.0,,6.1,12.0,.510,3.0,3.9,.760,2.1,7.8,9.9,0.9,0.5,1.4,2.8,3.4,15.2
26,Elmer Bennett\benneel01,PG,24,CLE,4,0,18,12.0,22.0,.545,0.0,4.0,.000,12.0,18.0,.667,6.0,8.0,.750,0.0,2.0,2.0,6.0,8.0,0.0,6.0,6.0,30.0
27,Tony Bennett\benneto01,PG,25,CHH,3,0,46,4.7,10.2,.462,1.6,7.0,.222,3.1,3.1,1.000,0.0,0.0,,0.0,1.6,1.6,3.1,0.0,0.0,2.3,4.7,11.0
28,David Benoit\benoida01,SF,26,UTA,71,67,1841,5.6,11.5,.486,0.7,2.2,.330,4.8,9.2,.523,2.6,3.1,.841,1.9,5.3,7.2,1.1,0.9,0.9,1.5,3.6,14.5
29,James Blackwell\blackja01,PG,26,TOT,13,0,80,3.6,5.9,.615,0.0,0.0,,3.6,5.9,.615,0.9,1.4,.667,0.9,4.1,5.0,5.0,1.8,0.0,2.3,3.6,8.1
29,James Blackwell\blackja01,PG,26,CHH,4,0,19,3.8,5.7,.667,0.0,0.0,,3.8,5.7,.667,0.0,0.0,,0.0,5.7,5.7,9.5,1.9,0.0,3.8,1.9,7.6
29,James Blackwell\blackja01,PG,26,BOS,9,0,61,3.5,5.9,.600,0.0,0.0,,3.5,5.9,.600,1.2,1.8,.667,1.2,3.5,4.7,3.5,1.8,0.0,1.8,4.1,8.3
30,Mookie Blaylock\blaylmo01,PG,27,ATL,80,80,3069,6.0,14.1,.425,2.3,6.5,.359,3.6,7.5,.482,1.8,2.5,.729,1.4,3.2,4.6,7.2,2.3,0.3,2.8,1.9,16.1
31,Corie Blount\blounco01,PF,26,CHI,68,9,889,4.0,8.5,.476,0.0,0.1,.000,4.0,8.4,.481,1.5,2.7,.567,4.3,5.4,9.7,2.4,1.1,1.3,2.4,5.9,9.6
32,Muggsy Bogues\boguemu01,PG,30,CHH,78,78,2629,4.8,10.0,.477,0.1,0.4,.200,4.7,9.6,.489,2.2,2.5,.889,0.7,2.8,3.5,9.2,1.4,0.0,1.8,2.1,11.8
33,Manute Bol\bolma01,C,32,GSW,5,2,81,2.7,4.4,.600,1.3,2.2,.600,1.3,2.2,.600,0.0,0.0,,0.4,4.9,5.3,0.0,0.0,4.0,0.4,4.4,6.7
34,Walter Bond\bondwa01,SG,25,TOT,23,0,290,4.8,10.4,.464,1.9,5.1,.366,3.0,5.3,.558,1.7,2.5,.700,1.0,3.0,4.0,3.0,0.7,0.5,2.1,5.8,13.3
34,Walter Bond\bondwa01,SG,25,DET,5,0,51,2.1,8.5,.250,0.7,2.8,.250,1.4,5.6,.250,2.1,2.8,.750,0.7,2.8,3.5,4.9,0.7,0.0,2.1,7.1,7.1
34,Walter Bond\bondwa01,SG,25,UTA,18,0,239,5.4,10.8,.500,2.1,5.6,.378,3.3,5.3,.629,1.7,2.4,.688,1.1,3.0,4.1,2.6,0.8,0.6,2.1,5.6,14.6
35,Anthony Bonner\bonnean01,PF,26,NYK,58,23,1126,2.8,6.2,.456,0.0,0.2,.200,2.8,6.0,.463,1.4,2.1,.657,3.6,4.8,8.4,2.6,1.5,0.7,2.5,5.1,7.1
36,Anthony Bowie\bowiean01,SG,31,ORL,77,4,1261,5.1,10.5,.480,0.3,1.1,.300,4.7,9.4,.502,1.7,2.1,.836,1.5,2.4,4.0,4.5,1.3,0.6,2.5,3.9,12.2
37,Sam Bowie\bowiesa01,C,33,LAL,67,10,1225,3.5,7.8,.442,0.1,0.3,.182,3.4,7.5,.453,2.0,2.6,.764,2.1,6.3,8.5,3.5,0.6,2.4,2.7,5.3,9.0
38,Shawn Bradley\bradlsh01,C,22,PHI,82,59,2365,4.8,10.5,.455,0.0,0.0,.000,4.8,10.5,.457,2.3,3.5,.638,3.7,6.3,10.0,0.8,0.8,4.2,2.2,5.1,11.8
39,Terrell Brandon\brandte01,PG,24,CLE,67,41,1961,6.3,14.0,.448,0.9,2.2,.397,5.4,11.8,.457,2.9,3.4,.855,0.6,2.8,3.4,6.7,2.0,0.3,2.6,2.2,16.3
40,Tim Breaux\breauti01,SF,24,HOU,42,2,340,4.8,12.8,.372,0.6,2.6,.240,4.1,10.2,.406,3.4,5.2,.653,1.7,1.9,3.6,1.6,1.2,0.4,1.7,2.6,13.6
41,Scott Brooks\brooksc01,PG,29,TOT,59,0,808,5.6,12.3,.458,1.1,3.1,.362,4.5,9.2,.490,2.9,3.5,.810,0.6,2.3,2.9,5.2,1.5,0.2,2.1,2.5,15.2
41,Scott Brooks\brooksc01,PG,29,HOU,28,0,186,6.8,12.6,.538,1.5,3.3,.471,5.2,9.3,.563,3.5,4.1,.857,0.2,2.3,2.5,4.3,1.5,0.2,2.7,2.7,18.6
41,Scott Brooks\brooksc01,PG,29,DAL,31,0,622,5.3,12.2,.433,1.0,3.0,.327,4.3,9.1,.468,2.7,3.4,.793,0.8,2.3,3.1,5.4,1.5,0.2,1.9,2.4,14.2
42,Chucky Brown\brownch01,SF,26,HOU,41,14,814,4.6,7.7,.603,0.0,0.1,.333,4.6,7.6,.608,1.7,2.7,.613,2.8,5.5,8.4,1.3,0.5,0.6,1.3,4.6,11.0
43,Dee Brown\brownde01,SG,26,BOS,79,69,2792,5.6,12.6,.447,1.6,4.2,.385,4.0,8.4,.478,3.0,3.6,.852,0.8,2.4,3.2,3.9,1.4,0.6,1.9,2.3,15.9
44,Mike Brown\brownmi01,C,31,MIN,27,0,213,1.7,6.8,.250,0.0,0.2,.000,1.7,6.6,.256,2.5,4.6,.556,1.5,6.1,7.6,1.7,1.2,0.0,2.7,5.9,5.9
45,P.J. Brown\brownpj01,C,25,NJN,80,63,2466,3.7,8.3,.446,0.1,0.4,.167,3.6,8.0,.458,2.0,3.0,.671,2.6,4.5,7.1,2.0,1.0,2.0,1.2,3.8,9.5
46,Randy Brown\brownra02,PG,26,SAC,67,2,1086,4.1,9.5,.432,0.5,1.6,.298,3.6,8.0,.458,1.8,2.7,.671,0.8,2.8,3.6,4.4,3.3,0.6,2.6,5.1,10.5
47,Mark Bryant\bryanma01,PF,29,POR,49,0,658,5.5,10.5,.526,0.1,0.1,.500,5.5,10.4,.526,2.2,3.4,.651,3.0,5.8,8.8,1.5,1.0,0.9,2.1,6.0,13.3
48,Jud Buechler\buechju01,SF,26,CHI,57,0,605,5.4,10.9,.492,0.9,2.9,.313,4.5,8.0,.556,1.3,2.3,.564,2.1,3.7,5.8,3.0,1.4,0.7,1.8,3.8,12.9
49,Scott Burrell\burresc01,SF,24,CHH,65,62,2014,5.0,10.6,.467,1.7,4.2,.409,3.2,6.4,.506,1.8,2.6,.694,1.7,4.9,6.6,2.9,1.3,0.7,1.5,3.3,13.4
50,Willie Burton\burtowi01,SF,26,PHI,53,31,1564,5.6,13.9,.401,2.4,6.3,.385,3.2,7.6,.414,5.1,6.1,.824,1.1,2.6,3.8,2.2,0.7,0.4,2.8,3.8,18.7
51,Mitchell Butler\butlemi02,SG,24,WSB,76,5,1554,5.0,11.8,.421,1.1,3.3,.326,3.9,8.5,.458,2.8,4.3,.665,1.0,2.9,3.9,2.1,1.4,0.2,2.5,3.6,13.8
52,Michael Cage\cagemi01,C,33,CLE,82,21,2040,3.1,6.0,.521,0.0,0.0,.000,3.1,6.0,.524,0.9,1.6,.602,3.6,6.4,10.0,1.0,1.1,1.2,1.0,2.6,7.2
53,Adrian Caldwell\caldwad01,PF,28,HOU,7,0,30,1.2,4.8,.250,0.0,0.0,,1.2,4.8,.250,3.6,7.2,.500,1.2,10.8,12.0,0.0,1.2,0.0,1.2,7.2,6.0
54,Elden Campbell\campbel01,PF,26,LAL,73,59,2076,6.2,13.6,.459,0.0,0.0,.000,6.2,13.6,.459,3.3,5.0,.666,2.9,4.8,7.7,1.6,1.2,2.3,1.7,4.3,15.8
55,Tony Campbell\campbto01,SF,32,CLE,78,0,1128,5.1,12.5,.411,0.5,1.3,.357,4.7,11.2,.417,4.2,5.1,.830,1.9,3.0,4.9,2.2,1.0,0.3,2.1,3.9,15.0
56,Antoine Carr\carran01,C,33,UTA,78,4,1677,6.2,11.7,.531,0.0,0.1,.250,6.2,11.6,.533,3.5,4.3,.821,1.7,3.9,5.7,1.4,0.5,1.5,1.9,5.4,16.0
57,Bill Cartwright\cartwbi01,C,37,SEA,29,19,430,2.3,5.8,.391,0.0,0.0,,2.3,5.8,.391,1.3,2.0,.625,2.1,5.2,7.3,0.8,0.5,0.3,1.5,5.9,5.8
58,Sam Cassell\cassesa01,PG,25,HOU,82,1,1882,4.8,11.3,.427,1.2,3.7,.330,3.6,7.7,.473,4.1,4.9,.843,0.7,3.3,4.0,7.7,1.8,0.3,3.2,4.0,15.0
59,Duane Causwell\causwdu01,C,26,SAC,58,24,820,3.3,6.5,.517,0.0,0.0,.000,3.3,6.4,.521,2.5,4.3,.582,2.5,5.1,7.6,0.7,0.6,3.5,1.4,6.4,9.2
60,Cedric Ceballos\cebalce01,SF,25,LAL,58,54,2029,8.8,17.3,.509,1.0,2.6,.397,7.8,14.7,.528,3.7,5.2,.716,3.0,5.2,8.2,1.9,1.1,0.3,2.5,2.3,22.4
61,Tom Chambers\chambto01,PF,35,UTA,81,4,1240,5.7,12.4,.457,0.1,0.7,.167,5.5,11.7,.474,3.2,3.9,.807,1.9,4.3,6.2,2.1,0.7,0.9,1.5,5.0,14.6
62,Rex Chapman\chapmre01,SG,27,WSB,45,29,1468,6.2,15.7,.397,2.1,6.7,.314,4.1,9.0,.460,3.4,3.9,.862,0.6,2.2,2.8,3.1,1.6,0.4,1.5,2.1,17.9
63,Calbert Cheaney\cheanca01,SG,23,WSB,78,71,2651,7.0,15.3,.453,1.3,3.8,.339,5.6,11.5,.492,2.3,2.9,.812,1.4,2.9,4.4,2.4,1.1,0.3,2.1,2.9,17.6
64,Pete Chilcutt\chilcpe01,PF,26,HOU,68,17,1347,3.9,8.8,.445,0.9,2.3,.407,3.0,6.5,.459,0.8,1.1,.738,2.8,5.6,8.5,1.8,0.7,1.1,1.6,3.1,9.6
65,Chris Childs\childch01,PG,27,NJN,53,11,1021,3.7,9.8,.380,1.4,4.4,.328,2.3,5.4,.422,1.9,2.6,.753,0.5,1.9,2.4,7.7,1.5,0.1,2.7,4.1,10.9
66,Doug Christie\chrisdo01,SG,24,NYK,12,0,79,2.3,10.0,.227,0.5,3.2,.143,1.8,6.8,.267,1.8,2.3,.800,1.4,4.6,5.9,3.6,0.9,0.5,5.9,8.2,6.8
67,Derrick Coleman\colemde01,PF,27,NJN,56,54,2103,6.4,15.0,.424,0.5,2.1,.233,5.9,12.9,.454,6.4,8.4,.767,2.9,7.3,10.1,3.2,0.6,1.6,2.9,2.8,19.6
68,Bimbo Coles\colesbi01,PG,26,MIA,68,65,2207,4.3,9.9,.430,0.3,1.2,.211,4.0,8.7,.461,2.3,2.8,.810,0.8,2.4,3.1,6.8,1.6,0.2,2.5,3.0,11.1
69,Steve Colter\coltest01,PG,32,CLE,57,7,752,3.2,8.1,.396,0.4,1.7,.229,2.8,6.4,.440,2.6,3.4,.761,0.6,2.2,2.8,4.8,1.4,0.3,1.7,2.5,9.4
70,Marty Conlon\conloma01,C,27,MIL,82,3,2064,6.0,11.3,.532,0.1,0.5,.276,5.9,10.8,.544,2.1,3.4,.613,2.8,4.6,7.4,1.9,0.7,0.3,2.1,3.8,14.2
71,Lester Conner\connele01,SG,35,LAL,2,0,5,0.0,0.0,,0.0,0.0,,0.0,0.0,,14.4,14.4,1.000,0.0,0.0,0.0,0.0,7.2,0.0,0.0,21.6,14.4
72,Tyrone Corbin\corbity01,SF,32,ATL,81,4,1389,5.3,12.0,.442,0.4,1.5,.250,5.0,10.6,.468,2.0,3.0,.684,2.5,4.3,6.8,1.7,1.4,0.4,1.9,4.2,13.0
73,John Crotty\crottjo01,PG,25,UTA,80,0,1019,3.3,8.2,.403,0.4,1.3,.306,2.9,6.9,.421,3.5,4.3,.810,1.0,2.5,3.4,7.2,1.4,0.2,2.5,3.7,10.4
74,Corey Crowder\crowdco01,SF,25,SAS,7,0,29,2.5,12.4,.200,0.0,5.0,.000,2.5,7.4,.333,2.5,7.4,.333,1.2,2.5,3.7,1.2,1.2,0.0,2.5,1.2,7.4
75,Terry Cummings\cummite01,PF,33,SAS,76,20,1273,6.3,13.1,.483,0.0,0.0,,6.3,13.1,.483,2.0,3.5,.585,3.9,6.8,10.7,1.7,1.0,0.5,2.7,5.3,14.7
76,Bill Curley\curlebi01,PF,22,DET,53,1,595,3.5,8.1,.433,0.0,0.0,,3.5,8.1,.433,1.6,2.2,.750,3.3,4.2,7.5,1.5,1.3,1.3,1.5,7.7,8.7
77,Dell Curry\curryde01,SG,30,CHH,69,0,1718,7.2,16.3,.441,3.2,7.6,.427,4.0,8.7,.453,2.0,2.3,.856,0.9,2.7,3.5,2.4,1.2,0.4,2.1,3.0,19.6
78,Lloyd Daniels\daniell01,SG,27,TOT,30,14,604,4.8,12.5,.383,1.5,6.0,.260,3.2,6.5,.495,1.3,1.6,.815,1.7,2.0,3.8,2.4,1.3,0.6,1.8,2.9,12.4
78,Lloyd Daniels\daniell01,SG,27,PHI,5,0,63,5.1,15.4,.333,1.7,8.0,.214,3.4,7.4,.462,1.1,1.1,1.000,1.1,2.9,4.0,2.3,1.1,0.0,4.6,4.6,13.1
78,Lloyd Daniels\daniell01,SG,27,LAL,25,14,541,4.7,12.1,.390,1.5,5.7,.267,3.2,6.4,.500,1.3,1.7,.800,1.8,1.9,3.7,2.4,1.3,0.7,1.5,2.7,12.3
79,Yinka Dare\dareyi01,C,22,NJN,1,0,3,0.0,12.0,.000,0.0,0.0,,0.0,12.0,.000,0.0,0.0,,0.0,12.0,12.0,0.0,0.0,0.0,12.0,24.0,0.0
80,Antonio Davis\davisan01,PF,26,IND,44,1,1030,3.8,8.6,.445,0.0,0.0,,3.8,8.6,.445,4.1,6.1,.672,3.7,6.1,9.8,0.9,0.7,1.0,2.2,4.7,11.7
81,Dale Davis\davisda01,PF,25,IND,74,70,2346,5.0,8.8,.563,0.0,0.0,.000,5.0,8.8,.563,2.1,4.0,.533,4.0,6.7,10.7,0.9,1.1,1.8,1.9,3.4,12.1
82,Hubert Davis\davishu01,SG,24,NYK,82,4,1697,6.3,13.1,.480,2.8,6.1,.455,3.5,7.0,.502,2.1,2.5,.808,0.6,1.7,2.3,3.2,0.7,0.2,1.8,3.1,17.4
83,Terry Davis\daviste01,PF,27,DAL,46,2,580,3.0,7.0,.434,0.0,0.1,.000,3.0,6.9,.441,2.6,4.1,.636,3.9,5.8,9.7,0.6,0.4,0.2,1.9,4.7,8.7
84,Johnny Dawkins\dawkijo01,PG,31,DET,50,9,1170,3.8,8.3,.463,0.8,2.2,.342,3.1,6.1,.508,1.5,1.7,.909,0.9,2.6,3.5,6.3,1.6,0.0,2.6,2.3,10.0
85,Tony Dawson\dawsoto01,SF,27,BOS,2,0,13,8.3,22.2,.375,2.8,8.3,.333,5.5,13.8,.400,2.8,2.8,1.000,0.0,8.3,8.3,2.8,0.0,0.0,5.5,11.1,22.2
86,Todd Day\dayto01,SG,25,MIL,82,81,2717,5.9,13.9,.424,2.2,5.5,.390,3.7,8.4,.447,3.4,4.5,.754,1.3,3.0,4.3,1.8,1.4,0.8,2.1,3.7,17.4
87,Terry Dehere\deherte01,PG,23,LAC,80,28,1774,5.7,13.9,.407,1.0,3.3,.294,4.7,10.6,.443,4.6,5.9,.784,0.7,2.4,3.1,4.6,0.9,0.1,3.2,4.1,16.9
88,Vinny Del Negro\delnevi01,SG,28,SAS,75,71,2360,5.7,11.7,.486,1.0,2.5,.407,4.7,9.2,.507,2.0,2.5,.790,0.4,2.5,2.9,3.4,0.9,0.2,0.9,2.7,14.3
89,Bison Dele\delebi01,C,25,DEN,63,10,1261,5.6,9.5,.589,0.0,0.0,,5.6,9.5,.589,3.0,4.6,.654,2.8,5.7,8.5,1.5,1.1,1.2,3.3,6.0,14.2
90,Vlade Divac*\divacvl01,C,26,LAL,80,80,2807,6.2,12.3,.507,0.1,0.7,.189,6.1,11.6,.525,3.8,4.9,.777,3.3,7.3,10.6,4.2,1.4,2.2,2.6,3.9,16.4
91,James Donaldson\donalja01,C,37,UTA,43,40,613,2.6,4.3,.595,0.0,0.0,,2.6,4.3,.595,1.3,1.8,.710,1.1,5.2,6.3,0.8,0.4,1.6,1.3,3.9,6.5
92,Sherman Douglas\douglsh01,PG,28,BOS,65,43,2048,6.4,13.5,.475,0.4,1.4,.244,6.1,12.1,.502,3.6,5.2,.689,0.8,2.1,3.0,7.8,1.4,0.0,2.8,2.7,16.8
93,Greg Dreiling\dreilgr01,C,32,CLE,58,3,483,3.1,7.6,.412,0.0,0.0,,3.1,7.6,.412,1.9,3.1,.634,2.4,6.3,8.6,1.6,0.4,1.6,1.9,8.0,8.2
94,Clyde Drexler*\drexlcl01,SG,32,TOT,76,75,2728,7.5,16.3,.461,1.9,5.4,.360,5.6,11.0,.511,4.8,5.8,.824,2.0,4.3,6.3,4.8,1.8,0.6,2.5,2.7,21.8
94,Clyde Drexler*\drexlcl01,SG,32,POR,41,41,1428,7.7,17.9,.428,2.2,6.1,.363,5.5,11.9,.462,5.2,6.3,.835,2.1,3.8,5.9,5.2,1.9,0.6,2.4,2.9,22.8
94,Clyde Drexler*\drexlcl01,SG,32,HOU,35,34,1300,7.4,14.6,.506,1.7,4.7,.357,5.7,9.9,.575,4.3,5.4,.809,1.9,4.9,6.8,4.3,1.7,0.6,2.5,2.5,20.7
95,Kevin Duckworth\duckwke01,C,30,WSB,40,22,818,5.2,11.8,.442,0.1,0.4,.200,5.1,11.3,.451,2.0,3.1,.643,2.9,5.7,8.6,0.9,0.9,1.1,2.6,4.8,12.5
96,Chris Dudley\dudlech02,C,29,POR,82,82,2245,2.9,7.2,.406,0.0,0.0,.000,2.9,7.1,.407,1.4,2.9,.464,5.2,7.0,12.3,0.5,0.7,2.0,1.3,4.6,7.2
97,Joe Dumars*\dumarjo01,SG,31,DET,67,67,2544,5.9,13.7,.430,1.5,4.8,.305,4.4,8.9,.497,3.9,4.9,.805,0.7,1.6,2.2,5.2,1.0,0.1,3.1,2.2,17.2
98,Richard Dumas\dumasri02,SF,25,PHO,15,1,167,8.0,15.7,.507,0.0,0.2,.000,8.0,15.5,.514,1.7,3.4,.500,3.9,2.4,6.3,1.5,2.2,0.4,1.9,4.7,17.7
99,Tony Dumas\dumasto01,SG,22,DAL,58,0,613,5.6,14.7,.384,1.3,4.3,.301,4.3,10.4,.418,2.9,4.5,.649,1.9,1.8,3.6,3.3,0.8,0.2,2.9,4.6,15.5
100,Pat Durham\durhapa01,SF,27,MIN,59,2,852,4.9,10.0,.494,0.2,1.1,.192,4.7,8.9,.531,2.7,4.1,.656,1.6,2.4,4.0,2.2,1.5,1.4,1.9,4.8,12.8
101,Ledell Eackles\eacklle01,SG,28,MIA,54,6,898,5.7,13.1,.439,0.7,1.6,.439,5.0,11.4,.439,3.6,5.1,.722,1.3,2.5,3.8,2.9,0.8,0.1,2.1,3.5,15.8
102,Acie Earl\earlac01,C,24,BOS,30,3,208,4.5,11.8,.382,0.0,0.0,,4.5,11.8,.382,2.4,5.0,.483,3.3,4.5,7.8,0.3,1.0,1.4,2.4,6.8,11.4
103,Blue Edwards\edwarbl01,SF,29,TOT,67,7,1112,5.9,12.7,.461,0.7,2.4,.293,5.1,10.3,.500,2.4,2.9,.833,1.6,2.6,4.2,2.5,1.4,0.5,2.6,4.6,14.9
103,Blue Edwards\edwarbl01,SF,29,BOS,31,7,507,5.9,13.8,.426,0.8,3.1,.256,5.1,10.8,.474,3.1,3.4,.896,1.8,2.8,4.6,3.3,1.3,0.7,2.8,4.5,15.6
103,Blue Edwards\edwarbl01,SF,29,UTA,36,0,605,5.8,11.8,.495,0.7,1.9,.344,5.2,9.9,.524,1.9,2.5,.762,1.5,2.4,3.9,1.8,1.4,0.4,2.5,4.7,14.2
104,Doug Edwards\edwardo01,PF,24,ATL,38,0,212,3.7,8.2,.458,0.0,0.2,.000,3.7,8.0,.468,3.9,5.4,.719,3.2,4.9,8.2,2.2,0.8,0.7,3.7,5.1,11.4
105,James Edwards\edwarja01,C,39,POR,28,0,266,4.3,11.2,.386,0.0,0.0,,4.3,11.2,.386,1.5,2.3,.647,1.4,4.5,5.8,1.1,0.7,1.1,1.9,6.0,10.2
106,Kevin Edwards\edwarke01,SG,29,NJN,14,14,466,5.3,11.9,.448,1.4,3.5,.400,3.9,8.4,.468,3.1,3.2,.952,0.8,2.1,2.9,2.1,1.5,0.4,2.7,3.2,15.1
107,Craig Ehlo\ehlocr01,SG,33,ATL,49,0,1166,5.9,13.0,.453,1.6,4.1,.381,4.3,8.9,.486,1.4,2.2,.620,1.7,2.8,4.5,3.5,1.4,0.2,2.3,2.7,14.7
108,Howard Eisley\eisleho01,PG,22,TOT,49,4,552,2.6,8.0,.328,0.6,2.4,.243,2.0,5.5,.365,2.0,2.6,.775,0.8,2.3,3.1,6.2,1.2,0.4,3.3,5.3,7.8
108,Howard Eisley\eisleho01,PG,22,MIN,34,4,496,2.7,7.6,.352,0.6,2.3,.250,2.1,5.3,.397,2.3,2.9,.775,0.7,2.3,3.0,5.6,1.3,0.4,3.0,5.7,8.2
108,Howard Eisley\eisleho01,PG,22,SAS,15,0,56,1.9,10.9,.176,0.6,3.2,.200,1.3,7.7,.167,0.0,0.0,,1.3,2.6,3.9,11.6,0.0,0.6,5.1,1.9,4.5
109,Mario Elie\eliema01,SF,31,HOU,81,13,1896,4.6,9.2,.499,1.5,3.8,.398,3.1,5.4,.570,2.7,3.2,.842,0.9,2.8,3.7,3.6,1.2,0.2,2.0,3.0,13.5
110,Sean Elliott\elliose01,SF,26,SAS,81,81,2858,6.3,13.5,.468,1.7,4.2,.408,4.6,9.3,.495,4.1,5.1,.807,0.8,2.8,3.6,2.6,1.0,0.5,1.9,2.7,18.5
111,Dale Ellis\ellisda01,SF,34,DEN,81,3,1996,6.3,14.0,.453,1.9,4.7,.403,4.4,9.2,.479,2.0,2.3,.866,1.0,3.0,4.0,1.0,0.7,0.2,1.5,2.6,16.6
112,Harold Ellis\ellisha01,SF,24,LAC,69,7,656,5.0,10.4,.481,0.1,0.7,.077,4.9,9.7,.511,3.8,6.4,.590,3.1,1.8,4.8,2.2,3.7,0.7,2.7,5.6,13.8
113,LaPhonso Ellis\ellisla01,PF,24,DEN,6,0,58,5.6,15.5,.360,0.0,0.0,,5.6,15.5,.360,3.7,3.7,1.000,4.3,6.2,10.6,2.5,0.6,3.1,3.1,7.4,14.9
114,Pervis Ellison\ellispe01,C,27,BOS,55,11,1083,5.1,10.0,.507,0.0,0.1,.000,5.1,9.9,.510,2.4,3.3,.717,4.1,6.1,10.3,1.1,0.7,1.8,2.5,6.0,12.5
115,Jo Jo English\englijo01,SG,24,CHI,8,0,127,4.3,11.1,.385,0.9,3.4,.250,3.4,7.7,.444,2.8,3.7,.769,0.3,0.6,0.9,2.0,2.0,0.3,1.7,5.4,12.2
116,Patrick Ewing*\ewingpa01,C,32,NYK,79,79,2920,9.0,17.9,.503,0.1,0.3,.286,8.9,17.6,.506,5.2,6.9,.750,1.9,8.8,10.7,2.6,0.8,2.0,3.2,3.4,23.3
117,Duane Ferrell\ferredu01,SF,29,IND,56,1,607,4.9,10.3,.480,0.1,0.4,.167,4.9,9.9,.491,3.8,5.0,.753,3.0,2.3,5.2,1.8,1.5,0.4,2.6,4.7,13.7
118,Danny Ferry\ferryda01,PF,28,CLE,82,6,1290,6.2,14.0,.446,2.6,6.5,.403,3.6,7.5,.483,2.1,2.3,.881,0.8,3.2,4.0,2.7,0.8,0.6,1.6,3.7,17.1
119,Matt Fish\fishma01,C,25,LAC,26,8,370,4.8,10.0,.476,0.0,0.1,.000,4.8,9.9,.480,2.4,3.6,.676,3.1,5.1,8.2,1.7,1.6,0.7,2.7,6.8,12.0
120,Vern Fleming\flemive01,PG,32,IND,55,1,686,4.9,9.9,.495,0.0,0.4,.000,4.9,9.5,.514,3.4,4.7,.722,1.0,3.6,4.6,5.7,1.4,0.1,2.3,4.2,13.2
121,Sleepy Floyd\floydsl01,SG,34,NJN,48,1,831,3.1,9.2,.335,1.1,3.8,.284,2.0,5.4,.371,1.3,1.9,.698,0.3,2.0,2.3,5.5,0.6,0.3,2.2,3.2,8.5
122,Alphonso Ford\fordal01,SG,23,PHI,5,0,98,3.3,14.3,.231,0.0,3.3,.000,3.3,11.0,.300,0.4,0.7,.500,2.9,4.4,7.3,3.3,0.4,0.0,2.9,1.8,7.0
123,Greg Foster\fostegr01,PF,26,TOT,78,3,1144,4.7,10.0,.472,0.2,0.7,.304,4.5,9.3,.485,2.5,3.5,.703,2.7,5.5,8.2,1.2,0.5,0.9,2.2,5.8,12.1
123,Greg Foster\fostegr01,PF,26,CHI,17,3,299,4.9,10.4,.477,0.0,0.0,,4.9,10.4,.477,2.6,3.7,.710,2.2,4.3,6.5,1.9,0.2,1.0,2.0,6.5,12.5
123,Greg Foster\fostegr01,PF,26,MIN,61,0,845,4.6,9.9,.470,0.3,1.0,.304,4.3,8.9,.488,2.4,3.4,.700,2.9,5.9,8.7,1.0,0.6,0.9,2.3,5.5,12.0
124,Rick Fox\foxri01,SF,25,BOS,53,7,1039,5.9,12.2,.481,1.1,2.6,.413,4.8,9.6,.500,3.3,4.3,.772,2.1,3.3,5.4,4.8,1.8,0.7,2.7,5.3,16.1
125,Corey Gaines\gaineco01,SG,29,PHI,11,8,280,3.1,6.6,.471,0.3,1.9,.133,2.8,4.6,.611,0.6,1.4,.455,0.1,2.2,2.3,4.2,1.0,0.1,1.8,3.0,7.1
126,Kevin Gamble\gamblke01,SF,29,MIA,77,0,1223,6.5,13.2,.489,1.1,2.9,.398,5.3,10.4,.514,2.6,3.3,.784,0.9,2.7,3.6,3.5,1.5,0.3,1.4,3.8,16.7
127,Winston Garland\garlawi01,PG,30,MIN,73,58,1931,3.2,7.6,.415,0.4,1.4,.253,2.8,6.2,.451,1.7,2.1,.795,0.9,2.2,3.1,5.9,1.3,0.2,2.0,3.4,8.4
128,Chris Gatling\gatlich01,PF,27,GSW,58,22,1470,7.9,12.5,.633,0.0,0.0,.000,7.9,12.5,.634,3.6,6.1,.592,3.5,7.3,10.8,1.2,1.0,1.3,2.9,4.5,19.5
129,Kenny Gattison\gattike01,PF,30,CHH,21,0,409,4.1,8.8,.470,0.0,0.1,.000,4.1,8.7,.475,2.7,4.5,.608,1.8,4.8,6.6,1.5,0.6,1.3,1.9,5.6,11.0
130,Matt Geiger\geigema01,C,25,MIA,74,43,1712,5.5,10.2,.536,0.1,0.2,.400,5.4,10.0,.539,2.0,3.0,.650,3.1,5.6,8.7,1.2,0.9,1.1,2.4,5.2,13.0
131,Tate George\georgta01,SG,26,MIL,3,0,8,4.5,13.5,.333,0.0,4.5,.000,4.5,9.0,.500,9.0,9.0,1.000,4.5,0.0,4.5,0.0,0.0,0.0,9.0,4.5,18.0
132,Kendall Gill\gillke01,SG,26,SEA,73,58,2125,6.6,14.5,.457,1.1,2.9,.368,5.6,11.6,.479,2.6,3.5,.742,1.7,3.2,4.9,3.3,2.0,0.5,2.3,3.2,17.0
133,Armen Gilliam\gilliar01,PF,30,NJN,82,30,2472,6.6,13.2,.503,0.0,0.0,.000,6.6,13.2,.504,4.4,5.7,.770,2.8,6.1,8.9,1.4,1.0,1.3,2.2,2.5,17.7
134,Greg Graham\grahagr01,SG,24,PHI,50,7,775,4.4,10.4,.426,0.3,1.3,.214,4.1,9.1,.456,2.6,3.4,.753,0.9,2.0,2.9,3.1,1.3,0.3,2.2,3.5,11.7
135,Ron Grandison\grandro01,PF,30,NYK,2,0,8,4.5,18.0,.250,0.0,0.0,,4.5,18.0,.250,0.0,0.0,,13.5,9.0,22.5,9.0,0.0,0.0,0.0,9.0,9.0
136,Brian Grant\grantbr01,PF,22,SAC,80,59,2289,6.5,12.7,.511,0.0,0.1,.250,6.5,12.7,.512,3.6,5.7,.636,3.3,6.1,9.4,1.6,0.8,1.8,2.6,4.3,16.6
137,Gary Grant\grantga01,PG,29,LAC,33,2,470,6.0,12.7,.470,0.3,1.2,.250,5.7,11.5,.493,3.4,4.2,.818,0.6,2.1,2.7,7.1,2.2,0.2,3.4,5.1,15.7
138,Greg Grant\grantgr01,PG,28,DEN,14,0,151,2.4,7.9,.303,0.5,1.7,.286,1.9,6.2,.308,2.1,2.9,.750,0.5,1.7,2.1,10.3,1.4,0.5,3.3,4.8,7.4
139,Harvey Grant\grantha01,PF,29,POR,75,14,1771,5.8,12.6,.461,0.2,0.5,.308,5.7,12.1,.467,2.1,3.0,.705,2.1,3.7,5.8,1.7,1.1,1.1,1.3,3.3,13.9
140,Horace Grant\grantho01,PF,29,ORL,74,74,2693,5.4,9.5,.567,0.0,0.1,.000,5.4,9.3,.574,2.0,2.8,.692,3.0,6.6,9.6,2.3,1.0,1.2,1.1,2.7,12.7
141,Jeff Grayer\grayeje01,SG,29,PHI,47,25,1098,5.3,12.5,.428,0.2,0.5,.333,5.2,12.0,.432,1.9,2.7,.699,1.9,3.0,4.9,2.4,0.9,0.1,1.8,2.6,12.8
142,A.C. Green\greenac01,SF,31,PHO,82,52,2687,4.2,8.3,.504,0.6,1.7,.339,3.6,6.6,.547,3.4,4.6,.732,2.6,6.4,9.0,1.7,0.7,0.4,1.5,2.0,12.3
143,Tom Gugliotta\guglito01,PF-SF,25,TOT,77,63,2568,5.2,11.7,.443,0.8,2.6,.323,4.4,9.1,.478,2.4,3.5,.690,2.3,5.7,8.0,3.9,1.9,0.9,2.6,2.8,13.7
143,Tom Gugliotta\guglito01,PF,25,WSB,6,6,226,5.3,13.2,.398,0.6,1.3,.500,4.6,11.9,.387,4.1,5.3,.788,2.5,5.9,8.4,2.9,3.3,1.8,2.4,3.0,15.3
143,Tom Gugliotta\guglito01,PF,25,GSW,40,40,1324,4.8,10.8,.443,0.8,2.4,.311,4.0,8.3,.482,1.5,2.6,.567,2.7,5.4,8.1,3.3,1.4,0.6,2.5,2.7,11.8
143,Tom Gugliotta\guglito01,SF,25,MIN,31,17,1018,5.7,12.6,.454,1.0,3.1,.318,4.7,9.5,.498,3.3,4.3,.762,1.7,6.1,7.9,4.9,2.2,1.0,2.9,3.0,15.7
144,Andrés Guibert\guibean01,PF,26,MIN,17,0,167,3.4,10.1,.340,0.0,0.9,.000,3.4,9.3,.372,2.8,4.1,.684,3.4,6.3,9.7,2.2,1.7,0.2,2.6,6.3,9.7
145,Jack Haley\haleyja01,PF,31,SAS,31,0,117,8.0,18.8,.426,0.0,0.3,.000,8.0,18.5,.433,6.5,9.8,.656,2.5,5.8,8.3,0.6,0.9,1.5,4.0,9.5,22.5
146,Geert Hammink\hammige01,C,25,ORL,1,0,7,5.1,15.4,.333,0.0,0.0,,5.1,15.4,.333,10.3,10.3,1.000,0.0,10.3,10.3,5.1,0.0,0.0,0.0,5.1,20.6
147,Tom Hammonds\hammoto01,PF,27,DEN,70,5,956,5.2,9.8,.535,0.0,0.0,.000,5.2,9.8,.537,5.0,6.7,.746,2.1,6.3,8.4,1.4,0.4,0.5,2.1,5.0,15.4
148,Darrin Hancock\hancoda01,SF,23,CHH,46,7,424,5.8,10.3,.562,0.1,0.3,.333,5.7,10.0,.568,1.4,3.3,.410,1.2,3.3,4.5,2.5,1.6,0.3,2.5,4.1,13.0
149,Anfernee Hardaway\hardaan01,PG,23,ORL,77,77,2901,7.3,14.2,.512,1.1,3.1,.349,6.2,11.1,.558,4.4,5.7,.769,1.7,2.4,4.2,6.8,1.6,0.3,3.2,2.0,20.0
150,Tim Hardaway\hardati01,PG,28,GSW,62,62,2321,6.7,15.6,.427,2.6,6.9,.378,4.1,8.7,.465,3.4,4.5,.760,0.7,2.2,2.9,9.0,1.4,0.2,3.3,2.4,19.3
151,Jerome Harmon\harmoje01,SG,25,PHI,10,0,158,4.8,12.1,.396,0.2,0.2,1.000,4.6,11.8,.385,0.7,1.4,.500,2.1,3.2,5.2,2.7,2.1,0.0,1.6,2.7,10.5
152,Derek Harper\harpede01,PG,33,NYK,80,80,2716,4.5,10.0,.446,1.4,3.9,.363,3.1,6.2,.498,1.8,2.5,.724,0.4,2.2,2.6,6.1,1.0,0.1,2.0,2.9,12.2
153,Ron Harper\harpero01,SG,31,CHI,77,53,1536,4.9,11.5,.426,0.7,2.6,.282,4.2,8.9,.467,1.9,3.1,.618,1.2,3.0,4.2,3.7,2.3,0.6,2.3,3.1,12.4
154,Lucious Harris\harrilu01,SG,24,DAL,79,31,1695,5.9,13.0,.459,1.2,3.0,.387,4.8,9.9,.481,2.9,3.6,.800,1.8,2.9,4.7,2.8,1.2,0.3,1.6,2.2,16.0
155,Tony Harris\harrito01,SG,27,BOS,3,0,18,6.0,16.0,.375,0.0,2.0,.000,6.0,14.0,.429,16.0,18.0,.889,0.0,0.0,0.0,0.0,0.0,0.0,2.0,4.0,28.0
156,Antonio Harvey\harvean01,PF,24,LAL,59,8,572,4.8,11.1,.438,0.1,0.1,1.000,4.8,11.0,.434,1.5,2.8,.533,2.5,4.0,6.4,1.4,0.9,2.6,1.6,5.5,11.3
157,Hersey Hawkins\hawkihe01,SG,28,CHH,82,82,2731,5.1,10.7,.482,1.7,3.9,.440,3.4,6.7,.507,3.4,4.0,.867,0.8,3.3,4.1,3.5,1.6,0.2,2.0,2.3,15.4
158,Steve Henson\hensost01,PG,26,POR,37,0,380,3.5,8.1,.430,2.2,4.9,.442,1.3,3.2,.412,2.1,2.4,.880,0.3,2.2,2.5,8.1,0.9,0.0,2.8,4.9,11.3
159,Carl Herrera\herreca01,PF,28,HOU,61,26,1331,4.6,8.8,.523,0.0,0.1,.000,4.6,8.8,.526,2.0,3.2,.624,2.7,4.9,7.5,1.2,1.1,1.0,1.9,3.7,11.2
160,Rod Higgins\higgiro01,SF,35,GSW,5,2,46,2.3,9.4,.250,0.8,4.7,.167,1.6,4.7,.333,2.3,3.1,.750,3.1,2.3,5.5,2.3,0.8,0.8,0.8,5.5,7.8
161,Sean Higgins\higgise01,SF,26,NJN,57,7,735,5.1,13.4,.385,1.1,3.8,.295,4.0,9.6,.421,1.7,2.0,.875,1.2,2.5,3.8,1.4,0.5,0.4,1.7,4.6,13.1
162,Grant Hill*\hillgr01,SF,22,DET,70,69,2678,6.8,14.3,.477,0.1,0.4,.148,6.8,13.9,.486,5.0,6.9,.732,1.7,4.3,6.0,4.7,1.7,0.8,2.7,2.7,18.7
163,Tyrone Hill\hillty01,C,26,CLE,70,67,2397,5.3,10.4,.504,0.0,0.0,.000,5.3,10.4,.505,3.9,6.0,.662,4.0,7.4,11.5,0.8,0.8,0.6,2.3,3.7,14.5
164,Donald Hodge\hodgedo01,C,25,DAL,54,0,633,4.7,11.6,.407,0.2,0.8,.286,4.5,10.8,.416,2.2,2.9,.765,2.3,4.7,6.9,2.3,0.6,0.8,2.2,6.1,11.9
165,Jeff Hornacek\hornaje01,SG,31,UTA,81,81,2696,6.4,12.5,.514,1.2,2.9,.406,5.2,9.6,.547,3.8,4.3,.882,0.7,2.1,2.8,4.6,1.7,0.2,1.9,2.4,17.9
166,Robert Horry\horryro01,PF,24,HOU,64,61,2074,4.2,9.3,.447,1.5,3.9,.379,2.7,5.4,.497,1.5,2.0,.761,1.4,4.2,5.6,3.7,1.6,1.3,2.1,2.8,11.3
167,Allan Houston\houstal01,SG,23,DET,76,39,1996,7.2,15.5,.463,2.8,6.7,.424,4.3,8.8,.494,2.7,3.1,.860,0.5,2.5,3.0,3.0,1.1,0.3,2.0,3.3,19.9
168,Byron Houston\houstby01,PF,25,SEA,39,0,258,6.8,14.9,.458,0.8,3.1,.273,6.0,11.9,.506,3.9,5.3,.737,2.8,4.9,7.7,0.8,1.8,0.7,2.8,7.0,18.4
169,Tom Hovasse\hovasto01,SF,28,ATL,2,0,4,0.0,9.0,.000,0.0,9.0,.000,0.0,0.0,,0.0,0.0,,0.0,0.0,0.0,0.0,9.0,0.0,0.0,9.0,0.0
170,Juwan Howard\howarju01,PF,21,WSB,65,52,2348,7.0,14.3,.489,0.0,0.1,.000,7.0,14.2,.492,3.0,4.5,.664,2.8,5.5,8.4,2.5,0.8,0.2,2.5,3.6,16.9
171,Jay Humphries\humphja01,SG-PG,32,TOT,18,0,201,1.4,6.1,.235,0.4,0.7,.500,1.1,5.4,.200,0.4,0.7,.500,0.7,1.6,2.3,3.4,1.6,0.0,3.0,6.3,3.6
171,Jay Humphries\humphja01,SG,32,UTA,12,0,149,1.0,6.0,.160,0.5,0.7,.667,0.5,5.3,.091,0.0,0.0,,0.5,1.9,2.4,2.2,1.7,0.0,2.9,6.0,2.4
171,Jay Humphries\humphja01,PG,32,BOS,6,0,52,2.8,6.2,.444,0.0,0.7,.000,2.8,5.5,.500,1.4,2.8,.500,1.4,0.7,2.1,6.9,1.4,0.0,3.5,6.9,6.9
172,Lindsey Hunter\hunteli01,PG,24,DET,42,26,944,4.5,12.1,.374,1.4,4.1,.333,3.2,8.0,.395,1.5,2.1,.727,0.9,1.9,2.9,6.1,1.9,0.3,3.0,3.6,12.0
173,Bobby Hurley\hurlebo01,PG,23,SAC,68,6,1105,3.4,9.3,.363,0.7,2.5,.276,2.7,6.8,.394,1.9,2.5,.763,0.5,1.8,2.3,7.4,0.9,0.0,3.6,2.6,9.3
174,Jaren Jackson\jacksja01,SG,27,PHI,21,1,257,3.5,9.5,.368,0.6,2.1,.267,2.9,7.4,.396,2.2,3.4,.667,2.5,3.4,5.9,2.7,1.3,0.7,2.4,4.6,9.8
175,Jim Jackson\jacksji01,SG,24,DAL,51,51,1982,8.8,18.6,.472,0.6,2.0,.318,8.2,16.6,.490,5.6,6.9,.805,2.2,2.5,4.7,3.5,0.5,0.2,2.9,1.7,23.8
176,Mark Jackson\jacksma01,PG,29,IND,82,67,2402,3.6,8.5,.422,0.4,1.3,.310,3.2,7.2,.443,1.8,2.3,.778,1.1,3.5,4.6,9.2,1.6,0.2,3.1,2.2,9.4
177,Keith Jennings\jennike01,PG,26,GSW,80,24,1722,4.0,8.9,.447,1.6,4.3,.368,2.4,4.6,.520,2.8,3.2,.876,0.5,2.6,3.1,7.8,2.0,0.0,2.5,2.8,12.3
178,Avery Johnson\johnsav01,PG,29,SAS,82,82,3011,5.4,10.3,.519,0.0,0.3,.136,5.3,10.1,.529,2.4,3.5,.685,0.6,1.9,2.5,8.0,1.4,0.2,2.5,1.8,13.2
179,Ervin Johnson\johnser02,C,27,SEA,64,30,907,3.4,7.6,.443,0.0,0.0,.000,3.4,7.6,.445,1.2,1.8,.630,4.0,7.5,11.5,0.6,0.7,2.7,2.1,6.5,7.9
180,Kevin Johnson\johnske02,PG,28,PHO,47,35,1352,6.6,13.9,.470,0.1,0.7,.154,6.4,13.2,.487,6.2,7.7,.810,0.9,2.2,3.1,9.6,1.3,0.5,2.8,2.3,19.4
181,Larry Johnson\johnsla02,PF,25,CHH,81,81,3234,6.5,13.6,.480,0.9,2.3,.386,5.6,11.2,.500,3.1,3.9,.774,2.1,4.4,6.5,4.1,0.9,0.3,2.3,1.9,17.0
182,Askia Jones\jonesas01,SG,23,MIN,11,0,139,3.9,11.4,.341,0.5,3.1,.167,3.4,8.3,.406,3.4,4.1,.813,1.6,1.3,2.8,4.1,1.6,0.0,2.3,4.9,11.7
183,Charles Jones\jonesch01,PF,37,HOU,3,0,36,1.0,3.0,.333,0.0,0.0,,1.0,3.0,.333,1.0,2.0,.500,2.0,5.0,7.0,0.0,0.0,1.0,0.0,8.0,3.0
184,Eddie Jones\jonesed02,SG,23,LAL,64,58,1981,6.2,13.5,.460,1.7,4.5,.370,4.6,9.0,.504,2.2,3.1,.722,1.4,3.1,4.5,2.3,2.4,0.7,1.4,3.2,16.3
185,Popeye Jones\jonespo01,PF,24,DAL,80,80,2385,5.6,12.7,.443,0.0,0.2,.083,5.6,12.5,.449,1.2,1.9,.645,5.0,7.8,12.7,2.5,0.5,0.4,1.9,4.0,12.5
186,Michael Jordan*\jordami01,SG,31,CHI,17,17,668,8.9,21.8,.411,0.9,1.7,.500,8.1,20.0,.403,5.9,7.3,.801,1.3,5.0,6.3,4.9,1.6,0.7,1.9,2.5,24.6
187,Adam Keefe\keefead01,SF,24,UTA,75,0,1270,4.9,8.4,.577,0.0,0.0,,4.9,8.4,.577,3.3,4.9,.676,3.8,5.4,9.3,0.9,1.0,0.7,1.8,4.0,13.1
188,Shawn Kemp\kempsh01,PF,25,SEA,82,79,2679,7.3,13.4,.547,0.0,0.1,.286,7.3,13.3,.548,5.9,7.9,.749,4.3,7.7,12.0,2.0,1.4,1.6,3.5,4.5,20.6
189,Steve Kerr\kerrst01,PG,29,CHI,82,0,1839,5.1,9.7,.527,1.7,3.3,.524,3.4,6.4,.529,1.2,1.6,.778,0.4,1.9,2.3,3.0,0.9,0.1,0.9,2.2,13.2
190,Jerome Kersey\kerseje01,SF,32,POR,63,0,1143,6.4,15.4,.415,0.2,0.9,.259,6.2,14.6,.424,3.0,3.9,.766,2.9,5.1,8.1,2.6,1.6,1.1,2.0,5.4,16.0
191,Randolph Keys\keysra01,SF,28,LAL,6,0,83,3.9,11.3,.346,0.0,3.9,.000,3.9,7.4,.529,0.9,0.9,1.000,2.6,4.8,7.4,0.9,0.4,0.9,0.9,6.9,8.7
192,Jason Kidd*\kiddja01,PG,21,DAL,79,79,2668,4.5,11.6,.385,0.9,3.5,.272,3.5,8.1,.433,2.6,3.7,.698,2.1,3.8,5.8,8.2,2.0,0.3,3.4,2.0,12.4
193,Rich King\kingri01,C,25,SEA,2,0,6,0.0,12.0,.000,0.0,0.0,,0.0,12.0,.000,0.0,12.0,.000,0.0,0.0,0.0,0.0,0.0,0.0,0.0,6.0,0.0
194,Stacey King\kingst01,PF,28,MIN,50,10,792,4.5,9.6,.467,0.0,0.0,.000,4.5,9.6,.469,3.1,4.6,.667,2.5,5.0,7.5,1.2,1.1,0.9,2.9,5.7,12.1
195,Greg Kite\kitegr01,C,33,TOT,11,0,77,1.4,7.9,.176,0.0,0.0,,1.4,7.9,.176,0.9,4.7,.200,5.6,4.7,10.3,0.5,0.0,0.0,2.8,7.0,3.7
195,Greg Kite\kitegr01,C,33,NYK,2,0,16,0.0,6.8,.000,0.0,0.0,,0.0,6.8,.000,0.0,0.0,,4.5,4.5,9.0,0.0,0.0,0.0,2.3,4.5,0.0
195,Greg Kite\kitegr01,C,33,IND,9,0,61,1.8,8.3,.214,0.0,0.0,,1.8,8.3,.214,1.2,5.9,.200,5.9,4.7,10.6,0.6,0.0,0.0,3.0,7.7,4.7
196,Joe Kleine\kleinjo01,C,33,PHO,75,42,968,4.4,9.9,.449,0.0,0.1,.000,4.4,9.8,.452,1.6,1.8,.857,3.0,6.6,9.6,1.5,0.5,0.7,1.3,6.5,10.4
197,Negele Knight\knighne01,PG,27,TOT,47,17,708,4.3,10.9,.397,0.6,1.4,.393,3.8,9.5,.398,0.9,1.3,.720,1.1,2.0,3.1,6.5,1.1,0.3,2.5,3.6,10.1
197,Negele Knight\knighne01,PG,27,POR,3,0,43,5.9,12.6,.467,0.0,0.0,,5.9,12.6,.467,3.3,3.3,1.000,0.8,1.7,2.5,9.2,0.8,0.0,3.3,4.2,15.1
197,Negele Knight\knighne01,PG,27,DET,44,17,665,4.2,10.8,.392,0.6,1.5,.393,3.6,9.3,.392,0.8,1.1,.667,1.1,2.1,3.1,6.3,1.1,0.3,2.4,3.5,9.8
198,Jon Koncak\koncajo01,C,31,ATL,62,20,943,2.9,7.1,.412,0.5,1.4,.333,2.5,5.8,.430,0.5,0.9,.542,0.9,6.1,7.0,2.0,1.4,1.8,0.8,5.2,6.8
199,Larry Krystkowiak\krystla01,PF,30,CHI,19,14,287,3.5,9.0,.389,0.0,0.0,,3.5,9.0,.389,3.4,3.8,.900,2.4,5.0,7.4,3.3,1.1,0.3,3.1,4.3,10.4
200,Toni Kukoč\kukocto01,SF,26,CHI,81,55,2584,6.8,13.5,.504,0.9,2.8,.313,5.9,10.7,.553,3.3,4.4,.748,2.2,4.0,6.1,5.2,1.4,0.2,2.3,2.3,17.7
201,Christian Laettner\laettch01,C,25,MIN,81,80,2770,5.8,12.0,.489,0.2,0.5,.325,5.7,11.4,.497,5.3,6.5,.818,2.1,5.8,8.0,3.0,1.3,1.1,2.9,3.9,17.2
202,Andrew Lang\langan01,C,28,ATL,82,63,2340,4.9,10.4,.473,0.0,0.0,.667,4.9,10.4,.472,2.3,2.9,.809,2.4,4.6,7.0,1.1,0.7,2.2,1.7,4.2,12.2
203,Antonio Lang\langan02,SF,22,PHO,12,0,53,2.7,6.8,.400,0.0,0.0,,2.7,6.8,.400,2.0,2.7,.750,2.0,0.7,2.7,0.7,0.0,1.4,3.4,7.5,7.5
204,Eric Leckner\leckner01,C,28,DET,57,11,623,5.0,9.5,.527,0.0,0.1,.000,5.0,9.4,.534,2.9,4.2,.708,2.7,7.3,10.1,0.8,0.9,0.9,2.3,7.0,13.0
205,Doug Lee\leedo01,SG,30,SAC,22,0,75,4.3,12.0,.360,3.4,8.6,.389,1.0,3.4,.286,8.6,10.1,.857,0.0,2.4,2.4,2.4,2.9,1.4,2.4,8.6,20.6
206,Tim Legler\legleti01,SG,28,GSW,24,0,371,5.8,11.2,.522,2.5,4.9,.520,3.3,6.3,.523,2.9,3.3,.882,1.2,2.7,3.9,2.6,1.2,0.1,1.9,3.2,17.1
207,Jim Les\lesji01,PG,31,ATL,24,0,188,2.1,7.3,.289,1.0,4.4,.217,1.1,2.9,.400,4.4,5.2,.852,1.1,3.8,5.0,8.4,0.8,0.0,4.0,5.4,9.6
208,Cliff Levingston\levincl01,PF,34,DEN,57,0,469,4.2,10.0,.423,0.0,0.1,.000,4.2,9.9,.426,1.5,3.5,.422,3.8,5.8,9.5,2.1,1.0,1.5,1.6,7.0,9.9
209,Alton Lister\listeal01,C,36,MIL,60,32,776,3.1,6.2,.493,0.0,0.0,.000,3.1,6.2,.496,1.6,3.2,.500,3.1,7.8,10.9,0.6,0.7,2.6,1.8,6.8,7.7
210,Brad Lohaus\lohaubr01,PF,30,MIA,61,1,730,4.8,11.4,.420,3.1,7.6,.406,1.7,3.7,.447,0.5,0.7,.667,1.4,3.6,5.0,2.1,1.0,1.2,1.4,4.2,13.2
211,Grant Long\longgr01,PF,28,TOT,81,79,2641,4.7,9.8,.478,0.1,0.4,.355,4.5,9.3,.483,3.3,4.4,.751,2.6,5.7,8.3,1.8,1.5,0.5,2.1,3.3,12.8
211,Grant Long\longgr01,PF,28,MIA,2,2,62,2.9,7.0,.417,0.0,0.0,,2.9,7.0,.417,3.5,5.8,.600,0.6,5.8,6.4,2.3,1.2,0.0,2.3,6.4,9.3
211,Grant Long\longgr01,PF,28,ATL,79,77,2579,4.7,9.8,.479,0.2,0.4,.355,4.6,9.4,.484,3.3,4.4,.756,2.7,5.7,8.3,1.8,1.5,0.5,2.1,3.2,12.9
212,Luc Longley\longllu01,C,26,CHI,55,0,1001,4.9,10.9,.447,0.0,0.1,.000,4.9,10.8,.450,3.2,3.8,.822,2.9,6.5,9.5,2.6,0.9,1.6,3.1,6.4,12.9
213,Ryan Lorthridge\lorthry01,SG,22,GSW,37,2,672,5.7,11.9,.475,0.2,0.7,.214,5.5,11.2,.493,3.1,4.7,.648,1.3,2.5,3.8,5.4,1.5,0.1,3.1,2.3,14.6
214,George Lynch\lynchge01,SF,24,LAL,56,15,953,5.2,11.1,.468,0.1,0.8,.143,5.1,10.4,.493,2.3,3.2,.721,2.8,4.1,7.0,2.3,1.9,0.4,2.8,3.2,12.9
215,Don MacLean\macledo01,PF,25,WSB,39,20,1052,5.4,12.4,.438,0.3,1.4,.250,5.1,11.0,.461,3.6,4.7,.765,1.6,4.1,5.6,1.7,0.5,0.1,1.5,3.3,14.7
216,Mark Macon\maconma01,SG,25,DET,55,6,721,5.0,13.2,.381,1.0,3.1,.323,4.0,10.1,.399,2.7,3.4,.794,1.4,2.3,3.8,3.1,3.3,0.0,2.0,4.8,13.8
217,Gerald Madkins\madkige01,SG,25,CLE,7,0,28,2.6,7.7,.333,1.3,2.6,.500,1.3,5.1,.250,3.9,5.1,.750,0.0,0.0,0.0,1.3,2.6,0.0,3.9,2.6,10.3
218,Rick Mahorn\mahorri01,PF,36,NJN,58,7,630,4.5,8.6,.523,0.1,0.2,.333,4.5,8.5,.527,2.2,2.8,.796,2.6,6.7,9.3,1.5,0.6,0.7,1.9,5.3,11.3
219,Dan Majerle\majerda01,SF,29,PHO,82,46,3091,5.1,12.0,.425,2.3,6.4,.363,2.8,5.6,.495,2.4,3.3,.730,1.2,3.2,4.4,4.0,1.1,0.4,1.2,1.8,14.9
220,Jeff Malone\malonje01,SG,33,PHI,19,19,660,7.9,15.5,.507,0.6,1.5,.393,7.3,14.0,.520,2.8,3.2,.864,0.6,2.4,3.0,1.6,0.8,0.0,1.6,1.9,19.1
221,Karl Malone*\malonka01,PF,31,UTA,82,82,3126,9.6,17.8,.536,0.1,0.5,.268,9.4,17.4,.543,5.9,8.0,.742,1.8,8.2,10.0,3.3,1.5,1.0,2.7,3.1,25.2
222,Moses Malone*\malonmo01,C,39,SAS,17,0,149,3.1,8.5,.371,0.2,0.5,.500,2.9,8.0,.364,5.3,7.7,.688,4.8,6.3,11.1,1.4,0.5,0.7,2.7,3.6,11.8
223,Danny Manning\mannida01,PF,28,PHO,46,19,1510,8.1,14.8,.547,0.1,0.5,.286,8.0,14.3,.556,3.2,4.8,.673,2.3,4.3,6.6,3.7,1.0,1.4,2.9,4.2,19.6
224,Šarūnas Marčiulionis*\marcisa01,SG,30,SEA,66,4,1194,6.5,13.8,.473,1.1,2.6,.402,5.5,11.2,.489,4.4,6.0,.732,0.5,1.5,2.1,3.3,2.2,0.1,3.0,3.8,18.5
225,Donyell Marshall\marshdo01,SF,21,TOT,72,31,2086,6.0,15.1,.394,1.2,4.2,.284,4.8,10.9,.436,2.5,3.8,.662,2.4,4.6,7.0,1.8,0.8,1.5,2.0,2.7,15.6
225,Donyell Marshall\marshdo01,SF,21,MIN,40,8,1036,5.5,14.7,.374,1.1,3.7,.302,4.4,11.0,.397,2.9,4.2,.680,2.2,4.6,6.8,2.0,0.9,1.7,2.0,2.2,15.0
225,Donyell Marshall\marshdo01,SF,21,GSW,32,23,1050,6.4,15.5,.413,1.3,4.7,.270,5.1,10.8,.475,2.2,3.4,.640,2.5,4.7,7.2,1.6,0.7,1.3,2.0,3.2,16.3
226,Bob Martin\martibo01,C,25,LAC,1,0,14,2.6,12.9,.200,0.0,0.0,,2.6,12.9,.200,0.0,0.0,,5.1,0.0,5.1,2.6,0.0,2.6,0.0,5.1,5.1
227,Darrick Martin\martida01,PG,23,MIN,34,9,803,4.3,10.4,.408,0.3,1.7,.184,3.9,8.7,.451,2.6,2.9,.877,0.6,2.2,2.9,6.0,1.5,0.0,2.8,3.9,11.4
228,Jamal Mashburn\mashbja01,SF,22,DAL,80,80,2980,8.3,18.9,.436,1.4,4.2,.328,6.9,14.8,.466,5.4,7.3,.739,1.4,2.6,4.0,3.6,1.0,0.1,2.8,2.3,23.3
229,Anthony Mason\masonan01,PF,28,NYK,77,11,2496,4.1,7.3,.566,0.0,0.0,.000,4.1,7.3,.567,2.8,4.3,.641,2.6,6.8,9.4,3.5,1.0,0.3,1.8,3.6,11.0
230,Tony Massenburg\masseto01,C,27,LAC,80,50,2127,4.8,10.2,.469,0.0,0.1,.000,4.8,10.1,.472,3.0,4.0,.753,2.7,5.0,7.7,1.1,0.8,1.0,2.0,4.3,12.5
231,Vernon Maxwell\maxweve01,SG,29,HOU,64,54,2038,5.4,13.7,.394,2.5,7.8,.324,2.9,5.9,.485,1.7,2.5,.688,0.3,2.6,2.9,4.8,1.3,0.2,2.4,2.8,15.1
232,Lee Mayberry\maybele01,PG,24,MIL,82,50,1744,3.6,8.4,.422,1.5,3.7,.407,2.1,4.8,.433,1.2,1.7,.699,0.4,1.3,1.7,5.7,1.1,0.1,2.2,2.5,9.8
233,George McCloud\mccloge01,SF,27,DAL,42,3,802,6.5,14.7,.439,1.5,4.0,.382,4.9,10.7,.460,3.6,4.3,.833,3.7,2.9,6.6,2.4,1.0,0.4,1.8,3.2,18.0
234,Xavier McDaniel\mcdanxa01,SF,31,BOS,68,15,1430,6.2,13.7,.451,0.2,0.5,.286,6.0,13.2,.457,2.2,3.1,.712,2.4,5.2,7.6,2.7,0.8,0.5,2.2,3.7,14.8
235,Jim McIlvaine\mcilvji01,C,22,WSB,55,0,534,2.3,4.8,.479,0.0,0.0,,2.3,4.8,.479,1.9,2.8,.683,2.7,4.4,7.1,0.7,0.7,4.0,1.3,6.4,6.5
236,Derrick McKey\mckeyde01,SF,28,IND,81,81,2805,5.3,10.7,.493,0.4,1.1,.360,4.9,9.5,.509,2.8,3.8,.744,1.6,3.5,5.1,3.5,1.6,0.6,2.2,3.3,13.8
237,Aaron McKie\mckieaa01,SG,22,POR,45,20,827,5.0,11.4,.444,0.5,1.2,.393,4.6,10.1,.451,2.2,3.2,.685,1.5,4.1,5.6,3.9,1.6,0.7,1.7,4.2,12.8
238,Nate McMillan\mcmilna01,PG,30,SEA,80,18,2070,2.9,6.9,.418,0.9,2.7,.342,2.0,4.2,.467,0.6,1.0,.586,1.1,4.1,5.3,7.3,2.9,0.9,2.2,4.8,7.3
239,Darnell Mee\meeda01,SG,23,DEN,2,0,8,4.5,22.5,.200,4.5,13.5,.333,0.0,9.0,.000,0.0,0.0,,0.0,4.5,4.5,9.0,4.5,0.0,0.0,0.0,13.5
240,Anthony Miller\millean01,PF,23,LAL,46,1,527,4.8,9.0,.530,0.1,0.3,.400,4.6,8.7,.535,3.2,5.2,.618,4.6,5.8,10.4,2.4,1.4,0.5,2.6,5.3,12.9
241,Oliver Miller\milleol01,PF,24,DET,64,22,1558,5.4,9.7,.555,0.1,0.3,.231,5.3,9.4,.565,1.8,2.9,.629,3.7,7.2,11.0,2.1,1.4,2.7,2.7,5.0,12.6
242,Reggie Miller*\millere01,SG,29,IND,81,81,2665,6.8,14.8,.462,2.6,6.3,.415,4.2,8.4,.498,5.2,5.8,.897,0.4,2.4,2.8,3.3,1.3,0.2,2.0,2.1,21.5
243,Chris Mills\millsch01,SF,25,CLE,80,79,2814,4.6,10.9,.420,1.2,3.1,.392,3.4,7.9,.431,2.2,2.7,.817,1.3,3.4,4.7,2.0,0.8,0.4,1.5,3.1,12.6
244,Terry Mills\millste01,PF,27,DET,72,69,2514,6.0,13.4,.447,1.6,4.1,.382,4.4,9.3,.475,2.5,3.1,.799,1.8,6.2,8.0,2.3,1.0,0.5,2.1,3.6,16.0
245,Harold Miner\minerha01,SG,23,MIA,45,16,871,5.1,12.6,.403,0.6,2.0,.286,4.5,10.6,.426,2.9,3.9,.726,1.6,3.3,4.8,2.9,0.6,0.2,3.2,3.5,13.6
246,Greg Minor\minorgr01,SG,23,BOS,63,8,945,5.9,11.5,.515,0.1,0.5,.167,5.8,11.0,.529,2.5,3.0,.833,1.9,3.4,5.2,2.5,1.2,0.6,1.7,3.4,14.4
247,Sam Mitchell\mitchsa01,SF,31,IND,81,12,1377,5.3,10.8,.487,0.0,0.3,.100,5.2,10.5,.496,3.3,4.5,.724,2.5,3.9,6.4,1.6,1.1,0.5,1.4,5.4,13.8
248,Eric Mobley\mobleer01,C,24,MIL,46,26,587,4.8,8.1,.591,0.1,0.1,1.000,4.7,8.0,.585,1.3,2.8,.489,3.4,6.0,9.4,1.3,0.5,1.7,1.5,3.9,11.0
249,Eric Montross\montrer01,C,23,BOS,78,75,2315,4.8,8.9,.534,0.0,0.0,.000,4.8,8.9,.535,2.6,4.1,.635,3.0,5.8,8.8,0.6,0.5,0.9,1.7,4.6,12.1
250,Chris Morris\morrich01,SF,29,NJN,71,49,2131,5.9,14.5,.410,1.8,5.4,.334,4.1,9.1,.455,2.4,3.3,.728,3.1,3.7,6.8,2.5,1.5,0.9,2.0,2.6,16.0
251,Dwayne Morton\mortodw01,PG,23,GSW,41,6,395,4.6,11.8,.388,0.8,2.3,.360,3.7,9.5,.394,5.3,7.7,.682,1.9,3.4,5.3,1.6,1.0,1.4,2.5,4.1,15.2
252,Alonzo Mourning*\mournal01,C,24,CHH,77,77,2941,7.0,13.5,.519,0.1,0.4,.324,6.9,13.1,.525,6.0,7.9,.761,2.4,6.9,9.3,1.4,0.6,2.8,3.0,3.4,20.1
253,Chris Mullin*\mullich01,SF,31,GSW,25,23,890,6.9,14.1,.489,1.7,3.8,.452,5.2,10.3,.502,3.8,4.3,.879,1.0,3.6,4.7,5.1,1.5,0.8,3.8,2.1,19.3
254,Eric Murdock\murdoer01,PG,26,MIL,75,32,2158,5.6,13.6,.415,1.5,4.0,.375,4.1,9.6,.432,3.5,4.5,.790,0.8,2.8,3.6,8.0,1.9,0.2,3.2,2.3,16.3
255,Gheorghe Mureșan\muresgh01,C,23,WSB,73,58,1720,6.3,11.3,.560,0.0,0.0,,6.3,11.3,.560,2.6,3.7,.709,3.7,6.5,10.2,0.8,1.0,2.7,2.4,5.4,15.3
256,Lamond Murray\murrala01,SF,21,LAC,81,61,2556,6.2,15.4,.402,0.9,3.1,.298,5.3,12.3,.427,2.8,3.7,.754,1.9,3.1,5.0,1.9,1.0,0.8,2.3,2.5,16.1
257,Tracy Murray\murratr01,SF,23,TOT,54,3,516,6.6,16.3,.408,2.4,6.0,.407,4.2,10.3,.408,2.3,2.9,.786,1.4,2.7,4.1,1.3,1.0,0.3,2.4,5.1,18.0
257,Tracy Murray\murratr01,SF,23,POR,29,3,313,7.2,17.6,.412,1.8,4.7,.390,5.4,12.9,.420,3.2,3.9,.824,2.1,2.2,4.3,1.6,0.8,0.1,2.3,4.8,19.6
257,Tracy Murray\murratr01,SF,23,HOU,25,0,203,5.7,14.2,.400,3.4,8.0,.422,2.3,6.2,.371,0.9,1.4,.625,0.4,3.5,3.9,0.9,1.2,0.5,2.7,5.5,15.6
258,Dikembe Mutombo*\mutomdi01,C,28,DEN,82,82,3100,4.1,7.3,.556,0.0,0.0,,4.1,7.3,.556,2.9,4.4,.654,3.7,8.2,11.9,1.3,0.5,3.7,2.2,3.3,11.0
259,Pete Myers\myerspe01,SG,31,CHI,71,14,1270,3.4,8.1,.415,0.3,1.1,.256,3.1,7.0,.440,2.0,3.2,.614,1.6,2.3,3.9,4.2,1.6,0.4,2.5,3.5,9.0
260,Ivano Newbill\newbiiv01,SF,24,DET,34,0,331,1.7,4.9,.356,0.0,0.0,,1.7,4.9,.356,0.9,2.4,.364,4.4,4.5,8.8,1.8,1.3,1.2,1.3,6.5,4.4
261,Johnny Newman\newmajo01,SF,31,MIL,82,11,1896,4.3,9.3,.463,0.9,2.4,.352,3.4,6.8,.503,2.6,3.2,.801,1.4,1.9,3.3,1.7,1.3,0.2,1.6,4.4,12.0
262,Ken Norman\normake01,SF,30,ATL,74,27,1879,7.4,16.4,.453,1.9,5.5,.344,5.6,10.9,.508,1.2,2.7,.457,2.0,5.0,6.9,1.8,0.7,0.4,1.8,3.0,18.0
263,Julius Nwosu\nwosuju01,C,23,SAS,23,0,84,3.9,12.0,.321,0.0,0.0,,3.9,12.0,.321,5.6,7.3,.765,4.7,5.6,10.3,1.3,0.0,1.3,3.9,8.6,13.3
264,Shaquille O'Neal*\onealsh01,C,22,ORL,79,79,2923,11.5,19.6,.583,0.0,0.1,.000,11.5,19.6,.585,5.6,10.5,.533,4.0,7.1,11.1,2.6,0.9,2.4,2.5,3.2,28.5
265,Charles Oakley\oaklech01,PF,31,NYK,50,49,1567,4.4,9.0,.489,0.1,0.3,.250,4.3,8.8,.496,2.7,3.4,.793,3.6,6.7,10.2,2.9,1.4,0.2,2.4,4.1,11.6
266,Hakeem Olajuwon*\olajuha01,C,32,HOU,72,72,2853,10.1,19.5,.517,0.0,0.2,.188,10.0,19.3,.520,5.1,6.8,.756,2.2,7.6,9.8,3.2,1.7,3.1,3.0,3.2,25.3
267,Brian Oliver\olivebr01,SG,26,WSB,6,0,42,3.4,7.7,.444,0.0,0.0,,3.4,7.7,.444,5.1,6.9,.750,0.0,3.4,3.4,3.4,0.0,0.0,2.6,6.9,12.0
268,Bo Outlaw\outlabo01,PF,23,LAC,81,31,1655,3.7,7.1,.523,0.0,0.1,.000,3.7,7.0,.531,1.8,4.0,.441,2.6,4.2,6.8,1.8,2.0,3.3,1.7,4.9,9.2
269,Doug Overton\overtdo01,PG,25,WSB,82,20,1704,4.4,10.5,.416,1.1,2.6,.424,3.3,7.9,.413,2.3,2.6,.872,0.5,2.5,3.0,5.2,1.1,0.0,2.2,2.7,12.2
270,Billy Owens\owensbi01,SG,25,MIA,70,60,2296,6.3,12.9,.491,0.0,0.3,.091,6.3,12.5,.503,3.0,4.9,.620,3.2,4.7,7.9,3.9,1.3,0.5,3.2,3.2,15.7
271,Robert Pack\packro01,PG,25,DEN,42,32,1144,5.3,12.4,.430,0.9,2.3,.417,4.4,10.2,.433,4.3,5.5,.783,0.6,3.0,3.6,9.1,1.9,0.2,4.2,3.2,16.0
272,Robert Parish*\parisro01,C,41,CHH,81,4,1352,4.2,9.9,.427,0.0,0.0,,4.2,9.9,.427,1.9,2.7,.703,2.5,6.8,9.3,1.2,0.7,1.0,1.8,3.5,10.4
273,Gary Payton*\paytoga01,PG,26,SEA,82,82,3015,8.2,16.1,.509,0.8,2.8,.302,7.3,13.3,.553,3.0,4.2,.716,1.3,2.1,3.4,7.0,2.4,0.2,2.4,2.5,20.2
274,Anthony Peeler\peelean01,SG,25,LAL,73,24,1559,6.6,15.2,.432,1.9,5.0,.389,4.6,10.2,.454,2.4,3.0,.797,1.4,2.4,3.9,2.8,1.2,0.3,1.9,3.3,17.5
275,Mike Peplowski\peplomi01,C,24,DET,6,0,21,8.6,8.6,1.000,0.0,0.0,,8.6,8.6,1.000,1.7,3.4,.500,1.7,3.4,5.1,1.7,1.7,0.0,3.4,17.1,18.9
276,Will Perdue\perduwi01,C,29,CHI,78,78,1592,5.7,10.4,.553,0.0,0.0,.000,5.7,10.4,.555,2.6,4.4,.582,4.8,7.0,11.8,2.0,0.6,1.3,2.6,5.0,14.0
277,Sam Perkins\perkisa01,C,33,SEA,82,37,2356,5.3,11.3,.466,2.1,5.2,.397,3.2,6.1,.526,3.3,4.1,.799,1.5,4.6,6.1,2.1,1.1,0.7,1.2,2.8,15.9
278,Elliot Perry\perryel01,PG,25,PHO,82,51,1977,5.6,10.7,.520,0.5,1.1,.417,5.1,9.6,.532,2.9,3.6,.810,0.9,1.8,2.7,7.2,2.8,0.1,3.0,2.6,14.5
279,Tim Perry\perryti01,PF,29,PHI,42,1,446,2.2,6.3,.346,0.0,1.1,.000,2.2,5.2,.422,1.8,3.2,.550,3.1,4.1,7.2,1.0,0.8,1.2,1.7,4.1,6.1
280,Chuck Person\persoch01,SF,30,SAS,81,1,2033,5.6,13.3,.423,3.0,7.9,.387,2.6,5.4,.475,1.2,1.8,.647,0.9,3.7,4.6,1.9,0.8,0.2,1.8,3.5,15.4
281,Wesley Person\persowe01,SG,23,PHO,78,56,1800,6.2,12.8,.484,2.3,5.3,.436,3.9,7.4,.519,1.6,2.0,.792,1.3,2.7,4.0,2.1,1.0,0.5,1.6,3.0,16.3
282,Derrick Phelps\phelpde01,PG,22,SAC,3,0,5,0.0,7.2,.000,0.0,0.0,,0.0,7.2,.000,0.0,14.4,.000,0.0,0.0,0.0,7.2,0.0,0.0,0.0,21.6,0.0
283,Bobby Phills\phillbo01,SG,25,CLE,80,79,2500,4.9,11.8,.414,0.3,0.8,.345,4.6,11.0,.419,2.6,3.4,.779,1.3,2.5,3.8,2.6,1.7,0.4,1.6,3.0,12.6
284,Eric Piatkowski\piatker01,SG,24,LAC,81,11,1208,6.0,13.6,.441,2.2,5.9,.374,3.8,7.7,.492,2.7,3.4,.783,1.9,2.1,4.0,2.3,1.1,0.4,1.9,4.5,16.9
285,Ricky Pierce\piercri01,PG,35,GSW,27,6,673,5.9,13.6,.437,1.2,3.7,.329,4.7,9.8,.478,5.0,5.7,.877,0.6,2.8,3.4,2.1,1.2,0.1,1.3,2.0,18.1
286,Ed Pinckney\pincked01,PF,31,MIL,62,17,835,2.1,4.2,.495,0.0,0.0,,2.1,4.2,.495,1.9,2.7,.710,2.8,6.3,9.1,0.9,1.5,0.7,1.1,2.8,6.0
287,Scottie Pippen*\pippesc01,SF,29,CHI,79,79,3014,7.6,15.8,.480,1.3,3.8,.345,6.3,12.0,.523,3.8,5.3,.716,2.1,5.5,7.6,4.9,2.8,1.1,3.2,2.8,20.2
288,Olden Polynice\polynol01,C,30,SAC,81,81,2534,5.3,9.8,.544,0.0,0.0,1.000,5.3,9.8,.543,1.8,2.8,.639,3.9,6.4,10.3,0.9,0.7,0.7,1.6,3.4,12.5
289,Terry Porter\portete01,PG,31,POR,35,9,770,4.9,12.5,.393,2.1,5.3,.386,2.9,7.2,.399,2.7,3.8,.707,0.8,2.9,3.8,6.2,1.4,0.1,2.7,2.8,14.6
290,Mark Price\pricema01,PG,30,CLE,48,34,1375,6.6,16.0,.413,2.7,6.6,.407,3.9,9.4,.418,3.9,4.2,.914,0.7,2.3,2.9,8.8,0.9,0.1,3.7,1.3,19.8
291,Kevin Pritchard\pritcke01,PG,27,TOT,19,0,194,2.4,5.9,.406,0.4,1.5,.250,2.0,4.5,.458,3.0,3.9,.762,0.0,2.2,2.2,6.3,0.4,0.2,2.2,4.1,8.2
291,Kevin Pritchard\pritcke01,PG,27,PHI,5,0,36,0.0,3.0,.000,0.0,3.0,.000,0.0,0.0,,1.0,4.0,.250,0.0,1.0,1.0,11.0,0.0,0.0,5.0,3.0,1.0
291,Kevin Pritchard\pritcke01,PG,27,MIA,14,0,158,3.0,6.6,.448,0.5,1.1,.400,2.5,5.5,.458,3.4,3.9,.882,0.0,2.5,2.5,5.2,0.5,0.2,1.6,4.3,9.8
292,Dino Radja*\radjadi01,PF,27,BOS,66,48,2147,7.5,15.4,.490,0.0,0.0,.000,7.5,15.4,.490,3.9,5.1,.759,2.5,7.1,9.6,1.9,1.0,1.4,2.7,3.9,19.0
293,Kurt Rambis\rambiku01,PF,36,LAL,26,1,195,3.3,6.5,.514,0.0,0.0,,3.3,6.5,.514,1.5,2.2,.667,1.8,4.4,6.3,3.0,0.6,1.7,1.5,6.5,8.1
294,Mark Randall\randama01,PF,27,DEN,8,0,39,2.8,9.2,.300,0.0,0.9,.000,2.8,8.3,.333,0.0,0.0,,3.7,7.4,11.1,0.9,0.0,0.0,0.9,4.6,5.5
295,Eldridge Recasner\recasel01,SG,27,DEN,3,0,13,2.8,16.6,.167,0.0,2.8,.000,2.8,13.8,.200,11.1,11.1,1.000,0.0,5.5,5.5,2.8,8.3,0.0,5.5,0.0,16.6
296,Khalid Reeves\reevekh01,PG,22,MIA,67,17,1462,5.1,11.5,.443,1.6,4.2,.392,3.4,7.2,.473,3.4,4.8,.714,1.3,3.3,4.6,7.1,1.9,0.2,3.3,3.4,15.2
297,J.R. Reid\reidjr01,PF,26,SAS,81,37,1566,4.6,9.1,.508,0.0,0.0,.500,4.6,9.1,.508,3.7,5.4,.687,2.8,6.3,9.0,1.3,1.4,0.7,2.6,5.3,12.9
298,Glen Rice\ricegl01,SF,27,MIA,82,82,3014,8.0,16.8,.475,2.2,5.4,.410,5.8,11.4,.506,3.7,4.4,.855,1.2,3.3,4.5,2.3,1.3,0.2,1.8,2.4,21.9
299,Pooh Richardson\richapo01,PG,28,LAC,80,77,2864,4.4,11.3,.394,1.1,3.1,.357,3.3,8.2,.407,1.0,1.6,.648,0.5,2.8,3.3,7.9,1.6,0.2,2.1,2.7,11.0
300,Mitch Richmond*\richmmi01,SG,29,SAC,82,82,3172,7.6,17.0,.446,1.8,4.8,.368,5.8,12.2,.477,4.3,5.1,.843,0.8,3.3,4.1,3.5,1.0,0.3,2.7,2.6,21.2
301,Isaiah Rider\rideris01,SG,23,MIN,75,67,2645,7.6,17.0,.447,1.9,5.4,.351,5.7,11.6,.491,3.8,4.6,.817,1.2,2.2,3.4,3.3,0.9,0.3,3.2,2.6,20.9
302,Eric Riley\rileyer01,C,24,LAC,40,4,434,5.4,12.0,.448,0.0,0.1,.000,5.4,11.9,.451,3.9,5.3,.734,3.7,5.6,9.3,0.9,1.4,2.9,2.6,6.5,14.7
303,Doc Rivers\riverdo01,PG,33,TOT,63,0,989,3.9,11.0,.358,1.6,4.6,.354,2.3,6.4,.360,2.2,3.0,.732,0.5,3.4,4.0,5.9,2.4,0.8,2.2,5.5,11.7
303,Doc Rivers\riverdo01,PG,33,NYK,3,0,47,3.1,10.0,.308,2.3,3.8,.600,0.8,6.1,.125,6.1,8.4,.727,1.5,5.4,6.9,6.1,3.1,0.0,3.1,6.1,14.6
303,Doc Rivers\riverdo01,PG,33,SAS,60,0,942,4.0,11.0,.360,1.6,4.7,.344,2.4,6.4,.371,2.0,2.7,.732,0.5,3.3,3.8,5.9,2.3,0.8,2.1,5.4,11.5
304,Fred Roberts\roberfr01,SF,34,CLE,21,0,223,4.5,11.6,.389,0.6,1.8,.364,3.9,9.8,.393,3.2,4.2,.769,2.1,3.4,5.5,1.3,1.0,0.5,1.1,4.2,12.9
305,Clifford Robinson\robincl02,SF,28,POR,75,73,2725,7.9,17.4,.452,1.9,5.1,.371,6.0,12.4,.486,3.5,5.0,.694,2.0,3.6,5.6,2.6,1.0,1.1,2.1,3.2,21.2
306,David Robinson*\robinda01,C,29,SAS,81,81,3074,9.2,17.4,.530,0.1,0.2,.300,9.2,17.2,.533,7.7,9.9,.774,2.7,7.5,10.3,2.8,1.6,3.1,2.7,2.7,26.2
307,Glenn Robinson\robingl01,SF,22,MIL,80,76,2958,7.7,17.2,.451,1.0,3.3,.321,6.7,13.9,.482,4.8,6.1,.796,2.1,4.2,6.2,2.4,1.4,0.3,3.8,2.8,21.4
308,James Robinson\robinja02,PG,24,POR,71,25,1539,6.0,14.6,.409,1.8,5.2,.341,4.2,9.4,.446,1.5,2.6,.591,1.0,2.1,3.1,4.2,1.1,0.3,3.0,3.3,15.2
309,Dennis Rodman*\rodmade01,PF,33,SAS,49,26,1568,3.1,5.5,.571,0.0,0.0,.000,3.1,5.5,.576,1.7,2.5,.676,6.3,12.6,18.9,2.2,0.7,0.5,2.3,3.7,8.0
310,Carlos Rogers\rogerca01,C,23,GSW,49,18,1017,6.4,12.0,.529,0.1,0.5,.143,6.3,11.5,.546,2.7,5.2,.521,3.8,6.0,9.8,1.3,0.8,1.8,3.0,4.4,15.5
311,Rodney Rogers\rogerro01,PF,23,DEN,80,77,2142,6.3,12.9,.488,0.8,2.5,.338,5.5,10.4,.523,3.0,4.6,.651,2.2,4.3,6.5,2.7,1.6,0.8,2.9,4.7,16.5
312,Tree Rollins\rollitr01,C,39,ORL,51,3,478,1.5,3.2,.476,0.0,0.0,,1.5,3.2,.476,1.6,2.3,.677,2.3,4.8,7.2,0.7,0.5,2.7,1.7,4.7,4.6
313,Sean Rooks\rooksse01,C,25,MIN,80,70,2405,4.3,9.2,.470,0.0,0.1,.000,4.3,9.1,.474,4.3,5.7,.761,2.5,4.8,7.3,1.5,0.4,1.1,2.1,3.1,13.0
314,Jalen Rose\roseja01,SF,22,DEN,81,37,1798,4.5,10.0,.454,0.7,2.3,.316,3.8,7.7,.495,3.5,4.7,.739,1.1,3.2,4.3,7.8,1.3,0.4,3.2,4.1,13.3
315,Donald Royal\royaldo01,SF,28,ORL,70,68,1841,4.0,8.5,.475,0.0,0.1,.000,4.0,8.4,.479,4.4,5.8,.746,1.6,3.8,5.5,3.9,0.9,0.3,2.4,3.1,12.4
316,Clifford Rozier\roziecl01,C,22,GSW,66,34,1494,4.6,9.4,.485,0.0,0.2,.286,4.5,9.2,.488,1.6,3.7,.447,4.8,6.9,11.7,1.1,0.8,0.9,2.1,4.7,10.8
317,Trevor Ruffin\ruffitr01,PG,24,PHO,49,1,319,9.5,22.2,.426,4.3,11.2,.384,5.2,11.1,.469,3.0,4.3,.711,0.9,1.7,2.6,5.4,1.6,0.2,5.3,5.9,26.3
318,Bryon Russell\russebr01,SF,24,UTA,63,15,860,4.4,10.0,.437,0.5,1.8,.295,3.8,8.1,.469,2.6,3.9,.667,1.8,4.1,5.9,1.4,2.0,0.5,1.8,4.2,11.8
319,John Salley\sallejo01,C,30,MIA,75,50,1955,3.6,7.3,.499,0.0,0.0,,3.6,7.3,.499,2.8,3.8,.739,2.0,4.2,6.2,2.3,0.9,1.6,1.8,5.1,10.1
320,Danny Schayes\schayda01,C,35,PHO,69,27,823,5.5,10.8,.508,0.0,0.0,1.000,5.5,10.8,.506,2.2,3.0,.725,2.5,6.6,9.1,3.9,0.9,1.6,2.8,7.4,13.3
321,Steve Scheffler\schefst01,C,27,SEA,18,0,102,4.2,8.1,.522,0.0,0.0,,4.2,8.1,.522,5.3,6.4,.833,2.8,5.3,8.1,1.4,0.7,0.7,1.1,3.2,13.8
322,Dwayne Schintzius\schindw01,C,26,NJN,43,11,318,4.6,12.2,.380,0.0,0.0,,4.6,12.2,.380,0.7,1.2,.545,3.3,5.9,9.2,1.7,0.3,1.9,1.9,5.1,10.0
323,Detlef Schrempf\schrede01,SF,32,SEA,82,82,2886,6.5,12.4,.523,1.2,2.3,.514,5.3,10.2,.525,5.5,6.5,.839,1.7,4.7,6.3,3.9,1.2,0.4,2.2,3.1,19.6
324,Byron Scott\scottby01,PG,33,IND,80,1,1528,6.2,13.7,.455,1.9,4.8,.389,4.4,9.0,.489,4.5,5.3,.850,0.4,3.1,3.6,2.5,1.4,0.3,2.8,2.9,18.9
325,Dennis Scott\scottde01,SF,26,ORL,62,10,1499,6.8,15.5,.439,3.6,8.5,.426,3.2,7.0,.454,2.1,2.7,.754,0.6,2.9,3.5,3.1,1.1,0.3,1.4,2.9,19.3
326,Malik Sealy\sealyma01,SG,24,LAC,60,41,1604,6.5,15.0,.435,0.5,1.6,.301,6.0,13.4,.451,3.9,5.0,.780,1.7,3.1,4.8,2.4,1.6,0.6,1.9,3.9,17.5
327,Rony Seikaly\seikaro01,C,29,GSW,36,35,1035,5.6,10.9,.516,0.0,0.0,,5.6,10.9,.516,3.9,5.6,.694,2.7,6.6,9.3,1.6,0.7,1.3,3.6,4.2,15.1
328,Charles Shackleford\shackch01,PF,28,MIN,21,2,239,5.9,9.8,.600,0.0,0.0,,5.9,9.8,.600,2.4,3.0,.800,2.4,7.7,10.1,1.2,1.2,0.9,1.2,7.1,14.2
329,Brian Shaw\shawbr01,PG,28,ORL,78,9,1836,3.8,9.7,.389,0.9,3.6,.261,2.8,6.1,.465,1.4,1.9,.737,1.0,3.7,4.7,8.0,1.4,0.4,3.6,3.6,9.8
330,Lionel Simmons\simmoli01,SF,26,SAC,58,3,1064,4.4,10.6,.420,0.2,0.5,.375,4.2,10.0,.422,2.0,2.8,.702,2.1,4.6,6.6,3.0,0.9,0.8,2.4,4.0,11.1
331,Dickey Simpkins\simpkdi01,PF,22,CHI,59,5,586,4.8,11.3,.424,0.0,0.0,,4.8,11.3,.424,3.1,4.4,.694,3.7,5.6,9.3,2.3,0.6,0.4,2.8,4.4,12.7
332,Scott Skiles\skilesc01,PG,30,WSB,62,62,2077,4.6,10.1,.455,1.7,4.0,.421,2.9,6.2,.476,3.1,3.5,.886,0.5,2.3,2.8,7.8,1.2,0.1,3.0,2.3,14.0
333,Reggie Slater\slatere01,PF,24,DEN,25,0,236,6.1,12.4,.494,0.0,0.0,,6.1,12.4,.494,6.1,8.4,.727,3.2,5.5,8.7,1.8,1.1,0.5,4.0,7.2,18.3
334,Charles Smith\smithch01,SF,29,NYK,76,58,2150,5.9,12.5,.471,0.1,0.5,.226,5.8,12.0,.482,4.3,5.4,.792,2.4,3.0,5.4,2.0,0.8,1.6,2.5,4.8,16.2
335,Chris Smith\smithch03,SG,24,MIN,64,17,1073,3.9,8.9,.439,1.6,3.6,.435,2.3,5.2,.442,1.4,2.1,.651,0.5,2.0,2.4,4.9,1.1,0.7,1.7,4.0,10.7
336,Doug Smith\smithdo03,PF,25,DAL,63,0,826,5.7,13.7,.417,0.0,0.5,.083,5.7,13.2,.430,2.5,3.3,.760,1.9,4.4,6.3,1.9,1.3,1.1,1.6,5.8,13.9
337,Kenny Smith\smithke01,PG,29,HOU,81,81,2030,5.1,10.5,.484,2.5,5.9,.429,2.6,4.6,.553,2.2,2.6,.851,0.5,2.3,2.7,5.7,1.3,0.2,2.2,1.9,14.9
338,Michael Smith\smithmi01,PF,29,LAC,29,0,319,7.1,15.1,.470,0.1,0.9,.125,7.0,14.2,.492,2.9,3.4,.867,1.5,4.9,6.3,2.3,0.7,0.2,2.0,4.6,17.3
339,Michael Smith\smithmi02,PF,22,SAC,82,0,1736,4.6,8.4,.542,0.0,0.0,.000,4.6,8.4,.545,2.6,5.4,.485,3.6,6.5,10.1,1.4,1.3,1.0,2.2,4.9,11.8
340,Steve Smith\smithst01,SG,25,TOT,80,61,2665,5.8,13.6,.426,1.9,5.6,.329,3.9,8.0,.494,4.2,5.0,.841,1.4,2.3,3.7,3.7,0.8,0.4,2.1,3.0,17.6
340,Steve Smith\smithst01,SG,25,MIA,2,2,62,6.4,16.8,.379,1.2,7.0,.167,5.2,9.9,.529,9.9,12.8,.773,2.3,1.2,3.5,4.1,1.2,0.6,2.3,5.2,23.8
340,Steve Smith\smithst01,SG,25,ATL,78,59,2603,5.8,13.5,.427,1.9,5.6,.334,3.9,7.9,.493,4.1,4.8,.845,1.4,2.4,3.7,3.7,0.8,0.4,2.1,3.0,17.5
341,Tony Smith\smithto02,SG,26,LAL,61,4,1024,4.6,10.9,.427,1.1,3.2,.352,3.5,7.7,.459,1.5,2.2,.698,1.5,2.3,3.8,3.6,1.6,0.2,1.8,3.9,12.0
342,Rik Smits\smitsri01,C,28,IND,78,78,2381,8.4,16.0,.526,0.0,0.0,.000,8.4,16.0,.527,4.3,5.7,.753,2.9,6.2,9.1,1.7,0.6,1.2,2.9,4.2,21.2
343,Elmore Spencer\spencel01,C,25,LAC,19,8,368,5.1,11.5,.441,0.0,0.1,.000,5.1,11.4,.444,2.7,4.9,.560,1.1,5.3,6.4,2.4,1.4,2.3,4.7,6.1,12.9
344,Felton Spencer\spencfe01,C,27,UTA,34,34,905,4.2,8.6,.488,0.0,0.0,,4.2,8.6,.488,4.3,5.4,.793,3.6,6.8,10.3,0.7,0.5,1.3,2.7,5.2,12.6
345,Latrell Sprewell\sprewla01,SG,24,GSW,69,69,2771,6.4,15.2,.418,1.2,4.2,.276,5.2,11.0,.473,4.5,5.8,.781,0.8,2.6,3.3,3.6,1.5,0.6,3.0,1.4,18.4
346,John Starks\starkjo01,SG,29,NYK,80,78,2725,5.5,14.0,.395,2.9,8.1,.355,2.7,6.0,.448,2.2,3.0,.737,0.4,2.4,2.9,5.4,1.2,0.1,2.1,3.4,16.2
347,Larry Stewart\stewala01,SF,26,WSB,40,0,346,4.3,9.3,.461,0.0,0.2,.000,4.3,9.1,.471,2.1,3.1,.667,2.9,4.1,7.0,1.9,1.7,0.9,1.7,5.4,10.6
348,Bryant Stith\stithbr01,SG,24,DEN,81,51,2329,4.8,10.2,.472,0.3,1.1,.294,4.5,9.2,.492,4.1,5.0,.824,1.5,2.7,4.1,2.4,1.4,0.3,1.7,2.2,14.1
349,John Stockton*\stockjo01,PG,32,UTA,82,82,2867,5.4,9.9,.542,1.3,2.9,.449,4.1,7.1,.580,3.1,3.8,.804,0.7,2.4,3.2,12.7,2.4,0.3,3.4,2.7,15.1
350,Mark Strickland\stricma01,PF,24,IND,4,0,9,4.0,12.0,.333,0.0,0.0,,4.0,12.0,.333,4.0,8.0,.500,8.0,8.0,16.0,0.0,0.0,4.0,4.0,0.0,12.0
351,Rod Strickland\stricro02,PG,28,POR,64,61,2267,7.0,15.0,.466,0.7,2.0,.374,6.3,13.1,.480,4.5,6.0,.745,1.2,3.9,5.0,8.9,2.0,0.1,3.3,1.9,19.2
352,Derek Strong\stronde01,PF,26,BOS,70,24,1344,4.0,8.8,.453,0.1,0.2,.286,3.9,8.6,.457,3.8,4.6,.820,3.6,6.4,10.0,1.2,0.6,0.3,2.1,3.8,11.8
353,Greg Sutton\suttogr01,PG,27,CHH,53,4,690,4.9,12.0,.409,2.2,6.0,.374,2.7,6.0,.443,1.7,2.3,.711,0.4,2.5,2.9,4.7,1.7,0.1,2.7,5.9,13.7
354,Aaron Swinson\swinsaa01,SF,24,PHO,9,0,51,7.1,12.7,.556,0.0,0.0,,7.1,12.7,.556,2.8,3.5,.800,2.1,3.5,5.6,2.1,0.7,0.0,3.5,5.6,16.9
355,Žan Tabak\tabakza01,C,24,HOU,37,0,182,4.7,10.5,.453,0.0,0.2,.000,4.7,10.3,.462,5.3,8.7,.614,4.5,6.7,11.3,0.8,0.4,1.4,3.6,7.3,14.8
356,Roy Tarpley\tarplro01,C,30,DAL,55,1,1354,7.8,16.2,.479,0.1,0.5,.278,7.6,15.7,.485,2.7,3.2,.836,3.8,8.2,11.9,1.5,1.2,1.5,2.9,4.1,18.4
357,Brooks Thompson\thompbr01,PG,24,ORL,38,2,246,6.6,16.7,.395,2.6,8.5,.310,4.0,8.2,.482,1.2,1.8,.667,1.0,2.3,3.4,6.3,1.5,0.3,4.0,6.7,17.0
358,LaSalle Thompson\thompla01,C,33,IND,38,3,453,3.9,9.4,.415,0.0,0.0,,3.9,9.4,.415,1.1,1.3,.875,2.2,4.8,7.1,1.4,1.4,0.8,2.6,6.0,8.9
359,Otis Thorpe\thorpot01,PF,32,TOT,70,35,2096,6.6,11.7,.565,0.0,0.1,.000,6.6,11.6,.571,2.9,4.8,.594,3.5,6.1,9.6,1.9,0.7,0.5,2.3,3.8,16.1
359,Otis Thorpe\thorpot01,PF,32,HOU,36,35,1188,6.2,11.1,.563,0.0,0.1,.000,6.2,11.0,.567,2.0,3.8,.528,3.4,6.3,9.8,1.8,0.7,0.4,2.3,3.1,14.5
359,Otis Thorpe\thorpot01,PF,32,POR,34,0,908,7.1,12.5,.568,0.0,0.2,.000,7.1,12.3,.576,4.0,6.1,.649,3.5,5.8,9.4,2.1,0.8,0.6,2.2,4.8,18.2
360,Sedale Threatt\threase01,PG,33,LAL,59,2,1384,5.6,11.4,.497,0.9,2.5,.379,4.7,8.9,.529,2.3,2.9,.793,0.5,2.7,3.2,6.5,1.4,0.3,1.8,3.6,14.5
361,Wayman Tisdale\tisdawa01,PF,30,PHO,65,13,1276,7.8,16.2,.484,0.0,0.0,,7.8,16.2,.484,2.7,3.4,.770,2.3,4.6,7.0,1.3,0.8,0.8,1.8,5.4,18.3
362,Tom Tolbert\tolbeto01,PF,29,CHH,10,0,57,3.8,11.4,.333,0.0,2.5,.000,3.8,8.8,.429,1.3,1.3,1.000,4.4,6.3,10.7,1.3,0.0,0.0,1.9,5.7,8.8
363,Keith Tower\towerke01,C,24,ORL,3,0,7,0.0,10.3,.000,0.0,0.0,,0.0,10.3,.000,5.1,10.3,.500,5.1,10.3,15.4,0.0,0.0,0.0,5.1,5.1,5.1
364,Anthony Tucker\tuckean01,SF,25,WSB,62,13,982,3.5,7.7,.457,0.0,0.0,.000,3.5,7.7,.459,1.9,3.0,.614,1.6,4.6,6.2,2.5,1.7,0.4,2.1,4.7,8.9
365,Henry Turner\turnehe02,PF,28,SAC,30,0,149,5.6,13.8,.404,0.5,1.2,.400,5.1,12.6,.404,4.8,8.5,.571,4.1,2.7,6.8,1.7,1.9,0.2,2.9,4.8,16.4
366,Jeff Turner\turneje01,PF,32,ORL,49,5,576,4.6,11.1,.410,1.7,4.7,.360,2.9,6.4,.447,1.6,1.8,.897,1.4,4.6,6.1,2.4,0.7,0.2,1.4,6.4,12.4
367,B.J. Tyler\tylerbj01,PG,23,PHI,55,8,809,3.2,8.4,.381,0.7,2.3,.314,2.5,6.1,.406,1.6,2.2,.700,0.6,2.2,2.8,7.7,1.6,0.1,4.3,2.6,8.7
368,Nick Van Exel\vanexni01,PG,23,LAL,80,80,2944,5.7,13.5,.420,2.2,6.2,.358,3.4,7.3,.473,2.9,3.7,.783,0.3,2.4,2.7,8.1,1.2,0.1,2.7,1.9,16.5
369,Loy Vaught\vaughlo01,PF,26,LAC,80,79,2966,7.4,14.4,.514,0.1,0.4,.212,7.3,14.0,.523,2.1,3.0,.710,3.2,6.2,9.4,1.7,1.3,0.4,2.0,2.9,17.0
370,Fred Vinson\vinsofr01,SG,24,ATL,5,0,27,1.3,9.3,.143,1.3,8.0,.167,0.0,1.3,.000,1.3,1.3,1.000,0.0,0.0,0.0,1.3,0.0,0.0,2.7,5.3,5.3
371,Kenny Walker\walkeke01,SF,30,WSB,24,0,266,2.4,5.7,.429,0.0,0.0,,2.4,5.7,.429,2.8,3.8,.750,2.6,3.8,6.4,0.9,0.7,0.7,2.0,5.7,7.7
372,Rex Walters\waltere01,SG,24,NJN,80,30,1435,5.2,11.8,.439,1.8,4.9,.362,3.4,6.8,.495,1.0,1.3,.769,0.5,1.9,2.3,3.0,0.9,0.4,1.8,3.4,13.1
373,Charlie Ward\wardch01,PG,24,NYK,10,0,44,3.3,15.5,.211,0.8,8.2,.100,2.5,7.4,.333,5.7,8.2,.700,0.8,4.1,4.9,3.3,1.6,0.0,6.5,5.7,13.1
374,Jamie Watson\watsoja01,SF,22,UTA,60,1,673,4.1,8.1,.500,0.3,1.0,.263,3.8,7.1,.534,2.0,3.0,.679,0.9,3.1,4.0,3.2,1.9,0.6,2.7,4.6,10.4
375,Clarence Weatherspoon\weathcl01,SF,24,PHI,76,76,2991,6.5,14.9,.439,0.0,0.3,.190,6.5,14.6,.443,3.4,4.5,.751,1.7,4.6,6.3,2.6,1.4,0.8,2.3,2.3,16.5
376,Spud Webb\webbsp01,PG,31,SAC,76,76,2458,4.4,10.1,.438,0.7,2.1,.331,3.7,8.0,.467,3.3,3.5,.934,0.4,2.1,2.5,6.9,1.1,0.1,2.7,2.2,12.9
377,Chris Webber\webbech01,PF,21,WSB,54,52,2067,8.1,16.3,.495,0.7,2.5,.276,7.4,13.8,.535,2.0,4.1,.502,3.5,5.5,9.0,4.5,1.4,1.5,2.9,3.2,18.9
378,Bill Wennington\wennibi01,C,31,CHI,73,1,956,5.9,11.9,.492,0.0,0.2,.000,5.9,11.8,.498,1.9,2.4,.810,2.4,4.7,7.2,1.5,0.8,0.6,1.5,7.5,13.7
379,David Wesley\wesleda01,PG,24,BOS,51,36,1380,3.3,8.2,.409,1.3,3.1,.429,2.0,5.1,.397,1.9,2.5,.755,0.8,2.2,3.1,6.9,2.1,0.2,2.3,3.8,9.9
380,Doug West\westdo01,SG,27,MIN,71,65,2328,5.4,11.8,.461,0.2,0.9,.180,5.3,10.8,.485,3.2,3.8,.837,0.9,2.6,3.5,2.9,1.0,0.4,1.9,3.9,14.2
381,Mark West\westma01,C,34,DET,67,58,1543,5.1,9.1,.556,0.0,0.0,,5.1,9.1,.556,1.5,3.2,.478,3.7,5.8,9.5,0.4,0.6,2.4,2.0,5.8,11.7
382,Ennis Whatley\whatlen01,PG,32,ATL,27,2,292,3.0,6.5,.453,0.2,1.0,.250,2.7,5.5,.489,2.5,3.9,.625,1.1,2.6,3.7,6.7,2.3,0.0,2.3,4.6,8.6
383,Chris Whitney\whitnch01,PG,23,SAS,25,0,179,2.8,9.5,.298,0.6,3.8,.158,2.2,5.6,.393,2.2,2.2,1.000,0.8,1.8,2.6,5.6,0.8,0.0,3.6,6.8,8.4
384,Morlon Wiley\wileymo01,PG,28,TOT,43,2,424,4.2,9.9,.427,2.5,6.7,.380,1.7,3.2,.526,0.6,0.8,.700,0.5,3.1,3.7,6.4,1.9,0.2,2.0,3.7,11.6
384,Morlon Wiley\wileymo01,PG,28,DAL,38,2,407,4.2,9.8,.423,2.6,6.6,.387,1.6,3.2,.500,0.6,0.9,.700,0.5,2.9,3.4,6.1,1.9,0.1,1.7,3.9,11.5
384,Morlon Wiley\wileymo01,PG,28,ATL,5,0,17,6.4,12.7,.500,2.1,8.5,.250,4.2,4.2,1.000,0.0,0.0,,0.0,8.5,8.5,12.7,2.1,2.1,8.5,0.0,14.8
385,Dominique Wilkins*\wilkido01,SF,35,BOS,77,64,2423,7.4,17.4,.424,1.7,4.3,.388,5.7,13.1,.436,4.0,5.1,.782,2.3,3.6,6.0,2.5,0.9,0.2,2.6,1.9,20.4
386,Aaron Williams\williaa01,PF,23,MIL,15,0,72,4.0,12.0,.333,0.0,0.5,.000,4.0,11.5,.348,4.0,6.0,.667,2.5,7.0,9.5,0.0,1.0,3.0,3.5,7.0,12.0
387,Buck Williams\willibu01,PF,34,POR,82,82,2422,4.6,9.0,.512,0.0,0.0,.500,4.6,8.9,.512,2.1,3.0,.673,3.7,6.2,9.9,1.2,1.0,1.0,1.8,3.8,11.3
388,Herb Williams\willihe01,C,36,NYK,56,3,743,4.0,8.7,.456,0.0,0.0,,4.0,8.7,.456,1.1,1.8,.622,1.1,5.3,6.4,1.3,0.6,2.2,1.9,5.2,9.1
389,Hot Rod Williams\williho01,PF,32,CLE,74,73,2641,5.0,11.0,.452,0.0,0.1,.200,5.0,11.0,.453,2.7,3.9,.685,2.4,4.6,6.9,2.6,1.1,1.4,2.0,2.9,12.7
390,Jayson Williams\willija01,PF,26,NJN,75,6,982,5.5,11.8,.461,0.0,0.2,.000,5.5,11.7,.469,2.4,4.5,.533,6.6,9.0,15.6,1.3,1.0,1.2,2.2,5.9,13.3
391,John Williams\willijo02,SF,28,IND,34,0,402,3.7,10.3,.357,0.4,1.1,.333,3.3,9.2,.359,1.3,2.2,.560,2.1,3.5,5.6,2.4,0.9,0.2,3.1,4.3,9.0
392,Lorenzo Williams\willilo01,C,25,DAL,82,81,2383,2.2,4.6,.477,0.0,0.0,,2.2,4.6,.477,0.6,1.5,.376,4.4,6.0,10.4,1.9,0.8,2.2,1.6,4.6,5.0
393,Micheal Williams\willimi02,PG,28,MIN,1,1,28,1.3,5.1,.250,0.0,0.0,,1.3,5.1,.250,5.1,6.4,.800,0.0,1.3,1.3,3.9,2.6,0.0,3.9,3.9,7.7
394,Monty Williams\willimo01,SF,23,NYK,41,23,503,4.3,9.5,.451,0.0,0.6,.000,4.3,8.9,.480,1.2,2.7,.447,3.0,4.0,7.0,3.5,1.4,0.3,2.9,6.2,9.8
395,Reggie Williams\willire01,SF,30,DEN,74,70,2198,6.4,13.9,.459,1.4,4.4,.320,5.0,9.5,.522,2.2,2.8,.759,1.5,3.8,5.4,3.8,1.9,1.1,2.0,4.3,16.3
396,Scott Williams\willisc01,PF,26,PHI,77,43,1781,4.2,8.8,.475,0.0,0.1,.000,4.2,8.6,.482,1.6,2.2,.738,3.5,6.3,9.8,1.2,1.4,0.8,1.7,4.8,9.9
397,Walt Williams\williwa02,SF,24,SAC,77,77,2739,5.8,13.1,.446,1.4,3.9,.348,4.5,9.2,.487,3.5,4.8,.731,1.3,3.2,4.5,4.2,1.6,0.8,3.2,3.5,16.5
398,Kevin Willis\willike02,PF,32,TOT,67,63,2390,7.1,15.3,.466,0.0,0.2,.200,7.1,15.1,.470,3.1,4.5,.690,3.4,7.6,11.0,1.3,0.9,0.5,2.4,3.2,17.4
398,Kevin Willis\willike02,PF,32,ATL,2,2,89,6.5,16.6,.390,0.0,0.4,.000,6.5,16.2,.400,4.0,6.1,.667,4.0,10.5,14.6,1.2,0.4,1.2,2.8,2.8,17.0
398,Kevin Willis\willike02,PF,32,MIA,65,61,2301,7.1,15.2,.469,0.0,0.2,.214,7.1,15.0,.473,3.1,4.4,.691,3.4,7.5,10.9,1.3,0.9,0.5,2.4,3.3,17.4
399,Trevor Wilson\wilsotr01,PF,26,SAC,15,0,147,4.4,9.8,.450,0.0,0.0,,4.4,9.8,.450,2.7,3.4,.786,2.4,3.9,6.4,2.9,1.0,0.5,1.5,2.9,11.5
400,David Wingate\wingada01,SG,31,CHH,52,9,515,3.5,8.5,.410,0.3,1.5,.182,3.2,7.0,.460,1.3,1.7,.750,0.8,3.4,4.2,3.9,1.3,0.4,1.9,4.2,8.5
401,Dontonio Wingfield\wingfdo01,SF,20,SEA,20,0,81,8.0,22.7,.353,0.9,5.3,.167,7.1,17.3,.410,3.6,4.4,.800,4.9,8.4,13.3,1.3,2.2,1.3,3.6,6.7,20.4
402,Joe Wolf\wolfjo01,PF,30,CHH,63,6,583,2.3,5.0,.469,0.1,0.4,.333,2.2,4.6,.480,0.7,1.0,.750,2.1,5.9,8.0,2.3,0.6,0.4,1.4,6.2,5.6
403,David Wood\woodda01,PF,30,GSW,78,13,1336,4.1,8.8,.469,0.8,2.5,.341,3.3,6.3,.519,2.5,3.2,.778,2.2,4.3,6.5,1.8,0.8,0.4,1.4,5.8,11.5
404,Randy Woods\woodsra01,PG,24,LAC,62,3,495,2.7,8.5,.316,1.6,5.4,.297,1.1,3.1,.349,2.0,2.8,.737,0.7,2.5,3.2,9.7,3.0,0.0,4.0,6.3,9.0
405,Haywoode Workman\workmha01,PG,29,IND,69,14,1028,3.5,9.4,.375,1.2,3.4,.357,2.3,6.0,.386,1.9,2.6,.743,0.7,3.2,3.9,6.8,2.1,0.2,2.6,4.0,10.2
406,Sharone Wright\wrighsh01,C,22,PHI,79,49,2044,6.4,13.7,.465,0.0,0.1,.000,6.4,13.5,.470,3.2,5.0,.645,3.4,4.9,8.3,0.8,0.7,1.8,2.7,4.3,15.9
407,Danny Young\youngda01,PG,32,MIL,7,0,77,4.2,7.9,.529,2.3,5.6,.417,1.9,2.3,.800,0.5,0.5,1.000,0.5,1.9,2.3,5.6,1.9,0.0,1.9,3.7,11.2