,Player,Tm,Pos,PG%,SG%,SF%,PF%,C%
0,Kareem Abdul-Jabbar*,LAL,C,0.0003214024835646457,4.747991234477721e-05,0.0005332359386413442,0.10326880934989022,0.8964645726807887
1,Alvan Adams,PHO,C,0.0003214024835646457,4.747991234477721e-05,0.0005332359386413442,0.10326880934989022,0.8964645726807887
2,Dennis Awtrey,SEA,C,0.0003214024835646457,4.747991234477721e-05,0.0005332359386413442,0.10326880934989022,0.8964645726807887
3,Kent Benson,DET,C,0.0003214024835646457,4.747991234477721e-05,0.0005332359386413442,0.10326880934989022,0.8964645726807887
4,Lewis Brown,WSB,C,0.0003214024835646457,4.747991234477721e-05,0.0005332359386413442,0.10326880934989022,0.8964645726807887
5,Rickey Brown,GSW,C,0.0003214024835646457,4.747991234477721e-05,0.0005332359386413442,0.10326880934989022,0.8964645726807887
6,Tom Burleson,ATL,C,0.0003214024835646457,4.747991234477721e-05,0.0005332359386413442,0.10326880934989022,0.8964645726807887
7,Joe Barry Carroll,GSW,C,0.0003214024835646457,4.747991234477721e-05,0.0005332359386413442,0.10326880934989022,0.8964645726807887
8,Bill Cartwright,NYK,C,0.0003214024835646457,4.747991234477721e-05,0.0005332359386413442,0.10326880934989022,0.8964645726807887
9,Wayne Cooper,UTA,C,0.0003214024835646457,4.747991234477721e-05,0.0005332359386413442,0.10326880934989022,0.8964645726807887
10,Dave Corzine,SAS,C,0.0003214024835646457,4.747991234477721e-05,0.0005332359386413442,0.10326880934989022,0.8964645726807887
11,Geoff Crompton,POR,C,0.0003214024835646457,4.747991234477721e-05,0.0005332359386413442,0.10326880934989022,0.8964645726807887
12,Pat Cummings,MIL,C,0.0003214024835646457,4.747991234477721e-05,0.0005332359386413442,0.10326880934989022,0.8964645726807887
13,Earl Cureton,PHI,C,0.0003214024835646457,4.747991234477721e-05,0.0005332359386413442,0.10326880934989022,0.8964645726807887
14,Darryl Dawkins,PHI,C,0.0003214024835646457,4.747991234477721e-05,0.0005332359386413442,0.10326880934989022,0.8964645726807887
15,Coby Dietrick,CHI,C,0.0003214024835646457,4.747991234477721e-05,0.0005332359386413442,0.10326880934989022,0.8964645726807887
16,James Donaldson,SEA,C,0.0003214024835646457,4.747991234477721e-05,0.0005332359386413442,0.10326880934989022,0.8964645726807887
17,Leon Douglas,KCK,C,0.0003214024835646457,4.747991234477721e-05,0.0005332359386413442,0.10326880934989022,0.8964645726807887
18,Ralph Drollinger,DAL,C,0.0003214024835646457,4.747991234477721e-05,0.0005332359386413442,0.10326880934989022,0.8964645726807887
19,James Edwards,IND,C,0.0003214024835646457,4.747991234477721e-05,0.0005332359386413442,0.10326880934989022,0.8964645726807887
20,Bob Elliott,NJN,C,0.0003214024835646457,4.747991234477721e-05,0.0005332359386413442,0.10326880934989022,0.8964645726807887
21,Len Elmore,MIL,C,0.0003214024835646457,4.747991234477721e-05,0.0005332359386413442,0.10326880934989022,0.8964645726807887
22,Eric Fernsten,BOS,C,0.0003214024835646457,4.747991234477721e-05,0.0005332359386413442,0.10326880934989022,0.8964645726807887
23,Artis Gilmore*,CHI,C,0.0003214024835646457,4.747991234477721e-05,0.0005332359386413442,0.10326880934989022,0.8964645726807887
24,Mike Gminski,NJN,C,0.0003214024835646457,4.747991234477721e-05,0.0005332359386413442,0.10326880934989022,0.8964645726807887
25,Steve Hawes,ATL,C,0.0003214024835646457,4.747991234477721e-05,0.0005332359386413442,0.10326880934989022,0.8964645726807887
26,Kim Hughes,TOT,C,0.0003214024835646457,4.747991234477721e-05,0.0005332359386413442,0.10326880934989022,0.8964645726807887
27,Kim Hughes,DEN,C,0.0003214024835646457,4.747991234477721e-05,0.0005332359386413442,0.10326880934989022,0.8964645726807887
28,Kim Hughes,CLE,C,0.0003214024835646457,4.747991234477721e-05,0.0005332359386413442,0.10326880934989022,0.8964645726807887
29,Dan Issel*,DEN,C,0.0003214024835646457,4.747991234477721e-05,0.0005332359386413442,0.10326880934989022,0.8964645726807887
30,Clemon Johnson,IND,C,0.0003214024835646457,4.747991234477721e-05,0.0005332359386413442,0.10326880934989022,0.8964645726807887
31,George Johnson,SAS,C,0.0003214024835646457,4.747991234477721e-05,0.0005332359386413442,0.10326880934989022,0.8964645726807887
32,Caldwell Jones,PHI,C,0.0003214024835646457,4.747991234477721e-05,0.0005332359386413442,0.10326880934989022,0.8964645726807887
33,Rich Kelley,PHO,C,0.0003214024835646457,4.747991234477721e-05,0.0005332359386413442,0.10326880934989022,0.8964645726807887
34,Kevin Kunnert,POR,C,0.0003214024835646457,4.747991234477721e-05,0.0005332359386413442,0.10326880934989022,0.8964645726807887
35,Sam Lacey,KCK,C,0.0003214024835646457,4.747991234477721e-05,0.0005332359386413442,0.10326880934989022,0.8964645726807887
36,Tom LaGarde,DAL,C,0.0003214024835646457,4.747991234477721e-05,0.0005332359386413442,0.10326880934989022,0.8964645726807887
37,Bill Laimbeer,CLE,C,0.0003214024835646457,4.747991234477721e-05,0.0005332359386413442,0.10326880934989022,0.8964645726807887
38,Bob Lanier*,MIL,C,0.0003214024835646457,4.747991234477721e-05,0.0005332359386413442,0.10326880934989022,0.8964645726807887
39,Edmund Lawrence,DET,C,0.0003214024835646457,4.747991234477721e-05,0.0005332359386413442,0.10326880934989022,0.8964645726807887
40,Scott Lloyd,DAL,C,0.0003214024835646457,4.747991234477721e-05,0.0005332359386413442,0.10326880934989022,0.8964645726807887
41,Moses Malone*,HOU,C,0.0003214024835646457,4.747991234477721e-05,0.0005332359386413442,0.10326880934989022,0.8964645726807887
42,Tom McMillen,ATL,C,0.0003214024835646457,4.747991234477721e-05,0.0005332359386413442,0.10326880934989022,0.8964645726807887
43,Joe Meriweather,KCK,C,0.0003214024835646457,4.747991234477721e-05,0.0005332359386413442,0.10326880934989022,0.8964645726807887
44,Paul Mokeski,DET,C,0.0003214024835646457,4.747991234477721e-05,0.0005332359386413442,0.10326880934989022,0.8964645726807887
45,Swen Nater,SDC,C,0.0003214024835646457,4.747991234477721e-05,0.0005332359386413442,0.10326880934989022,0.8964645726807887
46,Jawann Oldham,DEN,C,0.0003214024835646457,4.747991234477721e-05,0.0005332359386413442,0.10326880934989022,0.8964645726807887
47,Robert Parish*,BOS,C,0.0003214024835646457,4.747991234477721e-05,0.0005332359386413442,0.10326880934989022,0.8964645726807887
48,Clifford Ray,GSW,C,0.0003214024835646457,4.747991234477721e-05,0.0005332359386413442,0.10326880934989022,0.8964645726807887
49,Rick Robey,BOS,C,0.0003214024835646457,4.747991234477721e-05,0.0005332359386413442,0.10326880934989022,0.8964645726807887
50,Dave Robisch,TOT,C,0.0003214024835646457,4.747991234477721e-05,0.0005332359386413442,0.10326880934989022,0.8964645726807887
51,Dave Robisch,CLE,C,0.0003214024835646457,4.747991234477721e-05,0.0005332359386413442,0.10326880934989022,0.8964645726807887
52,Dave Robisch,DEN,C,0.0003214024835646457,4.747991234477721e-05,0.0005332359386413442,0.10326880934989022,0.8964645726807887
53,Tree Rollins,ATL,C,0.0003214024835646457,4.747991234477721e-05,0.0005332359386413442,0.10326880934989022,0.8964645726807887
54,Jack Sikma*,SEA,C,0.0003214024835646457,4.747991234477721e-05,0.0005332359386413442,0.10326880934989022,0.8964645726807887
55,Mychal Thompson,POR,C,0.0003214024835646457,4.747991234477721e-05,0.0005332359386413442,0.10326880934989022,0.8964645726807887
56,Wes Unseld*,WSB,C,0.0003214024835646457,4.747991234477721e-05,0.0005332359386413442,0.10326880934989022,0.8964645726807887
57,Brett Vroman,UTA,C,0.0003214024835646457,4.747991234477721e-05,0.0005332359386413442,0.10326880934989022,0.8964645726807887
58,Marvin Webster,NYK,C,0.0003214024835646457,4.747991234477721e-05,0.0005332359386413442,0.10326880934989022,0.8964645726807887
59,Jerome Whitehead,TOT,C,0.0003214024835646457,4.747991234477721e-05,0.0005332359386413442,0.10326880934989022,0.8964645726807887
60,Jerome Whitehead,DAL,C,0.0003214024835646457,4.747991234477721e-05,0.0005332359386413442,0.10326880934989022,0.8964645726807887
61,Jerome Whitehead,CLE,C,0.0003214024835646457,4.747991234477721e-05,0.0005332359386413442,0.10326880934989022,0.8964645726807887
62,Jerome Whitehead,SDC,C,0.0003214024835646457,4.747991234477721e-05,0.0005332359386413442,0.10326880934989022,0.8964645726807887
63,Jeff Wilkins,UTA,C,0.0003214024835646457,4.747991234477721e-05,0.0005332359386413442,0.10326880934989022,0.8964645726807887
64,Tom Abernethy,TOT,SF,0.0033940594059405894,0.12606336633663331,0.6900594059405959,0.1769821782178211,0.00442772277227721
65,Tom Abernethy,GSW,SF,0.0033940594059405894,0.12606336633663331,0.6900594059405959,0.1769821782178211,0.00442772277227721
66,Tom Abernethy,IND,SF,0.0033940594059405894,0.12606336633663331,0.6900594059405959,0.1769821782178211,0.00442772277227721
67,Greg Ballard,WSB,SF,0.0033940594059405894,0.12606336633663331,0.6900594059405959,0.1769821782178211,0.00442772277227721
68,Mike Bantom,IND,SF,0.0033940594059405894,0.12606336633663331,0.6900594059405959,0.1769821782178211,0.00442772277227721
69,Junior Bridgeman,MIL,SF,0.0033940594059405894,0.12606336633663331,0.6900594059405959,0.1769821782178211,0.00442772277227721
70,Allan Bristow,UTA,SF,0.0033940594059405894,0.12606336633663331,0.6900594059405959,0.1769821782178211,0.00442772277227721
71,Michael Brooks,SDC,SF,0.0033940594059405894,0.12606336633663331,0.6900594059405959,0.1769821782178211,0.00442772277227721
72,Marty Byrnes,DAL,SF,0.0033940594059405894,0.12606336633663331,0.6900594059405959,0.1769821782178211,0.00442772277227721
73,M.L. Carr,BOS,SF,0.0033940594059405894,0.12606336633663331,0.6900594059405959,0.1769821782178211,0.00442772277227721
74,Butch Carter,LAL,SF,0.0033940594059405894,0.12606336633663331,0.6900594059405959,0.1769821782178211,0.00442772277227721
75,Don Collins,TOT,SF,0.0033940594059405894,0.12606336633663331,0.6900594059405959,0.1769821782178211,0.00442772277227721
76,Don Collins,ATL,SF,0.0033940594059405894,0.12606336633663331,0.6900594059405959,0.1769821782178211,0.00442772277227721
77,Don Collins,WSB,SF,0.0033940594059405894,0.12606336633663331,0.6900594059405959,0.1769821782178211,0.00442772277227721
78,Jeff Cook,PHO,SF,0.0033940594059405894,0.12606336633663331,0.6900594059405959,0.1769821782178211,0.00442772277227721
79,Bob Dandridge,WSB,SF,0.0033940594059405894,0.12606336633663331,0.6900594059405959,0.1769821782178211,0.00442772277227721
80,Adrian Dantley*,UTA,SF,0.0033940594059405894,0.12606336633663331,0.6900594059405959,0.1769821782178211,0.00442772277227721
81,Ron Davis,SDC,SF,0.0033940594059405894,0.12606336633663331,0.6900594059405959,0.1769821782178211,0.00442772277227721
82,Jacky Dorsey,SEA,SF,0.0033940594059405894,0.12606336633663331,0.6900594059405959,0.1769821782178211,0.00442772277227721
83,John Drew,ATL,SF,0.0033940594059405894,0.12606336633663331,0.6900594059405959,0.1769821782178211,0.00442772277227721
84,Terry Duerod,DAL,SF,0.0033940594059405894,0.12606336633663331,0.6900594059405959,0.1769821782178211,0.00442772277227721
85,Alex English*,DEN,SF,0.0033940594059405894,0.12606336633663331,0.6900594059405959,0.1769821782178211,0.00442772277227721
86,Julius Erving*,PHI,SF,0.0033940594059405894,0.12606336633663331,0.6900594059405959,0.1769821782178211,0.00442772277227721
87,Don Ford,CLE,SF,0.0033940594059405894,0.12606336633663331,0.6900594059405959,0.1769821782178211,0.00442772277227721
88,Calvin Garrett,HOU,SF,0.0033940594059405894,0.12606336633663331,0.6900594059405959,0.1769821782178211,0.00442772277227721
89,Gus Gerard,TOT,SF,0.0033940594059405894,0.12606336633663331,0.6900594059405959,0.1769821782178211,0.00442772277227721
90,Gus Gerard,KCK,SF,0.0033940594059405894,0.12606336633663331,0.6900594059405959,0.1769821782178211,0.00442772277227721
91,Gus Gerard,SAS,SF,0.0033940594059405894,0.12606336633663331,0.6900594059405959,0.1769821782178211,0.00442772277227721
92,Bob Gross,POR,SF,0.0033940594059405894,0.12606336633663331,0.6900594059405959,0.1769821782178211,0.00442772277227721
93,Ernie Grunfeld,KCK,SF,0.0033940594059405894,0.12606336633663331,0.6900594059405959,0.1769821782178211,0.00442772277227721
94,Bill Hanzlik,SEA,SF,0.0033940594059405894,0.12606336633663331,0.6900594059405959,0.1769821782178211,0.00442772277227721
95,Abdul Jeelani,DAL,SF,0.0033940594059405894,0.12606336633663331,0.6900594059405959,0.1769821782178211,0.00442772277227721
96,John Johnson,SEA,SF,0.0033940594059405894,0.12606336633663331,0.6900594059405959,0.1769821782178211,0.00442772277227721
97,Marques Johnson,MIL,SF,0.0033940594059405894,0.12606336633663331,0.6900594059405959,0.1769821782178211,0.00442772277227721
98,Ollie Johnson,PHI,SF,0.0033940594059405894,0.12606336633663331,0.6900594059405959,0.1769821782178211,0.00442772277227721
99,Walter Jordan,CLE,SF,0.0033940594059405894,0.12606336633663331,0.6900594059405959,0.1769821782178211,0.00442772277227721
100,Jeff Judkins,UTA,SF,0.0033940594059405894,0.12606336633663331,0.6900594059405959,0.1769821782178211,0.00442772277227721
101,Greg Kelser,DET,SF,0.0033940594059405894,0.12606336633663331,0.6900594059405959,0.1769821782178211,0.00442772277227721
102,Larry Kenon,CHI,SF,0.0033940594059405894,0.12606336633663331,0.6900594059405959,0.1769821782178211,0.00442772277227721
103,Bernard King*,GSW,SF,0.0033940594059405894,0.12606336633663331,0.6900594059405959,0.1769821782178211,0.00442772277227721
104,Cedric Maxwell,BOS,SF,0.0033940594059405894,0.12606336633663331,0.6900594059405959,0.1769821782178211,0.00442772277227721
105,Scott May,CHI,SF,0.0033940594059405894,0.12606336633663331,0.6900594059405959,0.1769821782178211,0.00442772277227721
106,Bill Mayfield,GSW,SF,0.0033940594059405894,0.12606336633663331,0.6900594059405959,0.1769821782178211,0.00442772277227721
107,Dick Miller,TOT,SF,0.0033940594059405894,0.12606336633663331,0.6900594059405959,0.1769821782178211,0.00442772277227721
108,Dick Miller,IND,SF,0.0033940594059405894,0.12606336633663331,0.6900594059405959,0.1769821782178211,0.00442772277227721
109,Dick Miller,UTA,SF,0.0033940594059405894,0.12606336633663331,0.6900594059405959,0.1769821782178211,0.00442772277227721
110,Mike Mitchell,CLE,SF,0.0033940594059405894,0.12606336633663331,0.6900594059405959,0.1769821782178211,0.00442772277227721
111,Steve Mix,PHI,SF,0.0033940594059405894,0.12606336633663331,0.6900594059405959,0.1769821782178211,0.00442772277227721
112,Calvin Natt,POR,SF,0.0033940594059405894,0.12606336633663331,0.6900594059405959,0.1769821782178211,0.00442772277227721
113,Mike Niles,PHO,SF,0.0033940594059405894,0.12606336633663331,0.6900594059405959,0.1769821782178211,0.00442772277227721
114,Mike O'Koren,NJN,SF,0.0033940594059405894,0.12606336633663331,0.6900594059405959,0.1769821782178211,0.00442772277227721
115,Mark Olberding,SAS,SF,0.0033940594059405894,0.12606336633663331,0.6900594059405959,0.1769821782178211,0.00442772277227721
116,Louis Orr,IND,SF,0.0033940594059405894,0.12606336633663331,0.6900594059405959,0.1769821782178211,0.00442772277227721
117,Myles Patrick,LAL,SF,0.0033940594059405894,0.12606336633663331,0.6900594059405959,0.1769821782178211,0.00442772277227721
118,Wally Rank,SDC,SF,0.0033940594059405894,0.12606336633663331,0.6900594059405959,0.1769821782178211,0.00442772277227721
119,Robert Reid,HOU,SF,0.0033940594059405894,0.12606336633663331,0.6900594059405959,0.1769821782178211,0.00442772277227721
120,Kevin Restani,SAS,SF,0.0033940594059405894,0.12606336633663331,0.6900594059405959,0.1769821782178211,0.00442772277227721
121,Anthony Roberts,WSB,SF,0.0033940594059405894,0.12606336633663331,0.6900594059405959,0.1769821782178211,0.00442772277227721
122,Campy Russell,NYK,SF,0.0033940594059405894,0.12606336633663331,0.6900594059405959,0.1769821782178211,0.00442772277227721
123,Frankie Sanders,KCK,SF,0.0033940594059405894,0.12606336633663331,0.6900594059405959,0.1769821782178211,0.00442772277227721
124,Alvin Scott,PHO,SF,0.0033940594059405894,0.12606336633663331,0.6900594059405959,0.1769821782178211,0.00442772277227721
125,Craig Shelton,ATL,SF,0.0033940594059405894,0.12606336633663331,0.6900594059405959,0.1769821782178211,0.00442772277227721
126,Purvis Short,GSW,SF,0.0033940594059405894,0.12606336633663331,0.6900594059405959,0.1769821782178211,0.00442772277227721
127,Jim Spanarkel,DAL,SF,0.0033940594059405894,0.12606336633663331,0.6900594059405959,0.1769821782178211,0.00442772277227721
128,John Stroud,HOU,SF,0.0033940594059405894,0.12606336633663331,0.6900594059405959,0.1769821782178211,0.00442772277227721
129,Terry Tyler,DET,SF,0.0033940594059405894,0.12606336633663331,0.6900594059405959,0.1769821782178211,0.00442772277227721
130,Ronnie Valentine,DEN,SF,0.0033940594059405894,0.12606336633663331,0.6900594059405959,0.1769821782178211,0.00442772277227721
131,Jan van Breda Kolff,NJN,SF,0.0033940594059405894,0.12606336633663331,0.6900594059405959,0.1769821782178211,0.00442772277227721
132,Kiki Vandeweghe,DEN,SF,0.0033940594059405894,0.12606336633663331,0.6900594059405959,0.1769821782178211,0.00442772277227721
133,Wally Walker,SEA,SF,0.0033940594059405894,0.12606336633663331,0.6900594059405959,0.1769821782178211,0.00442772277227721
134,Scott Wedman,KCK,SF,0.0033940594059405894,0.12606336633663331,0.6900594059405959,0.1769821782178211,0.00442772277227721
135,Jamaal Wilkes*,LAL,SF,0.0033940594059405894,0.12606336633663331,0.6900594059405959,0.1769821782178211,0.00442772277227721
136,James Wilkes,CHI,SF,0.0033940594059405894,0.12606336633663331,0.6900594059405959,0.1769821782178211,0.00442772277227721
137,Bill Willoughby,HOU,SF,0.0033940594059405894,0.12606336633663331,0.6900594059405959,0.1769821782178211,0.00442772277227721
138,Darrell Allums,DAL,PF,0.000351000351000351,0.0012706212706212697,0.08266409266409273,0.7044857844857865,0.21231660231660082
139,James Bailey,SEA,PF,0.000351000351000351,0.0012706212706212697,0.08266409266409273,0.7044857844857865,0.21231660231660082
140,Mel Bennett,UTA,PF,0.000351000351000351,0.0012706212706212697,0.08266409266409273,0.7044857844857865,0.21231660231660082
141,Larry Bird*,BOS,PF,0.000351000351000351,0.0012706212706212697,0.08266409266409273,0.7044857844857865,0.21231660231660082
142,Jim Brewer,LAL,PF,0.000351000351000351,0.0012706212706212697,0.08266409266409273,0.7044857844857865,0.21231660231660082
143,Joe Bryant,SDC,PF,0.000351000351000351,0.0012706212706212697,0.08266409266409273,0.7044857844857865,0.21231660231660082
144,Kenny Carr,CLE,PF,0.000351000351000351,0.0012706212706212697,0.08266409266409273,0.7044857844857865,0.21231660231660082
145,Harvey Catchings,MIL,PF,0.000351000351000351,0.0012706212706212697,0.08266409266409273,0.7044857844857865,0.21231660231660082
146,Jim Chones,LAL,PF,0.000351000351000351,0.0012706212706212697,0.08266409266409273,0.7044857844857865,0.21231660231660082
147,Monti Davis,TOT,PF,0.000351000351000351,0.0012706212706212697,0.08266409266409273,0.7044857844857865,0.21231660231660082
148,Monti Davis,PHI,PF,0.000351000351000351,0.0012706212706212697,0.08266409266409273,0.7044857844857865,0.21231660231660082
149,Monti Davis,DAL,PF,0.000351000351000351,0.0012706212706212697,0.08266409266409273,0.7044857844857865,0.21231660231660082
150,Larry Demic,NYK,PF,0.000351000351000351,0.0012706212706212697,0.08266409266409273,0.7044857844857865,0.21231660231660082
151,Glen Gondrezick,DEN,PF,0.000351000351000351,0.0012706212706212697,0.08266409266409273,0.7044857844857865,0.21231660231660082
152,Dave Greenwood,CHI,PF,0.000351000351000351,0.0012706212706212697,0.08266409266409273,0.7044857844857865,0.21231660231660082
153,Paul Griffin,SAS,PF,0.000351000351000351,0.0012706212706212697,0.08266409266409273,0.7044857844857865,0.21231660231660082
154,James Hardy,UTA,PF,0.000351000351000351,0.0012706212706212697,0.08266409266409273,0.7044857844857865,0.21231660231660082
155,Mike Harper,POR,PF,0.000351000351000351,0.0012706212706212697,0.08266409266409273,0.7044857844857865,0.21231660231660082
156,Elvin Hayes*,WSB,PF,0.000351000351000351,0.0012706212706212697,0.08266409266409273,0.7044857844857865,0.21231660231660082
157,Gar Heard,SDC,PF,0.000351000351000351,0.0012706212706212697,0.08266409266409273,0.7044857844857865,0.21231660231660082
158,Cedrick Hordges,DEN,PF,0.000351000351000351,0.0012706212706212697,0.08266409266409273,0.7044857844857865,0.21231660231660082
159,Phil Hubbard,DET,PF,0.000351000351000351,0.0012706212706212697,0.08266409266409273,0.7044857844857865,0.21231660231660082
160,George Johnson,IND,PF,0.000351000351000351,0.0012706212706212697,0.08266409266409273,0.7044857844857865,0.21231660231660082
161,Lee Johnson,TOT,PF,0.000351000351000351,0.0012706212706212697,0.08266409266409273,0.7044857844857865,0.21231660231660082
162,Lee Johnson,HOU,PF,0.000351000351000351,0.0012706212706212697,0.08266409266409273,0.7044857844857865,0.21231660231660082
163,Lee Johnson,DET,PF,0.000351000351000351,0.0012706212706212697,0.08266409266409273,0.7044857844857865,0.21231660231660082
164,Mickey Johnson,MIL,PF,0.000351000351000351,0.0012706212706212697,0.08266409266409273,0.7044857844857865,0.21231660231660082
165,Reggie Johnson,SAS,PF,0.000351000351000351,0.0012706212706212697,0.08266409266409273,0.7044857844857865,0.21231660231660082
166,Bobby Jones*,PHI,PF,0.000351000351000351,0.0012706212706212697,0.08266409266409273,0.7044857844857865,0.21231660231660082
167,Dwight Jones,CHI,PF,0.000351000351000351,0.0012706212706212697,0.08266409266409273,0.7044857844857865,0.21231660231660082
168,Edgar Jones,NJN,PF,0.000351000351000351,0.0012706212706212697,0.08266409266409273,0.7044857844857865,0.21231660231660082
169,Major Jones,HOU,PF,0.000351000351000351,0.0012706212706212697,0.08266409266409273,0.7044857844857865,0.21231660231660082
170,Clarence Kea,DAL,PF,0.000351000351000351,0.0012706212706212697,0.08266409266409273,0.7044857844857865,0.21231660231660082
171,Reggie King,KCK,PF,0.000351000351000351,0.0012706212706212697,0.08266409266409273,0.7044857844857865,0.21231660231660082
172,Joel Kramer,PHO,PF,0.000351000351000351,0.0012706212706212697,0.08266409266409273,0.7044857844857865,0.21231660231660082
173,Mitch Kupchak,WSB,PF,0.000351000351000351,0.0012706212706212697,0.08266409266409273,0.7044857844857865,0.21231660231660082
174,John Lambert,TOT,PF,0.000351000351000351,0.0012706212706212697,0.08266409266409273,0.7044857844857865,0.21231660231660082
175,John Lambert,CLE,PF,0.000351000351000351,0.0012706212706212697,0.08266409266409273,0.7044857844857865,0.21231660231660082
176,John Lambert,KCK,PF,0.000351000351000351,0.0012706212706212697,0.08266409266409273,0.7044857844857865,0.21231660231660082
177,Mark Landsberger,LAL,PF,0.000351000351000351,0.0012706212706212697,0.08266409266409273,0.7044857844857865,0.21231660231660082
178,Maurice Lucas,NJN,PF,0.000351000351000351,0.0012706212706212697,0.08266409266409273,0.7044857844857865,0.21231660231660082
179,Rick Mahorn,WSB,PF,0.000351000351000351,0.0012706212706212697,0.08266409266409273,0.7044857844857865,0.21231660231660082
180,Bob McAdoo*,TOT,PF,0.000351000351000351,0.0012706212706212697,0.08266409266409273,0.7044857844857865,0.21231660231660082
181,Bob McAdoo*,DET,PF,0.000351000351000351,0.0012706212706212697,0.08266409266409273,0.7044857844857865,0.21231660231660082
182,Bob McAdoo*,NJN,PF,0.000351000351000351,0.0012706212706212697,0.08266409266409273,0.7044857844857865,0.21231660231660082
183,George McGinnis*,IND,PF,0.000351000351000351,0.0012706212706212697,0.08266409266409273,0.7044857844857865,0.21231660231660082
184,Kevin McHale*,BOS,PF,0.000351000351000351,0.0012706212706212697,0.08266409266409273,0.7044857844857865,0.21231660231660082
185,Tom Owens,POR,PF,0.000351000351000351,0.0012706212706212697,0.08266409266409273,0.7044857844857865,0.21231660231660082
186,Billy Paultz,HOU,PF,0.000351000351000351,0.0012706212706212697,0.08266409266409273,0.7044857844857865,0.21231660231660082
187,Sam Pellom,ATL,PF,0.000351000351000351,0.0012706212706212697,0.08266409266409273,0.7044857844857865,0.21231660231660082
188,Ben Poquette,UTA,PF,0.000351000351000351,0.0012706212706212697,0.08266409266409273,0.7044857844857865,0.21231660231660082
189,James Ray,DEN,PF,0.000351000351000351,0.0012706212706212697,0.08266409266409273,0.7044857844857865,0.21231660231660082
190,Cliff Robinson,NJN,PF,0.000351000351000351,0.0012706212706212697,0.08266409266409273,0.7044857844857865,0.21231660231660082
191,Truck Robinson,PHO,PF,0.000351000351000351,0.0012706212706212697,0.08266409266409273,0.7044857844857865,0.21231660231660082
192,Wayne Robinson,DET,PF,0.000351000351000351,0.0012706212706212697,0.08266409266409273,0.7044857844857865,0.21231660231660082
193,Bill Robinzine,TOT,PF,0.000351000351000351,0.0012706212706212697,0.08266409266409273,0.7044857844857865,0.21231660231660082
194,Bill Robinzine,CLE,PF,0.000351000351000351,0.0012706212706212697,0.08266409266409273,0.7044857844857865,0.21231660231660082
195,Bill Robinzine,DAL,PF,0.000351000351000351,0.0012706212706212697,0.08266409266409273,0.7044857844857865,0.21231660231660082
196,Dan Roundfield,ATL,PF,0.000351000351000351,0.0012706212706212697,0.08266409266409273,0.7044857844857865,0.21231660231660082
197,DeWayne Scales,NYK,PF,0.000351000351000351,0.0012706212706212697,0.08266409266409273,0.7044857844857865,0.21231660231660082
198,Lonnie Shelton,SEA,PF,0.000351000351000351,0.0012706212706212697,0.08266409266409273,0.7044857844857865,0.21231660231660082
199,John Shumate,TOT,PF,0.000351000351000351,0.0012706212706212697,0.08266409266409273,0.7044857844857865,0.21231660231660082
200,John Shumate,SAS,PF,0.000351000351000351,0.0012706212706212697,0.08266409266409273,0.7044857844857865,0.21231660231660082
201,John Shumate,SEA,PF,0.000351000351000351,0.0012706212706212697,0.08266409266409273,0.7044857844857865,0.21231660231660082
202,Larry Smith,GSW,PF,0.000351000351000351,0.0012706212706212697,0.08266409266409273,0.7044857844857865,0.21231660231660082
203,Rudy Tomjanovich*,HOU,PF,0.000351000351000351,0.0012706212706212697,0.08266409266409273,0.7044857844857865,0.21231660231660082
204,Kermit Washington,POR,PF,0.000351000351000351,0.0012706212706212697,0.08266409266409273,0.7044857844857865,0.21231660231660082
205,Richard Washington,TOT,PF,0.000351000351000351,0.0012706212706212697,0.08266409266409273,0.7044857844857865,0.21231660231660082
206,Richard Washington,DAL,PF,0.000351000351000351,0.0012706212706212697,0.08266409266409273,0.7044857844857865,0.21231660231660082
207,Richard Washington,CLE,PF,0.000351000351000351,0.0012706212706212697,0.08266409266409273,0.7044857844857865,0.21231660231660082
208,Sidney Wicks,SDC,PF,0.000351000351000351,0.0012706212706212697,0.08266409266409273,0.7044857844857865,0.21231660231660082
209,Michael Wiley,SAS,PF,0.000351000351000351,0.0012706212706212697,0.08266409266409273,0.7044857844857865,0.21231660231660082
210,Sly Williams,NYK,PF,0.000351000351000351,0.0012706212706212697,0.08266409266409273,0.7044857844857865,0.21231660231660082
211,Tiny Archibald*,BOS,PG,0.8713428571428595,0.1261999999999998,0.0030714285714285626,0.0,0.0
212,Henry Bibby,SDC,PG,0.8713428571428595,0.1261999999999998,0.0030714285714285626,0.0,0.0
213,Mike Bratz,CLE,PG,0.8713428571428595,0.1261999999999998,0.0030714285714285626,0.0,0.0
214,Dave Britton,WSB,PG,0.8713428571428595,0.1261999999999998,0.0030714285714285626,0.0,0.0
215,Quinn Buckner,MIL,PG,0.8713428571428595,0.1261999999999998,0.0030714285714285626,0.0,0.0
216,Mack Calvin,CLE,PG,0.8713428571428595,0.1261999999999998,0.0030714285714285626,0.0,0.0
217,Maurice Cheeks*,PHI,PG,0.8713428571428595,0.1261999999999998,0.0030714285714285626,0.0,0.0
218,Charlie Criss,ATL,PG,0.8713428571428595,0.1261999999999998,0.0030714285714285626,0.0,0.0
219,Brad Davis,DAL,PG,0.8713428571428595,0.1261999999999998,0.0030714285714285626,0.0,0.0
220,Johnny Davis,IND,PG,0.8713428571428595,0.1261999999999998,0.0030714285714285626,0.0,0.0
221,Larry Drew,DET,PG,0.8713428571428595,0.1261999999999998,0.0030714285714285626,0.0,0.0
222,John Duren,UTA,PG,0.8713428571428595,0.1261999999999998,0.0030714285714285626,0.0,0.0
223,Mike Evans,MIL,PG,0.8713428571428595,0.1261999999999998,0.0030714285714285626,0.0,0.0
224,Phil Ford,KCK,PG,0.8713428571428595,0.1261999999999998,0.0030714285714285626,0.0,0.0
225,Mike Gale,TOT,PG,0.8713428571428595,0.1261999999999998,0.0030714285714285626,0.0,0.0
226,Mike Gale,SAS,PG,0.8713428571428595,0.1261999999999998,0.0030714285714285626,0.0,0.0
227,Mike Gale,POR,PG,0.8713428571428595,0.1261999999999998,0.0030714285714285626,0.0,0.0
228,Mike Glenn,NYK,PG,0.8713428571428595,0.1261999999999998,0.0030714285714285626,0.0,0.0
229,Rickey Green,UTA,PG,0.8713428571428595,0.1261999999999998,0.0030714285714285626,0.0,0.0
230,Roy Hamilton,POR,PG,0.8713428571428595,0.1261999999999998,0.0030714285714285626,0.0,0.0
231,Gerald Henderson,BOS,PG,0.8713428571428595,0.1261999999999998,0.0030714285714285626,0.0,0.0
232,Kenny Higgs,DEN,PG,0.8713428571428595,0.1261999999999998,0.0030714285714285626,0.0,0.0
233,Johnny High,PHO,PG,0.8713428571428595,0.1261999999999998,0.0030714285714285626,0.0,0.0
234,Armond Hill,TOT,PG,0.8713428571428595,0.1261999999999998,0.0030714285714285626,0.0,0.0
235,Armond Hill,ATL,PG,0.8713428571428595,0.1261999999999998,0.0030714285714285626,0.0,0.0
236,Armond Hill,SEA,PG,0.8713428571428595,0.1261999999999998,0.0030714285714285626,0.0,0.0
237,Lionel Hollins,PHI,PG,0.8713428571428595,0.1261999999999998,0.0030714285714285626,0.0,0.0
238,Geoff Huston,TOT,PG,0.8713428571428595,0.1261999999999998,0.0030714285714285626,0.0,0.0
239,Geoff Huston,DAL,PG,0.8713428571428595,0.1261999999999998,0.0030714285714285626,0.0,0.0
240,Geoff Huston,CLE,PG,0.8713428571428595,0.1261999999999998,0.0030714285714285626,0.0,0.0
241,Tony Jackson,LAL,PG,0.8713428571428595,0.1261999999999998,0.0030714285714285626,0.0,0.0
242,Dennis Johnson*,PHO,PG,0.8713428571428595,0.1261999999999998,0.0030714285714285626,0.0,0.0
243,Vinnie Johnson,SEA,PG,0.8713428571428595,0.1261999999999998,0.0030714285714285626,0.0,0.0
244,Eddie Jordan,TOT,PG,0.8713428571428595,0.1261999999999998,0.0030714285714285626,0.0,0.0
245,Eddie Jordan,NJN,PG,0.8713428571428595,0.1261999999999998,0.0030714285714285626,0.0,0.0
246,Eddie Jordan,LAL,PG,0.8713428571428595,0.1261999999999998,0.0030714285714285626,0.0,0.0
247,Allen Leavell,HOU,PG,0.8713428571428595,0.1261999999999998,0.0030714285714285626,0.0,0.0
248,Ron Lee,DET,PG,0.8713428571428595,0.1261999999999998,0.0030714285714285626,0.0,0.0
249,Ronnie Lester,CHI,PG,0.8713428571428595,0.1261999999999998,0.0030714285714285626,0.0,0.0
250,John Lucas,GSW,PG,0.8713428571428595,0.1261999999999998,0.0030714285714285626,0.0,0.0
251,Kyle Macy,PHO,PG,0.8713428571428595,0.1261999999999998,0.0030714285714285626,0.0,0.0
252,Wes Matthews,TOT,PG,0.8713428571428595,0.1261999999999998,0.0030714285714285626,0.0,0.0
253,Wes Matthews,WSB,PG,0.8713428571428595,0.1261999999999998,0.0030714285714285626,0.0,0.0
254,Wes Matthews,ATL,PG,0.8713428571428595,0.1261999999999998,0.0030714285714285626,0.0,0.0
255,Andre McCarter,WSB,PG,0.8713428571428595,0.1261999999999998,0.0030714285714285626,0.0,0.0
256,Jim McElroy,ATL,PG,0.8713428571428595,0.1261999999999998,0.0030714285714285626,0.0,0.0
257,Billy McKinney,TOT,PG,0.8713428571428595,0.1261999999999998,0.0030714285714285626,0.0,0.0
258,Billy McKinney,UTA,PG,0.8713428571428595,0.1261999999999998,0.0030714285714285626,0.0,0.0
259,Billy McKinney,DEN,PG,0.8713428571428595,0.1261999999999998,0.0030714285714285626,0.0,0.0
260,Johnny Moore,SAS,PG,0.8713428571428595,0.1261999999999998,0.0030714285714285626,0.0,0.0
261,Lowes Moore,NJN,PG,0.8713428571428595,0.1261999999999998,0.0030714285714285626,0.0,0.0
262,Calvin Murphy*,HOU,PG,0.8713428571428595,0.1261999999999998,0.0030714285714285626,0.0,0.0
263,Carl Nicks,TOT,PG,0.8713428571428595,0.1261999999999998,0.0030714285714285626,0.0,0.0
264,Carl Nicks,DEN,PG,0.8713428571428595,0.1261999999999998,0.0030714285714285626,0.0,0.0
265,Carl Nicks,UTA,PG,0.8713428571428595,0.1261999999999998,0.0030714285714285626,0.0,0.0
266,Norm Nixon,LAL,PG,0.8713428571428595,0.1261999999999998,0.0030714285714285626,0.0,0.0
267,Kevin Porter,WSB,PG,0.8713428571428595,0.1261999999999998,0.0030714285714285626,0.0,0.0
268,Kelvin Ransey,POR,PG,0.8713428571428595,0.1261999999999998,0.0030714285714285626,0.0,0.0
269,John Roche,DEN,PG,0.8713428571428595,0.1261999999999998,0.0030714285714285626,0.0,0.0
270,Lorenzo Romar,GSW,PG,0.8713428571428595,0.1261999999999998,0.0030714285714285626,0.0,0.0
271,Jerry Sichting,IND,PG,0.8713428571428595,0.1261999999999998,0.0030714285714285626,0.0,0.0
272,James Silas,SAS,PG,0.8713428571428595,0.1261999999999998,0.0030714285714285626,0.0,0.0
273,Robert Smith,CLE,PG,0.8713428571428595,0.1261999999999998,0.0030714285714285626,0.0,0.0
274,Ricky Sobers,CHI,PG,0.8713428571428595,0.1261999999999998,0.0030714285714285626,0.0,0.0
275,Rory Sparrow,NJN,PG,0.8713428571428595,0.1261999999999998,0.0030714285714285626,0.0,0.0
276,Brian Taylor,SDC,PG,0.8713428571428595,0.1261999999999998,0.0030714285714285626,0.0,0.0
277,Foots Walker,NJN,PG,0.8713428571428595,0.1261999999999998,0.0030714285714285626,0.0,0.0
278,Lloyd Walton,KCK,PG,0.8713428571428595,0.1261999999999998,0.0030714285714285626,0.0,0.0
279,Jo Jo White*,KCK,PG,0.8713428571428595,0.1261999999999998,0.0030714285714285626,0.0,0.0
280,Ray Williams,NYK,PG,0.8713428571428595,0.1261999999999998,0.0030714285714285626,0.0,0.0
281,Sam Worthen,CHI,PG,0.8713428571428595,0.1261999999999998,0.0030714285714285626,0.0,0.0
282,Larry Wright,DET,PG,0.8713428571428595,0.1261999999999998,0.0030714285714285626,0.0,0.0
283,Billy Ray Bates,POR,SG,0.11192363636363606,0.68289090909091,0.1991599999999993,0.006941818181818165,1.4545454545454546e-05
284,Otis Birdsong,KCK,SG,0.11192363636363606,0.68289090909091,0.1991599999999993,0.006941818181818165,1.4545454545454546e-05
285,Norman Black,DET,SG,0.11192363636363606,0.68289090909091,0.1991599999999993,0.006941818181818165,1.4545454545454546e-05
286,Ron Boone,UTA,SG,0.11192363636363606,0.68289090909091,0.1991599999999993,0.006941818181818165,1.4545454545454546e-05
287,Winford Boynes,DAL,SG,0.11192363636363606,0.68289090909091,0.1991599999999993,0.006941818181818165,1.4545454545454546e-05
288,Dudley Bradley,IND,SG,0.11192363636363606,0.68289090909091,0.1991599999999993,0.006941818181818165,1.4545454545454546e-05
289,Ron Brewer,TOT,SG,0.11192363636363606,0.68289090909091,0.1991599999999993,0.006941818181818165,1.4545454545454546e-05
290,Ron Brewer,POR,SG,0.11192363636363606,0.68289090909091,0.1991599999999993,0.006941818181818165,1.4545454545454546e-05
291,Ron Brewer,SAS,SG,0.11192363636363606,0.68289090909091,0.1991599999999993,0.006941818181818165,1.4545454545454546e-05
292,Fred Brown,SEA,SG,0.11192363636363606,0.68289090909091,0.1991599999999993,0.006941818181818165,1.4545454545454546e-05
293,Don Buse,IND,SG,0.11192363636363606,0.68289090909091,0.1991599999999993,0.006941818181818165,1.4545454545454546e-05
294,Austin Carr,TOT,SG,0.11192363636363606,0.68289090909091,0.1991599999999993,0.006941818181818165,1.4545454545454546e-05
295,Austin Carr,DAL,SG,0.11192363636363606,0.68289090909091,0.1991599999999993,0.006941818181818165,1.4545454545454546e-05
296,Austin Carr,WSB,SG,0.11192363636363606,0.68289090909091,0.1991599999999993,0.006941818181818165,1.4545454545454546e-05
297,Reggie Carter,NYK,SG,0.11192363636363606,0.68289090909091,0.1991599999999993,0.006941818181818165,1.4545454545454546e-05
298,Phil Chenier,GSW,SG,0.11192363636363606,0.68289090909091,0.1991599999999993,0.006941818181818165,1.4545454545454546e-05
299,Art Collins,ATL,SG,0.11192363636363606,0.68289090909091,0.1991599999999993,0.006941818181818165,1.4545454545454546e-05
300,Doug Collins,PHI,SG,0.11192363636363606,0.68289090909091,0.1991599999999993,0.006941818181818165,1.4545454545454546e-05
301,Darwin Cook,NJN,SG,0.11192363636363606,0.68289090909091,0.1991599999999993,0.006941818181818165,1.4545454545454546e-05
302,Michael Cooper,LAL,SG,0.11192363636363606,0.68289090909091,0.1991599999999993,0.006941818181818165,1.4545454545454546e-05
303,Walter Davis,PHO,SG,0.11192363636363606,0.68289090909091,0.1991599999999993,0.006941818181818165,1.4545454545454546e-05
304,Terry Duerod,BOS,SG,0.11192363636363606,0.68289090909091,0.1991599999999993,0.006941818181818165,1.4545454545454546e-05
305,Mike Dunleavy,HOU,SG,0.11192363636363606,0.68289090909091,0.1991599999999993,0.006941818181818165,1.4545454545454546e-05
306,T.R. Dunn,DEN,SG,0.11192363636363606,0.68289090909091,0.1991599999999993,0.006941818181818165,1.4545454545454546e-05
307,Chris Ford,BOS,SG,0.11192363636363606,0.68289090909091,0.1991599999999993,0.006941818181818165,1.4545454545454546e-05
308,World B. Free,GSW,SG,0.11192363636363606,0.68289090909091,0.1991599999999993,0.006941818181818165,1.4545454545454546e-05
309,Tony Fuller,DET,SG,0.11192363636363606,0.68289090909091,0.1991599999999993,0.006941818181818165,1.4545454545454546e-05
310,George Gervin*,SAS,SG,0.11192363636363606,0.68289090909091,0.1991599999999993,0.006941818181818165,1.4545454545454546e-05
311,Kevin Grevey,WSB,SG,0.11192363636363606,0.68289090909091,0.1991599999999993,0.006941818181818165,1.4545454545454546e-05
312,Darrell Griffith,UTA,SG,0.11192363636363606,0.68289090909091,0.1991599999999993,0.006941818181818165,1.4545454545454546e-05
313,Alan Hardy,LAL,SG,0.11192363636363606,0.68289090909091,0.1991599999999993,0.006941818181818165,1.4545454545454546e-05
314,Joe Hassett,TOT,SG,0.11192363636363606,0.68289090909091,0.1991599999999993,0.006941818181818165,1.4545454545454546e-05
315,Joe Hassett,DAL,SG,0.11192363636363606,0.68289090909091,0.1991599999999993,0.006941818181818165,1.4545454545454546e-05
316,Joe Hassett,GSW,SG,0.11192363636363606,0.68289090909091,0.1991599999999993,0.006941818181818165,1.4545454545454546e-05
317,Tom Henderson,HOU,SG,0.11192363636363606,0.68289090909091,0.1991599999999993,0.006941818181818165,1.4545454545454546e-05
318,Keith Herron,DET,SG,0.11192363636363606,0.68289090909091,0.1991599999999993,0.006941818181818165,1.4545454545454546e-05
319,Brad Holland,LAL,SG,0.11192363636363606,0.68289090909091,0.1991599999999993,0.006941818181818165,1.4545454545454546e-05
320,Eddie Johnson,ATL,SG,0.11192363636363606,0.68289090909091,0.1991599999999993,0.006941818181818165,1.4545454545454546e-05
321,Magic Johnson*,LAL,SG,0.11192363636363606,0.68289090909091,0.1991599999999993,0.006941818181818165,1.4545454545454546e-05
322,Chad Kinch,TOT,SG,0.11192363636363606,0.68289090909091,0.1991599999999993,0.006941818181818165,1.4545454545454546e-05
323,Chad Kinch,CLE,SG,0.11192363636363606,0.68289090909091,0.1991599999999993,0.006941818181818165,1.4545454545454546e-05
324,Chad Kinch,DAL,SG,0.11192363636363606,0.68289090909091,0.1991599999999993,0.006941818181818165,1.4545454545454546e-05
325,Billy Knight,IND,SG,0.11192363636363606,0.68289090909091,0.1991599999999993,0.006941818181818165,1.4545454545454546e-05
326,Wayne Kreklow,BOS,SG,0.11192363636363606,0.68289090909091,0.1991599999999993,0.006941818181818165,1.4545454545454546e-05
327,John Long,DET,SG,0.11192363636363606,0.68289090909091,0.1991599999999993,0.006941818181818165,1.4545454545454546e-05
328,Ollie Mack,TOT,SG,0.11192363636363606,0.68289090909091,0.1991599999999993,0.006941818181818165,1.4545454545454546e-05
329,Ollie Mack,CHI,SG,0.11192363636363606,0.68289090909091,0.1991599999999993,0.006941818181818165,1.4545454545454546e-05
330,Ollie Mack,DAL,SG,0.11192363636363606,0.68289090909091,0.1991599999999993,0.006941818181818165,1.4545454545454546e-05
331,Keith McCord,WSB,SG,0.11192363636363606,0.68289090909091,0.1991599999999993,0.006941818181818165,1.4545454545454546e-05
332,John Mengelt,GSW,SG,0.11192363636363606,0.68289090909091,0.1991599999999993,0.006941818181818165,1.4545454545454546e-05
333,Sidney Moncrief*,MIL,SG,0.11192363636363606,0.68289090909091,0.1991599999999993,0.006941818181818165,1.4545454545454546e-05
334,Kenny Natt,IND,SG,0.11192363636363606,0.68289090909091,0.1991599999999993,0.006941818181818165,1.4545454545454546e-05
335,Mike Newlin,NJN,SG,0.11192363636363606,0.68289090909091,0.1991599999999993,0.006941818181818165,1.4545454545454546e-05
336,Sonny Parker,GSW,SG,0.11192363636363606,0.68289090909091,0.1991599999999993,0.006941818181818165,1.4545454545454546e-05
337,Jim Paxson,POR,SG,0.11192363636363606,0.68289090909091,0.1991599999999993,0.006941818181818165,1.4545454545454546e-05
338,Roger Phegley,CLE,SG,0.11192363636363606,0.68289090909091,0.1991599999999993,0.006941818181818165,1.4545454545454546e-05
339,Stan Pietkiewicz,TOT,SG,0.11192363636363606,0.68289090909091,0.1991599999999993,0.006941818181818165,1.4545454545454546e-05
340,Stan Pietkiewicz,SDC,SG,0.11192363636363606,0.68289090909091,0.1991599999999993,0.006941818181818165,1.4545454545454546e-05
341,Stan Pietkiewicz,DAL,SG,0.11192363636363606,0.68289090909091,0.1991599999999993,0.006941818181818165,1.4545454545454546e-05
342,Tony Price,SDC,SG,0.11192363636363606,0.68289090909091,0.1991599999999993,0.006941818181818165,1.4545454545454546e-05
343,Billy Reid,GSW,SG,0.11192363636363606,0.68289090909091,0.1991599999999993,0.006941818181818165,1.4545454545454546e-05
344,Clint Richardson,PHI,SG,0.11192363636363606,0.68289090909091,0.1991599999999993,0.006941818181818165,1.4545454545454546e-05
345,Micheal Ray Richardson,NYK,SG,0.11192363636363606,0.68289090909091,0.1991599999999993,0.006941818181818165,1.4545454545454546e-05
346,Phil Smith,SDC,SG,0.11192363636363606,0.68289090909091,0.1991599999999993,0.006941818181818165,1.4545454545454546e-05
347,Randy Smith,CLE,SG,0.11192363636363606,0.68289090909091,0.1991599999999993,0.006941818181818165,1.4545454545454546e-05
348,Carlos Terry,WSB,SG,0.11192363636363606,0.68289090909091,0.1991599999999993,0.006941818181818165,1.4545454545454546e-05
349,Reggie Theus,CHI,SG,0.11192363636363606,0.68289090909091,0.1991599999999993,0.006941818181818165,1.4545454545454546e-05
350,David Thompson*,DEN,SG,0.11192363636363606,0.68289090909091,0.1991599999999993,0.006941818181818165,1.4545454545454546e-05
351,Andrew Toney,PHI,SG,0.11192363636363606,0.68289090909091,0.1991599999999993,0.006941818181818165,1.4545454545454546e-05
352,Paul Westphal*,SEA,SG,0.11192363636363606,0.68289090909091,0.1991599999999993,0.006941818181818165,1.4545454545454546e-05
353,Rudy White,TOT,SG,0.11192363636363606,0.68289090909091,0.1991599999999993,0.006941818181818165,1.4545454545454546e-05
354,Rudy White,GSW,SG,0.11192363636363606,0.68289090909091,0.1991599999999993,0.006941818181818165,1.4545454545454546e-05
355,Rudy White,SEA,SG,0.11192363636363606,0.68289090909091,0.1991599999999993,0.006941818181818165,1.4545454545454546e-05
356,Hawkeye Whitney,KCK,SG,0.11192363636363606,0.68289090909091,0.1991599999999993,0.006941818181818165,1.4545454545454546e-05
357,Bob Wilkerson,CHI,SG,0.11192363636363606,0.68289090909091,0.1991599999999993,0.006941818181818165,1.4545454545454546e-05
358,Freeman Williams,SDC,SG,0.11192363636363606,0.68289090909091,0.1991599999999993,0.006941818181818165,1.4545454545454546e-05
359,John Williamson,WSB,SG,0.11192363636363606,0.68289090909091,0.1991599999999993,0.006941818181818165,1.4545454545454546e-05
360,Brian Winters,MIL,SG,0.11192363636363606,0.68289090909091,0.1991599999999993,0.006941818181818165,1.4545454545454546e-05
361,Mike Woodson,NYK,SG,0.11192363636363606,0.68289090909091,0.1991599999999993,0.006941818181818165,1.4545454545454546e-05
362,Terry Duerod,TOT,SG-SF,0.057500000000000016,0.5566666666666668,0.35749999999999993,0.03000000000000001,0.0
