,Player,Tm,Pos,PG%,SG%,SF%,PF%,C%
0,Zaid Abdul-Aziz,SEA,C,0.0003214024835646457,4.747991234477721e-05,0.0005332359386413442,0.10326880934989022,0.8964645726807887
1,Kareem Abdul-Jabbar*,LAL,C,0.0003214024835646457,4.747991234477721e-05,0.0005332359386413442,0.10326880934989022,0.8964645726807887
2,Alvan Adams,PHO,C,0.0003214024835646457,4.747991234477721e-05,0.0005332359386413442,0.10326880934989022,0.8964645726807887
3,Jim Ard,BOS,C,0.0003214024835646457,4.747991234477721e-05,0.0005332359386413442,0.10326880934989022,0.8964645726807887
4,Dennis Awtrey,PHO,C,0.0003214024835646457,4.747991234477721e-05,0.0005332359386413442,0.10326880934989022,0.8964645726807887
5,Tom Boerwinkle,CHI,C,0.0003214024835646457,4.747991234477721e-05,0.0005332359386413442,0.10326880934989022,0.8964645726807887
6,Roger Brown,DET,C,0.0003214024835646457,4.747991234477721e-05,0.0005332359386413442,0.10326880934989022,0.8964645726807887
7,Tom Burleson,SEA,C,0.0003214024835646457,4.747991234477721e-05,0.0005332359386413442,0.10326880934989022,0.8964645726807887
8,Al Carlson,SEA,C,0.0003214024835646457,4.747991234477721e-05,0.0005332359386413442,0.10326880934989022,0.8964645726807887
9,Harvey Catchings,PHI,C,0.0003214024835646457,4.747991234477721e-05,0.0005332359386413442,0.10326880934989022,0.8964645726807887
10,Jim Chones,CLE,C,0.0003214024835646457,4.747991234477721e-05,0.0005332359386413442,0.10326880934989022,0.8964645726807887
11,Mel Counts,NOJ,C,0.0003214024835646457,4.747991234477721e-05,0.0005332359386413442,0.10326880934989022,0.8964645726807887
12,Dave Cowens*,BOS,C,0.0003214024835646457,4.747991234477721e-05,0.0005332359386413442,0.10326880934989022,0.8964645726807887
13,Darryl Dawkins,PHI,C,0.0003214024835646457,4.747991234477721e-05,0.0005332359386413442,0.10326880934989022,0.8964645726807887
14,Leroy Ellis,PHI,C,0.0003214024835646457,4.747991234477721e-05,0.0005332359386413442,0.10326880934989022,0.8964645726807887
15,Eric Fernsten,TOT,C,0.0003214024835646457,4.747991234477721e-05,0.0005332359386413442,0.10326880934989022,0.8964645726807887
16,Eric Fernsten,CLE,C,0.0003214024835646457,4.747991234477721e-05,0.0005332359386413442,0.10326880934989022,0.8964645726807887
17,Eric Fernsten,CHI,C,0.0003214024835646457,4.747991234477721e-05,0.0005332359386413442,0.10326880934989022,0.8964645726807887
18,Jim Fox,MIL,C,0.0003214024835646457,4.747991234477721e-05,0.0005332359386413442,0.10326880934989022,0.8964645726807887
19,John Gianelli,NYK,C,0.0003214024835646457,4.747991234477721e-05,0.0005332359386413442,0.10326880934989022,0.8964645726807887
20,Steve Hawes,TOT,C,0.0003214024835646457,4.747991234477721e-05,0.0005332359386413442,0.10326880934989022,0.8964645726807887
21,Steve Hawes,HOU,C,0.0003214024835646457,4.747991234477721e-05,0.0005332359386413442,0.10326880934989022,0.8964645726807887
22,Steve Hawes,POR,C,0.0003214024835646457,4.747991234477721e-05,0.0005332359386413442,0.10326880934989022,0.8964645726807887
23,George Johnson,GSW,C,0.0003214024835646457,4.747991234477721e-05,0.0005332359386413442,0.10326880934989022,0.8964645726807887
24,Dwight Jones,ATL,C,0.0003214024835646457,4.747991234477721e-05,0.0005332359386413442,0.10326880934989022,0.8964645726807887
25,Rich Kelley,NOJ,C,0.0003214024835646457,4.747991234477721e-05,0.0005332359386413442,0.10326880934989022,0.8964645726807887
26,Len Kosmalski,KCK,C,0.0003214024835646457,4.747991234477721e-05,0.0005332359386413442,0.10326880934989022,0.8964645726807887
27,Steve Kuberski,BOS,C,0.0003214024835646457,4.747991234477721e-05,0.0005332359386413442,0.10326880934989022,0.8964645726807887
28,Kevin Kunnert,HOU,C,0.0003214024835646457,4.747991234477721e-05,0.0005332359386413442,0.10326880934989022,0.8964645726807887
29,Sam Lacey,KCK,C,0.0003214024835646457,4.747991234477721e-05,0.0005332359386413442,0.10326880934989022,0.8964645726807887
30,Bob Lanier*,DET,C,0.0003214024835646457,4.747991234477721e-05,0.0005332359386413442,0.10326880934989022,0.8964645726807887
31,Clyde Lee,PHI,C,0.0003214024835646457,4.747991234477721e-05,0.0005332359386413442,0.10326880934989022,0.8964645726807887
32,LaRue Martin,POR,C,0.0003214024835646457,4.747991234477721e-05,0.0005332359386413442,0.10326880934989022,0.8964645726807887
33,Bob McAdoo*,BUF,C,0.0003214024835646457,4.747991234477721e-05,0.0005332359386413442,0.10326880934989022,0.8964645726807887
34,Jim McDaniels,LAL,C,0.0003214024835646457,4.747991234477721e-05,0.0005332359386413442,0.10326880934989022,0.8964645726807887
35,Tom McMillen,BUF,C,0.0003214024835646457,4.747991234477721e-05,0.0005332359386413442,0.10326880934989022,0.8964645726807887
36,Joe Meriweather,HOU,C,0.0003214024835646457,4.747991234477721e-05,0.0005332359386413442,0.10326880934989022,0.8964645726807887
37,Otto Moore,NOJ,C,0.0003214024835646457,4.747991234477721e-05,0.0005332359386413442,0.10326880934989022,0.8964645726807887
38,Steve Patterson,TOT,C,0.0003214024835646457,4.747991234477721e-05,0.0005332359386413442,0.10326880934989022,0.8964645726807887
39,Steve Patterson,CLE,C,0.0003214024835646457,4.747991234477721e-05,0.0005332359386413442,0.10326880934989022,0.8964645726807887
40,Steve Patterson,CHI,C,0.0003214024835646457,4.747991234477721e-05,0.0005332359386413442,0.10326880934989022,0.8964645726807887
41,Clifford Ray,GSW,C,0.0003214024835646457,4.747991234477721e-05,0.0005332359386413442,0.10326880934989022,0.8964645726807887
42,Rick Roberson,KCK,C,0.0003214024835646457,4.747991234477721e-05,0.0005332359386413442,0.10326880934989022,0.8964645726807887
43,Dale Schlueter,BUF,C,0.0003214024835646457,4.747991234477721e-05,0.0005332359386413442,0.10326880934989022,0.8964645726807887
44,Elmore Smith,MIL,C,0.0003214024835646457,4.747991234477721e-05,0.0005332359386413442,0.10326880934989022,0.8964645726807887
45,Mike Sojourner,ATL,C,0.0003214024835646457,4.747991234477721e-05,0.0005332359386413442,0.10326880934989022,0.8964645726807887
46,Nate Thurmond*,TOT,C,0.0003214024835646457,4.747991234477721e-05,0.0005332359386413442,0.10326880934989022,0.8964645726807887
47,Nate Thurmond*,CHI,C,0.0003214024835646457,4.747991234477721e-05,0.0005332359386413442,0.10326880934989022,0.8964645726807887
48,Nate Thurmond*,CLE,C,0.0003214024835646457,4.747991234477721e-05,0.0005332359386413442,0.10326880934989022,0.8964645726807887
49,Wes Unseld*,WSB,C,0.0003214024835646457,4.747991234477721e-05,0.0005332359386413442,0.10326880934989022,0.8964645726807887
50,Neal Walk,NYK,C,0.0003214024835646457,4.747991234477721e-05,0.0005332359386413442,0.10326880934989022,0.8964645726807887
51,Bill Walton*,POR,C,0.0003214024835646457,4.747991234477721e-05,0.0005332359386413442,0.10326880934989022,0.8964645726807887
52,Walt Wesley,LAL,C,0.0003214024835646457,4.747991234477721e-05,0.0005332359386413442,0.10326880934989022,0.8964645726807887
53,Earl Williams,DET,C,0.0003214024835646457,4.747991234477721e-05,0.0005332359386413442,0.10326880934989022,0.8964645726807887
54,Luke Witte,CLE,C,0.0003214024835646457,4.747991234477721e-05,0.0005332359386413442,0.10326880934989022,0.8964645726807887
55,Don Adams,BUF,SF,0.0033940594059405894,0.12606336633663331,0.6900594059405959,0.1769821782178211,0.00442772277227721
56,Mike Bantom,TOT,SF,0.0033940594059405894,0.12606336633663331,0.6900594059405959,0.1769821782178211,0.00442772277227721
57,Mike Bantom,PHO,SF,0.0033940594059405894,0.12606336633663331,0.6900594059405959,0.1769821782178211,0.00442772277227721
58,Mike Bantom,SEA,SF,0.0033940594059405894,0.12606336633663331,0.6900594059405959,0.1769821782178211,0.00442772277227721
59,Rick Barry*,GSW,SF,0.0033940594059405894,0.12606336633663331,0.6900594059405959,0.1769821782178211,0.00442772277227721
60,Jerry Baskerville,PHI,SF,0.0033940594059405894,0.12606336633663331,0.6900594059405959,0.1769821782178211,0.00442772277227721
61,Dennis Bell,NYK,SF,0.0033940594059405894,0.12606336633663331,0.6900594059405959,0.1769821782178211,0.00442772277227721
62,Bob Bigelow,KCK,SF,0.0033940594059405894,0.12606336633663331,0.6900594059405959,0.1769821782178211,0.00442772277227721
63,Bill Bradley*,NYK,SF,0.0033940594059405894,0.12606336633663331,0.6900594059405959,0.1769821782178211,0.00442772277227721
64,Junior Bridgeman,MIL,SF,0.0033940594059405894,0.12606336633663331,0.6900594059405959,0.1769821782178211,0.00442772277227721
65,Corky Calhoun,LAL,SF,0.0033940594059405894,0.12606336633663331,0.6900594059405959,0.1769821782178211,0.00442772277227721
66,Barry Clemens,POR,SF,0.0033940594059405894,0.12606336633663331,0.6900594059405959,0.1769821782178211,0.00442772277227721
67,Jim Creighton,ATL,SF,0.0033940594059405894,0.12606336633663331,0.6900594059405959,0.1769821782178211,0.00442772277227721
68,Billy Cunningham*,PHI,SF,0.0033940594059405894,0.12606336633663331,0.6900594059405959,0.1769821782178211,0.00442772277227721
69,Bob Dandridge,MIL,SF,0.0033940594059405894,0.12606336633663331,0.6900594059405959,0.1769821782178211,0.00442772277227721
70,Mickey Davis,MIL,SF,0.0033940594059405894,0.12606336633663331,0.6900594059405959,0.1769821782178211,0.00442772277227721
71,John Drew,ATL,SF,0.0033940594059405894,0.12606336633663331,0.6900594059405959,0.1769821782178211,0.00442772277227721
72,Al Eberhard,DET,SF,0.0033940594059405894,0.12606336633663331,0.6900594059405959,0.1769821782178211,0.00442772277227721
73,Keith Erickson,PHO,SF,0.0033940594059405894,0.12606336633663331,0.6900594059405959,0.1769821782178211,0.00442772277227721
74,Don Ford,LAL,SF,0.0033940594059405894,0.12606336633663331,0.6900594059405959,0.1769821782178211,0.00442772277227721
75,Rowland Garrett,TOT,SF,0.0033940594059405894,0.12606336633663331,0.6900594059405959,0.1769821782178211,0.00442772277227721
76,Rowland Garrett,CHI,SF,0.0033940594059405894,0.12606336633663331,0.6900594059405959,0.1769821782178211,0.00442772277227721
77,Rowland Garrett,CLE,SF,0.0033940594059405894,0.12606336633663331,0.6900594059405959,0.1769821782178211,0.00442772277227721
78,Dick Gibbs,BUF,SF,0.0033940594059405894,0.12606336633663331,0.6900594059405959,0.1769821782178211,0.00442772277227721
79,Kevin Grevey,WSB,SF,0.0033940594059405894,0.12606336633663331,0.6900594059405959,0.1769821782178211,0.00442772277227721
80,Bob Gross,POR,SF,0.0033940594059405894,0.12606336633663331,0.6900594059405959,0.1769821782178211,0.00442772277227721
81,Lindsay Hairston,DET,SF,0.0033940594059405894,0.12606336633663331,0.6900594059405959,0.1769821782178211,0.00442772277227721
82,John Havlicek*,BOS,SF,0.0033940594059405894,0.12606336633663331,0.6900594059405959,0.1769821782178211,0.00442772277227721
83,Aaron James,NOJ,SF,0.0033940594059405894,0.12606336633663331,0.6900594059405959,0.1769821782178211,0.00442772277227721
84,John Johnson,TOT,SF,0.0033940594059405894,0.12606336633663331,0.6900594059405959,0.1769821782178211,0.00442772277227721
85,John Johnson,POR,SF,0.0033940594059405894,0.12606336633663331,0.6900594059405959,0.1769821782178211,0.00442772277227721
86,John Johnson,HOU,SF,0.0033940594059405894,0.12606336633663331,0.6900594059405959,0.1769821782178211,0.00442772277227721
87,Ollie Johnson,KCK,SF,0.0033940594059405894,0.12606336633663331,0.6900594059405959,0.1769821782178211,0.00442772277227721
88,Steve Kuberski,BUF,SF,0.0033940594059405894,0.12606336633663331,0.6900594059405959,0.1769821782178211,0.00442772277227721
89,C.J. Kupec,LAL,SF,0.0033940594059405894,0.12606336633663331,0.6900594059405959,0.1769821782178211,0.00442772277227721
90,Bob Love,CHI,SF,0.0033940594059405894,0.12606336633663331,0.6900594059405959,0.1769821782178211,0.00442772277227721
91,Jack Marin,TOT,SF,0.0033940594059405894,0.12606336633663331,0.6900594059405959,0.1769821782178211,0.00442772277227721
92,Jack Marin,BUF,SF,0.0033940594059405894,0.12606336633663331,0.6900594059405959,0.1769821782178211,0.00442772277227721
93,Jack Marin,CHI,SF,0.0033940594059405894,0.12606336633663331,0.6900594059405959,0.1769821782178211,0.00442772277227721
94,Glenn McDonald,BOS,SF,0.0033940594059405894,0.12606336633663331,0.6900594059405959,0.1769821782178211,0.00442772277227721
95,Jim McMillian,BUF,SF,0.0033940594059405894,0.12606336633663331,0.6900594059405959,0.1769821782178211,0.00442772277227721
96,Steve Mix,PHI,SF,0.0033940594059405894,0.12606336633663331,0.6900594059405959,0.1769821782178211,0.00442772277227721
97,Don Nelson*,BOS,SF,0.0033940594059405894,0.12606336633663331,0.6900594059405959,0.1769821782178211,0.00442772277227721
98,Willie Norwood,SEA,SF,0.0033940594059405894,0.12606336633663331,0.6900594059405959,0.1769821782178211,0.00442772277227721
99,Howard Porter,DET,SF,0.0033940594059405894,0.12606336633663331,0.6900594059405959,0.1769821782178211,0.00442772277227721
100,Ed Ratleff,HOU,SF,0.0033940594059405894,0.12606336633663331,0.6900594059405959,0.1769821782178211,0.00442772277227721
101,Mike Riordan,WSB,SF,0.0033940594059405894,0.12606336633663331,0.6900594059405959,0.1769821782178211,0.00442772277227721
102,Campy Russell,CLE,SF,0.0033940594059405894,0.12606336633663331,0.6900594059405959,0.1769821782178211,0.00442772277227721
103,Cazzie Russell,LAL,SF,0.0033940594059405894,0.12606336633663331,0.6900594059405959,0.1769821782178211,0.00442772277227721
104,Fred Saunders,PHO,SF,0.0033940594059405894,0.12606336633663331,0.6900594059405959,0.1769821782178211,0.00442772277227721
105,Bruce Seals,SEA,SF,0.0033940594059405894,0.12606336633663331,0.6900594059405959,0.1769821782178211,0.00442772277227721
106,Ed Searcy,BOS,SF,0.0033940594059405894,0.12606336633663331,0.6900594059405959,0.1769821782178211,0.00442772277227721
107,Gene Short,TOT,SF,0.0033940594059405894,0.12606336633663331,0.6900594059405959,0.1769821782178211,0.00442772277227721
108,Gene Short,SEA,SF,0.0033940594059405894,0.12606336633663331,0.6900594059405959,0.1769821782178211,0.00442772277227721
109,Gene Short,NYK,SF,0.0033940594059405894,0.12606336633663331,0.6900594059405959,0.1769821782178211,0.00442772277227721
110,Tal Skinner,SEA,SF,0.0033940594059405894,0.12606336633663331,0.6900594059405959,0.1769821782178211,0.00442772277227721
111,Greg Smith,POR,SF,0.0033940594059405894,0.12606336633663331,0.6900594059405959,0.1769821782178211,0.00442772277227721
112,Bud Stallworth,NOJ,SF,0.0033940594059405894,0.12606336633663331,0.6900594059405959,0.1769821782178211,0.00442772277227721
113,Tom Van Arsdale,ATL,SF,0.0033940594059405894,0.12606336633663331,0.6900594059405959,0.1769821782178211,0.00442772277227721
114,Nick Weatherspoon,WSB,SF,0.0033940594059405894,0.12606336633663331,0.6900594059405959,0.1769821782178211,0.00442772277227721
115,Scott Wedman,KCK,SF,0.0033940594059405894,0.12606336633663331,0.6900594059405959,0.1769821782178211,0.00442772277227721
116,Jamaal Wilkes*,GSW,SF,0.0033940594059405894,0.12606336633663331,0.6900594059405959,0.1769821782178211,0.00442772277227721
117,Nate Williams,NOJ,SF,0.0033940594059405894,0.12606336633663331,0.6900594059405959,0.1769821782178211,0.00442772277227721
118,Bill Willoughby,ATL,SF,0.0033940594059405894,0.12606336633663331,0.6900594059405959,0.1769821782178211,0.00442772277227721
119,Lucius Allen,LAL,PG,0.8713428571428595,0.1261999999999998,0.0030714285714285626,0.0,0.0
120,Dan Anderson,POR,PG,0.8713428571428595,0.1261999999999998,0.0030714285714285626,0.0,0.0
121,Tiny Archibald*,KCK,PG,0.8713428571428595,0.1261999999999998,0.0030714285714285626,0.0,0.0
122,Butch Beard,TOT,PG,0.8713428571428595,0.1261999999999998,0.0030714285714285626,0.0,0.0
123,Butch Beard,CLE,PG,0.8713428571428595,0.1261999999999998,0.0030714285714285626,0.0,0.0
124,Butch Beard,NYK,PG,0.8713428571428595,0.1261999999999998,0.0030714285714285626,0.0,0.0
125,Henry Bibby,NOJ,PG,0.8713428571428595,0.1261999999999998,0.0030714285714285626,0.0,0.0
126,Dave Bing*,WSB,PG,0.8713428571428595,0.1261999999999998,0.0030714285714285626,0.0,0.0
127,Freddie Boyd,PHI,PG,0.8713428571428595,0.1261999999999998,0.0030714285714285626,0.0,0.0
128,Fred Carter,PHI,PG,0.8713428571428595,0.1261999999999998,0.0030714285714285626,0.0,0.0
129,Jim Cleamons,CLE,PG,0.8713428571428595,0.1261999999999998,0.0030714285714285626,0.0,0.0
130,Ernie DiGregorio,BUF,PG,0.8713428571428595,0.1261999999999998,0.0030714285714285626,0.0,0.0
131,Charles Dudley,GSW,PG,0.8713428571428595,0.1261999999999998,0.0030714285714285626,0.0,0.0
132,Dennis DuVal,ATL,PG,0.8713428571428595,0.1261999999999998,0.0030714285714285626,0.0,0.0
133,Walt Frazier*,NYK,PG,0.8713428571428595,0.1261999999999998,0.0030714285714285626,0.0,0.0
134,Tom Henderson,ATL,PG,0.8713428571428595,0.1261999999999998,0.0030714285714285626,0.0,0.0
135,Lionel Hollins,POR,PG,0.8713428571428595,0.1261999999999998,0.0030714285714285626,0.0,0.0
136,Charles Johnson,GSW,PG,0.8713428571428595,0.1261999999999998,0.0030714285714285626,0.0,0.0
137,Jimmy Jones,WSB,PG,0.8713428571428595,0.1261999999999998,0.0030714285714285626,0.0,0.0
138,Wali Jones,TOT,PG,0.8713428571428595,0.1261999999999998,0.0030714285714285626,0.0,0.0
139,Wali Jones,DET,PG,0.8713428571428595,0.1261999999999998,0.0030714285714285626,0.0,0.0
140,Wali Jones,PHI,PG,0.8713428571428595,0.1261999999999998,0.0030714285714285626,0.0,0.0
141,Stu Lantz,LAL,PG,0.8713428571428595,0.1261999999999998,0.0030714285714285626,0.0,0.0
142,Greg Lee,POR,PG,0.8713428571428595,0.1261999999999998,0.0030714285714285626,0.0,0.0
143,Phil Lumpkin,PHO,PG,0.8713428571428595,0.1261999999999998,0.0030714285714285626,0.0,0.0
144,Jim McElroy,NOJ,PG,0.8713428571428595,0.1261999999999998,0.0030714285714285626,0.0,0.0
145,Eric Money,DET,PG,0.8713428571428595,0.1261999999999998,0.0030714285714285626,0.0,0.0
146,Calvin Murphy*,HOU,PG,0.8713428571428595,0.1261999999999998,0.0030714285714285626,0.0,0.0
147,Kevin Porter,DET,PG,0.8713428571428595,0.1261999999999998,0.0030714285714285626,0.0,0.0
148,Jim Price,MIL,PG,0.8713428571428595,0.1261999999999998,0.0030714285714285626,0.0,0.0
149,Norm Van Lier,CHI,PG,0.8713428571428595,0.1261999999999998,0.0030714285714285626,0.0,0.0
150,Foots Walker,CLE,PG,0.8713428571428595,0.1261999999999998,0.0030714285714285626,0.0,0.0
151,Slick Watts,SEA,PG,0.8713428571428595,0.1261999999999998,0.0030714285714285626,0.0,0.0
152,Bob Weiss,BUF,PG,0.8713428571428595,0.1261999999999998,0.0030714285714285626,0.0,0.0
153,Paul Westphal*,PHO,PG,0.8713428571428595,0.1261999999999998,0.0030714285714285626,0.0,0.0
154,Jo Jo White*,BOS,PG,0.8713428571428595,0.1261999999999998,0.0030714285714285626,0.0,0.0
155,Gus Williams,GSW,PG,0.8713428571428595,0.1261999999999998,0.0030714285714285626,0.0,0.0
156,Ron Williams,LAL,PG,0.8713428571428595,0.1261999999999998,0.0030714285714285626,0.0,0.0
157,Lee Winfield,KCK,PG,0.8713428571428595,0.1261999999999998,0.0030714285714285626,0.0,0.0
158,Dave Wohl,HOU,PG,0.8713428571428595,0.1261999999999998,0.0030714285714285626,0.0,0.0
159,Jerome Anderson,BOS,SG,0.11192363636363606,0.68289090909091,0.1991599999999993,0.006941818181818165,1.4545454545454546e-05
160,Gus Bailey,HOU,SG,0.11192363636363606,0.68289090909091,0.1991599999999993,0.006941818181818165,1.4545454545454546e-05
161,Jim Barnett,NYK,SG,0.11192363636363606,0.68289090909091,0.1991599999999993,0.006941818181818165,1.4545454545454546e-05
162,Leon Benbow,CHI,SG,0.11192363636363606,0.68289090909091,0.1991599999999993,0.006941818181818165,1.4545454545454546e-05
163,Freddie Boyd,NOJ,SG,0.11192363636363606,0.68289090909091,0.1991599999999993,0.006941818181818165,1.4545454545454546e-05
164,Gary Brokaw,MIL,SG,0.11192363636363606,0.68289090909091,0.1991599999999993,0.006941818181818165,1.4545454545454546e-05
165,Fred Brown,SEA,SG,0.11192363636363606,0.68289090909091,0.1991599999999993,0.006941818181818165,1.4545454545454546e-05
166,Austin Carr,CLE,SG,0.11192363636363606,0.68289090909091,0.1991599999999993,0.006941818181818165,1.4545454545454546e-05
167,Ken Charles,BUF,SG,0.11192363636363606,0.68289090909091,0.1991599999999993,0.006941818181818165,1.4545454545454546e-05
168,Phil Chenier,WSB,SG,0.11192363636363606,0.68289090909091,0.1991599999999993,0.006941818181818165,1.4545454545454546e-05
169,Archie Clark,DET,SG,0.11192363636363606,0.68289090909091,0.1991599999999993,0.006941818181818165,1.4545454545454546e-05
170,Doug Collins,PHI,SG,0.11192363636363606,0.68289090909091,0.1991599999999993,0.006941818181818165,1.4545454545454546e-05
171,Mike D'Antoni,KCK,SG,0.11192363636363606,0.68289090909091,0.1991599999999993,0.006941818181818165,1.4545454545454546e-05
172,Rod Derline,SEA,SG,0.11192363636363606,0.68289090909091,0.1991599999999993,0.006941818181818165,1.4545454545454546e-05
173,Henry Dickerson,DET,SG,0.11192363636363606,0.68289090909091,0.1991599999999993,0.006941818181818165,1.4545454545454546e-05
174,Larry Fogle,NYK,SG,0.11192363636363606,0.68289090909091,0.1991599999999993,0.006941818181818165,1.4545454545454546e-05
175,Chris Ford,DET,SG,0.11192363636363606,0.68289090909091,0.1991599999999993,0.006941818181818165,1.4545454545454546e-05
176,World B. Free,PHI,SG,0.11192363636363606,0.68289090909091,0.1991599999999993,0.006941818181818165,1.4545454545454546e-05
177,Donnie Freeman,LAL,SG,0.11192363636363606,0.68289090909091,0.1991599999999993,0.006941818181818165,1.4545454545454546e-05
178,Herm Gilliam,SEA,SG,0.11192363636363606,0.68289090909091,0.1991599999999993,0.006941818181818165,1.4545454545454546e-05
179,Gail Goodrich*,LAL,SG,0.11192363636363606,0.68289090909091,0.1991599999999993,0.006941818181818165,1.4545454545454546e-05
180,Matt Guokas,TOT,SG,0.11192363636363606,0.68289090909091,0.1991599999999993,0.006941818181818165,1.4545454545454546e-05
181,Matt Guokas,CHI,SG,0.11192363636363606,0.68289090909091,0.1991599999999993,0.006941818181818165,1.4545454545454546e-05
182,Matt Guokas,KCK,SG,0.11192363636363606,0.68289090909091,0.1991599999999993,0.006941818181818165,1.4545454545454546e-05
183,Glenn Hansen,KCK,SG,0.11192363636363606,0.68289090909091,0.1991599999999993,0.006941818181818165,1.4545454545454546e-05
184,Clem Haskins,WSB,SG,0.11192363636363606,0.68289090909091,0.1991599999999993,0.006941818181818165,1.4545454545454546e-05
185,Bubbles Hawkins,GSW,SG,0.11192363636363606,0.68289090909091,0.1991599999999993,0.006941818181818165,1.4545454545454546e-05
186,Nate Hawthorne,PHO,SG,0.11192363636363606,0.68289090909091,0.1991599999999993,0.006941818181818165,1.4545454545454546e-05
187,Wilbur Holland,ATL,SG,0.11192363636363606,0.68289090909091,0.1991599999999993,0.006941818181818165,1.4545454545454546e-05
188,Lou Hudson,ATL,SG,0.11192363636363606,0.68289090909091,0.1991599999999993,0.006941818181818165,1.4545454545454546e-05
189,Steve Jones,POR,SG,0.11192363636363606,0.68289090909091,0.1991599999999993,0.006941818181818165,1.4545454545454546e-05
190,Tom Kropp,WSB,SG,0.11192363636363606,0.68289090909091,0.1991599999999993,0.006941818181818165,1.4545454545454546e-05
191,John Laskowski,CHI,SG,0.11192363636363606,0.68289090909091,0.1991599999999993,0.006941818181818165,1.4545454545454546e-05
192,Pete Maravich*,NOJ,SG,0.11192363636363606,0.68289090909091,0.1991599999999993,0.006941818181818165,1.4545454545454546e-05
193,Ken Mayfield,NYK,SG,0.11192363636363606,0.68289090909091,0.1991599999999993,0.006941818181818165,1.4545454545454546e-05
194,Jon McGlocklin,MIL,SG,0.11192363636363606,0.68289090909091,0.1991599999999993,0.006941818181818165,1.4545454545454546e-05
195,Dean Meminger,ATL,SG,0.11192363636363606,0.68289090909091,0.1991599999999993,0.006941818181818165,1.4545454545454546e-05
196,John Mengelt,DET,SG,0.11192363636363606,0.68289090909091,0.1991599999999993,0.006941818181818165,1.4545454545454546e-05
197,Earl Monroe*,NYK,SG,0.11192363636363606,0.68289090909091,0.1991599999999993,0.006941818181818165,1.4545454545454546e-05
198,Jeff Mullins,GSW,SG,0.11192363636363606,0.68289090909091,0.1991599999999993,0.006941818181818165,1.4545454545454546e-05
199,Louie Nelson,NOJ,SG,0.11192363636363606,0.68289090909091,0.1991599999999993,0.006941818181818165,1.4545454545454546e-05
200,Mike Newlin,HOU,SG,0.11192363636363606,0.68289090909091,0.1991599999999993,0.006941818181818165,1.4545454545454546e-05
201,Connie Norman,PHI,SG,0.11192363636363606,0.68289090909091,0.1991599999999993,0.006941818181818165,1.4545454545454546e-05
202,Frank Oleynick,SEA,SG,0.11192363636363606,0.68289090909091,0.1991599999999993,0.006941818181818165,1.4545454545454546e-05
203,Geoff Petrie,POR,SG,0.11192363636363606,0.68289090909091,0.1991599999999993,0.006941818181818165,1.4545454545454546e-05
204,Pat Riley*,TOT,SG,0.11192363636363606,0.68289090909091,0.1991599999999993,0.006941818181818165,1.4545454545454546e-05
205,Pat Riley*,LAL,SG,0.11192363636363606,0.68289090909091,0.1991599999999993,0.006941818181818165,1.4545454545454546e-05
206,Pat Riley*,PHO,SG,0.11192363636363606,0.68289090909091,0.1991599999999993,0.006941818181818165,1.4545454545454546e-05
207,John Roche,LAL,SG,0.11192363636363606,0.68289090909091,0.1991599999999993,0.006941818181818165,1.4545454545454546e-05
208,Charlie Scott*,BOS,SG,0.11192363636363606,0.68289090909091,0.1991599999999993,0.006941818181818165,1.4545454545454546e-05
209,Jerry Sloan*,CHI,SG,0.11192363636363606,0.68289090909091,0.1991599999999993,0.006941818181818165,1.4545454545454546e-05
210,Bingo Smith,CLE,SG,0.11192363636363606,0.68289090909091,0.1991599999999993,0.006941818181818165,1.4545454545454546e-05
211,Phil Smith,GSW,SG,0.11192363636363606,0.68289090909091,0.1991599999999993,0.006941818181818165,1.4545454545454546e-05
212,Randy Smith,BUF,SG,0.11192363636363606,0.68289090909091,0.1991599999999993,0.006941818181818165,1.4545454545454546e-05
213,Dick Snyder,CLE,SG,0.11192363636363606,0.68289090909091,0.1991599999999993,0.006941818181818165,1.4545454545454546e-05
214,Ricky Sobers,PHO,SG,0.11192363636363606,0.68289090909091,0.1991599999999993,0.006941818181818165,1.4545454545454546e-05
215,Kevin Stacom,BOS,SG,0.11192363636363606,0.68289090909091,0.1991599999999993,0.006941818181818165,1.4545454545454546e-05
216,Larry Steele,POR,SG,0.11192363636363606,0.68289090909091,0.1991599999999993,0.006941818181818165,1.4545454545454546e-05
217,Dick Van Arsdale,PHO,SG,0.11192363636363606,0.68289090909091,0.1991599999999993,0.006941818181818165,1.4545454545454546e-05
218,Jimmy Walker,KCK,SG,0.11192363636363606,0.68289090909091,0.1991599999999993,0.006941818181818165,1.4545454545454546e-05
219,John Wetzel,PHO,SG,0.11192363636363606,0.68289090909091,0.1991599999999993,0.006941818181818165,1.4545454545454546e-05
220,Rudy White,HOU,SG,0.11192363636363606,0.68289090909091,0.1991599999999993,0.006941818181818165,1.4545454545454546e-05
221,Bobby Wilson,CHI,SG,0.11192363636363606,0.68289090909091,0.1991599999999993,0.006941818181818165,1.4545454545454546e-05
222,Brian Winters,MIL,SG,0.11192363636363606,0.68289090909091,0.1991599999999993,0.006941818181818165,1.4545454545454546e-05
223,Ron Behagen,NOJ,PF,0.000351000351000351,0.0012706212706212697,0.08266409266409273,0.7044857844857865,0.21231660231660082
224,John Block,CHI,PF,0.000351000351000351,0.0012706212706212697,0.08266409266409273,0.7044857844857865,0.21231660231660082
225,Tom Boswell,BOS,PF,0.000351000351000351,0.0012706212706212697,0.08266409266409273,0.7044857844857865,0.21231660231660082
226,Jim Brewer,CLE,PF,0.000351000351000351,0.0012706212706212697,0.08266409266409273,0.7044857844857865,0.21231660231660082
227,John Brown,ATL,PF,0.000351000351000351,0.0012706212706212697,0.08266409266409273,0.7044857844857865,0.21231660231660082
228,Joe Bryant,PHI,PF,0.000351000351000351,0.0012706212706212697,0.08266409266409273,0.7044857844857865,0.21231660231660082
229,E.C. Coleman,NOJ,PF,0.000351000351000351,0.0012706212706212697,0.08266409266409273,0.7044857844857865,0.21231660231660082
230,Dwight Davis,GSW,PF,0.000351000351000351,0.0012706212706212697,0.08266409266409273,0.7044857844857865,0.21231660231660082
231,Mel Davis,NYK,PF,0.000351000351000351,0.0012706212706212697,0.08266409266409273,0.7044857844857865,0.21231660231660082
232,Derrek Dickey,GSW,PF,0.000351000351000351,0.0012706212706212697,0.08266409266409273,0.7044857844857865,0.21231660231660082
233,Leonard Gray,SEA,PF,0.000351000351000351,0.0012706212706212697,0.08266409266409273,0.7044857844857865,0.21231660231660082
234,Connie Hawkins*,ATL,PF,0.000351000351000351,0.0012706212706212697,0.08266409266409273,0.7044857844857865,0.21231660231660082
235,Elvin Hayes*,WSB,PF,0.000351000351000351,0.0012706212706212697,0.08266409266409273,0.7044857844857865,0.21231660231660082
236,Spencer Haywood*,NYK,PF,0.000351000351000351,0.0012706212706212697,0.08266409266409273,0.7044857844857865,0.21231660231660082
237,Gar Heard,TOT,PF,0.000351000351000351,0.0012706212706212697,0.08266409266409273,0.7044857844857865,0.21231660231660082
238,Gar Heard,BUF,PF,0.000351000351000351,0.0012706212706212697,0.08266409266409273,0.7044857844857865,0.21231660231660082
239,Gar Heard,PHO,PF,0.000351000351000351,0.0012706212706212697,0.08266409266409273,0.7044857844857865,0.21231660231660082
240,John Hummer,SEA,PF,0.000351000351000351,0.0012706212706212697,0.08266409266409273,0.7044857844857865,0.21231660231660082
241,Phil Jackson*,NYK,PF,0.000351000351000351,0.0012706212706212697,0.08266409266409273,0.7044857844857865,0.21231660231660082
242,Mickey Johnson,CHI,PF,0.000351000351000351,0.0012706212706212697,0.08266409266409273,0.7044857844857865,0.21231660231660082
243,Tom Kozelko,WSB,PF,0.000351000351000351,0.0012706212706212697,0.08266409266409273,0.7044857844857865,0.21231660231660082
244,John Lambert,CLE,PF,0.000351000351000351,0.0012706212706212697,0.08266409266409273,0.7044857844857865,0.21231660231660082
245,Clyde Mayes,MIL,PF,0.000351000351000351,0.0012706212706212697,0.08266409266409273,0.7044857844857865,0.21231660231660082
246,George McGinnis*,PHI,PF,0.000351000351000351,0.0012706212706212697,0.08266409266409273,0.7044857844857865,0.21231660231660082
247,Larry McNeill,KCK,PF,0.000351000351000351,0.0012706212706212697,0.08266409266409273,0.7044857844857865,0.21231660231660082
248,Cliff Meely,TOT,PF,0.000351000351000351,0.0012706212706212697,0.08266409266409273,0.7044857844857865,0.21231660231660082
249,Cliff Meely,HOU,PF,0.000351000351000351,0.0012706212706212697,0.08266409266409273,0.7044857844857865,0.21231660231660082
250,Cliff Meely,LAL,PF,0.000351000351000351,0.0012706212706212697,0.08266409266409273,0.7044857844857865,0.21231660231660082
251,Dave Meyers,MIL,PF,0.000351000351000351,0.0012706212706212697,0.08266409266409273,0.7044857844857865,0.21231660231660082
252,Lloyd Neal,POR,PF,0.000351000351000351,0.0012706212706212697,0.08266409266409273,0.7044857844857865,0.21231660231660082
253,Curtis Perry,PHO,PF,0.000351000351000351,0.0012706212706212697,0.08266409266409273,0.7044857844857865,0.21231660231660082
254,Cliff Pondexter,CHI,PF,0.000351000351000351,0.0012706212706212697,0.08266409266409273,0.7044857844857865,0.21231660231660082
255,Kevin Restani,MIL,PF,0.000351000351000351,0.0012706212706212697,0.08266409266409273,0.7044857844857865,0.21231660231660082
256,Ron Riley,HOU,PF,0.000351000351000351,0.0012706212706212697,0.08266409266409273,0.7044857844857865,0.21231660231660082
257,Truck Robinson,WSB,PF,0.000351000351000351,0.0012706212706212697,0.08266409266409273,0.7044857844857865,0.21231660231660082
258,Bill Robinzine,KCK,PF,0.000351000351000351,0.0012706212706212697,0.08266409266409273,0.7044857844857865,0.21231660231660082
259,Curtis Rowe,DET,PF,0.000351000351000351,0.0012706212706212697,0.08266409266409273,0.7044857844857865,0.21231660231660082
260,John Shumate,TOT,PF,0.000351000351000351,0.0012706212706212697,0.08266409266409273,0.7044857844857865,0.21231660231660082
261,John Shumate,PHO,PF,0.000351000351000351,0.0012706212706212697,0.08266409266409273,0.7044857844857865,0.21231660231660082
262,John Shumate,BUF,PF,0.000351000351000351,0.0012706212706212697,0.08266409266409273,0.7044857844857865,0.21231660231660082
263,Paul Silas,BOS,PF,0.000351000351000351,0.0012706212706212697,0.08266409266409273,0.7044857844857865,0.21231660231660082
264,Terry Thomas,DET,PF,0.000351000351000351,0.0012706212706212697,0.08266409266409273,0.7044857844857865,0.21231660231660082
265,Rudy Tomjanovich*,HOU,PF,0.000351000351000351,0.0012706212706212697,0.08266409266409273,0.7044857844857865,0.21231660231660082
266,George Trapp,DET,PF,0.000351000351000351,0.0012706212706212697,0.08266409266409273,0.7044857844857865,0.21231660231660082
267,Cornell Warner,LAL,PF,0.000351000351000351,0.0012706212706212697,0.08266409266409273,0.7044857844857865,0.21231660231660082
268,Jim Washington,BUF,PF,0.000351000351000351,0.0012706212706212697,0.08266409266409273,0.7044857844857865,0.21231660231660082
269,Kermit Washington,LAL,PF,0.000351000351000351,0.0012706212706212697,0.08266409266409273,0.7044857844857865,0.21231660231660082
270,Sidney Wicks,POR,PF,0.000351000351000351,0.0012706212706212697,0.08266409266409273,0.7044857844857865,0.21231660231660082
271,Harthorne Wingo,NYK,PF,0.000351000351000351,0.0012706212706212697,0.08266409266409273,0.7044857844857865,0.21231660231660082
272,Freddie Boyd,TOT,SG-PG,0.41590909090909095,0.565,0.019545454545454546,0.0,0.0
