Rk,Player,Pos,Age,Tm,G,GS,MP,FG,FGA,FG%,3P,3PA,3P%,2P,2PA,2P%,FT,FTA,FT%,ORB,DRB,TRB,AST,STL,BLK,TOV,PF,PTS
1,Tariq Abdul-Wahad\abdulta01,SG,28,DAL,14,0,204,4.8,10.2,.466,0.0,0.2,.000,4.8,10.1,.474,0.5,1.1,.500,2.5,4.6,7.1,3.7,1.1,0.5,1.2,4.6,10.1
2,Shareef Abdur-Rahim\abdursh01,PF,26,ATL,81,81,3087,6.6,13.8,.478,0.2,0.7,.350,6.4,13.1,.485,5.3,6.3,.841,2.0,5.9,7.9,2.8,1.0,0.4,2.5,2.8,18.8
3,Courtney Alexander\alexaco02,PG,25,NOH,66,7,1360,5.1,13.4,.382,0.5,1.5,.333,4.6,11.9,.388,3.1,3.9,.808,1.0,2.1,3.1,2.1,0.8,0.2,1.8,3.3,13.8
4,Malik Allen\allenma01,PF,24,MIA,80,73,2318,5.2,12.3,.424,0.0,0.1,.000,5.2,12.2,.426,1.5,1.9,.802,2.1,4.5,6.6,0.8,0.6,1.2,2.0,3.6,11.9
5,Ray Allen*\allenra02,SG,27,TOT,76,75,2880,7.5,17.0,.439,2.5,6.7,.377,5.0,10.4,.478,3.9,4.3,.916,1.2,3.6,4.8,4.2,1.3,0.2,2.5,2.7,21.4
5,Ray Allen*\allenra02,SG,27,MIL,47,46,1683,7.5,17.2,.437,2.6,6.7,.395,4.9,10.5,.463,3.8,4.2,.913,1.0,3.7,4.7,3.5,1.2,0.2,2.5,3.2,21.5
5,Ray Allen*\allenra02,SG,27,SEA,29,29,1197,7.4,16.8,.441,2.3,6.7,.351,5.1,10.2,.500,4.2,4.5,.920,1.5,3.4,4.9,5.1,1.4,0.1,2.4,2.1,21.4
6,Rafer Alston\alstora01,PG,26,TOR,47,4,980,5.1,12.3,.415,1.9,4.8,.392,3.2,7.5,.429,1.4,2.0,.685,0.8,3.2,3.9,7.1,1.4,0.6,3.2,4.4,13.4
7,John Amaechi\amaecjo01,C,32,UTA,50,1,474,2.8,9.0,.314,0.0,0.0,,2.8,9.0,.314,1.9,3.9,.481,2.0,3.9,5.8,1.6,1.1,0.5,2.6,3.8,7.5
8,Chris Andersen\anderch01,C,24,DEN,59,3,907,4.5,11.3,.400,0.0,0.0,.000,4.5,11.3,.401,3.1,5.6,.550,4.3,6.5,10.9,1.3,1.2,2.4,2.4,3.6,12.1
9,Derek Anderson\anderde01,PG,28,POR,76,76,2556,5.0,11.7,.427,1.6,4.7,.350,3.4,7.1,.477,3.3,3.8,.859,0.7,3.0,3.7,4.6,1.3,0.2,1.8,2.0,14.9
10,Kenny Anderson\anderke01,PG,32,TOT,61,2,1135,5.2,12.1,.427,0.0,0.2,.143,5.1,11.9,.432,1.4,1.8,.789,1.0,3.2,4.2,6.3,1.8,0.2,2.4,3.4,11.8
10,Kenny Anderson\anderke01,PG,32,SEA,38,1,689,5.3,12.1,.440,0.0,0.3,.000,5.3,11.9,.449,1.5,1.8,.829,0.9,3.7,4.5,6.3,2.1,0.1,1.7,3.3,12.2
10,Kenny Anderson\anderke01,PG,32,NOH,23,1,446,4.9,12.1,.407,0.1,0.2,.500,4.8,11.9,.405,1.3,1.8,.727,1.1,2.5,3.6,6.2,1.5,0.3,3.4,3.5,11.2
11,Shandon Anderson\andersh01,SF,29,NYK,82,9,1731,5.2,11.2,.462,1.1,2.9,.371,4.1,8.3,.494,2.9,4.0,.732,1.3,4.0,5.3,1.8,1.5,0.4,2.4,3.7,14.3
12,Robert Archibald\archiro01,PF,22,MEM,12,0,72,3.0,10.0,.300,0.0,0.0,,3.0,10.0,.300,3.5,9.0,.389,3.0,5.5,8.5,1.5,0.0,1.5,3.5,4.5,9.5
13,Gilbert Arenas\arenagi01,PG,21,GSW,82,82,2866,6.4,14.8,.431,1.4,3.9,.348,5.0,10.9,.461,4.6,5.9,.791,1.2,3.6,4.8,6.5,1.6,0.2,3.6,3.3,18.8
14,Brandon Armstrong\armstbr01,SG,22,NJN,17,0,69,4.7,14.1,.333,0.5,3.1,.167,4.2,11.0,.381,2.6,3.1,.833,0.0,2.1,2.1,1.0,1.6,0.5,2.6,4.2,12.5
15,Darrell Armstrong\armstda01,PG,34,ORL,82,23,2350,4.0,9.9,.409,1.2,3.6,.336,2.8,6.3,.450,2.5,2.9,.878,1.4,3.1,4.5,4.9,2.1,0.2,2.5,2.6,11.8
16,Carlos Arroyo\arroyca01,PG,23,UTA,44,0,287,6.3,13.7,.459,0.4,0.9,.429,5.9,12.8,.461,2.3,2.8,.818,1.4,1.9,3.3,6.6,1.5,0.1,3.8,3.5,15.2
17,Chucky Atkins\atkinch01,PG,28,DET,65,7,1398,4.3,12.0,.361,2.2,6.2,.355,2.1,5.7,.368,1.0,1.3,.816,0.5,1.9,2.5,4.5,0.7,0.1,2.0,2.8,11.9
18,Stacey Augmon\augmost01,SG,34,NOH,70,3,862,3.3,8.0,.411,0.0,0.3,.000,3.3,7.7,.427,2.3,3.0,.750,1.1,3.9,5.0,2.9,1.1,0.4,1.7,3.3,8.9
19,Dalibor Bagarić\bagarda01,C,22,CHI,10,0,76,3.8,12.3,.308,0.0,0.0,,3.8,12.3,.308,1.4,1.9,.750,3.3,6.2,9.5,1.9,1.4,1.4,2.4,5.2,9.0
20,Vin Baker\bakervi01,C,31,BOS,52,9,942,3.8,7.9,.478,0.0,0.2,.000,3.8,7.8,.488,2.8,4.1,.673,3.4,4.1,7.6,1.1,0.8,1.1,2.3,5.6,10.3
21,Brent Barry\barrybr01,SG,31,SEA,75,68,2480,3.8,8.4,.458,1.7,4.3,.403,2.1,4.1,.514,1.9,2.3,.795,0.7,3.7,4.4,5.6,1.6,0.2,2.1,2.9,11.2
22,Jon Barry\barryjo01,SG,33,DET,80,0,1473,4.7,10.4,.450,2.1,5.2,.407,2.5,5.1,.495,2.1,2.4,.860,0.8,3.6,4.4,5.0,1.5,0.3,2.0,2.5,13.6
23,Maceo Baston\bastoma01,PF,27,TOR,16,0,106,5.1,8.5,.600,0.0,0.0,,5.1,8.5,.600,3.4,4.1,.833,1.4,6.5,7.8,0.0,1.4,3.7,2.0,5.4,13.6
24,Mengke Bateer\bateeme01,C,27,SAS,12,0,46,3.1,13.3,.235,0.8,2.3,.333,2.3,11.0,.214,0.0,1.6,.000,1.6,6.3,7.8,3.1,0.0,0.0,4.7,11.0,7.0
25,Mike Batiste\batismi01,PF,25,MEM,75,2,1248,5.7,13.5,.422,0.5,2.3,.222,5.2,11.1,.464,2.0,2.5,.784,2.4,5.0,7.4,1.5,1.2,0.5,2.0,3.5,13.9
26,Tony Battie\battito01,C,26,BOS,67,62,1683,4.3,7.9,.539,0.0,0.1,.200,4.2,7.8,.544,1.9,2.5,.746,3.2,6.1,9.3,1.0,0.7,1.7,1.0,4.2,10.4
27,Shane Battier\battish01,SF,24,MEM,78,47,2383,4.2,8.6,.483,1.3,3.3,.398,2.9,5.3,.535,1.8,2.2,.828,1.9,3.3,5.2,1.6,1.5,1.3,1.0,3.1,11.4
28,Lonny Baxter\baxtelo01,C,24,CHI,55,0,682,5.1,10.9,.466,0.0,0.1,.000,5.1,10.8,.471,3.7,5.4,.680,3.4,5.3,8.7,0.8,0.5,1.2,2.4,7.1,13.8
29,Raja Bell\bellra01,SG,26,DAL,75,32,1173,2.9,6.5,.441,0.6,1.6,.412,2.2,4.9,.450,0.7,1.0,.676,1.4,3.0,4.5,1.7,1.6,0.2,1.3,4.1,7.1
30,Jonathan Bender\bendejo01,SF,22,IND,46,2,819,4.9,11.2,.441,0.8,2.3,.358,4.1,8.8,.463,2.6,3.7,.714,1.8,4.0,5.8,1.8,0.4,2.5,1.8,3.8,13.3
31,Corey Benjamin\benjaco01,SG,24,ATL,9,0,152,3.1,10.2,.302,0.5,3.1,.154,2.6,7.1,.367,2.8,3.8,.750,2.4,5.0,7.3,2.4,0.2,0.5,1.4,4.7,9.5
32,Travis Best\besttr01,PG,30,MIA,72,52,1807,4.6,11.6,.396,0.7,2.2,.330,3.9,9.4,.411,2.1,2.5,.854,0.5,2.4,2.9,5.1,0.9,0.1,2.1,3.5,12.0
33,Mike Bibby\bibbymi01,PG,24,SAC,55,55,1835,6.5,13.7,.470,1.1,2.7,.409,5.4,11.0,.485,3.2,3.7,.861,0.7,2.2,2.9,5.6,1.4,0.2,2.5,1.8,17.2
34,Chauncey Billups\billuch01,PG,26,DET,74,74,2327,5.7,13.5,.421,2.3,5.9,.392,3.4,7.6,.443,4.9,5.6,.878,0.6,3.6,4.2,4.4,1.0,0.2,2.1,2.1,18.5
35,Corie Blount\blounco01,C,34,CHI,50,3,836,2.8,5.8,.485,0.0,0.0,,2.8,5.8,.485,0.9,1.5,.571,2.9,5.9,8.8,2.2,1.4,0.8,1.9,5.2,6.5
36,Mark Blount\blounma01,C,27,TOT,81,31,1403,3.8,8.9,.432,0.0,0.0,,3.8,8.9,.432,2.6,3.6,.727,2.8,5.1,7.9,1.4,1.1,1.7,2.6,4.8,10.3
36,Mark Blount\blounma01,C,27,DEN,54,24,885,4.3,10.9,.393,0.0,0.0,,4.3,10.9,.393,2.9,4.0,.717,2.5,4.9,7.4,1.4,0.9,2.1,2.8,4.6,11.4
36,Mark Blount\blounma01,C,27,BOS,27,7,518,3.1,5.6,.563,0.0,0.0,,3.1,5.6,.563,2.1,2.8,.750,3.4,5.3,8.7,1.5,1.4,1.2,2.3,5.2,8.3
37,Calvin Booth\boothca01,C,26,SEA,47,0,575,3.3,7.5,.437,0.0,0.1,.000,3.3,7.3,.444,2.1,2.9,.723,2.0,4.8,6.8,0.8,0.7,2.1,1.4,4.6,8.6
38,Carlos Boozer\boozeca01,PF,21,CLE,81,54,2049,5.8,10.9,.536,0.0,0.0,.000,5.8,10.8,.536,2.6,3.4,.771,3.5,7.2,10.7,1.9,1.0,0.9,1.8,3.9,14.2
39,Ruben Boumtje-Boumtje\boumtru01,C,24,POR,2,0,5,0.0,7.2,.000,0.0,0.0,,0.0,7.2,.000,0.0,0.0,,7.2,0.0,7.2,7.2,7.2,0.0,0.0,0.0,0.0
40,Bruce Bowen\bowenbr01,SF,31,SAS,82,82,2566,3.1,6.7,.466,1.4,3.2,.441,1.7,3.5,.488,0.5,1.2,.404,0.8,2.5,3.4,1.6,0.9,0.6,1.0,2.7,8.2
41,Ryan Bowen\bowenry01,SG,27,DEN,62,31,996,3.5,7.1,.492,0.1,0.3,.286,3.4,6.9,.500,1.0,1.5,.659,2.8,2.9,5.7,2.0,2.3,1.0,1.6,3.0,8.1
42,Earl Boykins\boykiea01,PG,26,GSW,68,0,1321,5.4,12.6,.429,0.8,2.1,.377,4.6,10.5,.439,4.7,5.5,.865,1.0,1.4,2.4,6.0,1.0,0.1,2.0,2.0,16.4
43,Michael Bradley\bradlmi01,PF,23,TOR,67,11,1314,4.1,8.6,.481,0.0,0.2,.167,4.1,8.4,.487,1.0,1.8,.522,4.4,6.8,11.2,1.8,0.4,0.9,2.1,3.4,9.3
44,Shawn Bradley\bradlsh01,C,30,DAL,81,39,1731,4.2,7.8,.536,0.0,0.0,.000,4.2,7.8,.537,2.9,3.6,.806,3.1,6.8,9.9,1.1,1.4,3.5,1.4,5.0,11.3
45,Elton Brand\brandel01,PF,23,LAC,62,61,2454,6.6,13.2,.502,0.0,0.0,.000,6.6,13.2,.502,3.6,5.2,.685,4.2,6.2,10.3,2.3,1.0,2.3,2.4,3.0,16.8
46,J.R. Bremer\bremejr01,PG,22,BOS,64,41,1503,4.1,11.1,.369,2.4,6.9,.353,1.7,4.3,.393,2.0,2.7,.766,0.4,3.0,3.5,3.9,0.9,0.1,1.4,1.9,12.6
47,Jamison Brewer\breweja01,PG,22,IND,10,0,80,4.1,7.7,.529,0.0,0.9,.000,4.1,6.8,.600,1.8,4.1,.444,2.3,1.8,4.1,8.1,0.9,0.5,2.7,5.0,9.9
48,Primož Brezec\brezepr01,C,23,IND,22,1,111,4.9,12.3,.395,0.0,0.3,.000,4.9,12.0,.405,3.9,6.5,.600,4.2,3.2,7.5,1.3,0.6,1.3,2.3,5.2,13.6
49,Damone Brown\brownda02,PF,23,TOR,5,3,115,3.4,11.0,.314,0.0,0.6,.000,3.4,10.3,.333,1.9,2.5,.750,0.9,3.8,4.7,0.9,0.3,0.0,1.9,4.4,8.8
50,Devin Brown\brownde02,SG,24,TOT,10,2,93,4.6,13.5,.343,0.0,0.4,.000,4.6,13.2,.353,2.3,3.1,.750,3.1,3.9,7.0,2.7,1.5,0.4,3.5,5.4,11.6
50,Devin Brown\brownde02,SG,24,SAS,7,0,22,8.2,16.4,.500,0.0,0.0,,8.2,16.4,.500,3.3,3.3,1.000,6.5,4.9,11.5,3.3,0.0,0.0,8.2,4.9,19.6
50,Devin Brown\brownde02,SG,24,DEN,3,2,71,3.5,12.7,.280,0.0,0.5,.000,3.5,12.2,.292,2.0,3.0,.667,2.0,3.5,5.6,2.5,2.0,0.5,2.0,5.6,9.1
51,Kedrick Brown\brownke01,SF,21,BOS,51,5,666,3.3,9.2,.357,0.2,2.1,.077,3.1,7.1,.439,1.1,1.7,.625,2.4,5.1,7.6,1.1,1.8,0.7,1.2,3.7,7.8
52,Kwame Brown\brownkw01,C,20,WAS,80,20,1773,4.5,10.2,.446,0.0,0.1,.000,4.5,10.1,.449,2.9,4.4,.668,2.6,6.1,8.6,1.2,1.0,1.6,2.2,3.2,12.0
53,P.J. Brown\brownpj01,PF,33,NOH,78,78,2609,4.4,8.3,.531,0.0,0.0,.000,4.4,8.3,.533,2.7,3.2,.836,3.4,6.3,9.7,2.0,0.9,1.1,1.4,2.8,11.5
54,Randy Brown\brownra02,PG,34,PHO,32,0,262,2.2,5.9,.372,0.0,0.0,,2.2,5.9,.372,1.2,1.6,.750,0.4,3.2,3.6,4.8,2.3,0.3,2.3,4.9,5.6
55,Tierre Brown\brownti01,PG,23,CLE,15,0,168,5.8,12.6,.458,0.0,0.2,.000,5.8,12.4,.466,2.4,3.0,.786,1.7,4.7,6.4,8.4,2.8,0.0,4.7,1.9,13.9
56,Rick Brunson\brunsri01,PG,30,CHI,17,0,196,4.2,9.2,.460,0.7,1.1,.667,3.5,8.1,.432,1.8,2.2,.833,0.7,2.8,3.5,6.6,1.8,0.6,3.1,3.7,11.0
57,Kobe Bryant*\bryanko01,SG,24,LAL,82,82,3401,9.2,20.4,.451,1.3,3.4,.383,7.9,16.9,.465,6.4,7.5,.843,1.1,4.8,6.0,5.1,1.9,0.7,3.0,2.3,26.0
58,Mark Bryant\bryanma01,PF,37,TOT,16,0,100,1.8,6.8,.263,0.0,0.0,,1.8,6.8,.263,1.1,1.4,.750,2.9,4.3,7.2,1.4,0.4,0.4,2.5,6.5,4.7
58,Mark Bryant\bryanma01,PF,37,PHI,11,0,77,2.3,7.9,.294,0.0,0.0,,2.3,7.9,.294,0.9,0.9,1.000,3.3,4.2,7.5,0.5,0.5,0.5,2.3,5.6,5.6
58,Mark Bryant\bryanma01,PF,37,DEN,3,0,14,0.0,2.6,.000,0.0,0.0,,0.0,2.6,.000,2.6,5.1,.500,2.6,2.6,5.1,5.1,0.0,0.0,5.1,10.3,2.6
58,Mark Bryant\bryanma01,PF,37,BOS,2,0,9,0.0,4.0,.000,0.0,0.0,,0.0,4.0,.000,0.0,0.0,,0.0,8.0,8.0,4.0,0.0,0.0,0.0,8.0,0.0
59,Greg Buckner\buckngr01,SG,26,PHI,75,5,1514,4.4,9.5,.465,0.4,1.3,.273,4.0,8.2,.496,1.5,1.9,.802,1.7,3.4,5.1,2.3,1.7,0.4,1.5,4.8,10.7
60,Pat Burke\burkepa01,C,29,ORL,62,8,783,5.2,13.6,.382,0.0,0.3,.143,5.1,13.3,.388,1.8,2.7,.690,2.6,4.1,6.7,1.1,0.9,1.1,2.2,4.6,12.3
61,Caron Butler\butleca01,SF,22,MIA,78,78,2858,5.4,13.0,.416,0.4,1.3,.318,5.0,11.7,.427,3.9,4.7,.824,1.7,3.3,5.0,2.7,1.7,0.4,2.4,2.9,15.1
62,Rasual Butler\butlera01,SG,23,MIA,72,28,1514,4.9,13.6,.362,1.2,4.1,.292,3.7,9.5,.392,1.8,2.5,.731,0.7,3.7,4.4,2.2,0.5,1.0,1.8,2.5,12.8
63,Jason Caffey\caffeja01,PF,29,MIL,51,16,894,4.6,10.0,.456,0.0,0.0,,4.6,10.0,.456,2.8,4.3,.651,2.7,4.3,7.1,1.5,0.8,0.6,2.3,4.9,11.9
64,Marcus Camby\cambyma01,C,28,DEN,29,9,616,5.4,13.3,.410,0.1,0.3,.400,5.3,13.0,.410,1.9,2.9,.660,4.4,7.8,12.2,2.7,1.2,2.3,1.6,4.0,12.9
65,Elden Campbell\campbel01,C,34,TOT,56,1,869,4.8,12.2,.397,0.0,0.0,.000,4.8,12.2,.398,4.5,5.6,.801,1.9,5.6,7.5,2.1,1.4,1.6,2.1,5.3,14.2
65,Elden Campbell\campbel01,C,34,NOH,41,1,685,5.3,13.0,.409,0.0,0.1,.000,5.3,12.9,.411,4.9,6.0,.809,1.8,5.7,7.5,2.2,1.3,1.6,2.2,5.4,15.5
65,Elden Campbell\campbel01,C,34,SEA,15,0,184,3.1,9.4,.333,0.0,0.0,,3.1,9.4,.333,3.1,4.1,.762,2.5,5.1,7.6,1.8,1.8,1.6,1.6,5.3,9.4
66,Brian Cardinal\cardibr01,PF,25,WAS,5,0,15,2.4,9.6,.250,0.0,2.4,.000,2.4,7.2,.333,4.8,4.8,1.000,7.2,4.8,12.0,2.4,0.0,0.0,2.4,0.0,9.6
67,Anthony Carter\cartean01,PG,27,MIA,49,26,912,3.3,9.2,.356,0.0,0.3,.000,3.3,8.9,.369,1.3,2.0,.660,0.5,2.8,3.3,8.0,1.8,0.2,3.2,2.8,7.9
68,Vince Carter\cartevi01,SG,26,TOR,43,42,1471,8.7,18.6,.467,1.1,3.2,.344,7.6,15.4,.493,3.2,3.9,.806,1.4,3.2,4.6,3.5,1.2,1.0,1.8,3.0,21.6
69,Sam Cassell\cassesa01,PG,33,MIL,78,77,2700,7.3,15.5,.470,0.8,2.2,.362,6.5,13.3,.487,5.1,6.0,.861,0.8,3.8,4.6,6.0,1.2,0.2,2.4,2.9,20.5
70,Kelvin Cato\catoke01,C,28,HOU,73,5,1247,3.8,7.4,.520,0.0,0.1,.000,3.8,7.3,.528,1.9,3.6,.532,3.8,8.5,12.4,0.6,1.1,2.5,1.6,5.1,9.6
71,Tyson Chandler\chandty01,C,20,CHI,75,68,1827,5.1,9.5,.531,0.0,0.0,,5.1,9.5,.531,3.5,5.7,.608,3.3,6.8,10.1,1.5,0.7,2.1,2.7,4.3,13.6
72,Calbert Cheaney\cheanca01,SG,31,UTA,81,74,2351,5.0,10.0,.499,0.2,0.4,.400,4.8,9.6,.503,0.6,1.1,.580,1.1,3.2,4.3,2.5,1.0,0.2,1.7,3.4,10.7
73,Chris Childs\childch01,PG,35,NJN,12,0,106,2.0,6.8,.300,0.3,2.0,.167,1.7,4.8,.357,0.7,1.0,.667,1.0,0.7,1.7,5.4,2.7,0.3,2.0,5.8,5.1
74,Doug Christie\chrisdo01,SG,32,SAC,80,80,2710,3.5,7.4,.479,1.0,2.5,.395,2.6,4.9,.522,1.9,2.3,.810,0.8,3.7,4.5,5.0,2.4,0.5,1.9,2.5,9.9
75,Keon Clark\clarkke01,C,27,SAC,80,11,1780,4.6,9.1,.501,0.0,0.1,.000,4.6,9.0,.506,1.7,2.6,.656,2.8,6.3,9.1,1.6,0.8,3.0,1.9,4.6,10.8
76,Speedy Claxton\claxtsp01,PG,24,SAS,30,0,471,5.1,11.1,.462,0.0,0.8,.000,5.1,10.2,.500,3.0,4.4,.684,1.7,2.6,4.3,5.7,1.7,0.5,2.7,3.3,13.2
77,Mateen Cleaves\cleavma01,PG,25,SAC,12,0,55,3.9,15.1,.261,0.7,0.7,1.000,3.3,14.4,.227,2.0,2.6,.750,0.7,4.6,5.2,6.5,1.3,0.0,9.2,3.9,10.5
78,Derrick Coleman\colemde01,C,35,PHI,64,35,1742,4.6,10.3,.448,0.5,1.4,.328,4.2,8.9,.466,2.8,3.5,.784,3.1,6.2,9.3,1.8,1.1,1.4,2.0,3.5,12.4
79,Bimbo Coles\colesbi01,PG,34,TOT,35,11,691,2.9,8.8,.333,0.4,1.7,.219,2.6,7.1,.360,1.8,2.2,.833,0.6,2.5,3.1,3.8,0.9,0.2,1.5,3.1,8.0
79,Bimbo Coles\colesbi01,PG,34,CLE,21,11,516,2.4,8.3,.286,0.5,1.7,.280,1.9,6.6,.287,1.9,2.4,.794,0.7,2.7,3.3,3.9,0.8,0.3,1.3,3.0,7.1
79,Bimbo Coles\colesbi01,PG,34,BOS,14,0,175,4.5,10.1,.449,0.0,1.4,.000,4.5,8.6,.524,1.6,1.6,1.000,0.2,2.1,2.3,3.3,1.2,0.0,2.1,3.5,10.7
80,Jason Collier\collija02,C,25,HOU,13,3,104,5.9,12.5,.472,0.0,0.0,,5.9,12.5,.472,0.7,0.7,1.000,4.2,5.9,10.0,0.3,0.7,0.3,0.7,3.5,12.5
81,Jarron Collins\collija03,C,24,UTA,22,7,421,3.2,7.4,.442,0.0,0.1,.000,3.2,7.3,.447,3.8,5.3,.710,2.7,2.4,5.1,1.2,0.4,0.5,1.6,6.0,10.3
82,Jason Collins\collija04,C,24,NJN,81,66,1900,2.7,6.4,.414,0.0,0.1,.000,2.7,6.3,.419,3.4,4.5,.763,2.6,4.4,7.0,1.6,0.9,0.8,1.6,4.8,8.7
83,Chris Crawford\crawfch01,PF,27,ATL,5,0,38,7.6,12.3,.615,0.9,2.8,.333,6.6,9.5,.700,6.6,7.6,.875,2.8,3.8,6.6,0.9,1.9,2.8,1.9,6.6,22.7
84,Jamal Crawford\crawfja01,PG,22,CHI,80,31,1992,6.0,14.6,.413,1.6,4.4,.355,4.5,10.2,.438,1.9,2.3,.806,0.4,3.0,3.3,6.0,1.4,0.5,2.4,2.3,15.5
85,Austin Croshere\croshau01,PF,27,IND,49,0,633,4.9,11.9,.411,1.5,3.9,.391,3.4,8.0,.421,3.0,3.7,.815,2.3,6.5,8.8,3.2,0.3,0.7,1.6,2.7,14.3
86,John Crotty\crottjo01,PG,33,DEN,12,0,180,2.8,8.2,.341,0.8,2.6,.308,2.0,5.6,.357,1.8,3.0,.600,0.2,2.8,3.0,5.8,0.6,0.0,1.8,3.2,8.2
87,Eddy Curry\curryed01,C,20,CHI,81,48,1571,7.7,13.1,.585,0.0,0.0,,7.7,13.1,.585,4.1,6.6,.624,2.7,5.4,8.1,0.8,0.4,1.4,3.1,5.2,19.5
88,Michael Curry\currymi01,SF,34,DET,78,77,1555,2.1,5.3,.402,0.4,1.3,.296,1.8,4.1,.434,0.8,1.0,.800,0.4,2.6,2.9,2.4,1.0,0.1,1.0,3.8,5.5
89,Erick Dampier\dampier01,C,27,GSW,82,82,1978,4.7,9.5,.496,0.0,0.0,.000,4.7,9.5,.498,2.8,4.0,.698,4.5,5.4,9.9,1.1,0.5,2.8,2.0,4.4,12.2
90,Antonio Daniels\daniean01,SG,27,POR,67,2,872,3.5,7.7,.452,0.7,2.4,.305,2.7,5.2,.520,2.7,3.1,.855,0.5,2.5,3.0,3.5,1.4,0.4,1.3,1.8,10.4
91,Antonio Davis\davisan01,C,34,TOR,53,52,1894,5.0,12.2,.407,0.0,0.0,,5.0,12.2,.407,4.1,5.3,.771,2.5,5.8,8.3,2.5,0.4,1.2,2.2,2.9,14.0
92,Baron Davis\davisba01,PG,23,NOH,50,47,1889,6.3,15.2,.416,1.9,5.4,.350,4.4,9.8,.452,1.8,2.5,.710,1.1,2.5,3.5,6.1,1.7,0.4,2.7,2.8,16.3
93,Dale Davis\davisda01,C,33,POR,78,78,2282,3.7,6.9,.541,0.0,0.0,,3.7,6.9,.541,1.7,2.6,.633,3.7,5.2,8.9,1.5,0.8,1.1,1.1,3.0,9.1
94,Emanual Davis\davisem01,SG,34,ATL,24,1,340,3.4,9.3,.364,0.7,3.1,.241,2.6,6.2,.424,1.8,2.3,.773,0.5,4.0,4.6,3.8,1.3,0.2,2.6,3.0,9.3
95,Hubert Davis\davishu01,SG,32,DET,43,1,328,3.4,8.7,.392,1.3,4.0,.333,2.1,4.7,.442,0.5,0.7,.833,0.7,3.3,4.0,3.2,0.5,0.0,1.2,2.5,8.7
96,Ricky Davis\davisri01,SG,23,CLE,79,76,3131,6.9,16.9,.410,0.9,2.3,.363,6.1,14.6,.417,4.0,5.3,.748,1.1,3.4,4.5,5.0,1.4,0.4,3.2,2.1,18.7
97,Andrew DeClercq\declean01,C,29,ORL,77,21,1327,4.0,7.6,.534,0.0,0.0,,4.0,7.6,.534,1.8,2.8,.644,3.9,5.3,9.2,1.4,1.1,1.0,2.3,7.0,9.9
98,Tony Delk\delkto01,PG,29,BOS,67,39,1873,4.5,10.8,.416,2.3,5.8,.395,2.2,4.9,.441,1.3,1.7,.782,0.8,3.7,4.5,2.8,1.4,0.2,1.3,2.4,12.6
99,Dan Dickau\dickada01,PG,24,ATL,50,0,515,4.9,11.9,.412,1.5,4.3,.361,3.4,7.6,.440,1.5,1.8,.808,0.6,2.4,3.0,5.9,1.0,0.1,3.7,4.6,12.8
100,Michael Dickerson\dickemi01,SG,27,MEM,6,1,87,4.1,9.9,.417,1.7,4.6,.364,2.5,5.4,.462,2.1,2.1,1.000,0.4,2.1,2.5,3.3,2.1,0.4,2.5,6.6,12.0
101,DeSagana Diop\diopde01,PF,21,CLE,80,1,943,2.1,5.9,.351,0.0,0.0,,2.1,5.9,.351,0.4,1.1,.367,2.4,5.8,8.2,1.6,1.3,3.1,2.1,5.7,4.5
102,Vlade Divac*\divacvl01,C,34,SAC,80,80,2384,4.6,9.9,.466,0.1,0.4,.240,4.5,9.5,.475,2.7,3.8,.713,2.4,6.3,8.7,4.1,1.3,1.6,2.3,3.6,12.0
103,Juan Dixon\dixonju01,PG,24,WAS,42,3,647,5.8,15.1,.384,1.4,4.7,.298,4.4,10.4,.422,2.1,2.6,.804,0.7,3.3,4.0,2.2,1.4,0.2,2.3,3.0,15.0
104,Michael Doleac\doleami01,C,25,NYK,75,0,1041,5.0,11.9,.426,0.0,0.0,,5.0,11.9,.426,1.2,1.6,.783,2.2,5.3,7.6,1.5,0.6,0.6,1.7,5.2,11.3
105,Keyon Dooling\doolike01,SG,22,LAC,55,1,969,4.8,12.2,.389,1.9,5.2,.360,2.9,7.1,.411,1.6,2.1,.772,0.3,2.3,2.7,3.3,0.9,0.2,2.2,3.5,13.0
106,Bryce Drew\drewbr01,PG,28,NOH,13,0,79,3.6,12.3,.296,1.4,3.2,.429,2.3,9.1,.250,0.0,0.0,,1.8,4.1,5.9,5.0,0.9,0.0,1.4,0.9,8.7
107,Predrag Drobnjak\drobnpr01,C,27,SEA,82,69,1984,5.9,14.3,.412,0.5,1.5,.353,5.4,12.8,.419,1.7,2.1,.791,2.0,3.8,5.8,1.6,0.9,0.7,1.2,3.3,14.0
108,Chris Dudley\dudlech02,C,37,POR,3,0,11,0.0,3.3,.000,0.0,0.0,,0.0,3.3,.000,0.0,0.0,,6.5,0.0,6.5,0.0,0.0,0.0,0.0,9.8,0.0
109,Tim Duncan*\duncati01,PF,26,SAS,81,81,3181,8.1,15.8,.513,0.1,0.2,.273,8.0,15.5,.517,5.1,7.2,.710,2.9,8.9,11.8,3.6,0.6,2.7,2.8,2.6,21.3
110,Mike Dunleavy\dunlemi02,SF,22,GSW,82,3,1305,4.6,11.5,.403,1.4,4.1,.347,3.2,7.4,.434,2.2,2.8,.780,1.8,4.1,5.9,2.9,1.5,0.5,2.4,3.3,12.9
111,Howard Eisley\eisleho01,PG,30,NYK,82,76,2243,4.2,10.1,.417,2.1,5.4,.389,2.1,4.7,.450,1.4,1.7,.848,0.4,2.6,3.0,7.1,1.1,0.1,2.4,3.6,11.9
112,LaPhonso Ellis\ellisla01,PF,32,MIA,55,3,784,4.6,12.0,.382,1.2,4.9,.252,3.4,7.1,.471,2.3,3.0,.758,2.0,5.2,7.2,0.7,0.7,0.7,1.4,4.0,12.7
113,Melvin Ely\elyme01,C,24,LAC,52,7,802,4.1,8.3,.495,0.0,0.0,,4.1,8.3,.495,2.3,3.3,.703,2.9,4.9,7.8,0.7,0.4,1.4,2.2,4.3,10.6
114,Evan Eschmeyer\eschmev01,C,27,DAL,17,3,135,1.9,5.1,.368,0.0,0.0,,1.9,5.1,.368,0.8,1.1,.750,2.7,5.1,7.7,1.6,2.7,1.9,1.6,9.3,4.5
115,Reggie Evans\evansre01,PF,22,SEA,67,60,1365,1.7,3.7,.471,0.0,0.0,,1.7,3.7,.471,2.1,4.1,.519,4.4,7.3,11.7,0.9,1.0,0.3,1.4,4.6,5.6
116,Danny Ferry\ferryda01,SF,36,SAS,64,1,601,2.6,7.4,.355,1.3,3.6,.350,1.4,3.8,.359,0.6,0.8,.769,1.2,3.3,4.5,1.3,0.4,0.5,1.6,3.3,7.1
117,Michael Finley\finlemi01,SF,29,DAL,69,69,2642,6.9,16.3,.425,1.6,4.4,.370,5.3,11.9,.445,2.7,3.1,.861,1.5,4.0,5.5,2.8,1.0,0.3,1.6,1.4,18.1
118,Derek Fisher\fishede01,PG,28,LAL,82,82,2829,4.3,9.9,.437,1.1,2.7,.401,3.2,7.2,.451,1.3,1.6,.800,0.5,2.5,3.0,3.8,1.2,0.2,1.2,2.5,11.0
119,Marcus Fizer\fizerma01,PF,24,CHI,38,0,809,7.9,17.0,.465,0.0,0.3,.167,7.9,16.8,.469,3.9,6.0,.657,3.6,6.1,9.6,2.1,0.6,0.8,2.5,4.0,19.8
120,Alton Ford\fordal02,PF,21,PHO,11,0,31,3.5,10.5,.333,0.0,0.0,,3.5,10.5,.333,1.2,3.5,.333,0.0,7.0,7.0,1.2,0.0,0.0,2.3,8.1,8.1
121,Joseph Forte\fortejo01,SG,21,SEA,17,0,86,4.2,14.7,.286,0.0,1.3,.000,4.2,13.4,.313,1.7,2.5,.667,1.7,2.9,4.6,4.6,1.7,0.0,4.2,2.5,10.0
122,Danny Fortson\fortsda01,PF,26,GSW,17,0,223,3.2,8.7,.370,0.0,0.2,.000,3.2,8.6,.377,3.1,4.7,.655,4.5,7.3,11.8,1.9,1.5,0.0,2.4,6.9,9.5
123,Greg Foster\fostegr01,C,34,TOR,29,9,539,3.1,8.1,.385,0.1,0.3,.250,3.1,7.9,.390,1.7,2.1,.813,2.0,4.8,6.8,0.9,0.1,0.6,2.0,5.5,8.1
124,Jeff Foster\fosteje01,C,26,IND,77,2,802,2.9,8.0,.360,0.0,0.1,.000,2.9,7.9,.364,1.5,2.8,.540,5.3,7.2,12.5,2.3,1.3,0.9,1.5,4.6,7.3
125,Tremaine Fowlkes\fowlktr01,SF,26,LAC,37,10,573,3.5,8.0,.438,0.1,0.6,.222,3.4,7.5,.454,3.1,3.7,.847,2.6,3.9,6.5,1.4,1.6,0.1,1.3,4.0,10.3
126,Rick Fox\foxri01,SF,33,LAL,76,75,2181,4.3,10.3,.422,1.7,4.6,.375,2.6,5.6,.460,0.9,1.1,.754,1.1,4.3,5.3,4.2,1.1,0.2,2.0,3.5,11.2
127,Adonal Foyle\foylead01,C,27,GSW,82,0,1787,3.7,7.0,.536,0.0,0.0,.000,3.7,6.9,.538,1.4,2.1,.673,3.5,6.3,9.9,0.7,0.8,4.1,1.5,4.3,8.9
128,Steve Francis\francst01,PG,25,HOU,81,81,3318,6.2,14.2,.435,0.9,2.6,.354,5.3,11.6,.453,5.2,6.5,.800,1.7,3.7,5.4,5.4,1.5,0.4,3.2,2.7,18.5
129,Lawrence Funderburke\fundela01,PF,32,SAC,27,0,229,5.0,11.3,.444,0.0,0.0,,5.0,11.3,.444,1.6,2.7,.588,2.7,6.0,8.6,1.3,0.2,1.7,0.9,3.9,11.6
130,Dan Gadzuric\gadzuda01,C,24,MIL,49,30,760,3.3,6.9,.483,0.0,0.0,.000,3.3,6.8,.486,1.4,2.7,.518,3.1,6.2,9.3,0.4,1.0,2.5,1.3,5.9,8.0
131,Kevin Garnett*\garneke01,PF,26,MIN,82,82,3321,8.1,16.1,.502,0.2,0.8,.282,7.8,15.3,.513,4.1,5.4,.751,2.6,9.3,11.9,5.4,1.2,1.4,2.5,2.2,20.4
132,Pat Garrity\garripa01,PF,26,ORL,81,53,2584,4.3,10.4,.419,2.2,5.7,.396,2.1,4.7,.448,1.2,1.4,.830,1.0,3.3,4.3,1.7,0.9,0.3,1.1,3.6,12.1
133,Pau Gasol\gasolpa01,PF,22,MEM,82,82,2948,6.9,13.6,.510,0.0,0.1,.100,6.9,13.5,.514,5.1,6.9,.736,2.3,6.4,8.8,2.8,0.4,1.8,2.6,2.7,19.0
134,Devean George\georgde01,SF,25,LAL,71,7,1613,4.0,10.3,.390,1.1,2.9,.371,2.9,7.3,.398,1.9,2.3,.790,2.0,4.4,6.4,2.1,1.2,0.8,1.5,4.0,11.0
135,Kendall Gill\gillke01,SG,34,MIN,82,34,2068,5.0,11.8,.422,0.3,1.0,.322,4.6,10.8,.432,2.1,2.8,.764,0.9,3.4,4.3,2.7,1.4,0.3,1.9,3.1,12.4
136,Manu Ginóbili\ginobma01,SG,25,SAS,69,5,1431,4.4,10.0,.438,1.3,3.7,.345,3.1,6.3,.494,3.2,4.3,.737,1.2,2.9,4.1,3.5,2.4,0.4,2.5,4.3,13.2
137,Gordan Giriček\giricgo01,SG-SF,25,TOT,76,62,2148,5.9,13.5,.436,1.4,4.2,.341,4.4,9.3,.478,2.5,3.1,.820,0.6,3.4,4.0,2.3,0.9,0.1,2.4,2.7,15.7
137,Gordan Giriček\giricgo01,SG,25,MEM,49,35,1187,6.3,14.5,.433,1.4,3.9,.354,4.9,10.6,.463,2.7,3.2,.822,0.5,2.7,3.3,2.1,0.7,0.2,2.9,3.2,16.6
137,Gordan Giriček\giricgo01,SF,25,ORL,27,27,961,5.4,12.2,.440,1.5,4.5,.328,3.9,7.7,.505,2.3,2.8,.816,0.7,4.2,4.9,2.5,1.1,0.1,1.9,2.1,14.5
138,Dion Glover\glovedi01,SG,24,ATL,76,42,1890,5.3,12.3,.427,1.1,3.0,.354,4.2,9.3,.451,2.4,3.1,.784,1.2,4.2,5.4,2.7,1.4,0.3,2.1,2.8,14.0
139,Anthony Goldwire\goldwan01,PG,31,TOT,15,0,85,3.8,10.6,.360,1.3,3.8,.333,2.5,6.8,.375,1.7,3.0,.571,0.0,2.5,2.5,1.7,1.3,0.0,2.5,2.5,10.6
139,Anthony Goldwire\goldwan01,PG,31,SAS,10,0,51,3.5,12.7,.278,1.4,5.6,.250,2.1,7.1,.300,0.0,1.4,.000,0.0,2.1,2.1,2.1,2.1,0.0,1.4,3.5,8.5
139,Anthony Goldwire\goldwan01,PG,31,WAS,5,0,34,4.2,7.4,.571,1.1,1.1,1.000,3.2,6.4,.500,4.2,5.3,.800,0.0,3.2,3.2,1.1,0.0,0.0,4.2,1.1,13.8
140,Drew Gooden\goodedr01,SF-PF,21,TOT,70,47,1873,6.8,14.9,.457,0.3,0.9,.292,6.6,14.0,.468,2.9,4.1,.712,3.1,5.6,8.7,1.6,1.0,0.7,2.9,3.3,16.8
140,Drew Gooden\goodedr01,SF,21,MEM,51,29,1329,6.9,15.6,.443,0.4,1.2,.304,6.5,14.4,.455,2.5,3.6,.697,2.8,5.1,8.0,1.7,1.0,0.6,2.8,3.3,16.7
140,Drew Gooden\goodedr01,PF,21,ORL,19,18,544,6.6,13.3,.498,0.0,0.1,.000,6.6,13.2,.503,3.9,5.3,.738,3.8,6.8,10.6,1.3,1.0,0.9,3.0,3.4,17.1
141,Brian Grant\grantbr01,C,30,MIA,82,82,2641,4.7,9.2,.509,0.0,0.0,,4.7,9.2,.509,2.2,2.8,.771,3.3,8.1,11.4,1.4,0.9,0.6,1.8,4.1,11.5
142,Horace Grant\grantho01,PF,37,ORL,5,1,85,5.5,10.6,.520,0.0,0.0,,5.5,10.6,.520,0.0,0.0,,0.8,2.5,3.4,3.0,1.3,0.0,0.4,2.1,11.0
143,Adrian Griffin\griffad01,SG,28,DAL,74,48,1373,3.8,8.8,.433,0.2,0.6,.250,3.7,8.2,.447,0.7,0.8,.844,2.3,4.6,6.9,2.8,2.0,0.2,1.2,4.1,8.5
144,Eddie Griffin\griffed01,PF,20,HOU,77,66,1890,5.2,12.9,.400,1.2,3.7,.333,3.9,9.3,.426,1.1,1.8,.617,2.6,6.2,8.8,1.6,1.0,2.1,1.4,2.6,12.6
145,Tom Gugliotta\guglito01,PF,33,PHO,27,11,447,4.8,10.6,.455,0.0,0.1,.000,4.8,10.6,.458,0.7,0.7,1.000,2.0,6.0,8.1,2.5,1.1,0.4,2.5,2.8,10.4
146,A.J. Guyton\guytoaj01,PG,24,GSW,2,0,9,0.0,16.0,.000,0.0,4.0,.000,0.0,12.0,.000,0.0,0.0,,0.0,0.0,0.0,8.0,4.0,0.0,4.0,0.0,0.0
147,Marcus Haislip\haislma01,PF,22,MIL,39,8,441,5.4,12.5,.431,0.2,1.0,.250,5.1,11.5,.447,2.1,3.1,.684,1.7,2.6,4.3,0.7,0.6,1.5,1.7,4.5,13.1
148,Darvin Ham\hamda01,SG,29,ATL,75,1,926,2.8,6.2,.447,0.0,0.1,.000,2.8,6.1,.455,1.5,3.1,.481,2.8,3.1,5.9,1.5,0.6,0.7,2.5,4.9,7.0
149,Richard Hamilton\hamilri01,SG,24,DET,82,82,2640,7.8,17.5,.443,0.4,1.6,.269,7.3,15.9,.461,6.0,7.2,.833,1.2,3.1,4.3,2.8,0.9,0.2,2.7,3.4,22.0
150,Zendon Hamilton\hamilze01,C,27,TOR,3,0,12,6.0,15.0,.400,0.0,0.0,,6.0,15.0,.400,6.0,6.0,1.000,3.0,9.0,12.0,0.0,3.0,0.0,3.0,6.0,18.0
151,Anfernee Hardaway\hardaan01,SG,31,PHO,58,51,1777,5.2,11.6,.447,0.5,1.5,.356,4.7,10.1,.460,1.6,2.0,.794,1.3,3.9,5.2,4.8,1.3,0.5,2.9,3.0,12.5
152,Tim Hardaway\hardati01,PG,36,IND,10,0,127,5.1,13.9,.367,3.1,8.8,.355,2.0,5.1,.389,0.6,1.1,.500,0.3,4.0,4.3,6.8,2.6,0.0,3.1,2.3,13.9
153,Matt Harpring\harprma01,SF,26,UTA,78,69,2557,7.3,14.4,.511,0.9,2.3,.413,6.4,12.1,.529,3.7,4.7,.792,2.7,4.6,7.2,1.9,1.0,0.2,2.3,3.1,19.3
154,Adam Harrington\harriad01,SG,22,TOT,19,0,111,3.6,12.0,.297,1.6,4.5,.357,1.9,7.5,.261,1.0,1.3,.750,0.3,2.3,2.6,3.9,0.6,0.3,0.6,2.6,9.7
154,Adam Harrington\harriad01,SG,22,DAL,13,0,37,3.9,16.5,.235,1.0,2.9,.333,2.9,13.6,.214,1.9,1.9,1.000,0.0,1.9,1.9,1.9,1.0,1.0,1.9,1.9,10.7
154,Adam Harrington\harriad01,SG,22,DEN,6,0,74,3.4,9.7,.350,1.9,5.4,.364,1.5,4.4,.333,0.5,1.0,.500,0.5,2.4,2.9,4.9,0.5,0.0,0.0,2.9,9.2
155,Al Harrington\harrial01,SF,22,IND,82,37,2467,5.7,13.1,.434,0.2,0.7,.283,5.5,12.4,.442,3.1,4.0,.770,2.3,5.1,7.5,1.8,1.0,0.5,2.4,4.1,14.6
156,Junior Harrington\harriju01,PG,22,DEN,82,51,2003,3.0,8.4,.362,0.1,0.5,.250,2.9,7.9,.369,1.3,2.0,.652,0.8,3.7,4.5,5.0,1.4,0.3,2.8,4.5,7.5
157,Othella Harrington\harriot01,PF,29,NYK,74,64,1850,4.4,8.6,.508,0.0,0.0,,4.4,8.6,.508,2.4,2.9,.820,3.2,6.1,9.3,1.2,0.2,0.4,1.8,4.5,11.2
158,Lucious Harris\harrilu01,SG,32,NJN,77,25,1973,5.4,13.2,.413,0.9,2.5,.346,4.6,10.7,.429,2.8,3.4,.804,1.1,3.1,4.2,2.8,1.0,0.1,1.3,1.7,14.5
159,Antonio Harvey\harvean01,PF,32,ATL,4,0,32,2.3,5.6,.400,0.0,0.0,,2.3,5.6,.400,0.0,0.0,,1.1,5.6,6.8,0.0,1.1,4.5,3.4,7.9,4.5
160,Donnell Harvey\harvedo01,SF,22,DEN,77,27,1613,5.5,12.3,.446,0.0,0.2,.143,5.5,12.1,.450,2.6,3.9,.670,2.8,6.3,9.1,2.2,1.1,0.6,2.7,4.5,13.6
161,Trenton Hassell\hassetr01,SG,23,CHI,82,53,1999,2.6,7.1,.367,0.2,0.7,.325,2.4,6.3,.372,0.7,1.0,.745,0.7,3.9,4.6,2.7,0.8,1.1,1.5,3.5,6.2
162,Kirk Haston\hastoki01,SF,23,NOH,12,0,57,1.3,10.7,.118,0.0,1.9,.000,1.3,8.8,.143,1.3,2.5,.500,0.0,4.4,4.4,1.9,0.0,3.2,4.4,6.3,3.8
163,Juaquin Hawkins\hawkiju01,SG,29,HOU,58,10,685,3.0,7.8,.385,0.5,1.3,.417,2.5,6.5,.379,0.5,1.1,.500,0.8,3.3,4.1,2.5,1.5,0.3,1.5,3.0,7.0
164,Brendan Haywood\haywobr01,C,23,WAS,81,69,1930,3.2,6.3,.510,0.0,0.0,,3.2,6.3,.510,2.9,4.6,.633,3.6,4.0,7.5,0.5,0.6,2.2,1.2,4.2,9.3
165,Alan Henderson\hendeal01,C,30,ATL,82,3,1494,3.7,7.9,.468,0.0,0.0,.000,3.7,7.8,.471,2.1,3.3,.638,3.8,5.8,9.6,1.0,0.8,0.8,1.5,4.0,9.5
166,Nenê\hilarne01,C,20,DEN,80,53,2258,5.1,9.9,.519,0.0,0.0,.000,5.1,9.8,.521,3.1,5.4,.578,3.3,4.5,7.8,2.4,2.0,1.0,2.9,4.7,13.4
167,Grant Hill*\hillgr01,SF,30,ORL,29,29,843,6.4,13.1,.492,0.0,0.2,.250,6.4,12.9,.495,5.0,6.1,.819,1.7,7.1,8.8,5.2,1.2,0.6,3.6,2.0,18.0
168,Tyrone Hill\hillty01,PF,34,TOT,56,43,1351,3.4,8.2,.422,0.0,0.0,,3.4,8.2,.422,1.4,2.1,.675,3.4,7.1,10.4,1.1,1.2,0.7,1.8,4.6,8.3
168,Tyrone Hill\hillty01,PF,34,CLE,32,25,855,3.6,8.3,.431,0.0,0.0,,3.6,8.3,.431,1.4,1.9,.733,2.9,8.3,11.2,1.3,1.3,0.8,2.2,4.4,8.5
168,Tyrone Hill\hillty01,PF,34,PHI,24,18,496,3.2,7.9,.404,0.0,0.0,,3.2,7.9,.404,1.5,2.5,.600,4.1,4.9,9.0,0.7,1.1,0.5,1.2,4.9,7.9
169,Fred Hoiberg\hoibefr01,SG,30,CHI,63,0,784,2.3,5.8,.389,0.2,1.0,.238,2.0,4.8,.419,1.9,2.3,.820,0.5,5.8,6.3,3.2,1.8,0.2,1.1,2.7,6.6
170,Robert Horry\horryro01,PF,32,LAL,80,26,2343,2.8,7.3,.387,0.8,2.7,.288,2.0,4.6,.445,1.6,2.1,.769,2.8,5.1,7.9,3.6,1.5,0.9,1.7,3.8,8.0
171,Eddie House\houseed01,SG,24,MIA,55,7,1025,6.0,15.6,.387,1.3,4.2,.300,4.8,11.4,.420,1.1,1.3,.861,0.6,3.0,3.5,3.1,1.5,0.0,1.6,2.6,14.4
172,Allan Houston\houstal01,SG,31,NYK,82,82,3108,7.6,17.0,.445,2.1,5.2,.396,5.5,11.8,.467,4.2,4.6,.919,0.3,2.4,2.7,2.5,0.6,0.1,2.1,2.2,21.4
173,Juwan Howard\howarju01,PF,29,DEN,77,77,2730,7.5,16.6,.450,0.0,0.1,.500,7.5,16.6,.449,3.7,4.6,.803,2.4,5.3,7.7,3.1,1.0,0.4,2.5,3.2,18.7
174,Troy Hudson\hudsotr01,PG,26,MIN,79,74,2600,5.7,13.2,.428,1.3,3.7,.365,4.3,9.6,.452,2.9,3.2,.900,0.6,2.0,2.5,6.3,0.8,0.1,2.5,2.2,15.5
175,Nate Huffman\huffmna01,C,27,TOR,7,0,76,4.3,11.8,.360,0.0,0.0,,4.3,11.8,.360,2.4,3.8,.625,4.3,6.6,10.9,2.4,0.5,1.4,1.4,6.2,10.9
176,Larry Hughes\hughela01,PG,24,WAS,67,56,2137,5.8,12.5,.467,0.5,1.3,.367,5.3,11.2,.479,2.3,3.1,.731,1.1,4.1,5.2,3.5,1.4,0.4,2.3,2.5,14.4
177,Ryan Humphrey\humphry01,PF,23,TOT,48,1,444,2.8,9.7,.292,0.0,0.0,,2.8,9.7,.292,1.9,3.2,.590,2.8,5.3,8.0,0.9,0.7,1.5,1.9,6.1,7.5
177,Ryan Humphrey\humphry01,PF,23,ORL,35,1,322,2.6,9.5,.271,0.0,0.0,,2.6,9.5,.271,2.0,3.1,.643,3.4,4.4,7.7,0.8,0.4,1.8,2.3,6.4,7.2
177,Ryan Humphrey\humphry01,PF,23,MEM,13,0,122,3.5,10.3,.343,0.0,0.0,,3.5,10.3,.343,1.5,3.2,.455,1.2,7.7,8.9,1.2,1.5,0.6,0.6,5.3,8.6
178,Lindsey Hunter\hunteli01,PG,32,TOR,29,0,673,5.7,16.2,.351,1.8,5.7,.318,3.9,10.4,.369,1.8,2.5,.723,0.8,2.4,3.2,3.8,1.9,0.3,3.0,2.7,15.0
179,Steven Hunter\huntest01,C,21,ORL,33,5,447,4.5,8.3,.544,0.0,0.0,,4.5,8.3,.544,1.4,3.5,.409,3.1,4.4,7.5,0.5,0.7,2.9,1.2,4.5,10.5
180,Zydrunas Ilgauskas\ilgauzy01,C,27,CLE,81,81,2432,7.3,16.6,.441,0.0,0.1,.000,7.3,16.5,.443,5.9,7.6,.781,3.6,5.5,9.0,1.9,0.8,2.3,3.1,4.1,20.6
181,Allen Iverson*\iversal01,SG,27,PHI,82,82,3485,8.3,20.0,.414,0.9,3.1,.277,7.4,16.9,.440,5.9,7.6,.774,0.7,2.9,3.6,4.7,2.3,0.1,3.0,1.5,23.4
182,Bobby Jackson\jacksbo01,PG,29,SAC,59,26,1676,7.3,15.7,.464,1.9,5.0,.379,5.4,10.7,.505,2.7,3.2,.846,1.2,3.5,4.7,3.9,1.5,0.1,2.3,2.7,19.2
183,Jermaine Jackson\jacksje01,SG,26,TOT,53,1,559,2.6,7.1,.364,0.1,0.6,.100,2.5,6.4,.390,2.6,3.5,.727,1.2,2.4,3.7,4.8,1.2,0.4,2.2,3.3,7.8
183,Jermaine Jackson\jacksje01,SG,26,TOR,24,1,286,2.6,8.6,.309,0.1,1.1,.111,2.5,7.4,.339,2.9,3.4,.852,1.3,1.9,3.1,4.9,1.1,0.4,2.4,3.0,8.3
183,Jermaine Jackson\jacksje01,SG,26,ATL,29,0,273,2.5,5.5,.452,0.0,0.1,.000,2.5,5.4,.463,2.2,3.7,.607,1.2,3.0,4.2,4.6,1.3,0.4,2.0,3.6,7.3
184,Jim Jackson\jacksji01,SF,32,SAC,63,0,1309,5.6,12.7,.442,0.9,2.0,.451,4.7,10.8,.440,1.3,1.5,.855,2.3,4.9,7.2,3.2,0.9,0.1,2.2,3.6,13.4
185,Marc Jackson\jacksma02,C,28,MIN,77,0,1041,5.3,12.1,.438,0.0,0.0,1.000,5.3,12.0,.437,3.9,5.2,.765,3.0,4.8,7.8,1.3,0.8,1.0,2.0,4.7,14.6
186,Mark Jackson\jacksma01,PG,37,UTA,82,0,1467,3.6,9.1,.398,0.7,2.3,.284,2.9,6.7,.438,1.5,2.0,.763,0.8,3.5,4.3,9.2,1.2,0.1,3.7,2.2,9.4
187,Stephen Jackson\jacksst02,SG,24,SAS,80,58,2254,5.7,13.1,.435,1.5,4.7,.320,4.2,8.3,.501,2.2,2.9,.760,1.1,3.5,4.6,2.9,2.0,0.5,2.8,3.2,15.1
188,Casey Jacobsen\jacobca01,SF,21,PHO,72,0,1147,3.8,10.3,.373,1.6,5.2,.315,2.2,5.1,.432,2.3,3.3,.686,0.9,1.7,2.6,2.3,1.1,0.2,1.7,2.8,11.6
189,Jerome James\jamesje01,C,27,SEA,51,16,766,5.2,10.9,.478,0.0,0.0,,5.2,10.9,.478,2.5,4.3,.587,3.7,6.5,10.2,1.3,0.6,3.9,3.5,7.8,13.0
190,Mike James\jamesmi01,PG,27,MIA,78,8,1722,4.6,12.2,.373,1.4,4.8,.294,3.2,7.5,.423,2.2,3.0,.732,0.5,2.6,3.1,5.1,1.3,0.1,2.3,3.7,12.7
191,Antawn Jamison\jamisan01,SF,26,GSW,82,82,3226,7.7,16.4,.470,0.7,2.3,.311,7.0,14.1,.496,4.2,5.3,.789,2.2,4.3,6.5,1.7,0.8,0.5,2.0,2.2,20.3
192,Marko Jarić\jaricma01,SF,24,LAC,66,12,1379,4.7,11.6,.401,1.4,4.3,.319,3.3,7.3,.450,2.1,2.7,.752,0.9,3.3,4.2,5.0,2.5,0.3,2.7,3.3,12.8
193,Chris Jefferies\jeffech01,SF,22,TOR,51,10,666,4.1,10.5,.387,1.0,2.9,.333,3.1,7.6,.407,1.6,2.3,.674,0.9,2.3,3.2,1.2,1.0,0.9,2.4,3.0,10.6
194,Richard Jefferson\jefferi01,SF,22,NJN,80,80,2879,5.7,11.4,.501,0.1,0.3,.250,5.6,11.1,.507,4.1,5.5,.743,1.9,4.6,6.4,2.5,1.0,0.6,2.0,2.7,15.5
195,Jared Jeffries\jeffrja01,SF,21,WAS,20,1,292,3.7,7.8,.476,0.4,0.7,.500,3.3,7.0,.474,2.0,3.6,.552,3.2,3.9,7.2,2.0,1.0,0.6,2.6,3.5,9.7
196,Anthony Johnson\johnsan02,PG,28,NJN,66,2,842,4.4,9.9,.446,0.6,1.5,.371,3.8,8.4,.459,2.2,3.2,.689,0.6,2.8,3.3,3.7,1.6,0.2,1.8,4.0,11.5
197,Avery Johnson\johnsav01,PG,37,DAL,48,0,430,5.3,12.6,.420,0.0,0.2,.000,5.3,12.4,.426,2.5,3.3,.769,0.8,1.8,2.6,5.4,1.3,0.1,2.4,2.2,13.1
198,Ervin Johnson\johnser02,C,35,MIL,69,17,1170,1.9,4.2,.452,0.0,0.0,,1.9,4.2,.452,0.9,1.4,.682,3.6,5.4,9.0,0.7,1.0,1.9,1.0,5.5,4.7
199,Joe Johnson\johnsjo02,SG,21,PHO,82,34,2255,5.0,12.7,.397,1.2,3.3,.366,3.8,9.4,.408,1.5,2.0,.774,0.9,3.3,4.2,3.4,1.0,0.3,1.7,2.3,12.8
200,Ken Johnson\johnske03,C,24,MIA,16,0,156,3.5,8.5,.405,0.0,0.0,,3.5,8.5,.405,0.5,1.4,.333,0.9,6.5,7.4,0.0,0.2,2.8,1.4,4.6,7.4
201,Damon Jones\jonesda01,PG,26,SAC,49,1,709,4.1,10.7,.381,2.2,6.1,.364,1.8,4.5,.404,1.0,1.4,.741,0.6,3.0,3.6,4.1,0.9,0.2,1.2,2.1,11.4
202,Eddie Jones\jonesed02,SG,31,MIA,47,47,1789,5.9,13.8,.423,2.0,4.8,.407,3.9,9.0,.432,3.8,4.6,.822,0.7,3.8,4.5,3.5,1.3,0.6,1.7,2.8,17.5
203,Fred Jones\jonesfr01,SG,23,IND,19,1,115,2.8,7.5,.375,0.6,2.2,.286,2.2,5.3,.412,0.9,1.3,.750,1.3,1.6,2.8,1.6,1.9,0.3,1.9,4.1,7.2
204,Jumaine Jones\jonesju01,SF,23,CLE,80,12,2204,5.0,11.6,.434,1.8,5.1,.354,3.2,6.5,.497,0.9,1.4,.687,1.7,4.9,6.6,1.8,1.1,0.4,1.7,2.9,12.8
205,Popeye Jones\jonespo01,PF,32,DAL,26,0,222,3.9,10.1,.387,0.0,0.0,,3.9,10.1,.387,0.8,1.8,.455,4.7,4.9,9.6,1.3,0.8,0.2,2.4,5.0,8.6
206,Michael Jordan*\jordami01,SF,39,WAS,82,67,3031,8.1,18.1,.445,0.2,0.7,.291,7.9,17.5,.450,3.2,3.8,.821,0.8,5.1,5.9,3.7,1.5,0.5,2.1,2.0,19.5
207,Shawn Kemp\kempsh01,C,33,ORL,79,55,1633,4.7,11.1,.418,0.0,0.0,.000,4.7,11.1,.419,2.5,3.4,.742,3.2,6.7,9.9,1.2,1.5,0.7,2.2,5.3,11.8
208,Steve Kerr\kerrst01,PG,37,SAS,75,0,952,4.2,9.7,.430,1.9,4.7,.395,2.3,5.0,.462,1.1,1.3,.882,0.5,1.8,2.3,2.6,1.0,0.1,1.3,1.9,11.3
209,Jason Kidd*\kiddja01,PG,29,NJN,80,80,2989,6.2,15.0,.414,1.5,4.5,.341,4.7,10.5,.445,4.1,4.9,.841,1.3,4.7,6.1,8.6,2.2,0.3,3.6,1.5,18.0
210,Andrei Kirilenko\kirilan01,SF,21,UTA,80,11,2213,5.1,10.4,.491,0.6,1.9,.325,4.5,8.6,.527,4.8,6.0,.800,2.4,4.4,6.8,2.2,1.9,2.8,2.2,3.0,15.7
211,Kerry Kittles\kittlke01,SG,28,NJN,65,57,1951,6.1,13.1,.467,1.4,4.0,.356,4.7,9.1,.516,2.0,2.5,.785,1.0,3.7,4.6,3.1,1.9,0.6,1.0,2.0,15.6
212,Brevin Knight\knighbr01,PG,27,MEM,55,4,928,3.8,8.8,.425,0.1,0.3,.250,3.7,8.5,.432,0.8,1.4,.541,0.6,2.6,3.1,9.0,2.7,0.1,3.6,4.8,8.4
213,Travis Knight\knightr01,C,28,NYK,32,0,287,3.1,8.2,.385,0.0,0.1,.000,3.1,8.0,.391,1.3,1.6,.769,2.3,5.5,7.8,1.8,1.0,1.1,1.3,5.5,7.5
214,Toni Kukoč\kukocto01,PF,34,MIL,63,0,1704,5.3,12.2,.432,2.0,5.6,.361,3.3,6.6,.490,2.9,4.1,.706,1.4,4.2,5.6,4.9,1.7,0.6,2.6,2.8,15.4
215,Christian Laettner\laettch01,PF,33,WAS,76,66,2215,4.1,8.4,.494,0.0,0.3,.125,4.1,8.1,.506,2.0,2.3,.833,1.9,6.3,8.2,3.8,1.3,0.7,1.4,3.3,10.3
216,Raef LaFrentz\lafrera01,C,26,DAL,69,43,1611,5.9,11.5,.518,1.1,2.6,.405,4.9,8.9,.550,1.3,2.0,.682,2.8,4.6,7.4,1.2,0.8,2.0,1.0,5.9,14.3
217,Sean Lampley\lamplse01,SF,23,MIA,35,0,487,4.1,9.5,.434,0.0,0.3,.000,4.1,9.2,.448,4.2,6.1,.695,1.9,4.2,6.1,2.3,0.5,0.2,1.8,3.2,12.5
218,Dan Langhi\langhda01,SF,25,PHO,60,0,541,5.4,13.4,.401,0.6,2.1,.290,4.8,11.4,.421,0.8,1.3,.600,1.3,4.5,5.8,1.4,1.0,0.4,1.1,3.9,12.2
219,Voshon Lenard\lenarvo01,SG,29,TOR,63,24,1929,6.1,15.1,.402,1.7,4.7,.365,4.3,10.4,.418,2.9,3.6,.804,0.9,3.1,4.0,2.7,1.1,0.4,1.9,2.9,16.8
220,Rashard Lewis\lewisra02,SF,23,SEA,77,77,3044,6.1,13.6,.452,0.9,2.6,.346,5.3,11.0,.476,3.3,4.1,.820,1.8,4.2,5.9,1.6,1.2,0.4,1.7,2.4,16.5
221,Randy Livingston\livinra01,PG,27,NOH,2,0,12,6.0,12.0,.500,0.0,0.0,,6.0,12.0,.500,6.0,6.0,1.000,0.0,0.0,0.0,3.0,0.0,0.0,0.0,0.0,18.0
222,Art Long\longar01,PF,30,TOT,26,0,211,4.8,12.8,.373,0.3,0.5,.667,4.4,12.3,.361,0.3,1.7,.200,3.6,6.7,10.2,1.0,0.9,1.9,3.4,6.0,10.2
222,Art Long\longar01,PF,30,PHI,19,0,131,5.2,13.7,.380,0.3,0.3,1.000,4.9,13.5,.367,0.3,1.4,.200,3.6,7.4,11.0,0.5,0.5,2.2,2.5,6.0,11.0
222,Art Long\longar01,PF,30,TOR,7,0,80,4.1,11.3,.360,0.5,0.9,.500,3.6,10.4,.348,0.5,2.3,.200,3.6,5.4,9.0,1.8,1.4,1.4,5.0,5.9,9.0
223,Grant Long\longgr01,PF,36,BOS,41,1,488,2.0,5.2,.386,0.0,0.2,.000,2.0,4.9,.403,1.3,1.7,.783,1.8,4.4,6.1,1.8,0.7,0.1,1.4,4.6,5.3
224,Tyronn Lue\luety01,PG,25,WAS,75,24,1986,4.5,10.4,.433,1.1,3.2,.341,3.4,7.2,.474,1.6,1.9,.875,0.4,2.3,2.7,4.8,0.9,0.0,1.4,2.7,11.7
225,George Lynch\lynchge01,SG,32,NOH,81,32,1497,3.5,8.6,.409,0.7,1.9,.354,2.9,6.7,.425,1.0,1.8,.554,3.3,5.1,8.5,2.5,1.6,0.5,1.3,3.3,8.7
226,Todd MacCulloch\maccuto01,C,27,PHI,42,35,812,5.5,10.6,.517,0.0,0.0,,5.5,10.6,.517,2.3,3.5,.671,2.9,5.8,8.7,0.9,0.8,1.4,1.6,4.7,13.3
227,Tito Maddox\maddoti01,SG,21,HOU,9,0,35,3.1,12.3,.250,0.0,3.1,.000,3.1,9.3,.333,5.1,8.2,.625,1.0,6.2,7.2,5.1,3.1,1.0,3.1,4.1,11.3
228,Mark Madsen\madsema01,PF,27,LAL,54,22,781,3.2,7.5,.423,0.0,0.0,,3.2,7.5,.423,1.7,2.8,.590,4.0,3.4,7.3,1.8,0.7,0.9,1.2,5.3,8.0
229,Corey Maggette\maggeco01,SG,23,LAC,64,57,2006,6.2,13.9,.444,1.1,3.2,.350,5.0,10.7,.471,5.8,7.3,.802,1.4,4.4,5.8,2.2,1.0,0.3,2.6,3.5,19.3
230,Jamaal Magloire\magloja01,C,24,NOH,82,82,2443,4.5,9.4,.480,0.0,0.0,.000,4.5,9.3,.483,3.4,4.7,.717,3.8,6.8,10.7,1.3,0.7,1.6,2.3,4.1,12.4
231,Karl Malone*\malonka01,PF,39,UTA,81,81,2936,7.3,15.8,.462,0.0,0.2,.214,7.3,15.6,.464,5.8,7.6,.763,1.4,6.3,7.7,4.6,1.7,0.4,2.6,2.5,20.4
232,Matt Maloney\malonma01,PG,31,ATL,14,0,103,2.8,8.7,.320,1.7,5.2,.333,1.0,3.5,.300,1.0,1.7,.600,0.3,2.1,2.4,5.9,1.4,0.0,1.7,3.1,8.4
233,Danny Manning\mannida01,PF,36,DET,13,0,89,5.3,12.9,.406,1.2,3.2,.375,4.0,9.7,.417,2.0,2.4,.833,2.8,4.4,7.3,2.8,3.6,1.2,2.8,4.4,13.8
234,Stephon Marbury\marbust01,PG,25,PHO,81,81,3240,7.5,17.0,.439,1.0,3.3,.301,6.5,13.7,.472,4.2,5.2,.803,0.6,2.3,2.9,7.3,1.2,0.2,2.9,2.2,20.1
235,Shawn Marion\mariosh01,SF,24,PHO,81,81,3373,7.1,15.6,.452,1.5,3.9,.387,5.6,11.8,.473,2.7,3.1,.851,2.1,6.1,8.3,2.1,2.0,1.0,1.7,2.2,18.3
236,Sean Marks\marksse01,PF,27,MIA,23,0,223,3.6,9.5,.373,0.0,0.2,.000,3.6,9.4,.379,1.6,2.4,.667,1.3,4.4,5.7,0.5,0.8,1.0,2.3,6.0,8.7
237,Donny Marshall\marshdo02,SF,30,NJN,3,0,6,0.0,18.0,.000,0.0,6.0,.000,0.0,12.0,.000,0.0,0.0,,0.0,18.0,18.0,0.0,0.0,0.0,6.0,0.0,0.0
238,Donyell Marshall\marshdo01,PF,29,CHI,78,53,2378,6.4,13.9,.459,0.5,1.3,.379,5.9,12.6,.467,2.5,3.3,.756,3.5,7.0,10.6,2.1,1.4,1.3,2.0,3.5,15.8
239,Kenyon Martin\martike01,PF,25,NJN,77,77,2628,7.0,14.8,.470,0.1,0.6,.209,6.8,14.2,.481,3.5,5.4,.653,2.2,6.5,8.8,2.5,1.3,1.0,2.6,4.0,17.6
240,Jamal Mashburn\mashbja01,SF,30,NOH,82,81,3321,7.3,17.2,.422,1.3,3.3,.389,6.0,13.9,.430,3.4,4.0,.848,0.7,4.7,5.4,5.0,0.9,0.2,2.5,2.1,19.2
241,Anthony Mason\masonan01,C,36,MIL,65,58,2119,3.2,6.7,.486,0.0,0.0,.000,3.2,6.7,.487,1.4,2.0,.718,1.5,5.5,7.1,3.6,0.5,0.2,1.3,2.5,7.9
242,Desmond Mason\masonde01,SF,25,TOT,80,40,2763,6.0,13.3,.449,0.3,0.9,.292,5.7,12.3,.461,2.8,3.7,.749,2.0,4.8,6.8,2.1,0.9,0.4,1.5,2.7,14.9
242,Desmond Mason\masonde01,SF,25,SEA,52,15,1811,5.8,13.3,.436,0.3,1.1,.291,5.5,12.2,.449,2.7,3.6,.740,1.7,4.9,6.7,1.9,0.9,0.4,1.5,2.7,14.6
242,Desmond Mason\masonde01,SF,25,MIL,28,25,952,6.3,13.2,.474,0.2,0.6,.294,6.1,12.6,.483,2.9,3.9,.765,2.5,4.6,7.1,2.6,0.8,0.4,1.6,2.8,15.7
243,Roger Mason\masonro01,SF,22,CHI,17,0,113,3.5,9.9,.355,1.9,5.7,.333,1.6,4.1,.385,0.6,0.6,1.000,0.6,3.2,3.8,3.8,1.3,0.0,1.6,6.4,9.6
244,Tony Massenburg\masseto01,C,35,UTA,58,1,792,4.7,10.5,.448,0.0,0.0,,4.7,10.5,.448,3.0,3.8,.774,2.7,4.4,7.1,0.8,0.8,0.9,2.3,6.5,12.4
245,Walter McCarty\mccarwa01,SF,28,BOS,82,8,1949,3.2,7.7,.414,1.7,4.6,.367,1.5,3.1,.482,1.1,1.8,.622,1.2,4.1,5.3,2.0,1.4,0.5,1.2,3.5,9.2
246,Amal McCaskill\mccasam01,C,29,ATL,11,0,70,2.1,8.7,.235,0.0,0.0,,2.1,8.7,.235,1.5,2.1,.750,3.6,7.7,11.3,2.6,1.5,0.5,1.0,6.7,5.7
247,Jelani McCoy\mccoyje01,C,25,TOR,67,25,1367,5.1,10.4,.491,0.0,0.0,,5.1,10.4,.491,1.8,3.3,.548,2.5,6.8,9.3,1.1,0.7,1.6,2.5,4.3,12.0
248,Tracy McGrady*\mcgratr01,SG,23,ORL,75,74,2954,10.1,22.1,.457,2.1,5.5,.386,8.0,16.6,.481,7.0,8.8,.793,1.5,4.5,5.9,5.0,1.5,0.7,2.4,1.9,29.3
249,Jeff McInnis\mcinnje01,PG,28,POR,75,1,1311,5.2,11.6,.444,0.2,1.0,.171,5.0,10.7,.469,1.4,1.8,.746,0.6,2.1,2.7,4.7,0.6,0.1,2.1,3.2,11.9
250,Aaron McKie\mckieaa01,SF,30,PHI,80,40,2374,4.3,10.1,.429,0.6,1.7,.330,3.8,8.4,.449,1.7,2.0,.836,0.9,4.4,5.3,4.2,2.0,0.1,1.7,2.7,10.9
251,Stanislav Medvedenko\medvest01,PF,23,LAL,58,10,620,6.5,15.0,.434,0.0,0.1,.000,6.5,14.9,.438,1.8,2.5,.721,3.8,4.4,8.2,1.0,0.6,0.5,2.1,6.9,14.8
252,Ron Mercer\mercero01,SG,26,IND,72,3,1671,5.3,12.9,.409,0.1,0.3,.188,5.2,12.5,.415,1.4,1.7,.802,0.7,2.6,3.3,2.4,1.1,0.3,1.2,2.6,12.0
253,Chris Mihm\mihmch01,C,23,CLE,52,0,809,5.2,12.8,.404,0.0,0.1,.000,5.2,12.6,.408,3.4,4.7,.724,4.1,6.1,10.3,1.2,0.8,1.7,2.1,5.5,13.7
254,Darius Miles\milesda01,SF,21,CLE,67,62,2008,4.7,11.5,.410,0.0,0.3,.000,4.7,11.3,.419,1.6,2.8,.594,2.0,4.5,6.5,3.2,1.2,1.2,3.2,2.9,11.1
255,Andre Miller\millean02,PG,26,LAC,80,80,2913,4.7,11.5,.406,0.3,1.3,.213,4.4,10.1,.432,3.8,4.8,.795,1.0,2.9,3.9,6.6,1.2,0.1,2.5,2.5,13.4
256,Brad Miller\millebr01,C,26,IND,73,72,2270,5.2,10.6,.493,0.1,0.3,.313,5.1,10.3,.498,4.6,5.7,.818,2.9,6.6,9.6,3.1,1.0,0.7,1.9,3.2,15.1
257,Mike Miller\millemi01,SF,22,TOT,65,52,2186,6.1,14.1,.434,1.8,4.9,.363,4.3,9.2,.472,2.6,3.1,.839,0.8,4.9,5.6,2.8,0.7,0.3,2.1,2.8,16.6
257,Mike Miller\millemi01,SF,22,ORL,49,39,1826,5.8,14.0,.418,1.7,5.0,.340,4.1,8.9,.462,2.5,3.0,.847,0.8,4.8,5.6,2.7,0.7,0.3,2.0,2.7,15.9
257,Mike Miller\millemi01,SF,22,MEM,16,13,360,7.7,15.1,.510,2.2,4.4,.500,5.5,10.7,.514,2.9,3.6,.806,0.6,4.9,5.5,3.1,0.6,0.5,2.6,3.4,20.5
258,Reggie Miller*\millere01,SG,37,IND,70,70,2117,4.8,10.8,.441,1.9,5.4,.355,2.9,5.4,.527,3.5,3.9,.900,0.4,2.6,2.9,2.9,1.1,0.1,1.1,1.5,15.0
259,Chris Mills\millsch01,PF,33,GSW,21,0,262,5.4,14.6,.368,1.0,3.4,.280,4.4,11.1,.395,2.2,2.5,.889,2.6,4.3,6.9,3.0,1.0,0.4,1.4,4.0,13.9
260,Yao Ming*\mingya01,C,22,HOU,82,72,2382,6.1,12.2,.498,0.0,0.0,.500,6.0,12.1,.498,4.5,5.6,.811,3.0,7.2,10.2,2.1,0.5,2.2,2.6,3.5,16.7
261,Cuttino Mobley\moblecu01,SG,27,HOU,73,73,3044,5.5,12.6,.434,1.3,3.8,.352,4.2,8.9,.469,2.9,3.3,.858,0.8,2.8,3.6,2.5,1.1,0.4,2.0,2.2,15.1
262,Nazr Mohammed\mohamna01,C,25,ATL,35,0,445,5.4,12.9,.421,0.0,0.0,,5.4,12.9,.421,2.1,3.3,.634,3.8,6.6,10.4,0.5,1.3,1.7,2.0,6.4,12.9
263,Jérôme Moïso\moisoje01,C,24,NOH,51,1,644,5.0,9.6,.520,0.0,0.0,,5.0,9.6,.520,1.5,2.3,.659,3.3,6.7,10.0,1.2,1.1,2.5,2.6,4.9,11.5
264,Mikki Moore\mooremi01,C,27,TOT,8,0,43,4.2,10.9,.385,0.0,0.0,,4.2,10.9,.385,6.7,8.4,.800,5.0,1.7,6.7,2.5,0.0,3.3,1.7,5.9,15.1
264,Mikki Moore\mooremi01,C,27,BOS,3,0,12,0.0,3.0,.000,0.0,0.0,,0.0,3.0,.000,0.0,0.0,,3.0,0.0,3.0,0.0,0.0,6.0,0.0,18.0,0.0
264,Mikki Moore\mooremi01,C,27,ATL,5,0,31,5.8,13.9,.417,0.0,0.0,,5.8,13.9,.417,9.3,11.6,.800,5.8,2.3,8.1,3.5,0.0,2.3,2.3,1.2,20.9
265,Terence Morris\morrite01,SF,24,HOU,49,0,632,4.7,10.0,.466,0.4,1.8,.219,4.3,8.2,.521,0.6,0.8,.786,2.3,5.0,7.3,1.4,0.5,1.0,1.7,2.0,10.4
266,Troy Murphy\murphtr01,PF,22,GSW,79,79,2510,4.8,10.7,.451,0.0,0.2,.214,4.8,10.5,.456,3.5,4.2,.841,3.3,8.3,11.6,1.5,0.9,0.4,1.6,3.5,13.2
267,Ronald Murray\murraro01,SG,23,TOT,14,0,62,6.4,18.0,.355,0.0,2.9,.000,6.4,15.1,.423,2.9,4.6,.625,0.0,2.3,2.3,2.9,2.3,0.0,4.6,0.0,15.7
267,Ronald Murray\murraro01,SG,23,MIL,12,0,42,7.7,22.3,.346,0.0,3.4,.000,7.7,18.9,.409,4.3,6.9,.625,0.0,0.9,0.9,2.6,3.4,0.0,3.4,0.0,19.7
267,Ronald Murray\murraro01,SG,23,SEA,2,0,20,3.6,9.0,.400,0.0,1.8,.000,3.6,7.2,.500,0.0,0.0,,0.0,5.4,5.4,3.6,0.0,0.0,7.2,0.0,7.2
268,Tracy Murray\murratr01,SF,31,LAL,31,0,193,4.3,13.2,.324,1.5,7.1,.211,2.8,6.2,.455,1.3,1.7,.778,0.9,3.4,4.3,2.2,0.9,0.6,2.6,4.1,11.4
269,Dikembe Mutombo*\mutomdi01,C,36,NJN,24,16,514,3.4,9.2,.374,0.0,0.0,,3.4,9.2,.374,2.8,3.9,.727,3.8,6.9,10.7,1.3,0.3,2.6,2.4,3.8,9.7
270,Mamadou N'Diaye\ndiayma02,C,27,TOR,22,8,364,4.3,9.5,.448,0.0,0.0,,4.3,9.5,.448,3.4,4.6,.723,2.9,5.2,8.1,0.7,0.8,3.2,2.1,5.7,11.9
271,Boštjan Nachbar\nachbbo01,SF,22,HOU,14,1,77,5.1,14.5,.355,0.9,4.7,.200,4.2,9.8,.429,2.3,4.7,.500,1.4,3.7,5.1,1.4,0.9,0.9,2.8,6.1,13.6
272,Lee Nailon\nailole01,SF,27,NYK,38,0,405,7.5,16.9,.442,0.0,0.1,.000,7.5,16.8,.444,3.7,4.5,.824,2.8,3.4,6.2,2.3,0.5,0.3,2.8,4.1,18.7
273,Eduardo Nájera\najered01,SF,26,DAL,48,12,1103,4.2,7.5,.558,0.0,0.0,.000,4.2,7.5,.561,2.0,3.0,.681,2.9,4.3,7.3,1.5,1.3,0.7,0.8,4.2,10.4
274,Steve Nash*\nashst01,PG,28,DAL,82,82,2711,6.9,14.8,.465,1.5,3.6,.413,5.4,11.2,.482,4.1,4.5,.909,0.8,2.3,3.1,7.9,1.1,0.1,2.5,1.8,19.3
275,Rasho Nesterović\nestera01,C,26,MIN,77,77,2337,6.2,11.7,.525,0.0,0.0,.000,6.2,11.7,.526,0.9,1.5,.642,2.2,5.5,7.8,1.8,0.6,1.8,1.5,3.9,13.3
276,Ira Newble\newblir01,SF,28,ATL,73,45,1931,4.3,8.7,.495,0.6,1.6,.381,3.7,7.1,.520,1.3,1.7,.778,1.6,3.4,5.1,1.8,0.9,0.5,1.3,3.2,10.5
277,Moochie Norris\norrimo01,PG,29,HOU,82,3,1375,3.5,8.6,.406,0.3,1.2,.244,3.2,7.5,.432,2.0,3.0,.684,1.0,3.2,4.2,5.1,1.4,0.1,2.3,1.9,9.3
278,Dirk Nowitzki\nowitdi01,PF,24,DAL,80,80,3117,8.0,17.2,.463,1.7,4.5,.379,6.3,12.7,.493,5.6,6.3,.881,0.9,8.2,9.1,2.8,1.3,0.9,1.8,2.4,23.2
279,Jermaine O'Neal\onealje01,PF,24,IND,77,76,2864,7.7,15.8,.484,0.1,0.3,.333,7.6,15.6,.487,4.7,6.4,.731,2.5,7.5,10.0,1.9,0.8,2.2,2.3,3.5,20.1
280,Shaquille O'Neal*\onealsh01,C,30,LAL,67,66,2535,9.9,17.2,.574,0.0,0.0,,9.9,17.2,.574,6.4,10.3,.622,3.7,6.9,10.5,2.9,0.5,2.3,2.8,3.3,26.1
281,Charles Oakley\oaklech01,C,39,WAS,42,1,514,1.6,3.9,.418,0.0,0.0,,1.6,3.9,.418,2.0,2.4,.824,2.6,4.9,7.5,2.8,0.9,0.4,1.5,6.3,5.2
282,Lamar Odom\odomla01,SF,23,LAC,49,47,1679,5.7,13.1,.439,0.9,2.8,.326,4.8,10.3,.469,2.9,3.8,.777,1.3,5.7,7.0,3.8,0.9,0.9,3.0,3.9,15.3
283,Mehmet Okur\okurme01,PF,23,DET,72,9,1366,4.7,11.1,.426,1.0,3.0,.339,3.7,8.2,.457,2.5,3.5,.733,3.1,5.7,8.8,1.9,0.7,1.0,1.7,4.4,13.0
284,Dean Oliver\olivede01,PG,24,GSW,15,0,93,2.7,11.2,.241,0.4,2.3,.167,2.3,8.9,.261,2.7,3.1,.875,3.1,3.1,6.2,8.9,2.7,0.0,3.9,3.5,8.5
285,Kevin Ollie\ollieke01,PG,30,TOT,82,5,1897,3.8,8.4,.451,0.0,0.1,.333,3.7,8.3,.453,2.5,3.4,.753,0.5,3.0,3.5,5.5,1.3,0.1,1.4,2.3,10.1
285,Kevin Ollie\ollieke01,PG,30,MIL,53,4,1127,3.7,8.1,.459,0.0,0.2,.200,3.7,8.0,.464,2.2,2.9,.747,0.4,2.8,3.2,5.8,1.2,0.1,1.1,2.3,9.7
285,Kevin Ollie\ollieke01,PG,30,SEA,29,1,770,3.8,8.7,.441,0.0,0.0,1.000,3.8,8.6,.438,3.1,4.1,.759,0.6,3.3,3.9,5.1,1.5,0.0,1.7,2.4,10.8
286,Michael Olowokandi\olowomi01,C,27,LAC,36,36,1369,4.9,11.5,.427,0.0,0.0,,4.9,11.5,.427,1.8,2.8,.657,1.5,7.1,8.6,1.2,0.5,2.1,2.6,2.9,11.6
287,Greg Ostertag\ostergr01,C,29,UTA,81,74,1926,3.2,6.1,.518,0.0,0.0,,3.2,6.1,.518,1.9,3.7,.510,3.4,6.0,9.4,1.0,0.4,2.7,1.9,4.4,8.2
288,Bo Outlaw\outlabo01,C,31,PHO,80,20,1800,3.1,5.6,.550,0.0,0.0,.000,3.1,5.5,.554,1.4,2.3,.621,2.7,4.7,7.4,2.2,1.0,1.4,1.5,3.9,7.6
289,Chris Owens\owensch01,SF,23,MEM,1,0,6,12.0,18.0,.667,0.0,0.0,,12.0,18.0,.667,0.0,0.0,,6.0,0.0,6.0,0.0,0.0,0.0,6.0,0.0,24.0
290,Olumide Oyedeji\oyedeol01,C,21,ORL,27,3,145,2.5,5.7,.435,0.0,0.0,,2.5,5.7,.435,1.7,2.7,.636,2.5,9.9,12.4,1.2,1.2,0.7,1.2,7.4,6.7
291,Robert Pack\packro01,PG,33,NOH,28,4,440,4.3,10.6,.403,0.0,0.4,.000,4.3,10.1,.419,3.4,4.5,.745,0.9,3.3,4.2,6.6,2.0,0.0,3.3,2.9,11.9
292,Scott Padgett\padgesc01,PF,26,UTA,82,2,1321,4.6,11.5,.402,1.2,3.6,.338,3.4,7.9,.431,2.2,2.9,.757,2.3,5.2,7.4,2.3,1.1,0.7,1.9,4.0,12.7
293,Milt Palacio\palacmi01,PG,24,CLE,80,46,1976,3.0,7.1,.418,0.1,0.7,.216,2.8,6.4,.439,1.2,1.6,.747,0.9,3.4,4.3,4.7,1.2,0.3,2.4,3.1,7.2
294,Jannero Pargo\pargoja01,PG,23,LAL,34,0,342,3.9,9.8,.398,0.7,2.5,.292,3.2,7.3,.435,0.4,0.4,1.000,0.9,2.9,3.9,4.1,1.4,0.2,2.4,4.7,8.9
295,Smush Parker\parkesm01,PG,21,CLE,66,18,1103,4.4,11.0,.402,1.2,3.9,.322,3.2,7.2,.445,3.2,3.9,.831,0.9,2.9,3.9,5.3,1.6,0.4,4.3,3.5,13.3
296,Tony Parker\parketo01,PG,20,SAS,82,82,2774,6.3,13.5,.464,1.1,3.2,.337,5.2,10.4,.503,2.8,3.8,.755,0.4,2.4,2.8,5.6,0.9,0.1,2.6,2.3,16.5
297,Cherokee Parks\parksch02,PF,30,LAC,30,18,648,4.6,9.1,.503,0.1,0.1,.500,4.5,8.9,.503,1.3,2.1,.605,2.6,4.8,7.3,1.2,0.9,1.1,1.0,2.9,10.4
298,Ruben Patterson\patteru01,SF,27,POR,78,17,1655,5.5,11.2,.492,0.1,0.4,.150,5.5,10.8,.506,3.0,4.8,.627,2.6,3.1,5.7,2.2,1.6,0.6,2.5,3.5,14.1
299,Gary Payton*\paytoga01,PG,34,TOT,80,80,3208,7.5,16.5,.454,0.6,2.0,.297,6.9,14.4,.476,2.8,4.0,.710,0.9,2.9,3.7,7.4,1.5,0.2,2.1,2.0,18.3
299,Gary Payton*\paytoga01,PG,34,SEA,52,52,2123,7.5,16.8,.448,0.6,1.9,.298,7.0,14.9,.467,2.7,4.0,.692,0.9,3.3,4.2,7.7,1.6,0.2,2.2,2.0,18.4
299,Gary Payton*\paytoga01,PG,34,MIL,28,28,1085,7.3,15.7,.466,0.7,2.3,.294,6.7,13.5,.495,2.9,3.9,.746,0.8,2.1,2.9,6.8,1.3,0.3,1.9,2.1,18.2
300,Anthony Peeler\peelean01,SG,33,MIN,82,39,2245,4.0,9.8,.414,1.4,3.4,.410,2.6,6.4,.416,0.6,0.8,.780,0.6,3.2,3.9,3.9,1.2,0.2,1.3,2.6,10.1
301,Wesley Person\persowe01,SG,31,MEM,66,44,1941,5.1,11.1,.456,1.9,4.3,.433,3.2,6.9,.470,1.5,1.8,.814,0.4,3.1,3.6,2.1,0.8,0.4,1.0,1.2,13.5
302,Morris Peterson\petermo01,SF,25,TOR,82,80,2949,5.1,13.1,.392,1.4,4.2,.337,3.7,8.9,.418,2.4,3.0,.789,1.2,3.2,4.4,2.3,1.1,0.4,1.6,2.8,14.1
303,Eric Piatkowski\piatker01,SG,32,LAC,62,26,1360,5.6,11.8,.471,2.1,5.3,.398,3.4,6.5,.531,2.7,3.2,.828,1.2,3.0,4.1,1.9,0.9,0.2,1.5,2.4,15.9
304,Paul Pierce\piercpa01,SG,25,BOS,79,79,3096,7.7,18.5,.416,1.4,4.5,.302,6.3,14.0,.454,7.0,8.8,.802,1.2,5.5,6.7,4.1,1.6,0.7,3.3,2.6,23.8
305,Scottie Pippen*\pippesc01,SF,37,POR,64,58,1911,5.0,11.2,.444,0.7,2.5,.286,4.3,8.7,.489,2.3,2.8,.818,1.1,4.2,5.2,5.4,2.0,0.5,3.1,2.8,13.0
306,Scot Pollard\pollasc01,C,27,SAC,23,0,325,4.4,9.6,.460,0.0,0.0,,4.4,9.6,.460,2.5,4.2,.605,5.1,6.6,11.7,0.7,1.4,1.7,1.7,5.5,11.4
307,James Posey\poseyja01,SF,26,TOT,83,71,2518,4.4,10.8,.411,1.0,3.3,.306,3.4,7.5,.457,2.9,3.5,.833,1.3,4.8,6.1,2.6,1.5,0.2,2.1,2.8,12.8
307,James Posey\poseyja01,SF,26,DEN,25,24,872,5.0,13.4,.373,1.0,3.6,.273,4.0,9.7,.411,3.6,4.2,.843,1.6,4.4,6.0,3.2,1.2,0.2,2.7,2.6,14.5
307,James Posey\poseyja01,SF,26,HOU,58,47,1646,4.1,9.4,.439,1.0,3.1,.326,3.1,6.3,.495,2.6,3.1,.826,1.1,5.0,6.1,2.3,1.7,0.2,1.7,2.9,11.8
308,Lavor Postell\postela01,SG,24,NYK,12,0,98,5.1,14.0,.368,0.7,2.6,.286,4.4,11.4,.387,4.8,5.5,.867,0.4,1.1,1.5,1.1,0.7,0.0,2.6,3.3,15.8
309,Vitaly Potapenko\potapvi01,C,27,SEA,26,2,403,3.7,8.3,.441,0.0,0.0,,3.7,8.3,.441,2.0,2.6,.759,2.2,5.7,8.0,0.4,0.8,0.7,2.2,4.1,9.3
310,Tayshaun Prince\princta01,SF,22,DET,42,5,435,4.4,9.8,.449,1.7,3.9,.426,2.7,5.9,.465,0.9,1.4,.647,0.4,3.3,3.7,2.0,0.8,1.2,1.7,2.1,11.3
311,Joel Przybilla\przybjo01,C,23,MIL,32,17,546,1.2,3.0,.391,0.0,0.0,,1.2,3.0,.391,0.8,1.6,.500,3.2,6.4,9.6,0.8,0.7,3.0,1.3,5.6,3.2
312,Vladimir Radmanović\radmavl01,PF,22,SEA,72,16,1910,5.2,12.6,.410,2.0,5.5,.355,3.2,7.1,.453,1.4,1.9,.706,1.4,4.7,6.1,1.8,1.2,0.4,1.9,2.6,13.6
313,Igor Rakočević\rakocig01,PG,24,MIN,42,0,244,3.2,8.6,.379,0.7,1.8,.417,2.5,6.8,.370,4.3,5.3,.806,0.6,1.9,2.5,4.9,0.6,0.0,3.4,3.7,11.5
314,Zach Randolph\randoza01,PF,21,POR,77,11,1301,7.3,14.3,.513,0.0,0.1,.000,7.3,14.1,.518,3.4,4.5,.758,3.8,5.6,9.5,1.1,1.2,0.4,1.7,3.9,18.0
315,Theo Ratliff\ratlith01,C,29,ATL,81,81,2518,3.9,8.5,.464,0.0,0.0,,3.9,8.5,.464,2.2,3.1,.720,2.2,6.5,8.7,1.0,0.8,3.7,2.0,3.9,10.1
316,Željko Rebrača\rebraze01,C,30,DET,30,12,488,5.9,10.7,.552,0.0,0.0,,5.9,10.7,.552,2.8,3.5,.792,2.0,4.8,6.8,0.7,0.4,1.3,2.1,5.8,14.6
317,Michael Redd\reddmi01,SG,23,MIL,82,14,2316,7.1,15.1,.469,2.8,6.5,.438,4.2,8.6,.492,2.3,2.9,.805,1.5,4.2,5.8,1.8,1.6,0.2,1.2,2.2,19.3
318,Don Reid\reiddo01,PF,29,DET,1,0,10,0.0,10.8,.000,0.0,0.0,,0.0,10.8,.000,3.6,7.2,.500,0.0,0.0,0.0,0.0,0.0,0.0,0.0,14.4,3.6
319,Efthimios Rentzias\rentzef01,C,27,PHI,35,0,144,5.0,14.7,.339,1.0,2.0,.500,4.0,12.7,.314,2.0,2.3,.889,2.5,4.0,6.5,1.7,1.5,0.5,1.0,5.2,13.0
320,Glen Rice\ricegl01,SF,35,HOU,62,26,1532,4.6,10.7,.429,2.4,6.0,.398,2.2,4.8,.468,1.5,2.0,.759,0.7,3.0,3.6,1.5,0.5,0.1,1.3,2.3,13.1
321,Jason Richardson\richaja01,SG,22,GSW,82,82,2698,6.4,15.5,.410,1.6,4.5,.368,4.7,11.0,.427,2.8,3.6,.764,1.5,3.6,5.0,3.3,1.2,0.3,2.4,2.7,17.1
322,Quentin Richardson\richaqu01,SG,22,LAC,59,13,1368,5.3,14.4,.372,1.6,5.2,.308,3.7,9.2,.408,2.2,3.3,.685,2.6,4.8,7.4,1.4,0.9,0.3,1.7,2.4,14.5
323,Antoine Rigaudeau\rigauan01,SG,31,DAL,11,0,91,3.2,13.8,.229,0.4,2.0,.200,2.8,11.9,.233,0.0,0.0,,1.6,1.6,3.2,2.4,1.2,0.0,2.4,4.4,6.7
324,Clifford Robinson\robincl02,PF,36,DET,81,69,2825,4.7,11.9,.398,1.1,3.3,.336,3.6,8.6,.422,2.1,3.0,.676,1.0,3.0,4.1,3.4,1.1,1.1,2.0,3.3,12.6
325,David Robinson*\robinda01,C,37,SAS,64,64,1676,4.2,9.0,.469,0.0,0.0,,4.2,9.0,.469,3.3,4.6,.710,3.5,7.4,10.9,1.3,1.1,2.4,1.8,2.7,11.7
326,Eddie Robinson\robined01,SF,26,CHI,64,18,1355,4.1,8.4,.492,0.1,0.4,.214,4.0,8.0,.505,1.4,1.7,.810,2.0,3.3,5.3,1.8,1.6,0.3,1.4,3.2,9.7
327,Glenn Robinson\robingl01,SF,30,ATL,69,68,2591,7.5,17.3,.432,1.3,3.7,.342,6.2,13.7,.456,3.7,4.3,.876,1.2,5.2,6.3,2.8,1.3,0.4,3.4,2.5,20.0
328,Rodney Rogers\rogerro01,PF,31,NJN,68,0,1303,5.1,12.6,.402,1.2,3.6,.333,3.8,8.9,.430,1.9,2.5,.756,1.7,5.6,7.3,3.0,1.4,0.9,2.5,5.3,13.2
329,Sean Rooks\rooksse01,C,33,LAC,70,38,1344,3.3,8.0,.421,0.0,0.0,.000,3.3,7.9,.422,1.3,1.6,.810,1.4,4.4,5.8,1.8,0.9,1.2,1.8,4.7,8.0
330,Jalen Rose\roseja01,SF,30,CHI,82,82,3351,6.9,17.0,.406,1.4,3.9,.370,5.5,13.1,.416,4.3,5.0,.854,0.7,3.0,3.8,4.2,0.8,0.2,3.1,2.9,19.5
331,Malik Rose\rosema01,PF,28,SAS,79,13,1933,5.4,11.7,.459,0.0,0.1,.400,5.3,11.6,.459,4.5,5.7,.791,2.8,6.7,9.4,2.3,1.1,0.7,3.2,3.8,15.3
332,Guy Rucker\ruckegu01,PF,25,GSW,3,0,4,0.0,0.0,,0.0,0.0,,0.0,0.0,,0.0,0.0,,0.0,9.0,9.0,9.0,0.0,0.0,0.0,9.0,0.0
333,Kareem Rush\rushka01,PG,22,LAL,76,0,872,4.0,10.1,.393,0.8,2.8,.279,3.2,7.3,.438,0.7,0.9,.696,1.1,2.8,3.9,2.8,0.4,0.5,2.6,2.9,9.4
334,Bryon Russell\russebr01,SF,32,WAS,70,23,1388,2.8,7.9,.353,1.2,3.6,.329,1.6,4.3,.373,1.4,1.8,.768,1.1,4.3,5.4,1.9,1.8,0.2,1.4,3.4,8.2
335,Arvydas Sabonis*\sabonar01,C,38,POR,78,1,1209,5.1,10.7,.476,0.1,0.2,.500,5.0,10.6,.476,3.8,4.9,.787,2.6,7.4,10.0,4.2,1.8,1.5,2.2,4.2,14.2
336,John Salmons\salmojo01,PG,23,PHI,64,1,504,3.4,8.3,.414,0.7,2.2,.323,2.7,6.1,.447,1.9,2.5,.743,1.1,3.1,4.2,3.4,1.2,0.4,2.1,3.8,9.4
337,Soumaila Samake\samakso01,C,24,LAL,13,1,77,4.7,11.2,.417,0.0,0.0,,4.7,11.2,.417,0.9,0.9,1.000,4.7,6.1,10.8,1.9,0.0,2.3,0.9,6.1,10.3
338,Jamal Sampson\sampsja01,PF,19,MIL,5,0,8,0.0,9.0,.000,0.0,0.0,,0.0,9.0,.000,0.0,0.0,,4.5,4.5,9.0,4.5,4.5,0.0,0.0,0.0,0.0
339,Pepe Sánchez\sanchpe01,PG,25,DET,9,0,37,0.0,4.9,.000,0.0,0.0,,0.0,4.9,.000,0.0,0.0,,3.9,1.9,5.8,7.8,4.9,0.0,1.9,2.9,0.0
340,Jeryl Sasser\sasseje01,SG,23,ORL,75,4,1025,2.2,7.3,.309,0.5,1.5,.295,1.8,5.7,.313,1.9,2.7,.679,2.2,4.2,6.5,2.3,1.6,0.4,1.4,3.2,6.8
341,Kenny Satterfield\satteke01,PG,21,TOT,39,6,502,3.9,13.1,.301,0.4,2.0,.179,3.6,11.1,.323,1.2,1.8,.680,1.1,1.9,3.1,4.9,1.4,0.1,3.1,2.6,9.5
341,Kenny Satterfield\satteke01,PG,21,DEN,22,6,420,4.4,14.1,.309,0.4,2.4,.179,3.9,11.7,.336,1.4,2.0,.696,1.0,2.0,3.0,4.5,1.5,0.2,3.1,2.6,10.5
341,Kenny Satterfield\satteke01,PG,21,PHI,17,0,82,1.8,7.9,.222,0.0,0.0,,1.8,7.9,.222,0.4,0.9,.500,1.8,1.8,3.5,6.6,0.9,0.0,3.1,2.6,4.0
342,Predrag Savović\savovpr01,SG,26,DEN,27,0,256,4.1,13.1,.312,0.6,3.7,.154,3.5,9.4,.373,3.0,4.1,.724,1.3,2.3,3.5,3.1,2.0,0.1,3.0,4.6,11.7
343,Brian Scalabrine\scalabr01,PF,24,NJN,59,7,724,3.4,8.4,.402,0.7,1.9,.359,2.7,6.5,.415,1.5,1.8,.833,2.0,5.0,7.0,2.3,0.8,0.9,2.3,3.8,9.0
344,Ansu Sesay\sesayan01,SF,26,SEA,45,4,448,3.3,8.6,.383,0.0,0.0,,3.3,8.6,.383,1.0,1.7,.571,2.7,3.1,5.9,1.8,1.1,0.4,2.0,5.0,7.6
345,Brian Shaw\shawbr01,PG,36,LAL,72,0,900,4.0,10.4,.387,1.5,4.4,.349,2.5,6.1,.414,0.4,0.6,.667,0.8,4.0,4.8,4.1,1.3,0.5,2.2,2.5,10.0
346,Paul Shirley\shirlpa01,PF,25,ATL,2,0,5,0.0,28.8,.000,0.0,0.0,,0.0,28.8,.000,0.0,0.0,,0.0,7.2,7.2,0.0,0.0,0.0,0.0,0.0,0.0
347,Bobby Simmons\simmobo01,SG,22,WAS,36,2,378,4.2,10.7,.393,0.0,0.5,.000,4.2,10.2,.411,3.0,3.3,.914,3.1,4.2,7.3,1.9,1.0,0.3,0.8,4.9,11.4
348,Brian Skinner\skinnbr01,PF,26,PHI,77,9,1381,4.7,8.6,.550,0.0,0.0,,4.7,8.6,.550,2.5,4.2,.602,3.5,6.0,9.5,0.5,1.2,1.4,1.6,4.6,12.0
349,Reggie Slater\slatere01,PF,32,MIN,26,0,141,6.9,12.8,.540,0.0,0.0,,6.9,12.8,.540,6.9,11.5,.600,4.6,3.3,7.9,1.0,1.5,0.3,2.3,7.9,20.7
350,Tamar Slay\slayta01,SG,22,NJN,36,0,274,5.1,13.5,.379,0.9,3.3,.280,4.2,10.2,.410,0.9,1.3,.700,1.1,3.0,4.1,1.8,1.8,0.4,2.6,4.1,12.1
351,Charles Smith\smithch04,SG,27,POR,3,0,13,2.8,11.1,.250,0.0,2.8,.000,2.8,8.3,.333,8.3,11.1,.750,0.0,0.0,0.0,2.8,2.8,0.0,2.8,8.3,13.8
352,Joe Smith\smithjo02,SF,27,MIN,54,21,1117,4.9,10.6,.460,0.0,0.1,.000,4.9,10.5,.463,3.3,4.2,.779,3.6,5.1,8.7,1.2,0.5,1.8,1.4,5.5,13.0
353,Steve Smith\smithst01,SG,33,SAS,53,18,1032,3.9,10.2,.388,1.4,4.1,.331,2.6,6.0,.428,3.3,4.0,.833,0.7,2.7,3.5,2.4,1.0,0.3,1.5,2.8,12.6
354,Eric Snow\snower01,PG,29,PHI,82,82,3108,4.2,9.3,.452,0.1,0.4,.219,4.1,8.9,.462,3.8,4.4,.858,0.8,2.7,3.5,6.3,1.5,0.1,2.2,2.7,12.2
355,Latrell Sprewell\sprewla01,SF,32,NYK,74,73,2859,5.7,14.2,.403,1.7,4.5,.372,4.0,9.7,.417,2.2,2.7,.794,0.6,3.0,3.6,4.2,1.3,0.3,2.2,1.7,15.3
356,Jerry Stackhouse\stackje01,SG,28,WAS,70,70,2747,6.4,15.7,.409,0.9,3.2,.290,5.5,12.5,.439,6.0,6.8,.878,0.8,2.6,3.4,4.1,0.9,0.4,2.5,1.7,19.8
357,Vladimir Stepania\stepavl01,C,26,MIA,79,6,1594,4.2,9.6,.433,0.0,0.0,,4.2,9.6,.433,1.6,3.0,.530,4.8,7.7,12.5,0.5,1.0,0.9,1.6,3.8,10.0
358,DeShawn Stevenson\stevede01,SG,21,UTA,61,8,760,5.4,13.5,.401,0.2,0.6,.333,5.2,12.9,.404,2.2,3.2,.691,1.0,3.0,4.0,1.9,1.0,0.4,2.3,2.7,13.2
359,Michael Stewart\stewami01,PF,27,CLE,47,0,251,2.0,5.3,.378,0.0,0.0,,2.0,5.3,.378,1.1,1.7,.667,2.7,5.2,7.9,0.9,0.3,2.2,1.4,6.0,5.2
360,John Stockton*\stockjo01,PG,40,UTA,82,82,2275,4.9,10.1,.483,0.5,1.3,.363,4.4,8.9,.500,3.8,4.5,.826,0.8,2.4,3.2,10.0,2.2,0.3,2.9,2.9,14.0
361,Peja Stojaković\stojape01,SF,25,SAC,72,72,2450,7.3,15.2,.481,2.3,6.0,.382,5.0,9.2,.545,3.4,3.9,.875,0.9,4.9,5.8,2.1,1.1,0.1,1.5,2.1,20.3
362,Damon Stoudamire\stoudda01,PG,29,POR,59,27,1315,4.3,11.4,.376,1.2,3.1,.386,3.1,8.2,.372,1.5,1.8,.791,1.1,3.1,4.2,5.6,1.1,0.2,2.2,1.8,11.2
363,Amar'e Stoudemire\stoudam01,PF,20,PHO,82,71,2570,5.5,11.6,.472,0.0,0.1,.200,5.5,11.5,.476,4.5,6.8,.661,3.5,6.6,10.1,1.1,0.9,1.2,2.6,3.8,15.5
364,Erick Strickland\stricer01,SG,29,IND,71,10,1275,4.6,10.7,.429,1.8,4.5,.388,2.9,6.2,.459,2.0,2.5,.805,0.6,3.4,4.1,5.9,1.1,0.2,2.8,3.1,12.9
365,Mark Strickland\stricma01,SF,32,DAL,4,0,13,5.5,13.8,.400,0.0,0.0,,5.5,13.8,.400,0.0,0.0,,13.8,5.5,19.4,0.0,0.0,0.0,2.8,2.8,11.1
366,Rod Strickland\stricro02,PG,36,MIN,47,8,956,4.5,10.5,.432,0.0,0.4,.091,4.5,10.1,.446,3.0,4.0,.738,0.8,2.8,3.6,8.1,1.7,0.2,2.9,2.1,12.1
367,Bruno Šundov\sundobr01,C,22,BOS,26,0,138,3.7,14.6,.250,1.0,4.2,.250,2.6,10.4,.250,0.0,0.5,.000,2.1,5.2,7.3,1.8,1.6,0.8,2.3,6.3,8.3
368,Bob Sura\surabo01,SG,29,GSW,55,0,1130,4.3,10.4,.412,0.9,2.7,.329,3.4,7.7,.440,3.3,4.7,.696,1.8,3.5,5.3,5.6,1.4,0.1,2.6,3.4,12.8
369,Stromile Swift\swiftst01,PF,23,MEM,67,26,1478,5.7,11.9,.481,0.0,0.0,.000,5.7,11.9,.483,4.3,6.0,.722,2.8,6.6,9.4,1.1,1.3,2.5,2.4,3.7,15.8
370,Wally Szczerbiak\szczewa02,SF,25,MIN,52,42,1836,6.9,14.3,.481,1.2,2.8,.421,5.7,11.5,.497,2.9,3.4,.867,1.0,3.7,4.7,2.7,0.9,0.4,1.7,2.4,17.9
371,Maurice Taylor\tayloma01,PF,26,HOU,67,9,1377,6.0,14.0,.432,0.0,0.1,.000,6.0,13.9,.433,2.6,3.6,.725,2.5,3.7,6.2,1.7,0.6,0.6,2.6,3.9,14.7
372,Jason Terry\terryja01,PG,25,ATL,81,81,3081,5.7,13.3,.428,1.9,5.0,.371,3.8,8.3,.462,3.0,3.4,.887,0.4,2.8,3.3,7.0,1.5,0.2,2.9,2.0,16.3
373,Etan Thomas\thomaet01,PF,24,WAS,38,0,513,4.3,8.7,.492,0.0,0.0,,4.3,8.7,.492,4.2,6.6,.638,4.9,6.7,11.6,0.2,0.6,1.6,2.3,4.6,12.8
374,Kenny Thomas\thomake01,PF,25,TOT,66,42,1978,4.7,10.2,.465,0.0,0.0,,4.7,10.2,.465,2.7,3.6,.746,3.4,6.3,9.6,2.0,1.1,0.5,2.1,3.1,12.1
374,Kenny Thomas\thomake01,PF,25,HOU,20,14,586,5.0,11.7,.432,0.0,0.0,,5.0,11.7,.432,2.0,2.8,.733,2.8,5.7,8.4,2.4,1.0,0.4,2.5,3.0,12.1
374,Kenny Thomas\thomake01,PF,25,PHI,46,28,1392,4.6,9.5,.482,0.0,0.0,,4.6,9.5,.482,2.9,3.9,.750,3.6,6.5,10.1,1.9,1.2,0.6,2.0,3.1,12.2
375,Kurt Thomas\thomaku01,C,30,NYK,81,81,2577,6.9,14.4,.483,0.0,0.0,.667,6.9,14.3,.483,1.9,2.6,.750,2.2,6.7,8.9,2.3,1.1,1.4,1.9,4.8,15.8
376,Tim Thomas\thomati01,SF,25,MIL,80,70,2358,6.3,14.2,.443,1.5,4.0,.366,4.8,10.2,.474,2.2,2.8,.780,1.5,4.5,5.9,1.6,1.1,0.7,2.0,3.9,16.3
377,Jamaal Tinsley\tinslja01,PG,24,IND,73,69,2237,3.5,8.9,.396,0.7,2.7,.277,2.8,6.3,.446,1.3,1.8,.714,0.9,3.3,4.2,8.8,2.0,0.3,3.1,3.2,9.1
378,Óscar Torres\torreos01,SG,26,GSW,17,0,109,5.3,11.9,.444,2.3,4.3,.538,3.0,7.6,.391,4.6,6.6,.700,1.0,3.0,4.0,1.0,1.3,0.7,2.6,3.0,17.5
379,Robert Traylor\traylro01,C,25,NOH,69,0,851,4.4,10.0,.443,0.0,0.1,.333,4.4,9.9,.444,2.4,3.7,.648,4.6,6.5,11.1,2.1,1.9,1.6,2.2,6.5,11.3
380,Gary Trent\trentga01,SF,28,MIN,80,22,1222,6.1,11.5,.535,0.0,0.1,.000,6.1,11.4,.537,1.8,3.0,.594,3.1,5.5,8.6,2.3,0.9,0.7,1.7,4.2,14.0
381,Jeff Trepagnier\trepaje01,SG,23,DEN,8,0,97,6.3,14.8,.425,1.5,3.0,.500,4.8,11.9,.406,2.6,2.6,1.000,3.0,3.0,5.9,2.2,3.0,0.0,3.0,1.9,16.7
382,Cezary Trybański\trybace01,C,23,MEM,15,0,86,2.1,8.4,.250,0.0,0.0,,2.1,8.4,.250,1.7,4.2,.400,2.5,3.3,5.9,0.4,0.0,2.5,3.3,5.4,5.9
383,Jake Tsakalidis\tsakaja01,C,23,PHO,33,27,543,4.0,9.0,.452,0.0,0.0,,4.0,9.0,.452,2.6,3.8,.672,3.0,5.1,8.1,0.9,0.4,1.1,1.7,5.3,10.7
384,Nikoloz Tskitishvili\tskitni01,SF,19,DEN,81,16,1320,3.1,10.7,.293,1.0,4.1,.243,2.1,6.6,.324,1.3,1.8,.738,1.7,3.2,4.9,2.5,0.8,0.8,2.3,3.7,8.6
385,Hedo Türkoğlu\turkohe01,SF,23,SAC,67,11,1175,5.1,12.0,.422,0.9,2.4,.372,4.2,9.6,.435,2.7,3.4,.800,1.1,4.7,5.8,2.7,0.8,0.4,1.5,3.8,13.7
386,Nick Van Exel\vanexni01,SG,31,DAL,73,1,2026,6.1,14.8,.412,2.1,5.5,.378,4.0,9.2,.432,2.0,2.6,.764,0.6,3.1,3.7,5.5,0.7,0.1,2.2,1.5,16.2
387,Keith Van Horn\vanhoke01,PF,27,PHI,74,73,2337,7.1,14.7,.482,1.0,2.7,.369,6.1,12.0,.508,3.0,3.7,.804,2.4,5.6,8.1,1.4,1.0,0.5,2.3,3.9,18.1
388,Jacque Vaughn\vaughja01,PG,27,ORL,80,48,1686,3.9,8.8,.448,0.2,0.7,.235,3.8,8.0,.467,2.1,2.7,.776,0.6,2.0,2.5,5.0,1.4,0.0,2.1,3.6,10.1
389,Jake Voskuhl\voskuja01,C,25,PHO,65,1,947,3.5,6.2,.564,0.0,0.0,,3.5,6.2,.564,2.4,3.6,.667,3.7,4.9,8.6,1.4,0.7,1.1,1.8,6.5,9.4
390,Dajuan Wagner\wagneda02,SG,19,CLE,47,24,1385,5.8,15.7,.369,1.4,4.5,.316,4.4,11.2,.390,3.3,4.2,.800,0.5,1.6,2.1,3.4,1.0,0.2,2.2,2.8,16.3
391,Antoine Walker\walkean02,PF,26,BOS,78,78,3235,6.7,17.3,.388,2.1,6.5,.323,4.6,10.8,.427,2.0,3.2,.615,1.1,5.2,6.3,4.2,1.3,0.3,2.9,2.5,17.5
392,Samaki Walker\walkesa01,C,26,LAL,67,39,1243,3.3,7.9,.420,0.0,0.0,.000,3.3,7.9,.421,1.9,2.9,.653,3.3,7.3,10.7,1.9,0.6,1.6,1.6,4.1,8.6
393,Ben Wallace\wallabe01,C,28,DET,73,73,2873,2.6,5.5,.481,0.0,0.1,.167,2.6,5.4,.485,1.1,2.4,.450,3.7,10.4,14.1,1.5,1.3,2.9,1.1,2.2,6.3
394,Gerald Wallace\wallage01,SF,20,SAC,47,7,571,5.7,11.5,.492,0.1,0.3,.250,5.6,11.3,.497,2.5,4.7,.527,2.4,5.7,8.1,1.5,1.5,0.9,2.8,4.3,13.9
395,Rasheed Wallace\wallara01,PF,28,POR,74,74,2684,6.9,14.7,.471,1.5,4.1,.358,5.4,10.6,.515,2.7,3.6,.735,1.5,5.8,7.4,2.1,0.9,1.0,1.9,3.0,18.0
396,Charlie Ward\wardch01,PG,32,NYK,66,6,1465,4.1,10.2,.399,2.5,6.6,.378,1.6,3.6,.435,1.0,1.3,.774,0.6,3.7,4.3,7.5,1.9,0.3,2.3,3.6,11.6
397,Earl Watson\watsoea01,PG,23,MEM,79,2,1366,4.5,10.3,.435,0.8,2.4,.341,3.7,7.9,.463,1.6,2.3,.721,1.2,3.1,4.3,5.9,2.3,0.4,2.3,3.6,11.4
398,Clarence Weatherspoon\weathcl01,PF,32,NYK,79,19,2024,3.3,7.4,.449,0.0,0.0,,3.3,7.4,.449,2.7,3.5,.768,3.8,6.8,10.7,1.2,1.2,0.6,1.1,3.1,9.3
399,Chris Webber\webbech01,PF,29,SAC,67,67,2622,9.1,19.7,.461,0.1,0.3,.238,9.0,19.4,.465,3.0,4.9,.607,2.2,7.5,9.7,5.0,1.5,1.2,3.0,2.8,21.2
400,Bonzi Wells\wellsbo01,SG,26,POR,75,65,2396,6.6,14.9,.441,0.6,2.0,.292,6.0,12.9,.464,3.4,4.7,.722,1.5,4.4,5.9,3.7,1.8,0.3,3.2,3.3,17.1
401,Jiří Welsch\welscji01,SF,23,GSW,37,0,234,2.9,11.5,.253,0.2,0.6,.250,2.8,10.9,.254,3.4,4.5,.759,1.8,2.5,4.3,4.2,1.2,0.3,2.9,4.9,9.4
402,David Wesley\wesleda01,SG,32,NOH,73,73,2710,6.0,13.8,.433,1.8,4.2,.424,4.2,9.6,.437,2.5,3.1,.781,0.5,1.8,2.3,3.3,1.4,0.1,1.8,2.3,16.2
403,Jahidi White\whiteja01,C,26,WAS,16,8,230,3.9,8.3,.472,0.0,0.0,,3.9,8.3,.472,2.7,3.9,.680,5.8,5.6,11.4,0.3,0.2,1.9,1.4,5.2,10.5
404,Rodney White\whitero02,SG,22,DEN,72,19,1563,6.0,14.7,.408,0.7,3.1,.239,5.3,11.6,.452,2.3,2.9,.784,1.0,3.9,4.9,2.8,1.0,0.7,3.6,3.1,15.0
405,Chris Whitney\whitnch01,PG,31,TOT,51,21,1052,4.2,11.9,.355,1.7,5.6,.305,2.5,6.3,.400,2.0,2.4,.826,0.1,2.2,2.3,5.0,1.0,0.1,2.4,3.1,12.1
405,Chris Whitney\whitnch01,PG,31,DEN,29,20,762,4.4,12.3,.360,2.0,6.0,.336,2.4,6.3,.383,2.2,2.7,.807,0.0,2.1,2.2,5.9,0.8,0.0,2.6,3.6,13.1
405,Chris Whitney\whitnch01,PG,31,ORL,22,1,290,3.7,10.9,.341,0.9,4.5,.194,2.9,6.5,.442,1.4,1.5,.917,0.2,2.4,2.6,2.6,1.5,0.1,2.0,1.9,9.7
406,Chris Wilcox\wilcoch01,PF,20,LAC,46,3,479,5.5,10.5,.521,0.0,0.0,,5.5,10.5,.521,1.9,3.8,.500,2.4,5.4,7.8,1.6,0.5,0.9,2.0,4.9,12.9
407,Mike Wilks\wilksmi01,PG-SG,23,TOT,46,7,688,2.6,7.7,.338,0.5,1.8,.286,2.1,5.9,.354,1.9,2.5,.787,1.0,2.7,3.7,4.8,1.4,0.2,1.5,3.6,7.7
407,Mike Wilks\wilksmi01,SG,23,ATL,15,7,364,2.9,8.0,.358,0.6,1.7,.353,2.3,6.3,.359,2.1,2.9,.724,0.9,3.2,4.1,4.2,1.6,0.1,1.6,3.8,8.4
407,Mike Wilks\wilksmi01,PG,23,MIN,31,0,324,2.3,7.4,.313,0.4,2.0,.222,1.9,5.4,.347,1.8,2.0,.889,1.2,2.1,3.3,5.6,1.2,0.3,1.3,3.4,6.9
408,Aaron Williams\williaa01,C,31,NJN,81,0,1597,4.5,9.9,.453,0.0,0.0,.000,4.5,9.9,.454,2.3,2.9,.785,3.1,4.4,7.5,2.0,0.6,1.3,1.9,4.6,11.3
409,Alvin Williams\willial02,PG,28,TOR,78,78,2638,5.4,12.4,.438,0.7,2.0,.329,4.7,10.4,.458,2.6,3.3,.782,0.8,2.6,3.3,5.7,1.5,0.3,1.7,2.3,14.0
410,Brandon Williams\willibr01,SF,27,ATL,6,0,19,1.9,13.3,.143,0.0,1.9,.000,1.9,11.4,.167,0.0,0.0,,3.8,0.0,3.8,0.0,3.8,0.0,5.7,7.6,3.8
411,Eric Williams\willier01,SF,30,BOS,82,79,2350,3.9,8.8,.442,0.6,1.7,.336,3.3,7.1,.467,3.1,4.1,.750,2.2,3.7,5.9,2.1,1.3,0.3,1.5,3.6,11.4
412,Frank Williams\willifr02,PG,22,NYK,21,0,167,1.9,7.1,.273,1.3,3.4,.375,0.6,3.7,.176,0.9,1.3,.667,0.6,3.2,3.9,7.3,1.5,0.4,3.7,4.3,6.0
413,Jason Williams\willija02,PG,27,MEM,76,76,2407,5.0,12.8,.388,2.1,6.0,.354,2.8,6.8,.418,1.6,2.0,.840,0.4,2.8,3.2,9.4,1.4,0.1,2.5,1.9,13.7
414,Jay Williams\willija03,PG,21,CHI,75,54,1961,5.0,12.6,.399,1.2,3.7,.322,3.8,8.9,.431,1.9,3.0,.640,0.5,3.1,3.6,6.4,1.6,0.3,3.1,3.3,13.1
415,Jerome Williams\willije01,PF,29,TOR,71,63,2346,4.1,8.2,.499,0.0,0.1,.167,4.1,8.1,.503,2.4,4.3,.555,3.5,6.4,10.0,1.5,1.8,0.4,1.5,3.0,10.6
416,Monty Williams\willimo01,SF,31,PHI,21,2,276,4.4,10.4,.425,0.0,0.3,.000,4.4,10.2,.436,3.1,4.2,.750,1.6,4.3,5.9,3.4,1.6,0.7,2.2,4.3,12.0
417,Scott Williams\willisc01,C,34,PHO,69,33,872,5.0,12.1,.411,0.0,0.1,.000,5.0,12.0,.414,1.4,1.7,.786,3.0,5.0,8.0,0.9,1.1,0.9,1.3,6.6,11.3
418,Shammond Williams\willish01,PG,27,TOT,78,11,1881,4.4,11.1,.394,1.8,5.0,.356,2.6,6.1,.425,1.5,2.0,.765,0.5,2.8,3.3,5.1,1.5,0.1,2.2,2.7,12.0
418,Shammond Williams\willish01,PG,27,BOS,51,2,1169,4.1,10.4,.396,1.7,4.9,.352,2.4,5.5,.436,1.5,1.8,.842,0.4,3.0,3.4,3.9,1.9,0.1,1.9,2.6,11.5
418,Shammond Williams\willish01,PG,27,DEN,27,9,712,4.8,12.2,.390,1.9,5.2,.363,2.9,7.0,.410,1.5,2.3,.667,0.6,2.5,3.1,7.0,0.8,0.2,2.7,2.8,12.9
419,Walt Williams\williwa02,SF,32,DAL,66,1,1161,4.2,10.6,.393,2.0,5.3,.374,2.2,5.3,.412,1.0,1.6,.620,1.6,4.8,6.4,1.8,1.3,0.8,1.1,4.4,11.3
420,Corliss Williamson\willico02,SF,29,DET,82,1,2061,6.5,14.4,.453,0.0,0.2,.182,6.5,14.2,.456,4.1,5.2,.790,2.6,3.7,6.3,1.8,0.8,0.5,2.2,4.2,17.2
421,Kevin Willis\willike02,C,40,SAS,71,6,840,5.3,11.0,.479,0.0,0.1,.000,5.3,10.9,.482,2.2,3.6,.614,3.6,6.1,9.7,1.0,0.9,0.9,2.6,5.1,12.7
422,Rubén Wolkowyski\wolkoru01,PF,29,BOS,7,0,24,3.0,6.0,.500,0.0,1.5,.000,3.0,4.5,.667,1.5,6.0,.250,0.0,1.5,1.5,1.5,0.0,0.0,1.5,4.5,7.5
423,Loren Woods\woodslo01,C,24,MIN,38,11,353,3.0,7.8,.382,0.1,0.3,.333,2.9,7.4,.384,2.1,2.8,.778,2.8,6.9,9.7,1.9,1.0,1.3,2.3,3.8,8.2
424,Qyntel Woods\woodsqy01,PF,21,POR,53,0,334,6.4,12.7,.500,0.3,1.0,.333,6.0,11.7,.514,0.8,2.2,.350,1.6,4.1,5.7,1.3,1.6,0.1,2.5,3.9,13.8
425,Metta World Peace\artesro01,SF,23,IND,69,67,2317,5.6,13.1,.428,1.1,3.3,.336,4.5,9.9,.458,4.2,5.8,.736,1.6,4.1,5.6,3.1,2.5,0.8,2.3,3.8,16.6
426,Lorenzen Wright\wrighlo02,C,27,MEM,70,49,1982,5.9,13.0,.454,0.0,0.1,.000,5.9,12.9,.457,2.7,4.1,.659,3.1,6.5,9.6,1.5,0.9,1.0,2.0,3.8,14.5
427,Vincent Yarbrough\yarbrvi01,SG,21,DEN,59,39,1381,4.4,11.2,.393,0.5,2.0,.269,3.8,9.1,.420,1.3,1.6,.790,0.9,3.3,4.2,3.4,1.5,0.9,2.1,3.8,10.6
428,Wang Zhizhi\zhizhwa01,C,25,LAC,41,1,412,5.4,14.2,.383,1.4,4.1,.340,4.0,10.0,.400,3.7,5.1,.724,2.3,4.5,6.7,0.9,0.7,0.9,2.7,3.6,15.9