Rk,Player,Pos,Age,Tm,G,GS,MP,FG,FGA,FG%,3P,3PA,3P%,2P,2PA,2P%,FT,FTA,FT%,ORB,DRB,TRB,AST,STL,BLK,TOV,PF,PTS
1,Quincy Acy\acyqu01,SF,23,TOT,63,0,847,2.8,6.0,.468,0.2,0.6,.267,2.6,5.4,.492,1.5,2.3,.660,3.1,6.1,9.2,1.2,1.0,1.1,1.3,5.2,7.3
1,Quincy Acy\acyqu01,SF,23,TOR,7,0,61,3.5,8.3,.429,1.2,3.0,.400,2.4,5.3,.444,3.0,4.7,.625,3.0,5.9,8.9,2.4,2.4,1.8,1.2,4.7,11.2
1,Quincy Acy\acyqu01,SF,23,SAC,56,0,786,2.7,5.8,.472,0.1,0.5,.200,2.7,5.4,.496,1.4,2.1,.667,3.1,6.1,9.2,1.1,0.9,1.1,1.3,5.2,7.0
2,Steven Adams\adamsst01,C,20,OKC,81,20,1197,2.8,5.6,.503,0.0,0.0,,2.8,5.6,.503,2.4,4.1,.581,4.3,5.7,10.0,1.3,1.2,1.7,2.1,6.1,8.0
3,Jeff Adrien\adrieje01,PF,27,TOT,53,12,961,5.4,10.3,.520,0.0,0.0,,5.4,10.3,.520,2.8,4.5,.639,3.8,7.6,11.5,1.4,0.9,1.3,1.5,4.0,13.6
3,Jeff Adrien\adrieje01,PF,27,CHA,25,0,256,3.1,5.6,.550,0.0,0.0,,3.1,5.6,.550,1.8,3.5,.520,4.6,7.7,12.4,1.0,1.0,2.1,1.1,4.9,8.0
3,Jeff Adrien\adrieje01,PF,27,MIL,28,12,705,6.2,12.0,.515,0.0,0.0,,6.2,12.0,.515,3.2,4.8,.670,3.5,7.6,11.1,1.6,0.9,1.1,1.6,3.7,15.6
4,Arron Afflalo\afflaar01,SG,28,ORL,73,73,2552,6.5,14.3,.459,1.8,4.2,.427,4.7,10.0,.473,3.9,4.7,.815,0.5,3.2,3.7,3.5,0.5,0.0,2.1,1.9,18.8
5,Alexis Ajinça\ajincal01,C,25,NOP,56,30,951,5.1,9.4,.546,0.0,0.0,.000,5.1,9.4,.548,2.1,2.5,.836,3.6,6.9,10.5,1.5,0.9,1.7,2.4,7.1,12.4
6,Cole Aldrich\aldrico01,C,25,NYK,46,2,330,3.6,6.7,.541,0.0,0.0,,3.6,6.7,.541,2.8,3.3,.867,4.0,10.0,14.1,1.5,0.9,3.3,2.0,4.4,10.0
7,LaMarcus Aldridge\aldrila01,PF,28,POR,69,69,2498,9.4,20.5,.458,0.0,0.2,.200,9.4,20.3,.461,4.3,5.2,.822,2.4,8.6,11.0,2.6,0.9,1.0,1.8,2.1,23.1
8,Lavoy Allen\allenla01,PF,24,TOT,65,2,1072,4.5,10.1,.447,0.1,0.4,.154,4.4,9.6,.460,1.1,1.7,.660,4.0,6.4,10.4,2.4,0.8,1.1,1.5,4.2,10.2
8,Lavoy Allen\allenla01,PF,24,PHI,51,2,960,4.4,10.0,.440,0.1,0.5,.154,4.3,9.5,.455,1.0,1.5,.675,4.0,6.4,10.4,2.4,0.8,1.0,1.5,4.3,9.9
8,Lavoy Allen\allenla01,PF,24,IND,14,0,112,5.5,10.9,.500,0.0,0.0,,5.5,10.9,.500,1.9,3.2,.600,4.2,6.8,10.9,1.9,0.6,1.9,1.3,3.5,12.9
9,Ray Allen*\allenra02,SG,38,MIA,73,9,1936,4.5,10.1,.442,2.2,5.7,.375,2.3,4.4,.530,2.0,2.2,.905,0.4,3.4,3.8,2.7,1.0,0.1,1.6,2.1,13.0
10,Tony Allen\allento01,SG,32,MEM,55,28,1278,5.7,11.6,.494,0.3,1.3,.234,5.4,10.3,.527,2.1,3.4,.628,2.2,3.6,5.9,2.6,2.5,0.5,2.5,3.4,13.9
11,Al-Farouq Aminu\aminual01,SF,23,NOP,80,65,2045,4.1,8.7,.474,0.2,0.8,.271,3.9,7.9,.496,1.6,2.4,.664,2.3,6.5,8.7,2.0,1.4,0.7,1.5,2.6,10.1
12,Lou Amundson\amundlo01,PF,31,TOT,19,0,185,3.1,6.2,.500,0.0,0.0,,3.1,6.2,.500,1.2,4.7,.250,5.4,5.3,10.7,1.2,1.8,2.1,2.7,9.5,7.4
12,Lou Amundson\amundlo01,PF,31,NOP,18,0,184,3.1,6.3,.500,0.0,0.0,,3.1,6.3,.500,1.2,4.7,.250,5.5,5.3,10.8,1.2,1.8,2.2,2.7,9.6,7.4
12,Lou Amundson\amundlo01,PF,31,CHI,1,0,1,0.0,0.0,,0.0,0.0,,0.0,0.0,,0.0,0.0,,0.0,0.0,0.0,0.0,0.0,0.0,0.0,0.0,0.0
13,Chris Andersen\anderch01,C,35,MIA,72,0,1396,4.6,7.1,.644,0.1,0.3,.250,4.5,6.8,.662,3.1,4.4,.710,3.3,6.4,9.8,0.5,0.8,2.5,1.4,4.2,12.3
14,Alan Anderson\anderal01,SF,31,BRK,78,26,1773,3.9,9.8,.400,1.7,5.0,.339,2.2,4.8,.464,1.9,2.4,.780,0.8,2.7,3.6,1.6,1.0,0.2,1.3,3.0,11.5
15,James Anderson\anderja01,SG,24,PHI,80,62,2309,4.8,11.2,.431,1.8,5.5,.328,3.0,5.7,.530,1.2,1.7,.726,0.9,3.8,4.7,2.3,1.2,0.4,1.7,2.4,12.6
16,Ryan Anderson\anderry01,PF,25,NOP,22,14,795,7.0,16.0,.438,3.0,7.4,.409,4.0,8.6,.463,2.7,2.8,.952,3.0,3.4,6.4,0.8,0.5,0.3,0.9,2.1,19.7
17,Giannis Antetokounmpo\antetgi01,SF,19,MIL,77,23,1897,3.3,7.9,.414,0.8,2.2,.347,2.5,5.7,.440,2.6,3.8,.683,1.5,5.0,6.4,2.8,1.1,1.2,2.3,3.3,10.0
18,Carmelo Anthony\anthoca01,PF,29,NYK,77,77,2982,9.0,19.8,.452,2.0,5.0,.402,7.0,14.8,.469,5.5,6.5,.848,1.8,5.8,7.5,2.9,1.1,0.6,2.4,2.7,25.5
19,Joel Anthony\anthojo01,C,31,TOT,33,0,186,2.3,6.2,.375,0.0,0.0,,2.3,6.2,.375,0.8,1.5,.500,2.9,4.5,7.4,0.4,0.6,2.3,0.6,3.3,5.4
19,Joel Anthony\anthojo01,C,31,MIA,12,0,37,1.9,5.8,.333,0.0,0.0,,1.9,5.8,.333,1.9,1.9,1.000,1.9,4.9,6.8,0.0,0.0,3.9,1.0,3.9,5.8
19,Joel Anthony\anthojo01,C,31,BOS,21,0,149,2.4,6.3,.385,0.0,0.0,,2.4,6.3,.385,0.5,1.4,.333,3.1,4.3,7.5,0.5,0.7,1.9,0.5,3.1,5.3
20,Pero Antić\anticpe01,C,31,ATL,50,26,925,4.8,11.4,.418,2.2,6.7,.327,2.6,4.8,.545,1.9,2.6,.758,2.2,5.9,8.1,2.3,0.7,0.5,2.1,4.9,13.7
21,Trevor Ariza\arizatr01,SF,28,WAS,77,77,2723,5.1,11.3,.456,2.4,5.8,.407,2.8,5.4,.509,2.0,2.6,.772,1.3,5.0,6.3,2.5,1.7,0.3,1.7,2.4,14.6
22,Hilton Armstrong\armsthi01,C,29,GSW,15,1,97,3.3,7.1,.474,0.0,0.0,,3.3,7.1,.474,2.6,5.9,.438,7.1,10.4,17.4,1.9,1.5,1.5,2.2,4.1,9.3
23,Darrell Arthur\arthuda01,SF,25,DEN,68,1,1161,5.0,12.7,.395,0.7,2.0,.375,4.3,10.7,.399,1.6,1.9,.855,1.6,4.9,6.5,1.9,1.2,1.5,1.8,5.7,12.4
24,Ömer Aşık\asikom01,C,27,HOU,48,19,968,3.8,7.1,.532,0.0,0.0,,3.8,7.1,.532,2.9,4.7,.619,3.8,10.3,14.1,0.9,0.5,1.4,2.2,3.4,10.4
25,D.J. Augustin\augusdj01,PG,26,TOT,71,9,1939,5.5,13.3,.415,2.5,6.2,.401,3.1,7.2,.427,3.7,4.2,.885,0.3,2.1,2.4,5.8,1.0,0.1,2.3,2.7,17.3
25,D.J. Augustin\augusdj01,PG,26,TOR,10,0,82,3.1,10.5,.292,0.4,4.8,.091,2.6,5.7,.462,2.6,2.6,1.000,0.0,1.8,1.8,4.4,0.4,0.0,4.0,3.1,9.2
25,D.J. Augustin\augusdj01,PG,26,CHI,61,9,1857,5.6,13.5,.419,2.6,6.2,.411,3.1,7.2,.426,3.8,4.3,.882,0.3,2.2,2.4,5.9,1.0,0.1,2.2,2.7,17.6
26,Gustavo Ayón\ayongu01,C,28,ATL,26,14,429,4.4,8.6,.510,0.0,0.0,,4.4,8.6,.510,0.7,1.7,.400,3.5,7.0,10.5,2.3,2.1,0.8,2.4,3.9,9.4
27,Jeff Ayres\pendeje02,PF,26,SAS,73,10,952,3.8,6.6,.580,0.0,0.0,,3.8,6.6,.580,1.4,2.1,.691,3.4,6.4,9.8,2.3,0.5,0.9,2.4,5.5,9.1
28,Chris Babb\babbch01,SG,23,BOS,14,0,132,2.2,8.2,.267,1.6,7.4,.222,0.5,0.8,.667,0.0,0.0,,1.1,3.5,4.6,0.8,1.6,0.0,0.8,3.5,6.0
29,Luke Babbitt\babbilu01,PF,24,NOP,27,2,473,4.6,11.7,.390,2.7,7.2,.379,1.8,4.5,.407,1.1,1.4,.778,1.4,5.3,6.7,2.2,0.5,0.8,1.1,4.0,12.9
30,Leandro Barbosa\barbole01,PG,31,PHO,20,0,368,5.5,12.8,.427,0.7,2.4,.280,4.8,10.4,.462,3.0,3.8,.795,0.5,3.1,3.6,3.1,0.7,0.4,1.9,2.9,14.7
31,J.J. Barea\bareajo01,PG,29,MIN,79,1,1471,6.2,16.1,.387,1.8,5.7,.316,4.4,10.4,.426,1.9,2.4,.790,0.4,3.4,3.8,7.4,0.6,0.0,3.1,3.2,16.2
32,Andrea Bargnani\bargnan01,C,28,NYK,42,39,1257,6.4,14.4,.442,0.9,3.1,.278,5.5,11.3,.487,2.4,2.9,.824,2.0,4.4,6.4,1.3,0.4,1.5,1.7,2.9,16.0
33,Harrison Barnes\barneha02,SF,21,GSW,78,24,2204,4.4,11.1,.399,1.1,3.1,.347,3.3,8.0,.419,2.1,3.0,.718,1.1,4.0,5.1,1.9,1.1,0.3,1.4,2.6,12.1
34,Matt Barnes\barnema02,SF,33,LAC,63,40,1735,4.8,10.9,.438,2.0,5.9,.343,2.8,5.1,.549,1.4,1.9,.733,1.2,4.8,6.1,2.6,1.2,0.6,1.8,3.8,13.0
35,Will Barton\bartowi01,SG,23,POR,41,0,387,6.0,14.5,.417,0.9,3.1,.303,5.1,11.4,.447,2.4,3.0,.813,1.5,5.4,6.9,3.1,0.8,0.7,1.7,2.9,15.4
36,Brandon Bass\bassbr01,PF,28,BOS,82,73,2266,5.6,11.5,.486,0.0,0.1,.333,5.6,11.4,.487,3.3,3.8,.858,2.6,4.9,7.5,1.4,0.6,1.1,1.6,3.0,14.5
37,Shane Battier\battish01,SF,35,MIA,73,56,1468,2.6,6.7,.382,1.8,5.1,.348,0.8,1.6,.492,0.4,0.6,.652,0.8,2.6,3.4,1.5,1.2,1.0,0.5,3.0,7.3
38,Nicolas Batum\batumni01,SF,25,POR,82,82,2956,4.6,10.0,.465,1.8,4.9,.361,2.9,5.1,.566,2.0,2.5,.803,1.4,6.0,7.4,5.1,0.9,0.7,2.5,1.9,13.0
39,Jerryd Bayless\bayleje01,PG,25,TOT,72,19,1686,5.3,13.2,.402,1.6,4.5,.358,3.7,8.6,.425,2.0,2.5,.797,0.5,2.6,3.1,4.1,1.3,0.2,1.8,3.4,14.2
39,Jerryd Bayless\bayleje01,PG,25,MEM,31,5,650,5.0,13.2,.377,1.4,4.6,.301,3.6,8.6,.417,2.5,3.2,.789,0.4,2.8,3.3,3.7,1.1,0.3,1.2,4.0,13.8
39,Jerryd Bayless\bayleje01,PG,25,BOS,41,14,1036,5.5,13.1,.418,1.8,4.5,.395,3.7,8.7,.430,1.7,2.1,.803,0.5,2.5,3.0,4.4,1.4,0.1,2.1,3.1,14.5
40,Aron Baynes\baynear01,C,27,SAS,53,4,491,5.2,12.0,.436,0.0,0.0,,5.2,12.0,.436,1.4,1.5,.905,4.2,6.5,10.6,2.5,0.1,0.4,2.6,5.6,11.8
41,Kent Bazemore\bazemke01,SG,24,TOT,67,15,911,5.8,13.6,.429,1.7,5.1,.336,4.1,8.5,.484,2.6,4.3,.606,0.4,4.2,4.6,3.6,1.7,0.5,3.1,4.0,15.9
41,Kent Bazemore\bazemke01,SG,24,GSW,44,0,268,4.8,13.0,.371,1.3,5.2,.256,3.5,7.8,.448,2.6,4.8,.528,0.7,4.7,5.4,2.7,1.6,0.8,3.8,5.6,13.6
41,Kent Bazemore\bazemke01,SG,24,LAL,23,15,643,6.2,13.8,.451,1.8,5.0,.371,4.4,8.8,.497,2.6,4.1,.644,0.3,4.0,4.3,4.0,1.7,0.4,2.9,3.4,16.9
42,Bradley Beal\bealbr01,SG,20,WAS,73,73,2530,6.8,16.3,.419,2.0,4.9,.402,4.9,11.5,.426,2.1,2.7,.788,0.8,3.1,3.9,3.5,1.0,0.3,1.8,2.2,17.8
43,Michael Beasley\beaslmi01,SF,25,MIA,55,2,831,7.7,15.4,.499,0.9,2.3,.389,6.8,13.0,.518,2.6,3.4,.772,1.3,6.1,7.5,1.8,1.0,0.9,2.5,4.0,18.9
44,Marco Belinelli\belinma01,SF,27,SAS,80,25,2016,6.0,12.4,.485,2.3,5.2,.430,3.8,7.2,.525,2.0,2.3,.847,0.3,3.7,4.0,3.2,0.9,0.1,1.7,2.3,16.3
45,Anthony Bennett\bennean01,PF,20,CLE,52,0,663,4.3,12.2,.356,0.7,2.9,.245,3.6,9.3,.390,2.4,3.7,.638,2.7,5.8,8.4,0.9,1.1,0.4,2.6,5.0,11.8
46,Patrick Beverley\beverpa01,PG,25,HOU,56,55,1751,4.1,9.9,.414,1.9,5.2,.361,2.2,4.6,.473,1.7,2.1,.814,1.5,2.5,4.0,3.1,1.6,0.5,1.4,3.6,11.8
47,Andris Biedriņš\biedran01,C,27,UTA,6,0,45,0.8,0.8,1.000,0.0,0.0,,0.8,0.8,1.000,0.8,4.8,.167,1.6,12.0,13.6,0.0,0.0,0.0,1.6,4.8,2.4
48,Chauncey Billups\billuch01,SG,37,DET,19,7,309,2.8,9.2,.304,1.6,5.6,.292,1.2,3.6,.323,1.2,1.4,.833,0.5,2.8,3.3,4.9,0.9,0.1,2.9,2.9,8.4
49,Bismack Biyombo\biyombi01,C,21,CHA,77,9,1072,3.0,4.8,.611,0.0,0.0,,3.0,4.8,.611,1.5,3.0,.517,3.5,8.8,12.3,0.3,0.2,2.9,1.3,4.2,7.5
50,DeJuan Blair\blairde01,PF,24,DAL,78,13,1214,6.2,11.7,.534,0.0,0.1,.000,6.2,11.6,.537,2.3,3.6,.636,4.1,6.8,10.9,2.1,1.8,0.6,2.3,5.7,14.7
51,Steve Blake\blakest01,PG,33,TOT,55,28,1498,3.2,8.5,.377,1.9,5.0,.376,1.3,3.4,.378,0.8,1.0,.767,0.3,3.5,3.8,7.4,1.3,0.2,2.5,2.0,9.1
51,Steve Blake\blakest01,PG,33,LAL,27,27,891,3.6,9.4,.378,2.1,5.3,.397,1.5,4.1,.353,1.1,1.4,.800,0.3,3.8,4.2,8.3,1.4,0.1,2.9,2.0,10.3
51,Steve Blake\blakest01,PG,33,GSW,28,1,607,2.7,7.1,.375,1.6,4.7,.342,1.1,2.4,.439,0.3,0.5,.625,0.3,3.0,3.3,6.0,1.2,0.4,1.8,2.1,7.2
52,Andray Blatche\blatcan01,PF,27,BRK,73,7,1618,7.1,15.0,.476,0.3,1.2,.278,6.8,13.8,.494,3.6,4.9,.742,2.7,6.0,8.7,2.5,1.7,0.8,2.4,3.7,18.3
53,Eric Bledsoe\bledser01,PG,24,PHO,43,40,1416,6.7,14.1,.477,1.3,3.6,.357,5.5,10.6,.517,4.7,6.0,.772,0.7,4.4,5.1,6.0,1.8,0.4,3.6,2.5,19.4
54,Vander Blue\blueva01,SG,21,BOS,3,0,15,4.8,9.6,.500,0.0,2.4,.000,4.8,7.2,.667,2.4,12.0,.200,0.0,7.2,7.2,2.4,0.0,0.0,4.8,2.4,12.0
55,Keith Bogans\boganke01,SG,33,BOS,6,0,55,2.0,3.9,.500,2.0,3.9,.500,0.0,0.0,,2.0,2.0,1.000,0.0,2.0,2.0,2.0,0.7,0.0,0.7,1.3,7.9
56,Andrew Bogut\bogutan01,C,29,GSW,67,67,1769,4.8,7.6,.627,0.0,0.0,,4.8,7.6,.627,0.4,1.3,.344,3.7,10.0,13.7,2.3,1.0,2.5,2.0,4.3,10.0
57,Matt Bonner\bonnema01,PF,33,SAS,61,0,690,3.8,8.6,.445,2.2,5.1,.429,1.6,3.4,.470,0.5,0.6,.750,0.8,5.9,6.8,1.6,0.8,0.6,0.8,2.6,10.3
58,Trevor Booker\booketr01,PF,26,WAS,72,45,1553,5.1,9.3,.551,0.0,0.0,.000,5.1,9.3,.554,1.1,1.8,.618,3.5,5.3,8.8,1.5,1.0,1.0,1.3,3.0,11.4
59,Carlos Boozer\boozeca01,PF,32,CHI,76,76,2141,7.5,16.5,.456,0.0,0.0,.000,7.5,16.4,.457,2.5,3.2,.767,2.3,8.3,10.6,2.0,0.9,0.4,2.6,3.6,17.5
60,Chris Bosh\boshch01,C,29,MIA,79,79,2531,7.0,13.6,.516,1.1,3.1,.339,5.9,10.5,.569,3.2,3.9,.820,1.4,6.0,7.4,1.2,1.1,1.1,1.8,2.7,18.2
61,Avery Bradley\bradlav01,SG,23,BOS,60,58,1855,7.0,16.0,.438,1.5,3.9,.395,5.5,12.1,.451,1.7,2.2,.804,0.9,3.5,4.4,1.6,1.2,0.2,1.9,2.8,17.3
62,Elton Brand\brandel01,C,34,ATL,73,15,1414,4.6,8.5,.539,0.0,0.1,.000,4.6,8.4,.542,1.6,2.4,.649,2.5,6.7,9.2,1.9,1.0,2.2,1.5,4.9,10.7
63,Corey Brewer\breweco01,SF,27,MIN,81,81,2609,5.4,11.1,.481,0.8,2.9,.280,4.5,8.2,.552,2.2,3.1,.718,0.9,2.0,2.9,1.9,2.1,0.4,1.4,2.9,13.8
64,Ronnie Brewer\brewero02,SF,28,TOT,24,3,160,0.7,3.4,.200,0.2,1.8,.125,0.5,1.6,.286,0.0,0.5,.000,0.5,2.7,3.2,2.3,1.4,0.2,0.5,0.9,1.6
64,Ronnie Brewer\brewero02,SF,28,HOU,23,3,158,0.7,3.4,.200,0.2,1.8,.125,0.5,1.6,.286,0.0,0.5,.000,0.5,2.7,3.2,2.3,1.4,0.2,0.5,0.9,1.6
64,Ronnie Brewer\brewero02,SF,28,CHI,1,0,2,0.0,0.0,,0.0,0.0,,0.0,0.0,,0.0,0.0,,0.0,0.0,0.0,0.0,0.0,0.0,0.0,0.0,0.0
65,Aaron Brooks\brookaa01,PG,29,TOT,72,12,1557,5.4,13.4,.401,2.2,5.7,.387,3.2,7.7,.411,1.9,2.2,.874,1.0,2.2,3.2,5.4,1.2,0.3,2.7,3.4,14.9
65,Aaron Brooks\brookaa01,PG,29,HOU,43,0,716,5.2,13.2,.395,2.7,6.6,.409,2.5,6.6,.382,1.9,2.2,.841,1.2,2.0,3.1,4.2,1.3,0.3,2.6,3.8,15.0
65,Aaron Brooks\brookaa01,PG,29,DEN,29,12,841,5.5,13.6,.406,1.8,5.0,.362,3.7,8.6,.431,2.0,2.2,.902,0.9,2.5,3.3,6.4,1.2,0.3,2.8,3.0,14.8
66,MarShon Brooks\brookma01,SG,25,TOT,35,0,316,6.5,14.2,.456,1.5,2.8,.520,5.0,11.4,.440,3.6,5.0,.727,1.1,5.0,6.2,2.8,1.6,0.5,2.7,2.4,18.1
66,MarShon Brooks\brookma01,SG,25,BOS,10,0,73,4.4,11.8,.375,1.0,2.0,.500,3.5,9.9,.350,5.4,6.9,.786,0.5,8.9,9.4,2.0,0.5,0.5,3.5,2.5,15.3
66,MarShon Brooks\brookma01,SG,25,GSW,7,0,15,12.0,31.2,.385,0.0,4.8,.000,12.0,26.4,.455,7.2,9.6,.750,2.4,9.6,12.0,0.0,2.4,0.0,0.0,0.0,31.2
66,MarShon Brooks\brookma01,SG,25,LAL,18,0,228,6.8,13.9,.489,1.7,3.0,.579,5.1,10.9,.464,2.8,4.1,.692,1.3,3.5,4.7,3.3,1.9,0.5,2.7,2.5,18.2
67,Lorenzo Brown\brownlo01,PG,23,PHI,26,0,224,4.2,13.8,.302,0.5,4.8,.100,3.7,9.0,.411,1.4,2.1,.692,1.3,3.2,4.5,6.6,2.1,0.5,2.6,3.1,10.3
68,Shannon Brown\brownsh01,SG,28,TOT,29,1,251,3.4,9.5,.364,0.0,0.3,.000,3.4,9.2,.375,2.2,3.0,.714,1.0,3.0,4.0,1.3,1.9,0.0,2.6,3.4,9.0
68,Shannon Brown\brownsh01,SG,28,SAS,10,1,103,2.8,9.8,.286,0.0,0.7,.000,2.8,9.1,.308,2.4,3.1,.778,0.3,4.2,4.5,1.7,0.3,0.0,2.8,4.2,8.0
68,Shannon Brown\brownsh01,SG,28,NYK,19,0,148,3.9,9.2,.421,0.0,0.0,,3.9,9.2,.421,1.9,2.9,.667,1.5,2.2,3.6,1.0,2.9,0.0,2.4,2.9,9.7
69,Kobe Bryant*\bryanko01,SG,35,LAL,6,6,177,6.3,14.8,.425,0.6,3.3,.188,5.7,11.6,.491,3.7,4.3,.857,0.4,4.9,5.3,7.7,1.4,0.2,6.9,1.8,16.9
70,Chase Budinger\budinch01,SF,25,MIN,41,8,751,4.8,12.2,.394,2.0,5.8,.350,2.8,6.4,.433,1.5,1.9,.821,0.9,4.0,4.9,1.5,0.9,0.1,1.2,2.8,13.1
71,Reggie Bullock\bullore01,SF,22,LAC,43,0,395,3.9,11.0,.355,2.0,6.7,.301,1.9,4.4,.438,0.6,0.8,.778,1.0,3.9,4.9,1.1,0.8,0.1,1.2,2.4,10.5
72,Trey Burke\burketr01,PG,21,UTA,70,68,2262,5.4,14.3,.380,1.8,5.3,.330,3.7,8.9,.410,1.6,1.8,.903,0.6,2.7,3.3,6.3,0.7,0.1,2.1,2.3,14.2
73,Alec Burks\burksal01,SG,22,UTA,78,12,2193,6.2,13.6,.457,0.8,2.3,.350,5.4,11.3,.480,4.6,6.1,.748,1.0,3.3,4.2,3.5,1.1,0.2,2.4,3.1,17.9
74,Caron Butler\butleca01,SF,33,TOT,56,13,1419,5.4,13.7,.394,2.5,6.3,.394,2.9,7.4,.395,1.6,1.9,.840,0.5,5.3,5.8,2.1,1.2,0.4,1.5,3.0,14.9
74,Caron Butler\butleca01,SF,33,MIL,34,13,821,6.0,15.5,.387,2.3,6.4,.361,3.7,9.1,.406,2.1,2.5,.839,0.7,6.2,6.9,2.5,1.0,0.5,2.3,2.8,16.4
74,Caron Butler\butleca01,SF,33,OKC,22,0,598,4.6,11.2,.409,2.7,6.1,.441,1.9,5.1,.369,1.0,1.1,.842,0.3,4.0,4.3,1.6,1.4,0.4,0.5,3.4,12.8
75,Jimmy Butler\butleji01,SG,24,CHI,67,67,2591,3.8,9.6,.397,0.9,3.3,.283,2.9,6.3,.457,3.6,4.7,.769,1.2,3.4,4.6,2.4,1.8,0.5,1.4,1.5,12.2
76,Rasual Butler\butlera01,SG,34,IND,50,2,378,4.9,10.5,.464,2.5,5.9,.419,2.4,4.6,.521,0.8,1.3,.571,0.6,3.3,3.9,1.6,0.7,0.9,1.0,2.9,13.0
77,Dwight Buycks\buyckdw01,PG,24,TOR,14,0,146,3.7,11.8,.313,1.2,4.2,.294,2.5,7.6,.323,2.0,2.2,.889,1.0,4.7,5.7,2.5,2.0,0.0,2.5,2.7,10.6
78,Andrew Bynum\bynuman01,C,26,TOT,26,19,516,6.6,15.7,.418,0.0,0.0,,6.6,15.7,.418,2.6,3.4,.755,3.7,6.4,10.1,2.0,0.4,2.0,2.4,2.2,15.7
78,Andrew Bynum\bynuman01,C,26,CLE,24,19,480,6.4,15.2,.419,0.0,0.0,,6.4,15.2,.419,2.4,3.2,.762,3.5,5.9,9.5,2.0,0.5,2.1,2.3,2.1,15.1
78,Andrew Bynum\bynuman01,C,26,IND,2,0,36,9.0,22.0,.409,0.0,0.0,,9.0,22.0,.409,5.0,7.0,.714,6.0,13.0,19.0,2.0,0.0,1.0,4.0,3.0,23.0
79,Will Bynum\bynumwi01,PG,31,DET,56,3,1054,6.3,14.7,.428,0.7,2.1,.323,5.6,12.6,.446,3.3,4.1,.802,0.8,2.6,3.4,7.4,1.3,0.2,3.5,4.1,16.6
80,Nick Calathes\calatni01,SG,24,MEM,71,7,1173,4.4,9.5,.457,0.6,1.9,.311,3.8,7.7,.492,1.4,2.2,.611,0.7,3.5,4.2,6.4,2.0,0.2,3.1,3.6,10.6
81,José Calderón\caldejo01,PG,32,DAL,81,81,2468,5.0,10.9,.456,2.8,6.2,.449,2.2,4.7,.464,0.8,0.9,.825,0.4,2.4,2.8,5.5,1.0,0.2,1.5,2.0,13.5
82,Kentavious Caldwell-Pope\caldwke01,SG,20,DET,80,41,1583,4.1,10.5,.396,1.3,4.2,.319,2.8,6.3,.447,1.1,1.4,.770,0.9,2.7,3.5,1.3,1.7,0.3,0.6,3.3,10.7
83,Isaiah Canaan\canaais01,PG,22,HOU,22,0,252,4.4,12.4,.356,2.6,7.9,.327,1.9,4.6,.406,3.0,4.1,.724,1.0,2.4,3.4,3.1,1.1,0.6,3.0,3.6,14.4
84,DeMarre Carroll\carrode01,SF,27,ATL,73,73,2341,4.6,9.9,.470,1.5,4.1,.362,3.2,5.8,.548,1.7,2.2,.773,1.6,4.6,6.2,2.1,1.7,0.3,1.2,2.9,12.5
85,Vince Carter\cartevi01,SG,37,DAL,81,0,1973,6.0,14.8,.407,2.7,6.8,.394,3.4,8.0,.418,2.9,3.6,.821,1.2,4.0,5.2,3.9,1.1,0.6,2.0,3.8,17.6
86,Michael Carter-Williams\cartemi01,PG,22,PHI,70,70,2414,6.4,15.7,.405,0.8,3.1,.264,5.5,12.6,.440,3.8,5.5,.703,1.5,5.0,6.5,6.6,1.9,0.6,3.7,3.2,17.4
87,Omri Casspi\casspom01,PF,25,HOU,71,2,1283,4.9,11.5,.422,1.7,4.9,.347,3.1,6.6,.479,2.3,3.4,.680,1.5,5.8,7.3,2.5,1.2,0.4,2.0,2.8,13.7
88,Mario Chalmers\chalmma01,PG,27,MIA,73,73,2178,4.2,9.3,.454,1.4,3.7,.385,2.8,5.5,.500,2.0,2.7,.742,0.7,2.9,3.5,5.9,2.0,0.3,2.7,3.5,11.8
89,Tyson Chandler\chandty01,C,31,NYK,55,55,1662,4.1,7.0,.593,0.0,0.0,.000,4.1,7.0,.595,2.1,3.4,.632,3.4,8.0,11.5,1.3,0.8,1.4,1.5,3.1,10.4
90,Wilson Chandler\chandwi01,SF,26,DEN,62,55,1927,5.7,13.8,.416,2.3,6.6,.348,3.5,7.2,.478,2.1,2.8,.724,1.1,4.4,5.5,2.1,0.9,0.6,1.5,3.6,15.8
91,Josh Childress\childjo01,SF,30,NOP,4,0,24,0.0,0.0,,0.0,0.0,,0.0,0.0,,0.0,0.0,,0.0,4.5,4.5,3.0,1.5,0.0,1.5,1.5,0.0
92,Dionte Christmas\chrisdi01,SF,27,PHO,31,0,198,4.0,11.3,.355,1.6,5.6,.290,2.4,5.6,.419,3.3,4.4,.750,2.4,4.5,6.9,1.5,0.4,0.5,1.1,3.5,12.9
93,Earl Clark\clarkea01,PF,26,TOT,54,17,768,4.5,12.2,.372,1.9,5.7,.336,2.6,6.5,.403,1.0,1.6,.647,1.0,5.7,6.7,0.8,0.8,1.2,1.5,3.1,12.0
93,Earl Clark\clarkea01,PF,26,CLE,45,17,698,4.6,12.4,.375,2.1,6.0,.345,2.6,6.4,.403,0.7,1.2,.583,1.0,5.5,6.6,0.8,0.8,1.0,1.5,3.1,12.1
93,Earl Clark\clarkea01,PF,26,NYK,9,0,70,3.6,10.8,.333,0.5,3.1,.167,3.1,7.7,.400,4.1,5.1,.800,1.0,7.2,8.2,1.0,0.5,3.1,0.5,3.1,11.8
94,Ian Clark\clarkia01,SG,22,UTA,23,0,172,5.4,14.0,.388,2.3,6.5,.355,3.1,7.5,.417,1.0,1.5,.714,0.6,3.3,4.0,3.1,1.7,0.4,2.9,5.0,14.2
95,Victor Claver\clavevi01,SF,25,POR,21,0,184,3.3,8.2,.405,0.6,3.5,.167,2.7,4.7,.583,2.0,2.2,.909,1.8,5.9,7.6,2.3,0.6,0.6,2.2,3.1,9.2
96,Norris Cole\coleno01,PG,25,MIA,82,6,2014,3.7,8.9,.414,1.1,3.1,.345,2.6,5.8,.451,0.9,1.2,.779,0.3,2.6,2.9,4.4,1.4,0.1,2.3,2.8,9.4
97,Jason Collins\collija04,C,35,BRK,22,1,172,2.3,5.0,.458,0.0,0.6,.000,2.3,4.4,.524,0.6,0.8,.750,1.5,2.5,4.0,0.8,1.7,0.2,1.5,6.3,5.2
98,Darren Collison\collida01,PG,26,LAC,80,35,2069,5.6,12.1,.467,1.2,3.3,.376,4.4,8.8,.501,3.3,3.9,.857,0.8,2.5,3.3,5.2,1.6,0.3,2.3,2.6,15.9
99,Nick Collison\collini01,PF,33,OKC,81,0,1353,3.6,6.4,.556,0.1,0.5,.235,3.5,6.0,.580,1.8,2.5,.710,3.1,4.7,7.8,2.8,0.8,0.7,1.9,5.0,9.0
100,Mike Conley\conlemi01,PG,26,MEM,73,73,2446,6.8,15.2,.450,1.5,4.3,.361,5.3,10.9,.484,3.3,4.1,.815,0.6,2.5,3.1,6.5,1.6,0.2,2.2,2.1,18.5
101,Chris Copeland\copelch01,SF,29,IND,41,0,265,7.5,15.9,.470,4.5,10.7,.418,3.0,5.2,.579,1.4,1.9,.714,1.0,3.4,4.3,2.4,0.4,1.0,1.9,5.2,20.8
102,DeMarcus Cousins\couside01,C,23,SAC,71,71,2298,9.3,18.7,.496,0.0,0.1,.000,9.3,18.5,.499,6.8,9.3,.726,3.4,9.6,13.0,3.2,1.7,1.4,3.9,4.2,25.3
103,Robert Covington\covinro01,SF,23,HOU,7,0,34,6.4,14.8,.429,4.2,11.6,.364,2.1,3.2,.667,0.0,0.0,,2.1,3.2,5.3,0.0,2.1,0.0,1.1,3.2,16.9
104,Allen Crabbe\crabbal01,SG,21,POR,15,0,100,4.3,11.9,.364,2.2,5.0,.429,2.2,6.8,.316,1.1,1.4,.750,0.4,2.9,3.2,2.2,0.7,0.4,1.1,3.6,11.9
105,Jamal Crawford\crawfja01,SG,33,LAC,69,24,2094,7.2,17.4,.416,2.8,7.7,.361,4.5,9.7,.460,4.8,5.5,.866,0.6,2.1,2.7,3.8,1.0,0.2,2.3,2.1,22.0
106,Jordan Crawford\crawfjo02,SG-PG,25,TOT,81,35,1859,6.3,15.3,.415,1.7,5.5,.316,4.6,9.7,.471,2.8,3.3,.864,0.5,3.0,3.5,5.4,0.9,0.1,2.6,2.3,17.2
106,Jordan Crawford\crawfjo02,PG,25,BOS,39,35,1198,5.6,13.7,.413,1.5,4.7,.318,4.1,9.0,.463,3.3,3.8,.873,0.5,3.1,3.6,6.7,1.0,0.1,2.5,2.3,16.1
106,Jordan Crawford\crawfjo02,SG,25,GSW,42,0,661,7.6,18.1,.417,2.2,7.0,.313,5.4,11.2,.483,2.0,2.3,.837,0.5,2.9,3.4,3.1,0.7,0.1,2.7,2.4,19.3
107,Jae Crowder\crowdja01,SF,23,DAL,78,8,1254,3.7,8.5,.439,1.4,4.3,.331,2.3,4.2,.552,1.3,1.8,.754,1.3,4.2,5.6,1.7,1.7,0.6,1.2,2.9,10.2
108,Dante Cunningham\cunnida01,PF,26,MIN,81,7,1635,5.2,11.2,.464,0.0,0.1,.000,5.2,11.1,.468,0.8,1.5,.567,2.5,4.8,7.3,1.8,1.4,1.3,0.9,3.2,11.2
109,Jared Cunningham\cunnija01,SG,22,TOT,13,0,80,2.7,9.5,.286,0.5,3.2,.143,2.3,6.3,.357,5.9,7.2,.813,0.5,2.3,2.7,3.6,1.4,0.0,0.9,7.2,11.7
109,Jared Cunningham\cunnija01,SG,22,ATL,5,0,22,1.6,3.3,.500,0.0,1.6,.000,1.6,1.6,1.000,0.0,3.3,.000,0.0,1.6,1.6,4.9,0.0,0.0,3.3,4.9,3.3
109,Jared Cunningham\cunnija01,SG,22,SAC,8,0,58,3.1,11.8,.263,0.6,3.7,.167,2.5,8.1,.308,8.1,8.7,.929,0.6,2.5,3.1,3.1,1.9,0.0,0.0,8.1,14.9
110,Seth Curry\curryse01,PG,23,TOT,2,0,13,2.8,8.3,.333,2.8,2.8,1.000,0.0,5.5,.000,0.0,0.0,,0.0,2.8,2.8,0.0,5.5,0.0,0.0,0.0,8.3
110,Seth Curry\curryse01,PG,23,MEM,1,0,4,0.0,0.0,,0.0,0.0,,0.0,0.0,,0.0,0.0,,0.0,0.0,0.0,0.0,0.0,0.0,0.0,0.0,0.0
110,Seth Curry\curryse01,PG,23,CLE,1,0,9,4.0,12.0,.333,4.0,4.0,1.000,0.0,8.0,.000,0.0,0.0,,0.0,4.0,4.0,0.0,8.0,0.0,0.0,0.0,12.0
111,Stephen Curry\curryst01,PG,25,GSW,78,78,2846,8.2,17.5,.471,3.3,7.8,.424,4.9,9.7,.509,3.9,4.4,.885,0.6,3.6,4.2,8.4,1.6,0.2,3.7,2.5,23.7
112,Samuel Dalembert\dalemsa01,C,32,DAL,80,68,1614,4.8,8.4,.568,0.0,0.0,.000,4.8,8.4,.569,2.3,3.1,.737,4.5,7.6,12.1,0.8,0.9,2.1,2.0,4.7,11.8
113,Troy Daniels\danietr01,SG,22,HOU,5,1,75,7.2,14.9,.484,5.8,12.0,.480,1.4,2.9,.500,0.0,0.0,,0.0,1.9,1.9,2.4,0.0,0.0,1.4,2.9,20.2
114,Gigi Datome\datomlu01,SF,26,DET,34,0,238,5.1,14.7,.351,1.1,5.9,.179,4.1,8.8,.466,1.2,1.5,.800,2.1,4.8,7.0,1.7,0.9,0.2,1.7,3.0,12.6
115,Brandon Davies\daviebr01,PF,22,PHI,51,0,575,3.4,8.0,.422,0.1,0.6,.200,3.3,7.4,.441,2.1,3.3,.642,2.4,4.4,6.8,1.8,1.5,0.5,2.2,5.8,9.0
116,Anthony Davis\davisan02,PF,20,NOP,67,66,2358,8.0,15.3,.519,0.0,0.1,.222,7.9,15.2,.522,5.3,6.7,.791,3.2,7.1,10.3,1.6,1.4,2.9,1.7,3.1,21.3
117,Ed Davis\davised01,PF,24,MEM,63,4,956,5.8,10.9,.534,0.0,0.0,,5.8,10.9,.534,1.8,3.4,.528,3.5,6.3,9.8,1.0,0.6,1.6,1.5,4.3,13.4
118,Glen Davis\davisgl01,PF,28,TOT,68,44,1662,5.9,12.8,.457,0.1,0.2,.364,5.8,12.6,.459,2.1,3.0,.693,2.3,5.3,7.6,1.7,1.3,0.6,1.6,3.4,13.9
118,Glen Davis\davisgl01,PF,28,ORL,45,43,1354,6.2,13.6,.453,0.1,0.3,.400,6.1,13.3,.454,2.0,3.0,.675,2.3,5.2,7.5,1.9,1.2,0.6,1.6,3.0,14.5
118,Glen Davis\davisgl01,PF,28,LAC,23,1,308,4.6,9.5,.481,0.0,0.1,.000,4.6,9.4,.488,2.1,2.7,.783,2.5,5.6,8.1,0.8,1.4,0.8,2.0,5.6,11.2
119,Austin Daye\dayeau01,SF,25,TOT,22,1,148,5.8,16.5,.353,2.9,9.0,.324,2.9,7.5,.387,1.5,2.4,.600,1.2,5.4,6.6,1.9,1.0,1.0,1.2,4.4,16.1
119,Austin Daye\dayeau01,SF,25,TOR,8,0,33,3.3,14.2,.231,0.0,8.7,.000,3.3,5.5,.600,2.2,3.3,.667,2.2,5.5,7.6,2.2,0.0,0.0,0.0,4.4,8.7
119,Austin Daye\dayeau01,SF,25,SAS,14,1,115,6.6,17.2,.382,3.8,9.1,.414,2.8,8.1,.346,1.3,2.2,.571,0.9,5.3,6.3,1.9,1.3,1.3,1.6,4.4,18.2
120,Nando De Colo\decolna01,SF,26,TOT,47,3,494,4.7,11.1,.418,1.3,3.9,.340,3.4,7.3,.460,2.3,2.6,.886,1.0,4.3,5.3,4.7,1.6,0.4,2.6,3.5,12.9
120,Nando De Colo\decolna01,SF,26,SAS,26,3,301,5.0,11.1,.452,1.2,3.7,.323,3.8,7.4,.516,2.2,2.6,.818,0.7,4.7,5.4,3.8,1.8,0.4,2.5,3.0,13.4
120,Nando De Colo\decolna01,SF,26,TOR,21,0,193,4.1,11.2,.367,1.5,4.1,.364,2.6,7.1,.368,2.4,2.4,1.000,1.5,3.7,5.2,6.2,1.3,0.6,2.6,4.3,12.1
121,Dewayne Dedmon\dedmode01,C,24,TOT,31,6,390,3.5,7.7,.458,0.0,0.0,,3.5,7.7,.458,1.9,3.0,.656,3.5,8.2,11.7,0.5,0.6,2.0,1.7,6.1,9.0
121,Dewayne Dedmon\dedmode01,C,24,GSW,4,0,6,0.0,6.0,.000,0.0,0.0,,0.0,6.0,.000,6.0,12.0,.500,0.0,0.0,0.0,0.0,0.0,0.0,0.0,6.0,6.0
121,Dewayne Dedmon\dedmode01,C,24,PHI,11,0,150,3.6,7.0,.517,0.0,0.0,,3.6,7.0,.517,1.7,3.1,.538,2.6,9.1,11.8,0.7,0.0,2.2,2.2,6.7,8.9
121,Dewayne Dedmon\dedmode01,C,24,ORL,16,6,234,3.5,8.2,.434,0.0,0.0,,3.5,8.2,.434,2.0,2.6,.765,4.2,7.8,12.0,0.3,1.1,2.0,1.4,5.7,9.1
122,Matthew Dellavedova\dellama01,SG,23,CLE,72,4,1271,3.5,8.4,.412,1.6,4.4,.368,1.8,4.0,.461,1.1,1.4,.792,0.8,2.7,3.5,5.3,0.9,0.1,1.7,3.4,9.6
123,Luol Deng\denglu01,SF,28,TOT,63,63,2213,6.0,14.0,.431,0.9,3.1,.302,5.1,10.9,.468,3.4,4.4,.791,1.6,4.3,5.9,3.0,1.0,0.1,1.9,1.8,16.4
123,Luol Deng\denglu01,SF,28,CHI,23,23,860,6.7,14.8,.452,0.7,2.6,.274,6.0,12.2,.490,4.2,5.2,.815,1.7,4.9,6.6,3.6,1.0,0.2,2.5,2.2,18.3
123,Luol Deng\denglu01,SF,28,CLE,40,40,1353,5.6,13.5,.417,1.1,3.4,.315,4.5,10.1,.451,3.0,3.8,.771,1.6,3.8,5.4,2.6,1.0,0.1,1.5,1.5,15.2
124,DeMar DeRozan\derozde01,SG,24,TOR,79,79,3017,7.2,16.8,.429,0.8,2.5,.305,6.4,14.3,.451,6.2,7.5,.824,0.6,3.5,4.1,3.7,1.0,0.3,2.1,2.4,21.4
125,Boris Diaw\diawbo01,PF,31,SAS,79,24,1974,5.5,10.6,.521,0.8,2.0,.402,4.7,8.5,.549,1.2,1.7,.739,1.3,4.6,5.9,4.0,0.8,0.6,2.2,2.6,13.1
126,Gorgui Dieng\dienggo01,C,24,MIN,60,15,818,5.0,10.0,.498,0.0,0.0,1.000,4.9,9.9,.496,2.6,4.1,.634,4.5,8.7,13.2,1.7,1.3,2.2,2.4,4.8,12.6
127,Toney Douglas\douglto01,PG,27,TOT,51,17,675,3.9,10.1,.384,1.7,5.4,.304,2.2,4.7,.477,1.3,1.8,.735,1.0,3.7,4.6,3.6,1.0,0.3,1.8,4.3,10.8
127,Toney Douglas\douglto01,PG,27,GSW,24,0,265,4.3,11.7,.372,2.6,8.0,.322,1.8,3.7,.481,0.7,1.1,.625,0.5,3.0,3.5,2.6,0.8,0.3,2.2,4.6,12.0
127,Toney Douglas\douglto01,PG,27,MIA,27,17,410,3.6,9.1,.394,1.1,3.8,.279,2.5,5.4,.475,1.8,2.3,.769,1.2,4.1,5.4,4.3,1.1,0.3,1.6,4.1,10.0
128,Chris Douglas-Roberts\douglch01,SF,27,CHA,49,8,1016,3.9,8.9,.440,1.8,4.7,.386,2.1,4.3,.500,2.3,2.9,.805,0.6,3.6,4.2,1.8,1.0,0.6,1.3,2.2,12.0
129,Goran Dragić\dragigo01,SG,27,PHO,76,75,2668,7.4,14.7,.505,1.6,4.0,.408,5.8,10.7,.542,4.3,5.6,.760,0.9,2.4,3.3,6.0,1.4,0.3,2.9,2.8,20.8
130,Andre Drummond\drumman01,C,20,DET,81,81,2619,6.6,10.6,.623,0.0,0.0,.000,6.6,10.5,.625,1.9,4.5,.418,6.0,8.7,14.7,0.5,1.4,1.8,1.5,3.8,15.1
131,Jared Dudley\dudleja01,SF,28,LAC,74,43,1729,4.1,9.3,.438,1.7,4.7,.360,2.4,4.6,.518,0.8,1.2,.655,0.7,2.6,3.3,2.2,0.9,0.2,1.2,3.0,10.6
132,Tim Duncan*\duncati01,C,37,SAS,74,74,2158,7.4,15.1,.490,0.0,0.1,.000,7.4,15.0,.493,3.9,5.3,.731,2.6,9.4,12.0,3.7,0.7,2.3,2.7,2.2,18.7
133,Mike Dunleavy\dunlemi02,SF,33,CHI,82,61,2584,4.6,10.8,.430,1.7,4.5,.380,2.9,6.3,.467,2.0,2.3,.854,0.6,4.2,4.8,2.6,0.9,0.6,1.5,2.3,12.9
134,Kevin Durant\duranke01,SF,25,OKC,81,81,3122,9.8,19.5,.503,2.2,5.7,.391,7.6,13.8,.549,8.1,9.3,.873,0.7,6.2,6.9,5.1,1.2,0.7,3.3,2.0,29.9
135,Shane Edwards\edwarsh01,SF,26,CLE,2,0,12,3.0,9.0,.333,0.0,0.0,,3.0,9.0,.333,0.0,0.0,,3.0,3.0,6.0,0.0,0.0,0.0,3.0,3.0,6.0
136,Wayne Ellington\ellinwa01,SG,26,DAL,45,1,393,5.0,11.5,.437,2.3,5.4,.424,2.7,6.1,.448,0.9,1.0,.909,0.7,3.2,3.9,1.7,1.5,0.2,1.0,3.0,13.3
137,Monta Ellis\ellismo01,SG,28,DAL,82,82,3023,6.9,15.2,.451,0.8,2.5,.330,6.0,12.7,.474,4.0,5.1,.788,0.5,3.1,3.5,5.6,1.7,0.3,3.1,2.3,18.6
138,Melvin Ely\elyme01,C,35,NOP,2,0,27,4.0,8.0,.500,0.0,0.0,,4.0,8.0,.500,0.0,0.0,,0.0,1.3,1.3,0.0,0.0,1.3,0.0,6.7,8.0
139,Jeremy Evans\evansje01,SF,26,UTA,66,4,1209,5.2,9.9,.527,0.0,0.1,.000,5.2,9.8,.530,1.5,2.2,.680,3.6,5.7,9.2,1.3,1.3,1.4,1.2,4.1,11.9
140,Reggie Evans\evansre01,PF,33,TOT,54,20,899,2.8,6.0,.473,0.0,0.0,,2.8,6.0,.473,2.9,5.2,.554,4.6,8.8,13.4,0.8,1.5,0.1,2.3,4.8,8.6
140,Reggie Evans\evansre01,PF,33,BRK,30,6,399,2.1,5.3,.390,0.0,0.0,,2.1,5.3,.390,3.2,5.9,.538,4.8,8.7,13.4,0.5,1.2,0.2,2.5,4.9,7.3
140,Reggie Evans\evansre01,PF,33,SAC,24,14,500,3.5,6.6,.527,0.0,0.0,,3.5,6.6,.527,2.7,4.7,.569,4.5,8.9,13.3,1.2,1.7,0.1,2.2,4.7,9.6
141,Tyreke Evans\evansty01,SF,24,NOP,72,22,2028,6.9,15.9,.436,0.4,1.7,.221,6.6,14.2,.461,4.2,5.5,.771,1.3,4.7,6.1,6.4,1.5,0.4,3.1,2.8,18.5
142,Kenneth Faried\farieke01,PF,24,DEN,80,77,2178,7.4,13.6,.545,0.0,0.0,.000,7.4,13.5,.547,3.3,5.1,.650,3.9,7.4,11.3,1.6,1.2,1.1,2.2,3.2,18.1
143,Jordan Farmar\farmajo01,PG,27,LAL,41,5,912,6.0,14.4,.415,2.8,6.3,.438,3.2,8.1,.397,1.7,2.3,.746,0.8,3.3,4.1,7.9,1.5,0.3,3.7,2.6,16.4
144,Vítor Luiz Faverani\favervi01,C,25,BOS,37,8,488,4.7,10.8,.435,0.9,3.0,.300,3.8,7.9,.486,1.8,2.7,.649,3.1,6.3,9.4,1.2,1.0,2.0,3.0,5.5,12.1
145,Derrick Favors\favorde01,PF,22,UTA,73,73,2201,6.4,12.2,.522,0.0,0.0,.000,6.4,12.2,.523,3.1,4.6,.669,3.3,7.2,10.4,1.5,1.2,1.8,2.1,3.9,15.9
146,Carrick Felix\felixca01,SG,23,CLE,7,0,38,6.6,13.3,.500,1.9,4.7,.400,4.7,8.5,.556,2.8,3.8,.750,0.9,4.7,5.7,3.8,0.0,0.0,3.8,3.8,18.0
147,Raymond Felton\feltora01,PG,29,NYK,65,65,2017,4.3,10.9,.395,1.1,3.5,.318,3.2,7.4,.431,1.6,2.2,.721,1.0,2.6,3.5,6.5,1.4,0.5,2.3,2.8,11.2
148,Landry Fields\fieldla01,SF,25,TOR,30,2,322,3.0,7.5,.403,0.0,0.6,.000,3.0,6.9,.435,1.6,2.5,.636,1.7,4.9,6.6,2.2,1.1,0.3,1.2,2.8,7.6
149,Derek Fisher\fishede01,SG,39,OKC,81,0,1428,3.6,9.1,.391,2.2,5.8,.384,1.3,3.3,.402,1.4,1.8,.775,0.3,2.8,3.1,2.9,1.8,0.1,1.2,4.0,10.7
150,Evan Fournier\fournev01,SG,21,DEN,76,4,1503,5.5,13.0,.419,2.1,5.7,.376,3.3,7.4,.453,2.2,2.9,.756,0.8,4.0,4.8,2.7,0.8,0.2,2.4,4.3,15.3
151,Randy Foye\foyera01,SG,30,DEN,81,78,2485,5.2,12.7,.413,2.7,7.2,.380,2.5,5.5,.456,2.3,2.7,.849,0.5,2.8,3.4,4.2,1.0,0.6,2.1,3.0,15.5
152,Jamaal Franklin\frankja01,SG,22,MEM,21,0,161,3.6,8.7,.410,1.1,2.5,.455,2.5,6.3,.393,0.4,0.4,1.000,0.9,4.2,5.1,1.3,0.9,0.4,2.5,5.1,8.7
153,Jimmer Fredette\fredeji01,SG,24,TOT,49,0,519,7.4,15.7,.471,2.8,5.8,.476,4.6,9.9,.469,1.3,1.5,.905,0.6,3.1,3.6,4.4,1.0,0.2,3.3,2.4,18.9
153,Jimmer Fredette\fredeji01,SG,24,SAC,41,0,463,7.3,15.4,.475,2.8,5.7,.493,4.5,9.7,.464,1.3,1.5,.895,0.5,3.0,3.5,4.7,1.1,0.2,3.4,2.2,18.7
153,Jimmer Fredette\fredeji01,SG,24,CHI,8,0,56,8.4,18.6,.448,2.6,7.1,.364,5.8,11.6,.500,1.3,1.3,1.000,0.6,3.9,4.5,1.9,0.0,0.0,2.6,4.5,20.6
154,Joel Freeland\freeljo01,C,26,POR,52,0,727,3.8,8.0,.475,0.0,0.1,.000,3.8,7.9,.481,1.0,1.4,.690,4.4,5.9,10.3,1.8,0.5,1.1,1.6,4.7,8.6
155,Channing Frye\fryech01,PF,30,PHO,82,82,2312,5.2,12.1,.432,2.5,6.7,.370,2.7,5.4,.509,1.2,1.5,.821,1.1,5.3,6.5,1.5,0.9,1.0,1.4,3.8,14.2
156,Francisco García\garcifr01,SF,32,HOU,55,4,1083,3.9,9.8,.401,2.3,6.4,.358,1.6,3.4,.485,0.3,0.6,.526,0.7,3.4,4.1,2.1,0.9,1.1,1.0,4.0,10.5
157,Kevin Garnett*\garneke01,C,37,BRK,54,54,1109,5.1,11.6,.441,0.0,0.1,.000,5.1,11.5,.445,1.2,1.5,.809,1.9,9.7,11.6,2.7,1.4,1.3,2.2,4.0,11.4
158,Diante Garrett\garredi02,PG,25,UTA,71,0,1048,3.5,9.1,.381,1.2,3.3,.375,2.2,5.8,.385,0.3,0.4,.833,0.4,3.0,3.3,4.1,1.4,0.2,2.6,2.6,8.5
159,Marc Gasol\gasolma01,C,29,MEM,59,59,1970,6.1,13.0,.473,0.0,0.2,.182,6.1,12.8,.477,3.4,4.4,.768,1.5,6.2,7.7,3.9,1.1,1.4,2.0,2.7,15.7
160,Pau Gasol\gasolpa01,C,33,LAL,60,60,1884,8.1,16.9,.480,0.1,0.3,.286,8.0,16.6,.483,3.6,4.9,.736,2.4,8.7,11.1,3.8,0.5,1.8,2.7,2.4,19.9
161,Rudy Gay\gayru01,SF,27,TOT,73,73,2531,7.6,16.8,.455,0.9,2.8,.330,6.7,14.0,.481,4.5,5.5,.822,1.6,4.6,6.2,3.0,1.4,0.8,3.2,2.4,20.7
161,Rudy Gay\gayru01,SF,27,TOR,18,18,639,7.3,18.9,.388,1.2,3.3,.373,6.1,15.5,.391,3.8,5.0,.773,1.6,5.9,7.5,2.3,1.6,1.3,3.3,2.6,19.7
161,Rudy Gay\gayru01,SF,27,SAC,55,55,1892,7.7,16.1,.482,0.8,2.6,.312,6.9,13.4,.516,4.8,5.7,.836,1.6,4.2,5.8,3.2,1.3,0.6,3.1,2.4,21.1
162,Alonzo Gee\geeal01,SF,26,CLE,65,24,1020,3.5,8.3,.415,0.7,2.0,.328,2.8,6.3,.444,1.5,2.2,.705,1.2,4.0,5.3,1.7,1.4,0.5,1.6,3.4,9.1
163,Paul George\georgpa01,SF,23,IND,80,80,2898,7.2,16.9,.424,2.3,6.2,.364,4.9,10.7,.458,5.0,5.8,.864,0.8,5.9,6.7,3.5,1.9,0.3,2.8,2.5,21.6
164,Taj Gibson\gibsota01,PF,28,CHI,82,8,2351,6.6,13.7,.479,0.0,0.1,.000,6.6,13.6,.483,3.2,4.3,.751,3.1,5.5,8.5,1.4,0.6,1.7,2.3,3.2,16.4
165,Manu Ginóbili\ginobma01,SG,36,SAS,68,3,1550,6.8,14.6,.469,2.1,6.0,.349,4.7,8.6,.553,3.7,4.4,.851,0.7,4.0,4.7,6.8,1.6,0.4,3.2,3.0,19.5
166,Rudy Gobert\goberru01,C,21,UTA,45,0,434,3.0,6.1,.486,0.0,0.0,,3.0,6.1,.486,2.7,5.4,.492,4.2,8.6,12.9,0.6,0.7,3.4,2.7,4.7,8.6
167,Ryan Gomes\gomesry01,SF,31,OKC,5,0,34,3.2,8.5,.375,0.0,2.1,.000,3.2,6.4,.500,0.0,0.0,,0.0,4.2,4.2,1.1,0.0,0.0,1.1,5.3,6.4
168,Drew Gooden\goodedr01,C,32,WAS,22,0,395,6.9,13.0,.531,0.6,1.5,.412,6.3,11.5,.548,2.2,2.5,.889,3.4,7.0,10.4,1.4,0.9,0.6,1.5,4.8,16.7
169,Archie Goodwin\goodwar01,SG,19,PHO,52,0,533,5.1,11.3,.455,0.3,2.4,.139,4.8,8.8,.542,2.5,3.7,.673,1.7,4.2,5.9,1.4,1.4,0.7,3.0,3.0,13.1
170,Ben Gordon\gordobe01,SG,30,CHA,19,0,279,4.8,13.9,.343,1.0,3.7,.276,3.7,10.2,.367,2.2,2.7,.810,0.4,3.1,3.5,2.7,1.3,0.3,2.7,2.3,12.8
171,Eric Gordon\gordoer01,SG,25,NOP,64,64,2057,6.2,14.3,.436,1.8,4.5,.391,4.5,9.8,.456,3.1,3.9,.785,0.5,2.4,2.9,3.6,1.3,0.2,2.3,2.0,17.3
172,Marcin Gortat\gortama01,C,29,WAS,81,80,2655,6.2,11.4,.542,0.0,0.0,1.000,6.2,11.4,.541,2.1,3.1,.686,2.7,7.7,10.4,1.9,0.6,1.6,1.7,2.7,14.5
173,Danny Granger\grangda01,SF,30,TOT,41,2,847,4.9,13.0,.378,1.8,5.4,.336,3.1,7.6,.408,2.7,2.8,.940,1.3,4.3,5.7,1.7,0.5,0.7,2.0,2.6,14.4
173,Danny Granger\grangda01,SF,30,IND,29,2,653,4.4,12.3,.359,1.7,5.2,.330,2.7,7.1,.380,2.8,2.9,.962,1.3,4.5,5.8,1.8,0.5,0.7,2.0,2.3,13.3
173,Danny Granger\grangda01,SF,30,LAC,12,0,194,6.7,15.6,.429,2.2,6.3,.353,4.5,9.3,.480,2.2,2.6,.857,1.3,3.9,5.2,1.5,0.6,0.7,1.9,3.9,17.8
174,Aaron Gray\grayaa01,C,29,TOT,37,6,355,2.7,6.2,.443,0.0,0.1,.000,2.7,6.1,.450,1.1,2.0,.550,4.3,7.0,11.3,2.2,1.0,0.8,3.1,6.5,6.6
174,Aaron Gray\grayaa01,C,29,TOR,4,0,20,3.6,5.4,.667,0.0,0.0,,3.6,5.4,.667,1.8,3.6,.500,5.4,9.0,14.4,5.4,0.0,0.0,7.2,12.6,9.0
174,Aaron Gray\grayaa01,C,29,SAC,33,6,335,2.7,6.2,.431,0.0,0.1,.000,2.7,6.1,.439,1.1,1.9,.556,4.2,6.9,11.1,2.0,1.1,0.9,2.9,6.1,6.4
175,Danny Green\greenda02,SG,26,SAS,68,59,1651,4.8,11.0,.432,2.9,6.9,.415,1.9,4.1,.460,1.1,1.4,.794,0.5,4.4,5.0,2.3,1.4,1.3,1.7,2.3,13.5
176,Draymond Green\greendr01,SF,23,GSW,82,12,1797,3.7,9.2,.407,1.1,3.3,.333,2.6,5.9,.449,1.6,2.5,.667,1.7,6.5,8.2,3.0,2.0,1.4,1.8,4.6,10.2
177,Gerald Green\greenge01,SG,28,PHO,82,48,2330,6.9,15.5,.445,3.2,7.9,.400,3.8,7.7,.492,3.0,3.6,.848,0.7,3.5,4.2,1.9,1.1,0.6,2.2,3.4,20.0
178,Jeff Green\greenje02,SF,27,BOS,82,82,2805,6.2,15.0,.412,1.7,5.1,.341,4.5,9.9,.448,3.6,4.6,.795,0.7,4.2,4.9,1.8,0.7,0.6,2.1,2.3,17.7
179,Willie Green\greenwi01,SG,32,LAC,55,9,869,4.2,11.2,.376,1.7,5.0,.339,2.5,6.2,.407,1.2,1.4,.824,0.5,2.7,3.2,2.1,0.9,0.5,1.4,4.0,11.3
180,Blake Griffin\griffbl01,PF,24,LAC,80,80,2863,9.0,17.1,.528,0.2,0.6,.273,8.9,16.5,.537,6.1,8.5,.715,2.4,7.1,9.5,3.9,1.2,0.6,2.8,3.3,24.3
181,Jorge Gutiérrez\gutiejo01,PG,25,BRK,15,2,244,3.7,8.0,.463,0.4,1.8,.250,3.2,6.2,.524,1.3,1.8,.750,0.4,2.8,3.2,4.4,1.5,0.1,2.1,5.5,9.1
182,Jordan Hamilton\hamiljo02,SF,23,TOT,60,12,1019,5.2,13.3,.391,2.5,7.0,.354,2.7,6.3,.433,1.4,1.8,.784,1.1,5.7,6.9,1.8,1.6,0.7,1.6,2.4,14.3
182,Jordan Hamilton\hamiljo02,SF,23,DEN,39,11,670,5.3,13.6,.390,2.4,6.9,.349,2.9,6.7,.432,1.2,1.7,.742,1.2,5.9,7.1,1.8,1.7,0.7,1.5,1.7,14.3
182,Jordan Hamilton\hamiljo02,SF,23,HOU,21,1,349,5.0,12.6,.393,2.6,7.1,.362,2.4,5.5,.434,1.8,2.1,.850,0.9,5.4,6.3,1.9,1.3,0.7,2.0,3.7,14.2
183,Justin Hamilton\hamilju01,C,23,TOT,8,0,72,4.5,10.0,.450,1.5,4.5,.333,3.0,5.5,.545,2.5,2.5,1.000,2.0,1.5,3.5,0.0,2.5,0.0,2.0,4.0,13.0
183,Justin Hamilton\hamilju01,C,23,CHA,1,0,4,0.0,0.0,,0.0,0.0,,0.0,0.0,,0.0,0.0,,0.0,0.0,0.0,0.0,9.0,0.0,9.0,0.0,0.0
183,Justin Hamilton\hamilju01,C,23,MIA,7,0,68,4.8,10.6,.450,1.6,4.8,.333,3.2,5.8,.545,2.6,2.6,1.000,2.1,1.6,3.7,0.0,2.1,0.0,1.6,4.2,13.8
184,Tyler Hansbrough\hansbty01,PF,28,TOR,64,4,978,3.4,7.2,.474,0.0,0.1,.000,3.4,7.1,.479,4.6,6.8,.681,4.4,6.1,10.6,0.6,1.0,0.7,1.7,4.9,11.5
185,Tim Hardaway Jr.\hardati02,SG,21,NYK,81,1,1875,5.6,13.2,.428,2.5,6.9,.363,3.1,6.3,.498,2.0,2.5,.828,0.4,2.0,2.3,1.3,0.8,0.1,0.9,2.8,15.8
186,James Harden\hardeja01,SG,24,HOU,73,73,2777,7.1,15.6,.456,2.3,6.3,.366,4.8,9.4,.515,7.5,8.6,.866,0.8,3.7,4.5,5.8,1.5,0.4,3.4,2.3,24.0
187,Maurice Harkless\harklma01,SF,20,ORL,80,41,1950,4.1,8.9,.464,1.1,2.8,.383,3.0,6.1,.502,1.6,2.6,.594,1.3,3.6,4.9,1.5,1.8,0.9,1.6,2.6,10.9
188,Josh Harrellson\harrejo01,C,24,DET,32,0,317,4.3,9.3,.463,1.4,3.5,.387,3.0,5.8,.510,0.6,0.8,.714,3.4,5.2,8.6,1.7,0.7,1.7,1.1,5.0,10.6
189,Al Harrington\harrial01,PF,33,WAS,34,0,511,5.8,14.6,.396,2.4,7.0,.340,3.4,7.5,.449,1.9,2.5,.771,1.1,4.6,5.6,2.0,1.0,0.0,2.4,5.1,15.9
190,Devin Harris\harride01,PG,30,DAL,40,0,818,4.2,11.2,.378,1.4,4.4,.307,2.9,6.7,.425,4.0,5.1,.800,0.4,3.4,3.7,7.8,1.2,0.1,2.6,3.2,13.9
191,Elias Harris\harriel01,SF,24,LAL,2,0,11,0.0,3.3,.000,0.0,0.0,,0.0,3.3,.000,0.0,0.0,,3.3,0.0,3.3,3.3,3.3,0.0,0.0,0.0,0.0
192,Manny Harris\harrima01,SG,24,LAL,9,0,180,5.6,14.0,.400,1.4,4.0,.350,4.2,10.0,.420,2.0,2.4,.833,1.4,5.4,6.8,2.2,0.8,0.2,1.8,2.0,14.6
193,Mike Harris\harrimi01,PF,30,UTA,20,0,225,4.6,9.8,.475,0.0,0.3,.000,4.6,9.4,.492,4.2,4.3,.963,2.4,2.9,5.3,0.8,2.6,1.1,1.8,5.8,13.4
194,Tobias Harris\harrito02,PF,21,ORL,61,36,1850,6.5,13.9,.464,0.6,2.5,.254,5.8,11.5,.508,3.8,4.7,.807,1.7,6.5,8.3,1.6,0.8,0.5,1.5,2.8,17.4
195,Udonis Haslem\hasleud01,PF,33,MIA,46,18,653,4.1,8.0,.507,0.0,0.0,,4.1,8.0,.507,1.4,2.4,.568,2.3,7.3,9.6,0.7,0.6,0.8,1.3,4.4,9.5
196,Spencer Hawes\hawessp01,C,25,TOT,80,78,2470,5.9,12.9,.456,1.9,4.5,.416,4.0,8.4,.478,1.7,2.2,.783,1.9,7.7,9.6,3.5,0.6,1.4,2.5,3.5,15.3
196,Spencer Hawes\hawessp01,C,25,PHI,53,53,1666,5.7,12.7,.451,1.8,4.4,.399,4.0,8.3,.478,1.7,2.2,.782,1.9,7.9,9.8,3.8,0.7,1.4,2.6,3.3,14.9
196,Spencer Hawes\hawessp01,C,25,CLE,27,25,804,6.2,13.3,.468,2.1,4.7,.448,4.1,8.6,.479,1.8,2.3,.784,1.9,7.4,9.3,2.9,0.6,1.2,2.4,3.7,16.3
197,Chuck Hayes\hayesch01,C,30,TOT,61,1,754,2.7,6.2,.431,0.0,0.0,.000,2.7,6.2,.434,1.0,1.2,.800,3.3,6.7,10.0,1.7,1.6,0.6,1.6,4.5,6.3
197,Chuck Hayes\hayesch01,C,30,SAC,16,1,179,2.8,6.4,.438,0.0,0.0,,2.8,6.4,.438,1.0,1.4,.714,4.0,5.4,9.5,1.2,2.2,0.4,1.4,3.6,6.6
197,Chuck Hayes\hayesch01,C,30,TOR,45,0,575,2.6,6.1,.429,0.0,0.1,.000,2.6,6.1,.433,0.9,1.1,.833,3.1,7.1,10.2,1.8,1.4,0.6,1.6,4.8,6.2
198,Gordon Hayward\haywago01,SF,23,UTA,77,77,2800,5.5,13.3,.413,1.1,3.6,.304,4.4,9.7,.453,4.0,4.9,.816,0.8,4.2,5.0,5.1,1.4,0.5,2.7,2.0,16.0
199,Gerald Henderson\hendege02,SG,26,CHA,77,77,2461,5.9,13.6,.433,0.6,1.7,.348,5.3,11.9,.445,3.4,4.5,.761,0.5,4.1,4.5,2.9,0.7,0.5,1.7,2.3,15.8
200,Xavier Henry\henryxa01,SF,22,LAL,43,5,908,5.7,13.7,.417,1.1,3.2,.346,4.6,10.5,.439,4.6,7.0,.655,1.0,3.5,4.5,2.0,1.7,0.3,2.3,3.1,17.1
201,John Henson\hensojo01,PF,23,MIL,70,23,1856,6.7,12.4,.538,0.0,0.0,.000,6.7,12.4,.539,1.8,3.4,.514,3.3,6.3,9.6,2.2,0.8,2.3,2.2,3.6,15.1
202,Roy Hibbert\hibbero01,C,27,IND,81,81,2409,4.9,11.3,.439,0.0,0.1,.400,4.9,11.2,.439,3.1,4.0,.770,3.0,5.0,8.0,1.4,0.4,2.7,2.2,4.0,13.0
203,J.J. Hickson\hicksjj01,PF,25,DEN,69,52,1859,6.4,12.7,.508,0.0,0.2,.000,6.4,12.5,.514,2.9,5.6,.517,4.0,8.2,12.2,1.9,0.9,1.0,2.5,3.4,15.8
204,Nenê\hilarne01,PF,31,WAS,53,37,1560,6.9,13.7,.503,0.0,0.1,.200,6.9,13.6,.506,3.6,6.1,.583,1.5,5.3,6.8,3.5,1.5,1.1,2.7,3.8,17.4
205,George Hill\hillge01,PG,27,IND,76,76,2434,4.0,9.1,.442,1.4,3.8,.365,2.6,5.3,.497,2.1,2.6,.807,0.8,3.4,4.2,3.9,1.1,0.3,1.4,2.3,11.6
206,Jordan Hill\hilljo01,PF,26,LAL,72,32,1500,6.9,12.5,.549,0.0,0.0,.000,6.9,12.5,.550,3.0,4.3,.685,4.7,8.2,12.8,1.3,0.7,1.5,1.8,4.1,16.7
207,Solomon Hill\hillso01,SF,22,IND,28,0,226,2.7,6.4,.425,1.1,3.7,.304,1.6,2.7,.588,1.0,1.1,.857,1.4,5.1,6.5,1.9,0.8,0.3,2.1,3.0,7.5
208,Kirk Hinrich\hinriki01,PG,33,CHI,73,61,2116,4.1,10.5,.393,1.4,4.1,.351,2.7,6.4,.419,1.6,2.1,.760,0.5,2.7,3.3,4.9,1.4,0.4,2.0,3.5,11.3
209,Jrue Holiday\holidjr01,PG,23,NOP,34,34,1143,6.4,14.3,.447,0.9,2.4,.390,5.4,11.9,.459,1.6,2.0,.810,0.9,3.6,4.5,8.4,1.8,0.4,3.3,2.9,15.3
210,Ryan Hollins\holliry01,PF,29,LAC,61,0,482,4.0,5.4,.736,0.0,0.0,,4.0,5.4,.736,2.6,4.2,.625,2.3,4.4,6.7,0.6,0.7,2.3,2.2,6.5,10.5
211,Scotty Hopson\hopsosc01,SG,24,CLE,2,0,7,0.0,20.6,.000,0.0,10.3,.000,0.0,10.3,.000,5.1,10.3,.500,0.0,0.0,0.0,5.1,5.1,0.0,0.0,0.0,5.1
212,Al Horford\horfoal01,C,27,ATL,29,29,958,8.9,15.8,.567,0.2,0.4,.364,8.8,15.4,.572,2.2,3.2,.682,2.5,6.7,9.2,2.9,1.0,1.7,2.4,2.1,20.2
213,Dwight Howard\howardw01,C,28,HOU,71,71,2396,7.1,12.0,.591,0.0,0.1,.286,7.1,11.9,.594,5.2,9.6,.547,3.5,9.5,13.0,2.0,0.9,1.9,3.4,3.6,19.5
214,Robbie Hummel\hummero01,SF,24,MIN,53,5,655,3.7,9.7,.379,1.8,4.9,.360,1.9,4.8,.398,0.8,0.9,.938,1.9,5.3,7.3,1.3,0.9,0.1,0.5,3.1,9.9
215,Kris Humphries\humphkr01,PF,28,BOS,69,30,1376,6.0,12.1,.501,0.0,0.1,.000,6.0,12.0,.503,3.1,3.8,.813,3.3,7.4,10.7,1.8,0.8,1.6,1.7,3.6,15.1
216,Serge Ibaka\ibakase01,PF,24,OKC,81,81,2666,7.1,13.2,.536,0.3,0.8,.383,6.8,12.4,.546,2.1,2.7,.784,3.0,6.5,9.6,1.1,0.5,3.0,1.7,3.1,16.6
217,Andre Iguodala\iguodan01,SF,30,GSW,63,63,2040,3.9,8.1,.480,1.1,3.1,.354,2.8,5.0,.558,1.5,2.3,.652,0.9,4.2,5.2,4.6,1.7,0.3,1.8,1.8,10.4
218,Ersan İlyasova\ilyaser01,PF,26,MIL,55,47,1478,5.8,14.1,.409,0.9,3.2,.282,4.9,10.9,.446,2.6,3.2,.823,2.6,5.7,8.3,1.8,1.1,0.2,1.5,3.3,15.1
219,Kyrie Irving\irvinky01,PG,21,CLE,71,71,2496,7.7,17.8,.430,1.8,5.0,.358,5.9,12.9,.458,4.2,4.9,.861,0.7,3.0,3.7,6.2,1.6,0.3,2.7,2.4,21.3
220,Royal Ivey\iveyro01,SG,32,OKC,2,0,5,0.0,14.4,.000,0.0,7.2,.000,0.0,7.2,.000,0.0,0.0,,0.0,7.2,7.2,0.0,0.0,0.0,0.0,7.2,0.0
221,Jarrett Jack\jackja01,PG,30,CLE,80,31,2252,4.6,11.2,.410,1.0,3.0,.341,3.6,8.2,.435,2.0,2.4,.839,0.4,3.2,3.6,5.2,0.9,0.4,2.1,2.1,12.1
222,Reggie Jackson\jacksre01,PG,23,OKC,80,36,2277,6.4,14.5,.440,1.3,3.9,.339,5.1,10.6,.477,2.5,2.8,.893,0.7,4.3,4.9,5.2,1.3,0.1,2.7,2.2,16.6
223,Stephen Jackson\jacksst02,SF,35,LAC,9,0,107,2.0,8.7,.231,0.3,4.7,.071,1.7,4.0,.417,0.7,1.3,.500,0.7,2.7,3.4,1.7,2.0,0.3,2.0,3.7,5.0
224,Bernard James\jamesbe01,C,28,DAL,30,0,146,2.7,5.7,.478,0.0,0.2,.000,2.7,5.4,.500,1.5,2.7,.545,3.7,6.7,10.4,0.7,0.7,2.0,2.5,5.9,6.9
225,Damion James\jamesda01,SF,26,SAS,5,1,50,1.4,6.5,.222,0.0,1.4,.000,1.4,5.0,.286,1.4,1.4,1.000,0.7,7.9,8.6,2.2,0.0,0.7,0.7,2.2,4.3
226,LeBron James\jamesle01,PF,29,MIA,77,77,2902,9.5,16.8,.567,1.4,3.8,.379,8.1,13.0,.622,5.4,7.3,.750,1.0,5.6,6.6,6.1,1.5,0.3,3.3,1.6,25.9
227,Mike James\jamesmi01,PG,38,CHI,11,0,77,2.3,9.8,.238,0.5,2.3,.200,1.9,7.5,.250,0.0,0.9,.000,0.0,3.3,3.3,7.9,0.9,0.0,2.3,5.1,5.1
228,Antawn Jamison\jamisan01,PF,37,LAC,22,0,248,4.2,13.4,.315,1.2,6.0,.195,3.0,7.4,.412,2.6,3.6,.720,1.3,6.7,8.0,1.0,1.3,0.4,1.0,4.2,12.2
229,Othyus Jeffers\jeffeot01,SG,28,TOT,6,1,47,2.3,4.6,.500,0.0,1.5,.000,2.3,3.1,.750,2.3,3.1,.750,0.8,6.1,6.9,0.8,0.0,0.0,0.8,2.3,6.9
229,Othyus Jeffers\jeffeot01,SG,28,SAS,4,1,34,3.2,5.3,.600,0.0,1.1,.000,3.2,4.2,.750,1.1,2.1,.500,1.1,5.3,6.4,1.1,0.0,0.0,0.0,2.1,7.4
229,Othyus Jeffers\jeffeot01,SG,28,MIN,2,0,13,0.0,2.8,.000,0.0,2.8,.000,0.0,0.0,,5.5,5.5,1.000,0.0,8.3,8.3,0.0,0.0,0.0,2.8,2.8,5.5
230,Al Jefferson\jeffeal01,C,29,CHA,73,73,2553,9.9,19.4,.509,0.0,0.2,.200,9.8,19.2,.512,2.7,3.9,.690,2.2,9.0,11.2,2.2,0.9,1.1,1.7,2.5,22.5
231,Richard Jefferson\jefferi01,SF,33,UTA,82,78,2213,4.8,10.6,.450,2.0,4.9,.409,2.8,5.7,.484,2.0,2.6,.741,0.3,3.3,3.6,2.1,0.9,0.2,1.5,2.7,13.5
232,John Jenkins\jenkijo01,SG,22,ATL,13,0,158,3.6,9.6,.381,0.9,4.1,.222,2.7,5.5,.500,0.9,0.9,1.000,0.7,4.3,5.0,2.5,0.2,0.2,2.5,2.5,9.1
233,Brandon Jennings\jennibr01,PG,24,DET,80,79,2728,5.6,15.0,.373,2.0,6.0,.337,3.5,8.9,.397,3.2,4.2,.751,0.8,2.4,3.2,8.0,1.3,0.1,2.8,2.1,16.4
234,Jonas Jerebko\jerebjo01,PF,26,DET,64,0,741,4.8,10.1,.471,1.5,3.6,.419,3.3,6.5,.500,2.1,2.9,.729,2.5,6.0,8.5,1.9,1.0,0.3,2.1,4.1,13.1
235,Amir Johnson\johnsam01,PF,26,TOR,77,72,2214,5.6,10.0,.562,0.3,1.1,.303,5.3,8.9,.593,1.5,2.3,.636,2.8,5.4,8.2,1.9,0.9,1.4,2.0,4.4,13.0
236,Chris Johnson\johnsch04,SF,23,BOS,40,0,789,3.9,9.8,.397,2.0,5.8,.339,1.9,4.0,.483,1.7,2.0,.860,1.4,3.0,4.4,1.4,1.2,0.2,1.0,2.9,11.4
237,James Johnson\johnsja01,SF,26,MEM,52,4,956,5.4,11.6,.464,0.8,3.3,.253,4.6,8.3,.548,2.9,3.4,.844,2.3,4.0,6.3,4.2,1.6,2.1,2.5,3.8,14.5
238,Joe Johnson\johnsjo02,SG,32,BRK,79,79,2575,6.5,14.2,.454,2.3,5.6,.401,4.2,8.6,.489,2.2,2.7,.815,0.7,3.1,3.8,3.0,0.7,0.1,1.7,1.8,17.4
239,Orlando Johnson\johnsor01,SG,24,TOT,45,0,392,3.3,10.4,.319,0.8,4.3,.191,2.5,6.1,.409,1.7,2.4,.731,0.8,4.2,5.1,1.8,0.6,0.2,1.4,2.4,9.2
239,Orlando Johnson\johnsor01,SG,24,IND,38,0,342,3.5,10.1,.344,0.8,4.3,.195,2.6,5.8,.455,1.8,2.3,.773,0.7,4.6,5.4,1.7,0.6,0.1,1.5,2.4,9.6
239,Orlando Johnson\johnsor01,SG,24,SAC,7,0,50,2.2,12.2,.176,0.7,4.3,.167,1.4,7.9,.182,1.4,2.9,.500,1.4,1.4,2.9,2.9,0.0,0.7,0.7,2.2,6.5
240,Wesley Johnson\johnswe01,SF,26,LAL,79,62,2240,4.5,10.5,.425,1.6,4.4,.369,2.8,6.1,.466,1.0,1.2,.792,1.1,4.5,5.6,2.0,1.4,1.2,1.4,3.3,11.5
241,Darius Johnson-Odom\johnsda03,SG,24,PHI,3,0,15,0.0,16.8,.000,0.0,7.2,.000,0.0,9.6,.000,0.0,4.8,.000,0.0,4.8,4.8,2.4,2.4,0.0,4.8,7.2,0.0
242,James Jones\jonesja02,SF,33,MIA,20,6,236,4.7,10.4,.456,4.3,8.2,.519,0.5,2.1,.214,1.1,1.7,.636,0.3,3.2,3.5,1.4,0.5,0.6,0.6,0.9,14.8
243,Perry Jones\jonespe01,PF,22,OKC,62,7,764,3.9,8.5,.459,1.0,2.9,.361,2.9,5.7,.508,1.3,2.0,.667,1.3,4.1,5.4,1.2,0.7,0.9,1.0,2.9,10.2
244,Solomon Jones\jonesso01,PF,29,ORL,11,0,85,2.5,7.2,.353,0.0,0.0,,2.5,7.2,.353,0.8,1.7,.500,3.4,3.4,6.8,0.8,0.8,0.8,0.8,5.1,5.9
245,Terrence Jones\joneste01,PF,22,HOU,76,71,2078,6.7,12.3,.542,0.5,1.7,.307,6.2,10.6,.581,2.0,3.4,.605,2.8,6.3,9.1,1.5,0.9,1.7,1.2,2.4,16.0
246,DeAndre Jordan\jordade01,C,25,LAC,82,82,2870,4.4,6.5,.676,0.0,0.0,,4.4,6.5,.676,2.0,4.7,.428,4.2,9.8,14.0,0.9,1.0,2.5,1.5,3.3,10.7
247,Cory Joseph\josepco01,SG,22,SAS,68,19,936,4.8,10.2,.475,0.5,1.5,.316,4.4,8.7,.502,3.0,3.7,.823,1.2,2.9,4.1,4.4,1.3,0.5,1.7,3.2,13.2
248,Chris Kaman\kamanch01,C,31,LAL,39,13,736,8.6,16.9,.509,0.0,0.1,.000,8.6,16.8,.513,2.5,3.3,.765,2.6,8.6,11.2,2.8,0.5,2.0,3.6,4.5,19.8
249,Enes Kanter\kanteen01,C,21,UTA,80,37,2138,7.1,14.4,.491,0.0,0.0,.000,7.1,14.3,.492,2.5,3.4,.730,3.7,6.3,10.1,1.3,0.5,0.7,2.4,3.9,16.6
250,Sergey Karasev\karasse01,SF,20,CLE,22,1,156,2.8,8.1,.343,0.9,4.4,.211,1.8,3.7,.500,2.1,2.3,.900,0.0,3.7,3.7,1.4,0.7,0.2,2.5,5.1,8.5
251,Ryan Kelly\kellyry01,PF,22,LAL,59,25,1312,4.3,10.2,.423,1.3,3.9,.338,3.0,6.3,.476,3.0,3.7,.815,1.2,4.9,6.0,2.6,0.9,1.2,1.3,4.0,13.0
252,Michael Kidd-Gilchrist\kiddgmi01,SF,20,CHA,62,62,1502,4.0,8.5,.473,0.0,0.2,.111,4.0,8.2,.483,2.7,4.4,.614,2.6,5.2,7.8,1.2,1.0,0.9,1.4,3.5,10.7
253,Andrei Kirilenko\kirilan01,PF,32,BRK,45,4,857,3.4,6.7,.513,0.0,0.2,.200,3.4,6.5,.523,2.6,5.0,.513,2.3,3.8,6.1,3.0,1.7,0.8,2.3,2.7,9.5
254,Brandon Knight\knighbr03,PG,22,MIL,72,69,2400,6.9,16.4,.422,1.6,5.1,.325,5.3,11.3,.466,3.9,4.8,.802,0.7,3.1,3.8,5.3,1.0,0.3,2.8,2.2,19.4
255,Kyle Korver\korveky01,SG,32,ATL,71,71,2408,4.3,9.1,.475,2.8,5.9,.472,1.6,3.2,.479,1.3,1.4,.926,0.3,3.9,4.2,3.1,1.0,0.4,1.5,2.2,12.7
256,Kosta Koufos\koufoko01,C,24,MEM,80,22,1349,6.1,12.2,.495,0.0,0.0,,6.1,12.2,.495,1.6,2.5,.645,4.3,6.9,11.2,1.0,0.9,1.9,1.8,4.9,13.7
257,Viacheslav Kravtsov\kravtvi01,C,26,PHO,20,0,59,4.9,9.2,.533,0.0,0.0,,4.9,9.2,.533,2.4,4.9,.500,5.5,4.9,10.4,0.6,0.0,0.6,3.7,4.3,12.2
258,Ognjen Kuzmić\kuzmiog01,C,23,GSW,21,0,92,2.0,5.1,.385,0.0,0.0,,2.0,5.1,.385,2.0,4.3,.455,3.9,4.3,8.2,0.8,1.2,1.6,3.9,6.7,5.9
259,Doron Lamb\lambdo01,SG,22,ORL,53,0,695,3.3,8.3,.394,1.9,4.7,.400,1.4,3.6,.386,1.5,1.9,.806,0.4,2.1,2.5,2.2,0.6,0.1,1.4,2.8,9.9
260,Jeremy Lamb\lambje01,SG,21,OKC,78,0,1538,6.2,14.3,.432,2.1,5.8,.356,4.1,8.5,.483,1.2,1.5,.797,0.6,3.8,4.4,2.7,1.3,0.6,1.4,3.3,15.6
261,Carl Landry\landrca01,PF,30,SAC,18,1,233,4.8,9.3,.517,0.0,0.0,,4.8,9.3,.517,2.2,2.6,.824,2.3,6.5,8.8,0.8,0.5,0.2,1.4,5.3,11.7
262,Shane Larkin\larkish01,PG,21,DAL,48,0,489,3.8,10.1,.380,0.9,2.8,.316,2.9,7.3,.404,1.2,1.8,.640,0.8,2.3,3.1,5.2,1.9,0.1,2.9,3.4,9.7
263,Ty Lawson\lawsoty01,PG,26,DEN,62,61,2222,5.6,13.1,.431,1.2,3.3,.356,4.5,9.8,.455,5.2,6.6,.798,0.6,2.8,3.5,8.8,1.6,0.2,3.2,1.8,17.7
264,Ricky Ledo\ledori01,SG,21,DAL,11,0,33,6.5,18.5,.353,3.3,8.7,.375,3.3,9.8,.333,4.4,4.4,1.000,0.0,2.2,2.2,2.2,1.1,0.0,2.2,2.2,20.7
265,Courtney Lee\leeco01,SG,28,TOT,79,47,1973,5.4,11.2,.480,1.3,3.5,.371,4.1,7.7,.531,1.8,2.0,.884,0.5,2.9,3.4,2.1,1.2,0.5,1.3,2.3,13.9
265,Courtney Lee\leeco01,SG,28,BOS,30,0,504,6.4,13.1,.492,1.6,3.7,.442,4.8,9.4,.511,1.3,1.6,.818,0.6,2.9,3.5,2.3,1.4,0.6,1.8,2.6,15.8
265,Courtney Lee\leeco01,SG,28,MEM,49,47,1469,5.0,10.6,.476,1.2,3.5,.345,3.8,7.1,.540,2.0,2.2,.900,0.5,2.9,3.4,2.0,1.1,0.5,1.2,2.2,13.2
266,David Lee\leeda02,PF,30,GSW,69,67,2288,8.1,15.4,.523,0.0,0.0,.000,8.1,15.4,.523,3.6,4.7,.780,2.9,7.3,10.1,2.3,0.8,0.4,2.4,3.2,19.8
267,Alex Len\lenal01,C,20,PHO,42,3,362,3.3,7.8,.423,0.0,0.0,,3.3,7.8,.423,2.0,3.1,.645,3.9,6.0,9.8,0.4,0.4,1.8,2.6,6.8,8.6
268,Kawhi Leonard\leonaka01,SF,22,SAS,66,65,1923,6.3,12.1,.522,1.3,3.4,.379,5.0,8.7,.579,1.9,2.4,.802,1.4,6.3,7.7,2.5,2.1,0.9,1.5,2.4,15.8
269,Meyers Leonard\leoname01,C,21,POR,40,0,355,4.2,9.2,.451,0.0,0.6,.000,4.2,8.6,.482,1.6,2.1,.762,2.6,8.6,11.3,1.8,0.7,0.5,1.5,7.7,9.9
270,Jon Leuer\leuerjo01,PF,24,MEM,49,0,642,6.8,13.8,.492,1.3,2.7,.469,5.5,11.0,.497,2.1,2.6,.787,2.1,6.8,8.9,1.1,1.0,0.7,1.5,3.5,16.9
271,Rashard Lewis\lewisra02,SF,34,MIA,60,6,971,3.6,8.7,.415,1.7,5.0,.343,1.9,3.8,.510,1.0,1.2,.788,0.9,3.2,4.1,2.1,2.0,0.3,1.3,3.3,9.9
272,DeAndre Liggins\liggide01,SG,25,MIA,1,0,1,36.0,36.0,1.000,0.0,0.0,,36.0,36.0,1.000,0.0,0.0,,36.0,0.0,36.0,0.0,0.0,0.0,0.0,0.0,72.0
273,Damian Lillard\lillada01,PG,23,POR,82,82,2937,6.8,16.0,.424,2.7,6.8,.394,4.1,9.2,.447,4.5,5.2,.871,0.4,3.1,3.5,5.6,0.8,0.3,2.4,2.4,20.8
274,Jeremy Lin\linje01,PG,25,HOU,71,33,2054,5.2,11.6,.446,1.4,4.0,.358,3.7,7.6,.492,3.8,4.6,.823,0.6,2.7,3.3,5.2,1.2,0.5,3.1,2.9,15.6
275,Shaun Livingston\livinsh01,PG,28,BRK,76,54,1974,4.3,8.9,.483,0.0,0.1,.167,4.3,8.8,.486,2.9,3.5,.827,1.2,3.3,4.5,4.5,1.7,0.6,1.9,3.1,11.5
276,Brook Lopez\lopezbr01,C,25,BRK,17,17,533,8.7,15.5,.563,0.0,0.1,.000,8.7,15.4,.566,6.3,7.8,.817,2.6,4.3,6.9,1.1,0.6,2.0,1.9,3.5,23.8
277,Robin Lopez\lopezro01,C,25,POR,82,82,2603,4.9,8.9,.551,0.0,0.0,.000,4.9,8.9,.552,2.7,3.3,.818,4.5,5.2,9.7,1.0,0.3,1.9,1.2,2.7,12.6
278,Kevin Love\loveke01,PF,25,MIN,77,77,2797,8.4,18.3,.457,2.4,6.5,.376,5.9,11.8,.502,6.7,8.1,.821,2.9,9.5,12.4,4.4,0.8,0.5,2.5,1.8,25.9
279,Kyle Lowry\lowryky01,PG,27,TOR,79,79,2862,5.7,13.6,.423,2.4,6.3,.380,3.4,7.3,.460,3.9,4.8,.813,1.1,3.5,4.6,7.4,1.5,0.2,2.4,3.4,17.8
280,John Lucas III\lucasjo02,PG,31,UTA,42,6,591,3.8,11.6,.326,1.5,5.1,.298,2.3,6.5,.349,0.6,1.0,.625,0.7,1.6,2.4,2.6,0.9,0.0,1.3,2.5,9.7
281,Shelvin Mack\macksh01,PG,23,ATL,73,11,1490,5.0,12.1,.417,1.5,4.4,.337,3.6,7.7,.464,1.5,1.8,.865,0.5,3.4,3.9,6.5,1.2,0.0,2.2,2.4,13.1
282,Ian Mahinmi\mahinia01,C,27,IND,77,1,1248,2.6,5.5,.481,0.0,0.0,.000,2.6,5.4,.484,2.6,4.2,.621,3.1,4.3,7.4,0.7,1.2,2.1,1.7,6.0,7.8
283,Shawn Marion\mariosh01,SF,35,DAL,76,76,2409,5.1,10.6,.482,0.9,2.4,.358,4.2,8.2,.518,0.8,1.0,.785,2.0,5.5,7.4,1.9,1.3,0.6,1.4,1.9,11.8
284,Kendall Marshall\marshke01,PG,22,LAL,54,45,1564,3.9,9.6,.406,1.6,4.1,.399,2.3,5.5,.411,0.4,0.8,.528,0.3,3.2,3.6,11.0,1.1,0.1,3.5,1.7,9.9
285,Cartier Martin\martica01,SF,29,TOT,59,6,870,4.6,10.9,.420,2.4,6.2,.391,2.2,4.7,.460,2.0,2.7,.738,0.5,4.0,4.6,1.4,1.1,0.3,1.4,2.9,13.6
285,Cartier Martin\martica01,SF,29,ATL,53,6,822,4.6,11.2,.414,2.5,6.4,.384,2.2,4.8,.455,2.0,2.7,.754,0.5,4.1,4.6,1.4,1.1,0.3,1.4,3.0,13.8
285,Cartier Martin\martica01,SF,29,CHI,6,0,48,3.7,6.0,.625,2.3,3.7,.600,1.5,2.3,.667,1.5,3.0,.500,0.7,3.0,3.7,1.5,0.7,0.0,0.7,2.3,11.3
286,Kenyon Martin\martike01,PF,36,NYK,32,15,633,3.6,7.0,.512,0.0,0.1,.000,3.6,6.9,.516,0.6,1.1,.579,2.0,5.6,7.6,2.8,1.4,1.5,1.5,4.8,7.8
287,Kevin Martin\martike02,SG,30,MIN,68,68,2177,7.3,16.9,.430,1.9,4.9,.387,5.4,12.0,.448,5.0,5.6,.891,0.6,2.8,3.4,2.0,1.1,0.1,1.8,2.0,21.5
288,Roger Mason\masonro01,SG,33,MIA,25,2,260,3.5,9.3,.373,2.4,6.6,.354,1.1,2.6,.421,1.0,1.0,1.000,0.1,2.9,3.0,2.6,0.8,0.1,1.2,3.6,10.2
289,Wesley Matthews\matthwe02,SG,27,POR,82,82,2780,5.8,13.1,.441,2.6,6.6,.393,3.2,6.4,.490,3.3,3.9,.837,0.7,3.1,3.7,2.6,1.0,0.2,1.4,2.3,17.4
290,Jason Maxiell\maxieja01,PF,30,ORL,34,13,488,3.5,7.7,.448,0.0,0.0,,3.5,7.7,.448,1.1,2.3,.484,2.1,4.3,6.3,0.7,0.6,1.5,1.0,3.5,8.0
291,Eric Maynor\maynoer01,PG,26,TOT,31,0,327,3.5,11.1,.317,1.3,4.1,.324,2.2,7.0,.313,0.7,1.2,.545,1.0,3.3,4.3,5.7,1.0,0.3,3.2,1.9,9.0
291,Eric Maynor\maynoer01,PG,26,WAS,23,0,215,3.5,12.1,.292,1.3,4.2,.320,2.2,7.9,.277,0.3,0.5,.667,1.2,2.8,4.0,6.7,0.8,0.2,2.8,2.2,8.7
291,Eric Maynor\maynoer01,PG,26,PHI,8,0,112,3.5,9.3,.379,1.3,3.9,.333,2.3,5.5,.412,1.3,2.6,.500,0.6,4.2,4.8,3.9,1.3,0.6,3.9,1.3,9.6
292,O.J. Mayo\mayooj01,SG,26,MIL,52,23,1346,6.0,14.7,.407,2.2,6.1,.370,3.7,8.6,.433,2.0,2.4,.864,0.6,2.7,3.3,3.0,0.7,0.3,2.5,3.0,16.3
293,Luc Mbah a Moute\mbahalu01,PF-SF,27,TOT,64,7,1003,3.1,6.9,.451,0.1,0.6,.235,3.0,6.3,.472,1.7,2.4,.687,2.0,3.2,5.2,1.3,1.1,0.5,1.4,2.4,8.0
293,Luc Mbah a Moute\mbahalu01,SF,27,SAC,9,5,196,2.8,5.9,.469,0.2,0.6,.333,2.6,5.3,.483,1.7,2.4,.692,1.7,3.3,5.0,2.8,1.7,0.9,0.7,3.3,7.3
293,Luc Mbah a Moute\mbahalu01,PF,27,MIN,55,2,807,3.2,7.2,.447,0.1,0.6,.214,3.1,6.6,.469,1.7,2.4,.685,2.1,3.2,5.3,0.9,0.9,0.4,1.6,2.2,8.2
294,Ray McCallum\mccalra01,PG,22,SAC,45,10,897,4.5,12.0,.377,0.9,2.4,.373,3.7,9.7,.378,1.3,1.7,.744,0.7,2.4,3.2,4.8,0.9,0.4,1.6,2.8,11.2
295,CJ McCollum\mccolcj01,SG,22,POR,38,0,476,5.6,13.5,.416,2.3,6.1,.375,3.3,7.4,.449,1.7,2.6,.676,0.5,3.1,3.6,2.0,1.1,0.2,2.6,4.0,15.2
296,JaVale McGee\mcgeeja01,C,26,DEN,5,5,79,7.7,17.3,.447,0.0,0.0,,7.7,17.3,.447,0.5,0.5,1.000,4.6,3.2,7.7,0.9,0.5,3.2,3.6,7.3,15.9
297,Ben McLemore\mclembe01,SG,20,SAC,82,55,2187,4.2,11.2,.376,1.6,4.9,.320,2.6,6.3,.419,1.9,2.4,.804,0.9,3.0,3.9,1.3,0.7,0.3,1.6,3.3,11.9
298,Josh McRoberts\mcrobjo01,PF,26,CHA,78,78,2360,3.8,8.6,.436,1.6,4.4,.361,2.2,4.2,.516,0.9,1.3,.729,1.3,4.4,5.7,5.1,0.9,0.7,1.3,2.9,10.1
299,Jodie Meeks\meeksjo01,SG,26,LAL,77,70,2556,5.8,12.6,.463,2.3,5.7,.401,3.5,6.9,.514,3.1,3.6,.857,0.4,2.3,2.7,1.9,1.6,0.1,1.6,1.7,17.0
300,Gal Mekel\mekelga01,PG,25,DAL,31,1,292,3.7,10.6,.349,0.6,2.5,.250,3.1,8.1,.379,1.0,1.5,.667,0.6,2.7,3.3,7.8,0.5,0.1,3.8,3.8,9.0
301,Khris Middleton\middlkh01,SF,22,MIL,82,64,2460,5.5,12.5,.440,1.8,4.2,.414,3.7,8.3,.454,1.7,2.0,.861,0.9,3.7,4.5,2.5,1.2,0.3,1.8,3.6,14.5
302,C.J. Miles\milescj01,SG,26,CLE,51,34,984,6.5,15.0,.435,3.0,7.7,.393,3.5,7.2,.480,2.3,2.7,.853,0.7,3.1,3.8,1.9,1.7,0.5,1.6,3.8,18.4
303,Andre Miller\millean02,SG,37,TOT,58,2,982,3.9,8.5,.459,0.4,0.8,.524,3.5,7.7,.452,2.2,2.8,.779,1.0,3.7,4.8,7.2,1.2,0.3,2.2,2.7,10.4
303,Andre Miller\millean02,SG,37,DEN,30,2,570,4.2,9.1,.458,0.6,1.1,.500,3.6,8.0,.452,2.2,3.0,.745,1.0,3.6,4.6,6.3,0.9,0.4,2.1,2.0,11.1
303,Andre Miller\millean02,SG,37,WAS,28,0,412,3.5,7.6,.460,0.2,0.3,.667,3.3,7.3,.452,2.2,2.6,.833,1.0,3.9,5.0,8.5,1.7,0.2,2.4,3.8,9.3
304,Darius Miller\milleda01,SF,23,NOP,45,7,723,3.6,8.3,.440,1.2,3.8,.325,2.4,4.4,.539,1.4,1.8,.806,0.4,2.1,2.6,2.1,1.2,0.4,1.1,4.4,10.0
305,Mike Miller\millemi01,SF,33,MEM,82,4,1707,4.5,9.3,.481,2.3,4.9,.459,2.2,4.4,.505,1.0,1.2,.821,0.6,3.7,4.4,2.7,0.5,0.1,1.6,2.0,12.2
306,Quincy Miller\millequ01,PF,21,DEN,52,16,789,4.3,11.7,.367,1.4,4.3,.319,2.9,7.4,.395,1.8,2.5,.709,1.6,5.1,6.7,1.2,1.0,1.5,2.2,3.2,11.7
307,Patty Mills\millspa02,PG,25,SAS,81,2,1527,7.3,15.7,.464,3.2,7.5,.425,4.1,8.2,.500,1.7,1.9,.890,0.8,3.2,4.0,3.5,1.6,0.2,1.5,2.7,19.5
308,Paul Millsap\millspa01,PF,28,ATL,74,73,2482,7.0,15.2,.461,1.1,3.1,.358,5.9,12.1,.487,4.1,5.7,.731,2.2,6.9,9.1,3.4,1.9,1.1,2.7,3.0,19.3
309,Tony Mitchell\mitchto02,PF,21,DET,21,0,79,2.3,5.5,.417,0.5,0.5,1.000,1.8,5.0,.364,5.0,8.7,.579,6.8,5.0,11.8,0.9,2.7,1.4,1.8,4.1,10.0
310,Tony Mitchell\mitchto03,SF,24,MIL,3,0,10,10.8,18.0,.600,0.0,3.6,.000,10.8,14.4,.750,0.0,0.0,,3.6,0.0,3.6,3.6,3.6,0.0,0.0,0.0,21.6
311,Nazr Mohammed\mohamna01,C,36,CHI,80,1,562,3.5,8.1,.429,0.0,0.0,,3.5,8.1,.429,1.0,1.9,.533,4.2,7.0,11.2,1.3,0.9,1.9,2.4,4.9,7.9
312,Greg Monroe\monrogr01,PF,23,DET,82,82,2690,6.7,13.6,.497,0.0,0.0,.000,6.7,13.6,.497,3.2,4.9,.657,3.4,6.7,10.2,2.3,1.2,0.6,2.2,2.7,16.7
313,E'Twaun Moore\mooreet01,SG,24,ORL,79,3,1506,4.7,10.9,.428,1.4,3.8,.354,3.3,7.1,.468,1.2,1.6,.765,0.7,2.6,3.3,2.7,1.4,0.3,1.3,2.5,11.9
314,Darius Morris\morrida01,PG,23,TOT,27,0,313,4.5,11.0,.406,1.4,4.4,.316,3.1,6.7,.466,2.0,3.0,.654,0.8,2.2,3.0,5.1,1.5,0.0,3.1,3.8,12.3
314,Darius Morris\morrida01,PG,23,PHI,12,0,193,5.4,12.5,.433,1.9,4.5,.417,3.5,8.0,.442,2.8,3.9,.714,0.6,1.9,2.4,5.8,1.5,0.0,3.5,3.9,15.5
314,Darius Morris\morrida01,PG,23,LAC,10,0,54,2.7,8.7,.308,0.0,4.7,.000,2.7,4.0,.667,0.7,1.3,.500,0.0,3.3,3.3,3.3,1.3,0.0,1.3,6.0,6.0
314,Darius Morris\morrida01,PG,23,MEM,5,0,66,3.3,8.7,.375,1.1,3.8,.286,2.2,4.9,.444,0.5,1.6,.333,2.2,2.2,4.4,4.4,1.6,0.0,3.3,1.6,8.2
315,Marcus Morris\morrima03,SF,24,PHO,82,1,1800,5.8,13.0,.442,2.0,5.2,.381,3.8,7.8,.483,2.4,3.2,.761,1.7,4.7,6.4,1.8,1.4,0.4,1.9,3.1,15.9
316,Markieff Morris\morrima02,PF,24,PHO,81,0,2153,6.9,14.1,.486,0.6,1.8,.315,6.3,12.3,.512,4.3,5.5,.792,2.3,5.8,8.1,2.4,1.1,0.9,2.5,3.9,18.6
317,Anthony Morrow\morroan01,SG,28,NOP,76,9,1426,6.0,13.1,.458,2.2,4.9,.451,3.8,8.2,.462,1.8,2.2,.828,0.7,2.8,3.5,1.5,1.0,0.3,1.3,2.6,16.1
318,Donatas Motiejūnas\motiedo01,PF,23,HOU,62,3,952,5.0,11.2,.443,0.8,3.2,.250,4.2,8.0,.519,2.2,3.6,.604,2.3,6.2,8.5,1.3,0.8,0.8,1.9,5.0,12.9
319,Arnett Moultrie\moultar01,PF,23,PHI,12,2,187,3.1,7.3,.421,0.0,0.0,,3.1,7.3,.421,0.8,1.0,.800,2.1,4.6,6.7,0.4,1.5,0.8,1.3,4.2,6.9
320,Timofey Mozgov\mozgoti01,C,27,DEN,82,30,1770,5.8,11.1,.523,0.1,0.5,.167,5.7,10.6,.539,4.0,5.3,.754,3.5,7.3,10.7,1.3,0.5,2.0,2.5,4.3,15.7
321,Shabazz Muhammad\muhamsh01,SG,21,MIN,37,0,290,7.1,15.4,.460,0.4,1.4,.273,6.7,14.0,.478,3.2,5.0,.650,3.0,3.6,6.6,0.7,1.0,0.1,2.0,3.0,17.8
322,Byron Mullens\mulleby01,C,24,TOT,45,0,414,6.3,14.3,.442,2.9,7.7,.371,3.5,6.6,.526,0.9,1.7,.500,2.1,5.9,8.0,1.2,1.3,1.0,2.3,5.6,16.4
322,Byron Mullens\mulleby01,C,24,LAC,27,0,167,5.6,13.8,.406,2.8,8.4,.333,2.8,5.4,.520,0.4,1.3,.333,1.5,5.4,6.9,1.3,1.3,0.6,2.8,7.1,14.4
322,Byron Mullens\mulleby01,C,24,PHI,18,0,247,6.9,14.7,.465,2.9,7.3,.400,3.9,7.4,.529,1.2,2.0,.571,2.5,6.3,8.7,1.2,1.3,1.2,2.0,4.5,17.8
323,Erik Murphy\murpher01,C,23,CHI,24,0,62,1.7,7.5,.231,0.0,1.7,.000,1.7,5.8,.300,0.0,0.0,,1.2,3.5,4.6,1.2,0.0,2.3,1.2,4.1,3.5
324,Toure' Murry\murryto01,PG,24,NYK,51,0,373,5.4,12.5,.434,0.5,1.2,.417,4.9,11.3,.436,2.2,3.8,.590,1.3,3.0,4.2,4.7,1.8,0.1,3.3,4.4,13.5
325,Mike Muscala\muscami01,PF,22,ATL,20,0,215,5.2,12.2,.425,0.0,0.5,.000,5.2,11.7,.443,2.3,2.3,1.000,2.8,5.9,8.7,1.2,0.5,1.7,2.0,4.9,12.7
326,Hamady N'Diaye\ndiayha01,C,27,SAC,14,0,74,1.5,4.4,.333,0.0,0.0,,1.5,4.4,.333,0.0,0.5,.000,2.4,6.3,8.8,1.5,0.0,1.9,1.5,7.3,2.9
327,Steve Nash*\nashst01,PG,39,LAL,15,10,313,4.1,10.8,.383,0.9,2.8,.333,3.2,8.1,.400,2.5,2.8,.917,0.5,2.9,3.3,9.9,0.8,0.2,3.6,2.1,11.7
328,Gary Neal\nealga01,SG,29,TOT,52,3,1114,6.2,15.2,.410,2.2,5.8,.378,4.0,9.4,.430,3.0,3.4,.895,0.3,2.6,2.9,2.7,0.6,0.0,2.1,2.1,17.7
328,Gary Neal\nealga01,SG,29,MIL,30,2,607,6.4,16.4,.390,2.4,6.6,.360,4.0,9.8,.410,2.7,3.2,.833,0.5,2.5,3.0,2.7,0.4,0.0,2.3,1.5,17.9
328,Gary Neal\nealga01,SG,29,CHA,22,1,507,6.0,13.8,.438,2.0,4.9,.406,4.0,8.9,.456,3.5,3.6,.961,0.1,2.7,2.8,2.6,0.8,0.0,1.8,2.8,17.5
329,Nemanja Nedović\nedovne01,SG,22,GSW,24,0,142,2.0,9.9,.205,0.8,4.6,.167,1.3,5.3,.238,1.8,2.0,.875,0.8,3.0,3.8,3.3,0.0,0.3,3.3,3.3,6.6
330,Jameer Nelson\nelsoja01,PG,31,ORL,68,68,2179,4.9,12.3,.394,2.2,6.5,.348,2.6,5.9,.444,1.6,1.9,.857,0.5,3.3,3.8,7.9,0.9,0.1,2.7,2.4,13.5
331,Andrew Nicholson\nichoan01,PF,24,ORL,76,5,1174,5.5,12.9,.429,0.9,2.7,.315,4.7,10.1,.459,1.4,1.7,.825,1.6,6.2,7.8,0.8,0.6,0.7,1.6,4.6,13.3
332,Joakim Noah\noahjo01,C,28,CHI,80,80,2820,4.9,10.2,.475,0.0,0.0,.000,4.9,10.2,.476,3.2,4.3,.737,3.6,7.9,11.5,5.5,1.3,1.5,2.5,3.1,12.9
333,Steve Novak\novakst01,PF,30,TOR,54,1,540,4.0,9.7,.411,3.5,8.1,.426,0.5,1.6,.333,0.4,0.4,1.000,0.5,3.3,3.9,0.9,0.8,0.3,0.3,2.9,11.9
334,Dirk Nowitzki\nowitdi01,PF,35,DAL,80,80,2628,8.7,17.4,.497,1.8,4.5,.398,6.9,12.9,.532,4.6,5.2,.899,0.5,6.3,6.8,3.0,1.0,0.6,1.6,2.3,23.8
335,James Nunnally\nunnaja01,SF,23,TOT,13,0,165,3.3,10.0,.326,1.7,5.5,.320,1.5,4.6,.333,1.3,2.0,.667,0.2,3.9,4.1,1.7,1.3,0.4,1.5,2.4,9.6
335,James Nunnally\nunnaja01,SF,23,ATL,4,0,54,4.0,12.0,.333,2.0,6.7,.300,2.0,5.3,.375,2.0,2.7,.750,0.7,4.7,5.3,1.3,0.7,0.7,2.7,1.3,12.0
335,James Nunnally\nunnaja01,SF,23,PHI,9,0,111,2.9,9.1,.321,1.6,4.9,.333,1.3,4.2,.308,1.0,1.6,.600,0.0,3.6,3.6,1.9,1.6,0.3,1.0,2.9,8.4
336,Jermaine O'Neal\onealje01,PF,35,GSW,44,13,883,5.1,10.1,.504,0.0,0.0,,5.1,10.1,.504,4.0,5.4,.750,3.5,6.4,9.9,1.0,0.6,1.6,2.1,4.2,14.2
337,Kyle O'Quinn\oquinky01,C,23,ORL,69,19,1188,5.6,11.2,.501,0.0,0.1,.000,5.6,11.2,.505,1.7,2.5,.687,3.0,8.0,11.0,2.4,1.2,2.7,2.4,5.0,13.0
338,Greg Oden\odengr01,C,26,MIA,23,6,212,4.6,8.3,.551,0.0,0.0,,4.6,8.3,.551,2.2,3.9,.565,3.9,5.3,9.2,0.2,1.2,2.2,2.0,8.8,11.4
339,Victor Oladipo\oladivi01,PG,21,ORL,80,44,2487,5.7,13.5,.419,1.1,3.3,.327,4.6,10.3,.448,3.6,4.6,.780,0.6,4.1,4.8,4.7,1.9,0.5,3.7,3.0,16.0
340,Kelly Olynyk\olynyke01,C,22,BOS,70,9,1400,6.0,12.9,.466,1.0,2.9,.351,5.0,10.0,.500,2.5,3.1,.811,3.6,5.8,9.4,2.8,0.9,0.7,2.7,5.8,15.6
341,Arinze Onuaku\onuakar01,PF,26,TOT,5,0,30,1.2,6.0,.200,0.0,0.0,,1.2,6.0,.200,1.2,2.4,.500,2.4,7.2,9.6,3.6,0.0,0.0,1.2,3.6,3.6
341,Arinze Onuaku\onuakar01,PF,26,NOP,3,0,25,1.4,5.8,.250,0.0,0.0,,1.4,5.8,.250,1.4,2.9,.500,2.9,7.2,10.1,4.3,0.0,0.0,1.4,4.3,4.3
341,Arinze Onuaku\onuakar01,PF,26,CLE,2,0,5,0.0,7.2,.000,0.0,0.0,,0.0,7.2,.000,0.0,0.0,,0.0,7.2,7.2,0.0,0.0,0.0,0.0,0.0,0.0
342,Daniel Orton\ortonda01,C,23,PHI,22,4,251,3.0,6.7,.447,0.0,0.0,,3.0,6.7,.447,3.3,4.3,.767,2.3,6.5,8.7,2.2,0.9,2.3,2.6,5.5,9.3
343,Travis Outlaw\outlatr01,SF,29,SAC,63,4,1065,4.4,11.0,.399,1.4,4.0,.350,3.0,7.1,.426,1.4,1.8,.808,1.2,4.5,5.7,1.6,0.7,0.6,0.9,3.2,11.6
344,Zaza Pachulia\pachuza01,C,29,MIL,53,43,1325,4.0,9.5,.427,0.0,0.0,.000,4.0,9.5,.428,3.0,3.5,.846,3.8,5.2,9.0,3.7,1.2,0.4,2.5,3.4,11.1
345,Jannero Pargo\pargoja01,PG,34,CHA,29,0,242,7.7,17.6,.441,3.6,8.9,.400,4.2,8.6,.483,1.2,1.6,.727,0.1,2.8,3.0,7.7,2.1,0.1,3.9,2.5,20.2
346,Tony Parker\parketo01,PG,31,SAS,68,68,1997,8.2,16.5,.499,0.5,1.2,.373,7.8,15.3,.509,3.6,4.4,.811,0.3,2.5,2.8,7.0,0.6,0.2,2.7,1.6,20.4
347,Chandler Parsons\parsoch01,SF,25,HOU,74,74,2783,6.0,12.8,.472,1.7,4.5,.370,4.3,8.2,.528,2.1,2.9,.742,0.9,4.4,5.3,3.9,1.1,0.4,1.9,2.2,15.9
348,Patrick Patterson\pattepa01,PF,24,TOT,65,13,1533,5.3,11.5,.460,1.3,3.5,.364,4.0,7.9,.503,1.2,1.7,.704,2.7,5.3,8.0,1.8,1.3,0.9,1.5,3.7,13.0
348,Patrick Patterson\pattepa01,PF,24,SAC,17,6,415,4.3,10.6,.410,0.8,3.4,.231,3.6,7.2,.494,0.8,1.4,.563,2.9,5.6,8.6,1.3,1.1,0.3,1.4,3.4,10.2
348,Patrick Patterson\pattepa01,PF,24,TOR,48,7,1118,5.6,11.8,.477,1.5,3.6,.411,4.2,8.2,.506,1.3,1.8,.745,2.7,5.2,7.8,2.0,1.4,1.1,1.6,3.9,14.1
349,Chris Paul\paulch01,PG,28,LAC,62,62,2171,6.7,14.4,.467,1.3,3.5,.368,5.4,10.9,.498,4.9,5.7,.855,0.6,3.8,4.4,11.0,2.6,0.1,2.4,2.6,19.6
350,Nikola Peković\pekovni01,C,28,MIN,54,54,1663,8.2,15.2,.541,0.0,0.0,,8.2,15.2,.541,4.0,5.4,.747,4.5,5.7,10.1,1.1,0.6,0.5,1.8,2.8,20.4
351,Kendrick Perkins\perkike01,C,29,OKC,62,62,1207,2.6,5.8,.451,0.0,0.0,.000,2.6,5.7,.453,1.1,2.0,.552,2.4,6.7,9.1,2.0,0.8,1.0,2.7,5.3,6.3
352,Paul Pierce\piercpa01,SF,36,BRK,75,68,2098,5.5,12.2,.451,1.9,5.1,.373,3.6,7.1,.507,4.4,5.3,.826,0.4,5.5,6.0,3.1,1.5,0.5,2.6,3.3,17.3
353,Dexter Pittman\pittmde01,C,25,ATL,2,0,3,0.0,12.0,.000,0.0,0.0,,0.0,12.0,.000,0.0,24.0,.000,36.0,0.0,36.0,0.0,0.0,0.0,0.0,0.0,0.0
354,Mason Plumlee\plumlma01,C,23,BRK,70,22,1275,5.6,8.5,.659,0.0,0.1,.000,5.6,8.4,.666,3.4,5.5,.626,2.8,5.9,8.7,1.7,1.4,1.6,2.2,4.8,14.7
355,Miles Plumlee\plumlmi01,C,25,PHO,80,79,1964,5.2,10.1,.517,0.0,0.0,,5.2,10.1,.517,1.4,2.4,.561,3.6,7.8,11.5,0.8,0.9,1.6,2.0,3.4,11.8
356,Quincy Pondexter\pondequ01,SG,25,MEM,15,2,270,4.1,10.5,.392,1.5,4.5,.324,2.7,6.0,.444,2.8,3.5,.808,1.3,2.1,3.5,2.7,0.7,0.1,2.0,2.4,12.5
357,Otto Porter\porteot01,SF,20,WAS,37,0,319,3.7,10.3,.363,0.5,2.4,.190,3.3,7.9,.414,0.9,1.4,.667,2.4,4.1,6.4,1.1,0.9,0.1,1.6,2.9,8.8
358,Josh Powell\poweljo01,PF,31,HOU,1,0,19,3.8,11.4,.333,0.0,0.0,,3.8,11.4,.333,0.0,0.0,,0.0,9.5,9.5,0.0,0.0,1.9,1.9,1.9,7.6
359,Phil Pressey\pressph01,PG,22,BOS,75,11,1132,2.5,8.0,.308,0.9,3.4,.264,1.6,4.7,.340,0.9,1.4,.644,0.6,2.7,3.3,7.7,2.2,0.2,2.8,3.1,6.8
360,A.J. Price\priceaj01,SG,27,MIN,28,0,99,6.9,16.7,.413,2.2,8.0,.273,4.7,8.7,.542,0.0,0.7,.000,0.4,3.3,3.6,4.7,0.4,0.0,2.5,1.8,16.0
361,Ronnie Price\pricero01,SG,30,ORL,31,2,377,2.7,8.8,.304,0.9,4.1,.209,1.8,4.7,.388,0.9,1.2,.692,0.8,3.3,4.1,6.3,2.4,0.2,2.5,4.8,7.1
362,Pablo Prigioni\prigipa01,PG,36,NYK,66,27,1283,2.5,5.4,.461,1.8,3.9,.464,0.6,1.4,.451,0.3,0.3,.917,1.0,2.6,3.6,6.4,1.9,0.1,1.7,3.7,7.1
363,Tayshaun Prince\princta01,SF,33,MEM,76,76,1948,3.7,9.1,.407,0.4,1.3,.290,3.3,7.8,.426,0.6,1.1,.567,0.6,3.7,4.3,2.2,0.7,0.4,0.8,1.2,8.4
364,Miroslav Raduljica\radulmi01,C,26,MIL,48,2,465,5.3,9.8,.540,0.0,0.0,,5.3,9.8,.540,3.5,4.3,.818,4.2,4.2,8.4,1.8,0.5,1.0,2.2,6.5,14.0
365,Anthony Randolph\randoan01,PF,24,DEN,43,5,527,4.6,12.0,.386,1.2,4.2,.295,3.4,7.9,.435,3.6,4.7,.754,1.4,7.0,8.3,2.2,1.8,1.3,2.7,4.4,14.1
366,Shavlik Randolph\randosh01,PF,30,PHO,14,0,95,2.7,5.3,.500,0.0,0.0,,2.7,5.3,.500,2.3,4.2,.545,2.7,6.8,9.5,0.4,1.1,0.4,1.9,5.7,7.6
367,Zach Randolph\randoza01,PF,32,MEM,79,79,2705,7.5,15.9,.467,0.0,0.3,.100,7.4,15.7,.474,3.3,4.5,.742,3.5,7.1,10.6,2.7,0.7,0.3,2.4,2.8,18.3
368,J.J. Redick\redicjj01,SG,29,LAC,35,34,987,6.6,14.5,.455,2.7,6.7,.395,3.9,7.8,.507,3.5,3.9,.915,0.3,2.4,2.7,2.8,1.0,0.1,1.5,2.4,19.4
369,Glen Rice Jr.\ricegl02,SG,23,WAS,11,1,109,3.6,12.2,.297,1.7,5.6,.294,2.0,6.6,.300,1.7,2.3,.714,1.3,5.3,6.6,2.3,2.0,0.3,3.0,2.3,10.6
370,Luke Ridnour\ridnolu01,PG,32,TOT,61,14,1141,4.0,10.3,.385,1.2,3.4,.343,2.8,6.9,.406,0.5,0.8,.654,0.7,2.3,3.1,5.6,1.0,0.3,2.1,2.9,9.7
370,Luke Ridnour\ridnolu01,PG,32,MIL,36,12,763,4.0,10.3,.384,1.2,3.2,.368,2.8,7.1,.391,0.6,0.9,.684,0.7,2.2,2.9,5.8,1.1,0.1,2.2,2.6,9.7
370,Luke Ridnour\ridnolu01,PG,32,CHA,25,2,378,4.0,10.3,.389,1.1,3.8,.300,2.9,6.5,.441,0.4,0.7,.571,0.8,2.6,3.3,5.1,0.9,0.6,1.9,3.5,9.5
371,Austin Rivers\riverau01,PG,21,NOP,69,4,1339,5.2,12.7,.405,1.0,2.7,.364,4.2,10.1,.416,3.0,4.7,.636,0.7,2.8,3.5,4.3,1.2,0.2,2.1,3.6,14.2
372,Andre Roberson\roberan03,SG,22,OKC,40,16,399,3.0,6.1,.485,0.2,1.2,.154,2.8,5.0,.564,0.6,0.9,.700,3.2,5.2,8.5,1.4,1.7,0.9,1.7,6.7,6.8
373,Brian Roberts\roberbr01,PG,28,NOP,72,42,1667,5.3,12.5,.420,1.4,3.8,.360,3.9,8.7,.447,2.7,2.9,.940,0.4,2.6,2.9,5.1,0.9,0.2,2.1,2.9,14.6
374,Nate Robinson\robinna01,PG,29,DEN,44,1,866,6.8,15.9,.428,2.4,6.4,.377,4.4,9.5,.463,3.0,3.5,.835,0.9,2.5,3.4,4.7,1.5,0.2,2.4,3.8,19.0
375,Thomas Robinson\robinth01,PF,22,POR,70,0,873,5.8,12.1,.481,0.0,0.0,.000,5.8,12.0,.483,2.4,4.2,.564,4.3,8.3,12.7,1.4,0.9,0.8,2.4,5.4,14.0
376,Rajon Rondo\rondora01,PG,27,BOS,30,30,998,5.1,12.6,.403,0.9,3.2,.289,4.1,9.4,.442,1.5,2.4,.627,0.8,5.1,5.9,10.6,1.4,0.1,3.6,2.3,12.6
377,Derrick Rose\rosede01,PG,25,CHI,10,10,311,6.7,19.0,.354,1.9,5.4,.340,4.9,13.5,.359,3.1,3.7,.844,1.0,2.7,3.7,5.0,0.6,0.1,3.9,1.7,18.4
378,Terrence Ross\rosste01,SG,22,TOR,81,62,2159,5.3,12.5,.423,2.7,6.8,.395,2.6,5.7,.458,1.4,1.6,.837,0.7,3.5,4.2,1.3,1.1,0.5,1.5,3.1,14.7
379,Ricky Rubio\rubiori01,PG,23,MIN,82,82,2638,3.5,9.1,.381,0.6,1.8,.331,2.9,7.3,.393,3.1,3.9,.802,0.8,3.8,4.7,9.6,2.6,0.2,3.0,3.0,10.7
380,Brandon Rush\rushbr01,SG,28,UTA,38,0,418,2.6,7.8,.333,1.4,4.0,.340,1.2,3.7,.326,0.3,0.4,.600,0.4,3.4,3.8,2.1,0.4,0.8,1.7,2.7,6.8
381,Robert Sacre\sacrero01,C,24,LAL,65,13,1089,4.7,9.9,.477,0.0,0.0,,4.7,9.9,.477,2.1,3.1,.681,2.7,5.7,8.4,1.7,0.8,1.6,1.5,4.4,11.6
382,John Salmons\salmojo01,SG-SF,34,TOT,78,8,1726,3.1,8.6,.363,1.3,3.4,.387,1.8,5.2,.348,0.8,1.1,.769,0.4,3.0,3.4,3.1,1.0,0.4,1.1,2.6,8.4
382,John Salmons\salmojo01,SF,34,SAC,18,8,445,3.3,9.5,.350,1.3,3.4,.381,2.0,6.1,.333,0.6,0.6,1.000,0.6,3.1,3.7,3.6,1.0,0.6,1.1,2.6,8.5
382,John Salmons\salmojo01,SG,34,TOR,60,0,1281,3.1,8.3,.368,1.3,3.4,.388,1.7,4.9,.354,0.9,1.3,.733,0.3,3.0,3.3,2.9,1.0,0.3,1.1,2.6,8.4
383,Larry Sanders\sandela01,C,25,MIL,23,20,584,4.7,10.0,.469,0.0,0.1,.000,4.7,9.9,.472,1.6,3.4,.473,3.7,6.5,10.2,1.2,1.1,2.5,1.6,4.6,11.0
384,Dennis Schröder\schrode01,PG,20,ATL,49,0,641,4.0,10.6,.383,0.6,2.4,.238,3.5,8.2,.425,1.6,2.4,.674,0.3,3.1,3.4,5.2,1.0,0.0,3.4,3.0,10.3
385,Luis Scola\scolalu01,PF,33,IND,82,2,1399,6.8,14.4,.470,0.0,0.2,.143,6.7,14.2,.474,2.5,3.5,.728,2.2,7.8,10.1,2.1,0.7,0.4,2.8,4.2,16.1
386,Mike Scott\scottmi01,PF,25,ATL,80,6,1482,7.3,15.3,.479,1.5,4.9,.310,5.8,10.4,.558,2.5,3.2,.780,1.5,5.4,6.9,1.8,0.7,0.2,1.9,2.9,18.6
387,Thabo Sefolosha\sefolth01,SG,29,OKC,61,61,1584,3.2,7.7,.415,1.1,3.5,.316,2.1,4.3,.495,1.2,1.6,.768,1.1,3.9,5.0,2.1,1.8,0.4,1.2,2.0,8.7
388,Kevin Séraphin\serapke01,C,24,WAS,53,1,578,6.9,13.7,.505,0.0,0.0,,6.9,13.7,.505,1.7,1.9,.871,3.3,4.7,8.0,1.1,0.2,1.6,2.6,6.4,15.5
389,Ramon Sessions\sessira01,PG,27,TOT,83,19,2214,5.4,12.5,.429,0.6,2.0,.282,4.8,10.5,.457,5.3,6.6,.807,0.6,2.7,3.3,5.5,0.8,0.1,2.4,1.5,16.6
389,Ramon Sessions\sessira01,PG,27,CHA,55,7,1305,5.2,12.8,.409,0.4,1.9,.221,4.8,11.0,.441,5.0,6.5,.782,0.6,2.6,3.2,5.7,0.9,0.2,2.6,1.4,15.9
389,Ramon Sessions\sessira01,PG,27,MIL,28,12,909,5.5,12.0,.461,0.8,2.2,.357,4.8,9.8,.484,5.7,6.7,.841,0.6,2.8,3.4,5.3,0.6,0.1,2.2,1.6,17.5
390,Mustafa Shakur\shakumu01,PG,29,OKC,3,0,11,0.0,9.8,.000,0.0,3.3,.000,0.0,6.5,.000,3.3,6.5,.500,0.0,0.0,0.0,13.1,0.0,0.0,6.5,6.5,3.3
391,Tornike Shengelia\shengto01,SF,22,TOT,26,0,154,3.0,6.5,.464,0.0,1.4,.000,3.0,5.1,.591,0.7,1.9,.375,0.9,2.8,3.7,3.3,0.7,0.2,2.8,4.2,6.8
391,Tornike Shengelia\shengto01,SF,22,BRK,17,0,137,2.9,6.3,.458,0.0,1.6,.000,2.9,4.7,.611,0.8,2.1,.375,1.1,2.6,3.7,3.2,0.5,0.3,2.9,4.2,6.6
391,Tornike Shengelia\shengto01,SF,22,CHI,9,0,17,4.2,8.5,.500,0.0,0.0,,4.2,8.5,.500,0.0,0.0,,0.0,4.2,4.2,4.2,2.1,0.0,2.1,4.2,8.5
392,Iman Shumpert\shumpim01,SG,23,NYK,74,58,1962,3.4,8.9,.378,1.4,4.2,.333,2.0,4.7,.418,1.0,1.3,.746,1.5,4.2,5.7,2.4,1.7,0.2,1.4,3.8,9.1
393,Alexey Shved\shvedal01,SG,25,MIN,63,0,664,4.1,12.8,.321,1.6,5.5,.294,2.5,7.3,.341,3.7,4.9,.756,1.1,3.3,4.4,3.7,1.4,0.9,2.6,2.0,13.6
394,Henry Sims\simshe01,C,23,TOT,46,25,875,5.3,11.3,.474,0.0,0.0,.000,5.3,11.2,.476,3.7,5.0,.744,4.3,5.5,9.8,2.1,1.2,0.8,1.7,4.8,14.4
394,Henry Sims\simshe01,C,23,CLE,20,0,168,3.9,9.6,.400,0.0,0.0,,3.9,9.6,.400,1.7,3.0,.571,4.7,7.3,12.0,1.1,1.1,1.5,1.7,6.9,9.4
394,Henry Sims\simshe01,C,23,PHI,26,25,707,5.7,11.7,.489,0.0,0.1,.000,5.7,11.6,.491,4.2,5.4,.766,4.2,5.0,9.2,2.4,1.2,0.7,1.7,4.3,15.6
395,Kyle Singler\singlky01,SF,25,DET,82,36,2337,4.1,9.3,.447,1.4,3.8,.382,2.7,5.5,.492,2.3,2.8,.826,1.8,2.9,4.7,1.2,0.9,0.6,1.2,3.3,12.1
396,Chris Singleton\singlch01,SF,24,WAS,25,0,250,3.6,9.6,.373,1.0,2.7,.368,2.6,6.9,.375,2.6,3.6,.720,2.6,5.3,7.9,0.9,1.3,0.4,2.4,3.6,10.8
397,Peyton Siva\sivape01,SG,23,DET,24,0,224,2.9,9.2,.316,1.1,4.0,.280,1.8,5.1,.344,1.8,2.4,.733,0.3,1.9,2.3,5.5,1.4,0.2,2.9,4.3,8.7
398,Donald Sloan\sloando01,SG,26,IND,48,1,392,4.0,10.7,.376,0.9,3.9,.238,3.1,6.9,.453,1.1,1.8,.600,0.4,3.7,4.0,4.6,0.9,0.1,2.0,1.7,10.1
399,Chris Smith\smithch05,PG,26,NYK,2,0,2,0.0,0.0,,0.0,0.0,,0.0,0.0,,0.0,0.0,,0.0,0.0,0.0,0.0,0.0,0.0,0.0,0.0,0.0
400,Greg Smith\smithgr02,C,23,HOU,11,0,100,6.5,10.1,.643,0.0,0.0,,6.5,10.1,.643,0.7,1.8,.400,4.0,5.8,9.7,0.0,0.4,0.7,1.8,6.1,13.7
401,Ish Smith\smithis01,PG,25,PHO,70,1,1006,4.3,10.1,.423,0.0,0.8,.043,4.2,9.2,.457,0.8,1.4,.564,1.1,3.5,4.6,6.4,1.8,0.5,2.3,2.4,9.3
402,J.R. Smith\smithjr01,SF,28,NYK,74,37,2421,5.9,14.2,.415,2.8,7.1,.394,3.1,7.1,.436,1.3,2.1,.652,0.5,3.9,4.4,3.3,1.0,0.3,1.6,2.9,15.9
403,Jason Smith\smithja02,PF,27,NOP,31,27,830,5.7,12.2,.465,0.0,0.0,,5.7,12.2,.465,1.7,2.2,.780,2.2,5.6,7.9,1.3,0.5,1.3,1.2,4.3,13.1
404,Josh Smith\smithjo03,SF,28,DET,77,76,2730,6.8,16.3,.419,0.9,3.5,.264,5.9,12.8,.462,2.1,4.0,.532,1.3,5.5,6.9,3.3,1.4,1.5,2.6,2.6,16.7
405,Tony Snell\snellto01,SG,22,CHI,77,12,1231,3.8,9.8,.384,1.7,5.2,.320,2.1,4.6,.456,0.9,1.2,.756,0.6,3.1,3.6,2.0,0.8,0.4,1.3,2.5,10.1
406,James Southerland\southja01,SF,23,TOT,4,0,30,6.0,18.0,.333,3.6,7.2,.500,2.4,10.8,.222,1.2,2.4,.500,0.0,9.6,9.6,0.0,1.2,2.4,1.2,3.6,16.8
406,James Southerland\southja01,SF,23,CHA,1,0,3,0.0,36.0,.000,0.0,12.0,.000,0.0,24.0,.000,0.0,0.0,,0.0,0.0,0.0,0.0,0.0,0.0,0.0,0.0,0.0
406,James Southerland\southja01,SF,23,NOP,3,0,27,6.7,16.0,.417,4.0,6.7,.600,2.7,9.3,.286,1.3,2.7,.500,0.0,10.7,10.7,0.0,1.3,2.7,1.3,4.0,18.7
407,Marreese Speights\speigma01,C,26,GSW,79,3,982,7.1,16.2,.441,0.3,1.1,.258,6.9,15.1,.455,4.0,4.9,.821,3.7,6.9,10.6,1.2,0.4,1.2,2.4,5.4,18.6
408,Tiago Splitter\splitti01,C,29,SAS,59,50,1271,5.1,9.8,.523,0.0,0.1,.000,5.1,9.7,.528,3.4,4.9,.699,3.5,6.8,10.3,2.5,0.8,0.9,2.1,3.3,13.7
409,D.J. Stephens\stephdj01,SG,23,MIL,3,0,15,7.2,16.8,.429,0.0,0.0,,7.2,16.8,.429,2.4,2.4,1.000,2.4,9.6,12.0,0.0,0.0,0.0,0.0,0.0,16.8
410,Lance Stephenson\stephla01,SG,23,IND,78,78,2752,5.6,11.4,.491,1.1,3.2,.352,4.5,8.2,.545,1.8,2.6,.711,1.2,6.1,7.3,4.7,0.7,0.1,2.7,2.6,14.1
411,Greg Stiemsma\stiemgr01,C,28,NOP,55,20,1007,2.5,4.4,.574,0.0,0.0,.000,2.5,4.3,.579,0.7,1.1,.594,2.6,5.5,8.1,1.3,1.3,2.0,1.6,6.0,5.7
412,Julyan Stone\stoneju01,SG,25,TOR,21,0,120,2.1,5.1,.412,0.6,2.4,.250,1.5,2.7,.556,0.6,0.9,.667,0.6,5.4,6.0,3.6,0.9,0.0,1.5,3.9,5.4
413,Amar'e Stoudemire\stoudam01,C,31,NYK,65,21,1466,7.6,13.7,.557,0.0,0.0,,7.6,13.7,.557,3.7,5.0,.739,2.8,5.1,7.9,0.8,0.6,0.9,2.2,3.9,19.0
414,Rodney Stuckey\stuckro01,SG,27,DET,73,5,1950,6.9,15.7,.436,0.4,1.6,.273,6.4,14.1,.455,4.5,5.4,.836,0.7,2.4,3.1,2.8,1.0,0.2,2.3,2.4,18.7
415,Jared Sullinger\sullija01,PF,21,BOS,74,44,2041,6.8,15.9,.427,1.0,3.7,.269,5.8,12.2,.475,2.8,3.6,.778,4.3,6.3,10.6,2.1,0.6,0.9,2.1,4.4,17.3
416,Jeff Taylor\tayloje03,SF,24,CHA,26,8,629,4.7,12.5,.376,1.0,3.8,.269,3.7,8.6,.424,1.5,2.7,.553,0.9,2.6,3.4,1.3,0.7,0.3,1.4,3.5,11.9
417,Tyshawn Taylor\tayloty01,PG,23,BRK,23,3,270,4.1,12.1,.341,0.4,1.6,.250,3.7,10.5,.354,3.2,4.0,.800,0.4,1.6,2.0,4.8,1.6,0.1,4.1,3.9,11.9
418,Jeff Teague\teaguje01,PG,25,ATL,79,79,2542,6.5,14.7,.438,1.0,3.2,.329,5.4,11.5,.469,4.5,5.3,.846,0.5,2.5,2.9,7.5,1.3,0.2,3.3,2.2,18.5
419,Marquis Teague\teaguma01,SG,20,TOT,40,3,443,3.1,9.7,.319,0.4,1.5,.278,2.7,8.2,.327,2.1,2.8,.743,0.1,3.2,3.3,4.7,0.8,0.4,3.2,3.7,8.7
419,Marquis Teague\teaguma01,SG,20,CHI,19,2,242,2.4,9.8,.242,0.3,1.5,.200,2.1,8.3,.250,1.6,2.4,.688,0.1,2.7,2.8,4.2,0.3,0.6,2.5,3.7,6.7
419,Marquis Teague\teaguma01,SG,20,BRK,21,1,201,3.9,9.5,.415,0.5,1.4,.375,3.4,8.1,.422,2.7,3.4,.789,0.0,3.8,3.8,5.4,1.4,0.2,3.9,3.8,11.1
420,Mirza Teletović\teletmi01,SF,28,BRK,72,7,1396,5.7,13.6,.418,3.5,9.0,.390,2.2,4.6,.472,1.1,1.6,.710,1.5,5.3,6.9,1.5,0.7,0.6,1.4,3.7,16.0
421,Garrett Temple\templga01,SG,27,WAS,75,0,638,2.9,8.0,.362,0.3,1.6,.207,2.5,6.3,.402,1.7,2.4,.698,1.2,2.7,3.8,4.1,2.0,0.6,2.4,4.1,7.8
422,Jason Terry\terryja01,PG,36,BRK,35,0,570,3.5,9.6,.362,2.5,6.5,.379,1.0,3.1,.327,0.6,0.9,.667,0.3,2.1,2.3,3.5,0.8,0.0,1.7,3.0,10.0
423,Hasheem Thabeet\thabeha01,C,26,OKC,23,0,192,2.4,4.3,.565,0.0,0.0,,2.4,4.3,.565,0.2,0.9,.200,1.7,5.8,7.5,0.2,0.7,1.7,2.6,8.8,5.1
424,Adonis Thomas\thomaad01,SF,20,TOT,6,1,37,5.8,13.6,.429,1.0,4.9,.200,4.9,8.8,.556,1.0,1.0,1.000,0.0,2.9,2.9,2.9,0.0,0.0,1.0,5.8,13.6
424,Adonis Thomas\thomaad01,SF,20,ORL,4,0,24,4.5,13.5,.333,0.0,4.5,.000,4.5,9.0,.500,1.5,1.5,1.000,0.0,4.5,4.5,3.0,0.0,0.0,0.0,3.0,10.5
424,Adonis Thomas\thomaad01,SF,20,PHI,2,1,13,8.3,13.8,.600,2.8,5.5,.500,5.5,8.3,.667,0.0,0.0,,0.0,0.0,0.0,2.8,0.0,0.0,2.8,11.1,19.4
425,Isaiah Thomas\thomais02,PG,24,SAC,72,54,2497,7.2,15.8,.453,1.8,5.2,.349,5.3,10.6,.504,5.0,5.9,.850,0.7,2.4,3.0,6.5,1.3,0.1,3.1,2.7,21.1
426,Lance Thomas\thomala01,SF,25,NOP,5,0,42,1.7,7.7,.222,0.0,0.0,,1.7,7.7,.222,1.7,3.4,.500,1.7,4.3,6.0,2.6,0.0,0.0,1.7,3.4,5.1
427,Malcolm Thomas\thomama01,PF,25,TOT,8,0,63,4.0,9.1,.438,0.6,2.3,.250,3.4,6.9,.500,0.0,1.1,.000,2.9,9.1,12.0,1.1,0.0,1.7,5.1,2.9,8.6
427,Malcolm Thomas\thomama01,PF,25,SAS,1,0,15,2.4,9.6,.250,0.0,0.0,,2.4,9.6,.250,0.0,4.8,.000,2.4,19.2,21.6,0.0,0.0,4.8,2.4,0.0,4.8
427,Malcolm Thomas\thomama01,PF,25,UTA,7,0,48,4.5,9.0,.500,0.7,3.0,.250,3.7,6.0,.625,0.0,0.0,,3.0,6.0,9.0,1.5,0.0,0.7,6.0,3.7,9.7
428,Hollis Thompson\thompho01,SF,22,PHI,77,41,1742,3.5,7.7,.460,1.4,3.5,.401,2.1,4.2,.507,1.1,1.5,.712,1.5,3.6,5.1,1.5,1.1,0.2,1.2,3.0,9.5
429,Jason Thompson\thompja02,PF,27,SAC,82,61,2007,4.5,8.9,.506,0.0,0.0,,4.5,8.9,.506,1.5,2.6,.579,2.7,6.7,9.5,1.0,0.6,1.0,1.7,4.5,10.5
430,Klay Thompson\thompkl01,SG,23,GSW,81,81,2868,7.0,15.8,.444,2.8,6.7,.417,4.2,9.1,.464,1.8,2.3,.795,0.5,2.6,3.1,2.3,0.9,0.5,1.7,2.9,18.7
431,Tristan Thompson\thomptr01,PF,22,CLE,82,82,2594,5.0,10.6,.477,0.0,0.0,.000,5.0,10.5,.478,3.3,4.7,.693,3.7,6.7,10.5,1.0,0.6,0.5,1.5,2.6,13.3
432,Marcus Thornton\thornma01,SG,26,TOT,72,27,1741,5.2,13.2,.394,2.3,6.5,.345,3.0,6.7,.443,1.9,2.3,.804,1.2,2.9,4.1,1.6,1.2,0.2,1.4,2.3,14.5
432,Marcus Thornton\thornma01,SG,26,SAC,46,26,1121,4.6,12.0,.381,1.8,5.7,.318,2.7,6.2,.438,1.3,1.7,.808,1.3,2.7,4.0,1.5,1.0,0.3,1.2,2.4,12.3
432,Marcus Thornton\thornma01,SG,26,BRK,26,1,620,6.4,15.4,.414,3.0,8.0,.380,3.4,7.5,.450,2.8,3.5,.800,1.0,3.3,4.3,1.7,1.6,0.2,1.7,2.1,18.6
433,Jamaal Tinsley\tinslja01,PG,35,UTA,8,5,110,1.3,6.5,.200,0.3,4.9,.067,1.0,1.6,.600,0.0,0.0,,0.7,2.9,3.6,7.5,0.7,0.0,2.9,3.3,2.9
434,Anthony Tolliver\tollian01,PF,28,CHA,64,9,1298,3.6,8.5,.420,2.8,6.9,.413,0.7,1.7,.450,0.9,1.1,.805,0.9,3.7,4.7,1.2,0.5,0.4,0.6,2.3,10.9
435,P.J. Tucker\tuckepj01,SF,28,PHO,81,81,2490,3.8,8.9,.431,1.1,2.8,.387,2.8,6.1,.450,2.3,2.9,.776,2.3,5.3,7.6,2.0,1.6,0.3,1.5,2.9,11.0
436,Ronny Turiaf\turiaro01,C,31,MIN,31,10,606,3.8,6.4,.598,0.0,0.0,,3.8,6.4,.598,1.2,3.0,.420,3.3,7.1,10.3,1.4,0.5,3.0,1.4,3.9,8.9
437,Hedo Türkoğlu\turkohe01,SF,34,LAC,38,0,392,3.9,10.0,.385,2.0,4.6,.440,1.8,5.4,.339,0.8,1.7,.500,1.0,7.2,8.2,3.0,1.7,0.9,1.5,4.6,10.6
438,Evan Turner\turneev01,SF,25,TOT,81,56,2457,6.4,15.0,.425,0.7,2.3,.321,5.6,12.7,.444,3.1,3.8,.813,0.9,5.1,6.0,3.8,1.0,0.1,2.8,2.9,16.6
438,Evan Turner\turneev01,SF,25,PHI,54,54,1886,6.8,15.9,.428,0.7,2.5,.288,6.1,13.3,.455,3.6,4.4,.829,1.0,5.2,6.1,3.8,1.1,0.1,3.0,2.8,17.9
438,Evan Turner\turneev01,SF,25,IND,27,2,571,4.9,12.0,.411,0.8,1.5,.500,4.2,10.5,.398,1.5,2.1,.706,0.8,4.7,5.4,4.0,0.7,0.1,2.1,3.0,12.1
439,Jeremy Tyler\tylerje01,C,22,NYK,41,0,398,5.4,10.5,.517,0.0,0.0,,5.4,10.5,.517,2.4,4.3,.542,3.4,6.4,9.9,0.7,0.5,1.8,2.4,6.3,13.2
440,Ekpe Udoh\udohek01,PF,26,MIL,42,14,804,2.6,6.4,.399,0.0,0.0,,2.6,6.4,.399,1.3,2.1,.638,2.7,3.9,6.6,1.4,0.7,2.0,1.7,4.3,6.4
441,Beno Udrih\udrihbe01,SG,31,TOT,41,12,643,4.4,10.0,.438,1.1,2.4,.452,3.3,7.6,.434,1.4,1.7,.833,0.6,2.7,3.3,6.5,1.3,0.2,2.6,2.8,11.2
441,Beno Udrih\udrihbe01,SG,31,NYK,31,12,588,4.2,9.8,.425,1.0,2.4,.425,3.1,7.3,.425,1.2,1.5,.833,0.6,2.9,3.5,6.7,1.3,0.2,2.6,2.8,10.6
441,Beno Udrih\udrihbe01,SG,31,MEM,10,0,55,6.5,11.8,.556,1.3,1.3,1.000,5.2,10.5,.500,3.3,3.9,.833,0.0,1.3,1.3,3.9,0.7,0.7,3.3,2.6,17.7
442,Jonas Valančiūnas\valanjo01,C,21,TOR,81,81,2282,5.7,10.7,.531,0.0,0.0,.000,5.7,10.6,.532,3.1,4.1,.762,3.6,7.7,11.3,0.9,0.4,1.1,2.1,3.9,14.5
443,Anderson Varejão\varejan01,C,31,CLE,65,29,1800,4.5,9.2,.495,0.0,0.1,.000,4.5,9.0,.502,1.8,2.7,.681,3.7,8.8,12.6,2.8,1.4,0.8,1.4,3.3,10.9
444,Jarvis Varnado\varnaja01,PF,25,TOT,24,0,339,3.8,6.4,.600,0.0,0.0,,3.8,6.4,.600,2.9,5.5,.519,2.0,4.7,6.7,1.4,1.1,3.1,1.1,6.6,10.5
444,Jarvis Varnado\varnaja01,PF,25,CHI,1,0,2,0.0,0.0,,0.0,0.0,,0.0,0.0,,0.0,0.0,,0.0,0.0,0.0,0.0,0.0,0.0,0.0,18.0,0.0
444,Jarvis Varnado\varnaja01,PF,25,PHI,23,0,337,3.8,6.4,.600,0.0,0.0,,3.8,6.4,.600,2.9,5.6,.519,2.0,4.7,6.7,1.4,1.1,3.1,1.1,6.5,10.6
445,Greivis Vásquez\vasqugr01,PG,27,TOT,79,23,1779,5.6,13.3,.421,2.2,5.8,.377,3.4,7.5,.455,1.9,2.2,.880,0.4,3.1,3.5,6.5,0.6,0.1,2.6,2.9,15.3
445,Greivis Vásquez\vasqugr01,PG,27,SAC,18,18,465,5.0,11.6,.433,1.2,3.9,.320,3.8,7.7,.490,2.3,2.5,.938,0.4,2.2,2.6,7.4,0.5,0.1,2.1,2.9,13.6
445,Greivis Vásquez\vasqugr01,PG,27,TOR,61,5,1314,5.8,13.9,.417,2.5,6.5,.389,3.3,7.4,.442,1.8,2.1,.855,0.4,3.4,3.8,6.2,0.7,0.1,2.8,2.9,15.9
446,Jan Veselý\veselja01,PF,23,TOT,54,1,776,4.1,8.0,.514,0.0,0.0,,4.1,8.0,.514,0.9,2.6,.339,3.8,5.1,8.9,1.0,2.5,1.6,1.7,5.6,9.1
446,Jan Veselý\veselja01,PF,23,WAS,33,1,470,3.7,7.0,.522,0.0,0.0,,3.7,7.0,.522,0.6,2.3,.267,4.1,4.6,8.7,0.8,2.0,1.5,1.7,4.9,8.0
446,Jan Veselý\veselja01,PF,23,DEN,21,0,306,4.8,9.5,.506,0.0,0.0,,4.8,9.5,.506,1.3,3.1,.423,3.3,5.9,9.2,1.3,3.2,1.9,1.6,6.7,10.9
447,Charlie Villanueva\villach01,PF,29,DET,20,0,180,7.0,18.4,.380,2.8,11.2,.250,4.2,7.2,.583,1.6,2.8,.571,1.2,5.6,6.8,1.2,0.8,1.0,1.4,3.2,18.4
448,Nikola Vučević\vucevni01,C,23,ORL,57,57,1812,7.0,13.8,.507,0.0,0.0,,7.0,13.8,.507,2.1,2.7,.766,3.7,8.8,12.4,2.1,1.2,0.9,2.2,3.4,16.1
449,Sasha Vujačić\vujacsa01,SG,29,LAC,2,0,10,7.2,18.0,.400,3.6,7.2,.500,3.6,10.8,.333,0.0,0.0,,0.0,10.8,10.8,0.0,3.6,0.0,10.8,3.6,18.0
450,Dwyane Wade\wadedw01,SG,32,MIA,54,53,1775,8.4,15.4,.545,0.2,0.6,.281,8.2,14.8,.557,3.8,5.2,.733,1.2,3.7,4.9,5.1,1.6,0.6,3.3,2.1,20.8
451,Dion Waiters\waitedi01,SG,22,CLE,70,24,2072,7.5,17.3,.433,1.6,4.3,.368,5.9,12.9,.455,2.8,4.1,.685,0.6,2.8,3.4,3.6,1.1,0.3,2.7,2.7,19.3
452,Kemba Walker\walkeke02,PG,23,CHA,73,73,2614,6.2,15.7,.393,1.5,4.5,.333,4.7,11.2,.417,3.9,4.6,.837,0.5,3.7,4.2,6.2,1.2,0.4,2.3,1.8,17.8
453,John Wall\walljo01,PG,23,WAS,82,82,2980,7.0,16.2,.433,1.3,3.7,.351,5.7,12.4,.458,3.8,4.8,.805,0.5,3.6,4.0,8.7,1.8,0.5,3.6,2.6,19.1
454,Gerald Wallace\wallage01,SF,31,BOS,58,16,1416,2.9,5.8,.504,0.5,1.6,.297,2.5,4.2,.584,1.2,2.6,.465,0.9,4.5,5.4,3.6,1.9,0.4,2.5,2.0,7.6
455,Casper Ware\wareca01,PG,24,PHI,9,0,116,5.6,13.0,.429,2.2,6.5,.333,3.4,6.5,.524,1.6,1.9,.833,0.0,2.8,2.8,3.1,2.5,0.0,1.6,3.4,14.9
456,C.J. Watson\watsocj01,PG,29,IND,63,5,1193,4.4,10.1,.437,1.6,4.4,.366,2.8,5.7,.492,2.1,2.7,.784,0.6,2.5,3.0,3.2,1.8,0.2,1.8,2.0,12.5
457,Earl Watson\watsoea01,PG,34,POR,24,0,161,0.7,2.5,.273,0.4,1.6,.286,0.2,0.9,.250,0.9,0.9,1.000,1.1,2.2,3.4,6.3,1.1,0.2,3.8,7.4,2.7
458,Maalik Wayns\waynsma01,PG,22,LAC,2,0,9,4.0,8.0,.500,0.0,0.0,,4.0,8.0,.500,0.0,0.0,,0.0,8.0,8.0,8.0,8.0,0.0,0.0,16.0,8.0
459,Martell Webster\webstma02,SF,27,WAS,78,13,2157,4.2,9.8,.433,2.4,6.2,.392,1.8,3.6,.502,1.8,2.1,.840,0.6,3.1,3.7,1.6,0.7,0.3,1.0,2.5,12.7
460,David West\westda01,PF,33,IND,80,80,2472,6.7,13.7,.488,0.1,0.2,.267,6.6,13.5,.491,2.9,3.7,.789,1.7,6.1,7.9,3.2,0.9,1.1,1.9,2.7,16.3
461,Russell Westbrook\westbru01,PG,25,OKC,46,46,1412,8.8,20.2,.437,1.7,5.5,.318,7.1,14.7,.482,6.2,7.5,.826,1.4,5.3,6.7,8.1,2.2,0.2,4.5,2.7,25.5
462,D.J. White\whitedj01,PF,27,CHA,2,0,10,0.0,3.6,.000,0.0,0.0,,0.0,3.6,.000,0.0,0.0,,0.0,7.2,7.2,0.0,3.6,0.0,0.0,3.6,0.0
463,Royce White\whitero03,PF,22,SAC,3,0,9,0.0,4.0,.000,0.0,0.0,,0.0,4.0,.000,0.0,0.0,,0.0,0.0,0.0,0.0,0.0,0.0,0.0,8.0,0.0
464,Deron Williams\willide01,PG,29,BRK,64,58,2059,5.6,12.5,.450,1.7,4.7,.366,3.9,7.8,.500,3.0,3.8,.801,0.3,2.7,2.9,6.9,1.6,0.2,2.5,2.6,16.0
465,Derrick Williams\willide02,SF-PF,22,TOT,78,15,1820,4.1,9.5,.427,0.5,2.0,.263,3.6,7.6,.470,3.7,5.1,.718,1.4,5.0,6.4,1.1,0.9,0.4,1.5,2.3,12.3
465,Derrick Williams\willide02,PF,22,MIN,11,0,162,4.2,12.0,.352,0.4,3.3,.133,3.8,8.7,.436,3.1,3.6,.875,0.7,5.1,5.8,0.2,0.9,0.9,1.3,2.0,12.0
465,Derrick Williams\willide02,SF,22,SAC,67,15,1658,4.1,9.3,.437,0.5,1.8,.286,3.5,7.5,.474,3.7,5.3,.708,1.5,5.0,6.4,1.2,1.0,0.3,1.5,2.3,12.4
466,Elliot Williams\williel01,SG,24,PHI,67,2,1157,4.4,10.5,.415,1.2,3.9,.296,3.2,6.6,.486,2.7,3.7,.731,0.9,3.1,4.0,2.2,1.1,0.1,2.1,3.9,12.6
467,Lou Williams\willilo02,PG,27,ATL,60,7,1445,4.9,12.3,.400,2.0,5.8,.342,2.9,6.5,.450,3.8,4.5,.849,0.2,2.8,3.1,5.2,1.1,0.1,2.3,1.6,15.6
468,Marvin Williams\willima02,PF,27,UTA,66,50,1674,5.0,11.3,.439,1.8,5.0,.359,3.2,6.3,.503,1.2,1.6,.781,1.8,5.4,7.2,1.7,1.2,0.7,1.1,3.2,13.0
469,Mo Williams\willima01,PG,31,POR,74,0,1834,5.5,13.2,.417,1.6,4.4,.369,3.9,8.8,.441,1.5,1.7,.876,0.8,2.2,3.0,6.3,1.1,0.2,2.9,3.9,14.2
470,Reggie Williams\willire02,SF,27,OKC,3,0,17,10.6,19.1,.556,2.1,6.4,.333,8.5,12.7,.667,0.0,0.0,,0.0,0.0,0.0,2.1,2.1,0.0,4.2,2.1,23.3
471,Shawne Williams\willish03,PF,27,LAL,36,13,751,3.5,9.2,.380,2.0,6.2,.326,1.5,3.0,.492,0.7,1.0,.700,1.2,6.8,8.0,1.4,0.9,1.4,1.0,4.5,9.7
472,Jeff Withey\witheje01,C,23,NOP,58,4,684,3.6,6.8,.535,0.0,0.1,.000,3.6,6.7,.539,2.7,3.8,.712,2.6,5.3,7.9,1.4,0.8,2.6,1.1,3.8,10.0
473,Nate Wolters\woltena01,PG,22,MIL,58,31,1309,4.7,10.7,.437,0.5,1.7,.290,4.2,9.0,.465,1.6,2.5,.656,0.9,3.2,4.1,5.1,1.0,0.4,1.6,1.8,11.5
474,Metta World Peace\artesro01,SF,34,NYK,29,1,388,5.2,13.1,.397,1.6,5.0,.315,3.6,8.1,.448,0.9,1.5,.625,1.7,3.8,5.5,1.6,2.2,0.7,1.8,4.1,12.9
475,Brandan Wright\wrighbr03,C,26,DAL,58,0,1077,7.5,11.1,.677,0.0,0.0,,7.5,11.1,.677,2.6,3.5,.726,3.4,4.7,8.2,1.0,1.1,1.8,1.2,3.1,17.5
476,Chris Wright\wrighch01,SF,25,MIL,8,0,126,6.0,10.0,.600,0.0,0.3,.000,6.0,9.7,.618,1.7,4.3,.400,2.9,2.9,5.7,1.4,2.0,1.4,1.4,4.9,13.7
477,Dorell Wright\wrighdo01,SF,28,POR,68,13,984,4.1,10.9,.374,2.5,7.4,.342,1.5,3.5,.442,1.9,2.5,.754,1.1,5.9,7.0,2.3,0.8,0.6,1.4,2.3,12.5
478,Tony Wroten\wroteto01,PG,20,PHI,72,16,1765,7.0,16.5,.427,0.8,3.8,.213,6.2,12.6,.492,4.3,6.6,.641,1.4,3.2,4.7,4.4,1.6,0.3,4.2,3.1,19.2
479,Nick Young\youngni01,SG,28,LAL,64,9,1810,7.7,17.7,.435,2.7,7.0,.386,5.0,10.7,.468,4.7,5.7,.825,0.6,2.7,3.3,1.9,0.9,0.2,1.9,3.1,22.8
480,Thaddeus Young\youngth01,PF,25,PHI,79,78,2718,7.7,17.0,.454,1.2,3.9,.308,6.5,13.1,.496,2.2,3.0,.712,2.2,4.1,6.3,2.4,2.2,0.5,2.2,2.8,18.8
481,Cody Zeller\zelleco01,C,21,CHA,82,3,1416,4.4,10.3,.426,0.0,0.0,.000,4.4,10.2,.427,3.7,5.1,.730,3.0,6.0,9.0,2.3,1.0,1.0,2.2,4.3,12.5
482,Tyler Zeller\zellety01,C,24,CLE,70,9,1049,5.4,10.0,.538,0.0,0.0,.000,5.4,9.9,.540,3.0,4.2,.719,3.5,6.1,9.7,1.2,0.6,1.3,2.1,4.7,13.7