,Player,Tm,Pos,PG%,SG%,SF%,PF%,C%
0,Alaa Abdelnaby\abdelal01,BOS,PF,0.000351000351000351,0.0012706212706212697,0.08266409266409273,0.7044857844857865,0.21231660231660082
1,Gary Alexander\alexaga01,TOT,PF,0.000351000351000351,0.0012706212706212697,0.08266409266409273,0.7044857844857865,0.21231660231660082
2,Gary Alexander\alexaga01,MIA,PF,0.000351000351000351,0.0012706212706212697,0.08266409266409273,0.7044857844857865,0.21231660231660082
3,Gary Alexander\alexaga01,CLE,PF,0.000351000351000351,0.0012706212706212697,0.08266409266409273,0.7044857844857865,0.21231660231660082
4,Eric Anderson\anderer01,NYK,PF,0.000351000351000351,0.0012706212706212697,0.08266409266409273,0.7044857844857865,0.21231660231660082
5,Greg Anderson\andergr01,DET,PF,0.000351000351000351,0.0012706212706212697,0.08266409266409273,0.7044857844857865,0.21231660231660082
6,Anthony Avent\aventan01,TOT,PF,0.000351000351000351,0.0012706212706212697,0.08266409266409273,0.7044857844857865,0.21231660231660082
7,Anthony Avent\aventan01,MIL,PF,0.000351000351000351,0.0012706212706212697,0.08266409266409273,0.7044857844857865,0.21231660231660082
8,Anthony Avent\aventan01,ORL,PF,0.000351000351000351,0.0012706212706212697,0.08266409266409273,0.7044857844857865,0.21231660231660082
9,Thurl Bailey\baileth01,MIN,PF,0.000351000351000351,0.0012706212706212697,0.08266409266409273,0.7044857844857865,0.21231660231660082
10,Charles Barkley*\barklch01,PHO,PF,0.000351000351000351,0.0012706212706212697,0.08266409266409273,0.7044857844857865,0.21231660231660082
11,Corie Blount\blounco01,CHI,PF,0.000351000351000351,0.0012706212706212697,0.08266409266409273,0.7044857844857865,0.21231660231660082
12,Matt Bullard\bullama01,HOU,PF,0.000351000351000351,0.0012706212706212697,0.08266409266409273,0.7044857844857865,0.21231660231660082
13,Evers Burns\burnsev01,SAC,PF,0.000351000351000351,0.0012706212706212697,0.08266409266409273,0.7044857844857865,0.21231660231660082
14,Elden Campbell\campbel01,LAL,PF,0.000351000351000351,0.0012706212706212697,0.08266409266409273,0.7044857844857865,0.21231660231660082
15,Antoine Carr\carran01,SAS,PF,0.000351000351000351,0.0012706212706212697,0.08266409266409273,0.7044857844857865,0.21231660231660082
16,Tom Chambers\chambto01,UTA,PF,0.000351000351000351,0.0012706212706212697,0.08266409266409273,0.7044857844857865,0.21231660231660082
17,Pete Chilcutt\chilcpe01,TOT,PF,0.000351000351000351,0.0012706212706212697,0.08266409266409273,0.7044857844857865,0.21231660231660082
18,Pete Chilcutt\chilcpe01,SAC,PF,0.000351000351000351,0.0012706212706212697,0.08266409266409273,0.7044857844857865,0.21231660231660082
19,Pete Chilcutt\chilcpe01,DET,PF,0.000351000351000351,0.0012706212706212697,0.08266409266409273,0.7044857844857865,0.21231660231660082
20,Ben Coleman\colembe01,DET,PF,0.000351000351000351,0.0012706212706212697,0.08266409266409273,0.7044857844857865,0.21231660231660082
21,Derrick Coleman\colemde01,NJN,PF,0.000351000351000351,0.0012706212706212697,0.08266409266409273,0.7044857844857865,0.21231660231660082
22,Anthony Cook\cookan01,TOT,PF,0.000351000351000351,0.0012706212706212697,0.08266409266409273,0.7044857844857865,0.21231660231660082
23,Anthony Cook\cookan01,ORL,PF,0.000351000351000351,0.0012706212706212697,0.08266409266409273,0.7044857844857865,0.21231660231660082
24,Anthony Cook\cookan01,MIL,PF,0.000351000351000351,0.0012706212706212697,0.08266409266409273,0.7044857844857865,0.21231660231660082
25,Joe Courtney\courtjo01,TOT,PF,0.000351000351000351,0.0012706212706212697,0.08266409266409273,0.7044857844857865,0.21231660231660082
26,Joe Courtney\courtjo01,PHO,PF,0.000351000351000351,0.0012706212706212697,0.08266409266409273,0.7044857844857865,0.21231660231660082
27,Joe Courtney\courtjo01,MIL,PF,0.000351000351000351,0.0012706212706212697,0.08266409266409273,0.7044857844857865,0.21231660231660082
28,Terry Cummings\cummite01,SAS,PF,0.000351000351000351,0.0012706212706212697,0.08266409266409273,0.7044857844857865,0.21231660231660082
29,Earl Cureton\curetea01,HOU,PF,0.000351000351000351,0.0012706212706212697,0.08266409266409273,0.7044857844857865,0.21231660231660082
30,Antonio Davis\davisan01,IND,PF,0.000351000351000351,0.0012706212706212697,0.08266409266409273,0.7044857844857865,0.21231660231660082
31,Dale Davis\davisda01,IND,PF,0.000351000351000351,0.0012706212706212697,0.08266409266409273,0.7044857844857865,0.21231660231660082
32,Terry Davis\daviste01,DAL,PF,0.000351000351000351,0.0012706212706212697,0.08266409266409273,0.7044857844857865,0.21231660231660082
33,Bill Edwards\edwarbi01,PHI,PF,0.000351000351000351,0.0012706212706212697,0.08266409266409273,0.7044857844857865,0.21231660231660082
34,Doug Edwards\edwardo01,ATL,PF,0.000351000351000351,0.0012706212706212697,0.08266409266409273,0.7044857844857865,0.21231660231660082
35,LaPhonso Ellis\ellisla01,DEN,PF,0.000351000351000351,0.0012706212706212697,0.08266409266409273,0.7044857844857865,0.21231660231660082
36,Danny Ferry\ferryda01,CLE,PF,0.000351000351000351,0.0012706212706212697,0.08266409266409273,0.7044857844857865,0.21231660231660082
37,Greg Foster\fostegr01,MIL,PF,0.000351000351000351,0.0012706212706212697,0.08266409266409273,0.7044857844857865,0.21231660231660082
38,Tellis Frank\frankte01,MIN,PF,0.000351000351000351,0.0012706212706212697,0.08266409266409273,0.7044857844857865,0.21231660231660082
39,Kenny Gattison\gattike01,CHH,PF,0.000351000351000351,0.0012706212706212697,0.08266409266409273,0.7044857844857865,0.21231660231660082
40,Armen Gilliam\gilliar01,NJN,PF,0.000351000351000351,0.0012706212706212697,0.08266409266409273,0.7044857844857865,0.21231660231660082
41,Horace Grant\grantho01,CHI,PF,0.000351000351000351,0.0012706212706212697,0.08266409266409273,0.7044857844857865,0.21231660231660082
42,Josh Grant\grantjo01,GSW,PF,0.000351000351000351,0.0012706212706212697,0.08266409266409273,0.7044857844857865,0.21231660231660082
43,A.C. Green\greenac01,PHO,PF,0.000351000351000351,0.0012706212706212697,0.08266409266409273,0.7044857844857865,0.21231660231660082
44,Tom Gugliotta\guglito01,WSB,PF,0.000351000351000351,0.0012706212706212697,0.08266409266409273,0.7044857844857865,0.21231660231660082
45,Jack Haley\haleyja01,SAS,PF,0.000351000351000351,0.0012706212706212697,0.08266409266409273,0.7044857844857865,0.21231660231660082
46,Tom Hammonds\hammoto01,DEN,PF,0.000351000351000351,0.0012706212706212697,0.08266409266409273,0.7044857844857865,0.21231660231660082
47,Antonio Harvey\harvean01,LAL,PF,0.000351000351000351,0.0012706212706212697,0.08266409266409273,0.7044857844857865,0.21231660231660082
48,Carl Herrera\herreca01,HOU,PF,0.000351000351000351,0.0012706212706212697,0.08266409266409273,0.7044857844857865,0.21231660231660082
49,Tyrone Hill\hillty01,CLE,PF,0.000351000351000351,0.0012706212706212697,0.08266409266409273,0.7044857844857865,0.21231660231660082
50,Byron Houston\houstby01,GSW,PF,0.000351000351000351,0.0012706212706212697,0.08266409266409273,0.7044857844857865,0.21231660231660082
51,Henry James\jameshe01,LAC,PF,0.000351000351000351,0.0012706212706212697,0.08266409266409273,0.7044857844857865,0.21231660231660082
52,Larry Johnson\johnsla02,CHH,PF,0.000351000351000351,0.0012706212706212697,0.08266409266409273,0.7044857844857865,0.21231660231660082
53,Popeye Jones\jonespo01,DAL,PF,0.000351000351000351,0.0012706212706212697,0.08266409266409273,0.7044857844857865,0.21231660231660082
54,Adam Keefe\keefead01,ATL,PF,0.000351000351000351,0.0012706212706212697,0.08266409266409273,0.7044857844857865,0.21231660231660082
55,Shawn Kemp\kempsh01,SEA,PF,0.000351000351000351,0.0012706212706212697,0.08266409266409273,0.7044857844857865,0.21231660231660082
56,Tim Kempton\kemptti01,TOT,PF,0.000351000351000351,0.0012706212706212697,0.08266409266409273,0.7044857844857865,0.21231660231660082
57,Tim Kempton\kemptti01,CHH,PF,0.000351000351000351,0.0012706212706212697,0.08266409266409273,0.7044857844857865,0.21231660231660082
58,Tim Kempton\kemptti01,CLE,PF,0.000351000351000351,0.0012706212706212697,0.08266409266409273,0.7044857844857865,0.21231660231660082
59,Alec Kessler\kesslal01,MIA,PF,0.000351000351000351,0.0012706212706212697,0.08266409266409273,0.7044857844857865,0.21231660231660082
60,Warren Kidd\kiddwa01,PHI,PF,0.000351000351000351,0.0012706212706212697,0.08266409266409273,0.7044857844857865,0.21231660231660082
61,Larry Krystkowiak\krystla01,ORL,PF,0.000351000351000351,0.0012706212706212697,0.08266409266409273,0.7044857844857865,0.21231660231660082
62,Christian Laettner\laettch01,MIN,PF,0.000351000351000351,0.0012706212706212697,0.08266409266409273,0.7044857844857865,0.21231660231660082
63,Brad Lohaus\lohaubr01,MIL,PF,0.000351000351000351,0.0012706212706212697,0.08266409266409273,0.7044857844857865,0.21231660231660082
64,Grant Long\longgr01,MIA,PF,0.000351000351000351,0.0012706212706212697,0.08266409266409273,0.7044857844857865,0.21231660231660082
65,Rick Mahorn\mahorri01,NJN,PF,0.000351000351000351,0.0012706212706212697,0.08266409266409273,0.7044857844857865,0.21231660231660082
66,Karl Malone*\malonka01,UTA,PF,0.000351000351000351,0.0012706212706212697,0.08266409266409273,0.7044857844857865,0.21231660231660082
67,Danny Manning\mannida01,TOT,PF,0.000351000351000351,0.0012706212706212697,0.08266409266409273,0.7044857844857865,0.21231660231660082
68,Danny Manning\mannida01,LAC,PF,0.000351000351000351,0.0012706212706212697,0.08266409266409273,0.7044857844857865,0.21231660231660082
69,Danny Manning\mannida01,ATL,PF,0.000351000351000351,0.0012706212706212697,0.08266409266409273,0.7044857844857865,0.21231660231660082
70,Anthony Mason\masonan01,NYK,PF,0.000351000351000351,0.0012706212706212697,0.08266409266409273,0.7044857844857865,0.21231660231660082
71,Marlon Maxey\maxeyma01,MIN,PF,0.000351000351000351,0.0012706212706212697,0.08266409266409273,0.7044857844857865,0.21231660231660082
72,Terry Mills\millste01,DET,PF,0.000351000351000351,0.0012706212706212697,0.08266409266409273,0.7044857844857865,0.21231660231660082
73,Sam Mitchell\mitchsa01,IND,PF,0.000351000351000351,0.0012706212706212697,0.08266409266409273,0.7044857844857865,0.21231660231660082
74,Tod Murphy\murphto01,TOT,PF,0.000351000351000351,0.0012706212706212697,0.08266409266409273,0.7044857844857865,0.21231660231660082
75,Tod Murphy\murphto01,DET,PF,0.000351000351000351,0.0012706212706212697,0.08266409266409273,0.7044857844857865,0.21231660231660082
76,Tod Murphy\murphto01,GSW,PF,0.000351000351000351,0.0012706212706212697,0.08266409266409273,0.7044857844857865,0.21231660231660082
77,Jerrod Mustaf\mustaje01,PHO,PF,0.000351000351000351,0.0012706212706212697,0.08266409266409273,0.7044857844857865,0.21231660231660082
78,Larry Nance\nancela01,CLE,PF,0.000351000351000351,0.0012706212706212697,0.08266409266409273,0.7044857844857865,0.21231660231660082
79,Charles Oakley\oaklech01,NYK,PF,0.000351000351000351,0.0012706212706212697,0.08266409266409273,0.7044857844857865,0.21231660231660082
80,Billy Owens\owensbi01,GSW,PF,0.000351000351000351,0.0012706212706212697,0.08266409266409273,0.7044857844857865,0.21231660231660082
81,Sam Perkins\perkisa01,SEA,PF,0.000351000351000351,0.0012706212706212697,0.08266409266409273,0.7044857844857865,0.21231660231660082
82,Tim Perry\perryti01,PHI,PF,0.000351000351000351,0.0012706212706212697,0.08266409266409273,0.7044857844857865,0.21231660231660082
83,Ed Pinckney\pincked01,BOS,PF,0.000351000351000351,0.0012706212706212697,0.08266409266409273,0.7044857844857865,0.21231660231660082
84,Dino Radja*\radjadi01,BOS,PF,0.000351000351000351,0.0012706212706212697,0.08266409266409273,0.7044857844857865,0.21231660231660082
85,Kurt Rambis\rambiku01,LAL,PF,0.000351000351000351,0.0012706212706212697,0.08266409266409273,0.7044857844857865,0.21231660231660082
86,Mark Randall\randama01,DEN,PF,0.000351000351000351,0.0012706212706212697,0.08266409266409273,0.7044857844857865,0.21231660231660082
87,J.R. Reid\reidjr01,SAS,PF,0.000351000351000351,0.0012706212706212697,0.08266409266409273,0.7044857844857865,0.21231660231660082
88,Dennis Rodman*\rodmade01,SAS,PF,0.000351000351000351,0.0012706212706212697,0.08266409266409273,0.7044857844857865,0.21231660231660082
89,John Salley\sallejo01,MIA,PF,0.000351000351000351,0.0012706212706212697,0.08266409266409273,0.7044857844857865,0.21231660231660082
90,Doug Smith\smithdo03,DAL,PF,0.000351000351000351,0.0012706212706212697,0.08266409266409273,0.7044857844857865,0.21231660231660082
91,Reggie Smith\smithre01,POR,PF,0.000351000351000351,0.0012706212706212697,0.08266409266409273,0.7044857844857865,0.21231660231660082
92,Derek Strong\stronde01,MIL,PF,0.000351000351000351,0.0012706212706212697,0.08266409266409273,0.7044857844857865,0.21231660231660082
93,Otis Thorpe\thorpot01,HOU,PF,0.000351000351000351,0.0012706212706212697,0.08266409266409273,0.7044857844857865,0.21231660231660082
94,Wayman Tisdale\tisdawa01,SAC,PF,0.000351000351000351,0.0012706212706212697,0.08266409266409273,0.7044857844857865,0.21231660231660082
95,Jeff Turner\turneje01,ORL,PF,0.000351000351000351,0.0012706212706212697,0.08266409266409273,0.7044857844857865,0.21231660231660082
96,Loy Vaught\vaughlo01,LAC,PF,0.000351000351000351,0.0012706212706212697,0.08266409266409273,0.7044857844857865,0.21231660231660082
97,Randy White\whitera01,DAL,PF,0.000351000351000351,0.0012706212706212697,0.08266409266409273,0.7044857844857865,0.21231660231660082
98,Aaron Williams\williaa01,UTA,PF,0.000351000351000351,0.0012706212706212697,0.08266409266409273,0.7044857844857865,0.21231660231660082
99,Buck Williams\willibu01,POR,PF,0.000351000351000351,0.0012706212706212697,0.08266409266409273,0.7044857844857865,0.21231660231660082
100,Hot Rod Williams\williho01,CLE,PF,0.000351000351000351,0.0012706212706212697,0.08266409266409273,0.7044857844857865,0.21231660231660082
101,Jayson Williams\willija01,NJN,PF,0.000351000351000351,0.0012706212706212697,0.08266409266409273,0.7044857844857865,0.21231660231660082
102,Lorenzo Williams\willilo01,TOT,PF,0.000351000351000351,0.0012706212706212697,0.08266409266409273,0.7044857844857865,0.21231660231660082
103,Lorenzo Williams\willilo01,ORL,PF,0.000351000351000351,0.0012706212706212697,0.08266409266409273,0.7044857844857865,0.21231660231660082
104,Lorenzo Williams\willilo01,CHH,PF,0.000351000351000351,0.0012706212706212697,0.08266409266409273,0.7044857844857865,0.21231660231660082
105,Lorenzo Williams\willilo01,DAL,PF,0.000351000351000351,0.0012706212706212697,0.08266409266409273,0.7044857844857865,0.21231660231660082
106,Kevin Willis\willike02,ATL,PF,0.000351000351000351,0.0012706212706212697,0.08266409266409273,0.7044857844857865,0.21231660231660082
107,Trevor Wilson\wilsotr01,TOT,PF,0.000351000351000351,0.0012706212706212697,0.08266409266409273,0.7044857844857865,0.21231660231660082
108,Trevor Wilson\wilsotr01,LAL,PF,0.000351000351000351,0.0012706212706212697,0.08266409266409273,0.7044857844857865,0.21231660231660082
109,Trevor Wilson\wilsotr01,SAC,PF,0.000351000351000351,0.0012706212706212697,0.08266409266409273,0.7044857844857865,0.21231660231660082
110,David Wood\woodda01,DET,PF,0.000351000351000351,0.0012706212706212697,0.08266409266409273,0.7044857844857865,0.21231660231660082
111,Mahmoud Abdul-Rauf\abdulma02,DEN,PG,0.8713428571428595,0.1261999999999998,0.0030714285714285626,0.0,0.0
112,Michael Adams\adamsmi01,WSB,PG,0.8713428571428595,0.1261999999999998,0.0030714285714285626,0.0,0.0
113,Kenny Anderson\anderke01,NJN,PG,0.8713428571428595,0.1261999999999998,0.0030714285714285626,0.0,0.0
114,Greg Anthony\anthogr01,NYK,PG,0.8713428571428595,0.1261999999999998,0.0030714285714285626,0.0,0.0
115,B.J. Armstrong\armstbj01,CHI,PG,0.8713428571428595,0.1261999999999998,0.0030714285714285626,0.0,0.0
116,John Bagley\baglejo01,ATL,PG,0.8713428571428595,0.1261999999999998,0.0030714285714285626,0.0,0.0
117,Dana Barros\barroda01,PHI,PG,0.8713428571428595,0.1261999999999998,0.0030714285714285626,0.0,0.0
118,Tony Bennett\benneto01,CHH,PG,0.8713428571428595,0.1261999999999998,0.0030714285714285626,0.0,0.0
119,Mookie Blaylock\blaylmo01,ATL,PG,0.8713428571428595,0.1261999999999998,0.0030714285714285626,0.0,0.0
120,Muggsy Bogues\boguemu01,CHH,PG,0.8713428571428595,0.1261999999999998,0.0030714285714285626,0.0,0.0
121,Terrell Brandon\brandte01,CLE,PG,0.8713428571428595,0.1261999999999998,0.0030714285714285626,0.0,0.0
122,Scott Brooks\brooksc01,HOU,PG,0.8713428571428595,0.1261999999999998,0.0030714285714285626,0.0,0.0
123,Randy Brown\brownra02,SAC,PG,0.8713428571428595,0.1261999999999998,0.0030714285714285626,0.0,0.0
124,Sam Cassell\cassesa01,HOU,PG,0.8713428571428595,0.1261999999999998,0.0030714285714285626,0.0,0.0
125,Bimbo Coles\colesbi01,MIA,PG,0.8713428571428595,0.1261999999999998,0.0030714285714285626,0.0,0.0
126,Lester Conner\connele01,IND,PG,0.8713428571428595,0.1261999999999998,0.0030714285714285626,0.0,0.0
127,Duane Cooper\coopedu01,PHO,PG,0.8713428571428595,0.1261999999999998,0.0030714285714285626,0.0,0.0
128,Chris Corchiani\corchch01,BOS,PG,0.8713428571428595,0.1261999999999998,0.0030714285714285626,0.0,0.0
129,John Crotty\crottjo01,UTA,PG,0.8713428571428595,0.1261999999999998,0.0030714285714285626,0.0,0.0
130,Johnny Dawkins\dawkijo01,PHI,PG,0.8713428571428595,0.1261999999999998,0.0030714285714285626,0.0,0.0
131,Terry Dehere\deherte01,LAC,PG,0.8713428571428595,0.1261999999999998,0.0030714285714285626,0.0,0.0
132,Dell Demps\dempsde01,GSW,PG,0.8713428571428595,0.1261999999999998,0.0030714285714285626,0.0,0.0
133,Sherman Douglas\douglsh01,BOS,PG,0.8713428571428595,0.1261999999999998,0.0030714285714285626,0.0,0.0
134,Vern Fleming\flemive01,IND,PG,0.8713428571428595,0.1261999999999998,0.0030714285714285626,0.0,0.0
135,Sleepy Floyd\floydsl01,SAS,PG,0.8713428571428595,0.1261999999999998,0.0030714285714285626,0.0,0.0
136,Alphonso Ford\fordal01,SEA,PG,0.8713428571428595,0.1261999999999998,0.0030714285714285626,0.0,0.0
137,Ricky Grace\graceri01,ATL,PG,0.8713428571428595,0.1261999999999998,0.0030714285714285626,0.0,0.0
138,Gary Grant\grantga01,LAC,PG,0.8713428571428595,0.1261999999999998,0.0030714285714285626,0.0,0.0
139,Litterial Green\greenli01,ORL,PG,0.8713428571428595,0.1261999999999998,0.0030714285714285626,0.0,0.0
140,Anfernee Hardaway\hardaan01,ORL,PG,0.8713428571428595,0.1261999999999998,0.0030714285714285626,0.0,0.0
141,Derek Harper\harpede01,TOT,PG,0.8713428571428595,0.1261999999999998,0.0030714285714285626,0.0,0.0
142,Derek Harper\harpede01,DAL,PG,0.8713428571428595,0.1261999999999998,0.0030714285714285626,0.0,0.0
143,Derek Harper\harpede01,NYK,PG,0.8713428571428595,0.1261999999999998,0.0030714285714285626,0.0,0.0
144,Steve Henson\hensost01,CHH,PG,0.8713428571428595,0.1261999999999998,0.0030714285714285626,0.0,0.0
145,Lindsey Hunter\hunteli01,DET,PG,0.8713428571428595,0.1261999999999998,0.0030714285714285626,0.0,0.0
146,Bobby Hurley\hurlebo01,SAC,PG,0.8713428571428595,0.1261999999999998,0.0030714285714285626,0.0,0.0
147,Mark Jackson\jacksma01,LAC,PG,0.8713428571428595,0.1261999999999998,0.0030714285714285626,0.0,0.0
148,Keith Jennings\jennike01,GSW,PG,0.8713428571428595,0.1261999999999998,0.0030714285714285626,0.0,0.0
149,Avery Johnson\johnsav01,GSW,PG,0.8713428571428595,0.1261999999999998,0.0030714285714285626,0.0,0.0
150,Frank Johnson\johnsfr01,PHO,PG,0.8713428571428595,0.1261999999999998,0.0030714285714285626,0.0,0.0
151,Kevin Johnson\johnske02,PHO,PG,0.8713428571428595,0.1261999999999998,0.0030714285714285626,0.0,0.0
152,Adonis Jordan\jordaad01,DEN,PG,0.8713428571428595,0.1261999999999998,0.0030714285714285626,0.0,0.0
153,Steve Kerr\kerrst01,CHI,PG,0.8713428571428595,0.1261999999999998,0.0030714285714285626,0.0,0.0
154,Negele Knight\knighne01,TOT,PG,0.8713428571428595,0.1261999999999998,0.0030714285714285626,0.0,0.0
155,Negele Knight\knighne01,PHO,PG,0.8713428571428595,0.1261999999999998,0.0030714285714285626,0.0,0.0
156,Negele Knight\knighne01,SAS,PG,0.8713428571428595,0.1261999999999998,0.0030714285714285626,0.0,0.0
157,Jim Les\lesji01,SAC,PG,0.8713428571428595,0.1261999999999998,0.0030714285714285626,0.0,0.0
158,Fat Lever\leverfa01,DAL,PG,0.8713428571428595,0.1261999999999998,0.0030714285714285626,0.0,0.0
159,Lee Mayberry\maybele01,MIL,PG,0.8713428571428595,0.1261999999999998,0.0030714285714285626,0.0,0.0
160,Nate McMillan\mcmilna01,SEA,PG,0.8713428571428595,0.1261999999999998,0.0030714285714285626,0.0,0.0
161,Eric Murdock\murdoer01,MIL,PG,0.8713428571428595,0.1261999999999998,0.0030714285714285626,0.0,0.0
162,Doug Overton\overtdo01,WSB,PG,0.8713428571428595,0.1261999999999998,0.0030714285714285626,0.0,0.0
163,Robert Pack\packro01,DEN,PG,0.8713428571428595,0.1261999999999998,0.0030714285714285626,0.0,0.0
164,John Paxson\paxsojo01,CHI,PG,0.8713428571428595,0.1261999999999998,0.0030714285714285626,0.0,0.0
165,Gary Payton*\paytoga01,SEA,PG,0.8713428571428595,0.1261999999999998,0.0030714285714285626,0.0,0.0
166,Elliot Perry\perryel01,PHO,PG,0.8713428571428595,0.1261999999999998,0.0030714285714285626,0.0,0.0
167,Terry Porter\portete01,POR,PG,0.8713428571428595,0.1261999999999998,0.0030714285714285626,0.0,0.0
168,Brent Price\pricebr01,WSB,PG,0.8713428571428595,0.1261999999999998,0.0030714285714285626,0.0,0.0
169,Mark Price\pricema01,CLE,PG,0.8713428571428595,0.1261999999999998,0.0030714285714285626,0.0,0.0
170,Pooh Richardson\richapo01,IND,PG,0.8713428571428595,0.1261999999999998,0.0030714285714285626,0.0,0.0
171,Doc Rivers\riverdo01,NYK,PG,0.8713428571428595,0.1261999999999998,0.0030714285714285626,0.0,0.0
172,James Robinson\robinja02,POR,PG,0.8713428571428595,0.1261999999999998,0.0030714285714285626,0.0,0.0
173,Rumeal Robinson\robinru01,TOT,PG,0.8713428571428595,0.1261999999999998,0.0030714285714285626,0.0,0.0
174,Rumeal Robinson\robinru01,NJN,PG,0.8713428571428595,0.1261999999999998,0.0030714285714285626,0.0,0.0
175,Rumeal Robinson\robinru01,CHH,PG,0.8713428571428595,0.1261999999999998,0.0030714285714285626,0.0,0.0
176,Scott Skiles\skilesc01,ORL,PG,0.8713428571428595,0.1261999999999998,0.0030714285714285626,0.0,0.0
177,Chris Smith\smithch03,MIN,PG,0.8713428571428595,0.1261999999999998,0.0030714285714285626,0.0,0.0
178,Kenny Smith\smithke01,HOU,PG,0.8713428571428595,0.1261999999999998,0.0030714285714285626,0.0,0.0
179,John Stockton*\stockjo01,UTA,PG,0.8713428571428595,0.1261999999999998,0.0030714285714285626,0.0,0.0
180,Rod Strickland\stricro02,POR,PG,0.8713428571428595,0.1261999999999998,0.0030714285714285626,0.0,0.0
181,Isiah Thomas*\thomais01,DET,PG,0.8713428571428595,0.1261999999999998,0.0030714285714285626,0.0,0.0
182,Sedale Threatt\threase01,LAL,PG,0.8713428571428595,0.1261999999999998,0.0030714285714285626,0.0,0.0
183,Sedric Toney\toneyse01,CLE,PG,0.8713428571428595,0.1261999999999998,0.0030714285714285626,0.0,0.0
184,Nick Van Exel\vanexni01,LAL,PG,0.8713428571428595,0.1261999999999998,0.0030714285714285626,0.0,0.0
185,Spud Webb\webbsp01,SAC,PG,0.8713428571428595,0.1261999999999998,0.0030714285714285626,0.0,0.0
186,David Wesley\wesleda01,NJN,PG,0.8713428571428595,0.1261999999999998,0.0030714285714285626,0.0,0.0
187,Ennis Whatley\whatlen01,ATL,PG,0.8713428571428595,0.1261999999999998,0.0030714285714285626,0.0,0.0
188,Chris Whitney\whitnch01,SAS,PG,0.8713428571428595,0.1261999999999998,0.0030714285714285626,0.0,0.0
189,Morlon Wiley\wileymo01,TOT,PG,0.8713428571428595,0.1261999999999998,0.0030714285714285626,0.0,0.0
190,Morlon Wiley\wileymo01,MIA,PG,0.8713428571428595,0.1261999999999998,0.0030714285714285626,0.0,0.0
191,Morlon Wiley\wileymo01,DAL,PG,0.8713428571428595,0.1261999999999998,0.0030714285714285626,0.0,0.0
192,Corey Williams\willico01,MIN,PG,0.8713428571428595,0.1261999999999998,0.0030714285714285626,0.0,0.0
193,Micheal Williams\willimi02,MIN,PG,0.8713428571428595,0.1261999999999998,0.0030714285714285626,0.0,0.0
194,Randy Woods\woodsra01,LAC,PG,0.8713428571428595,0.1261999999999998,0.0030714285714285626,0.0,0.0
195,Haywoode Workman\workmha01,IND,PG,0.8713428571428595,0.1261999999999998,0.0030714285714285626,0.0,0.0
196,Mark Aguirre\aguirma01,LAC,SF,0.0033940594059405894,0.12606336633663331,0.6900594059405959,0.1769821782178211,0.00442772277227721
197,Ron Anderson\anderro01,TOT,SF,0.0033940594059405894,0.12606336633663331,0.6900594059405959,0.1769821782178211,0.00442772277227721
198,Ron Anderson\anderro01,NJN,SF,0.0033940594059405894,0.12606336633663331,0.6900594059405959,0.1769821782178211,0.00442772277227721
199,Ron Anderson\anderro01,WSB,SF,0.0033940594059405894,0.12606336633663331,0.6900594059405959,0.1769821782178211,0.00442772277227721
200,Keith Askins\askinke01,MIA,SF,0.0033940594059405894,0.12606336633663331,0.6900594059405959,0.1769821782178211,0.00442772277227721
201,David Benoit\benoida01,UTA,SF,0.0033940594059405894,0.12606336633663331,0.6900594059405959,0.1769821782178211,0.00442772277227721
202,Anthony Bonner\bonnean01,NYK,SF,0.0033940594059405894,0.12606336633663331,0.6900594059405959,0.1769821782178211,0.00442772277227721
203,Kevin Brooks\brookke01,DEN,SF,0.0033940594059405894,0.12606336633663331,0.6900594059405959,0.1769821782178211,0.00442772277227721
204,Chucky Brown\brownch01,DAL,SF,0.0033940594059405894,0.12606336633663331,0.6900594059405959,0.1769821782178211,0.00442772277227721
205,Jud Buechler\buechju01,GSW,SF,0.0033940594059405894,0.12606336633663331,0.6900594059405959,0.1769821782178211,0.00442772277227721
206,Scott Burrell\burresc01,CHH,SF,0.0033940594059405894,0.12606336633663331,0.6900594059405959,0.1769821782178211,0.00442772277227721
207,Willie Burton\burtowi01,MIA,SF,0.0033940594059405894,0.12606336633663331,0.6900594059405959,0.1769821782178211,0.00442772277227721
208,Tony Campbell\campbto01,TOT,SF,0.0033940594059405894,0.12606336633663331,0.6900594059405959,0.1769821782178211,0.00442772277227721
209,Tony Campbell\campbto01,NYK,SF,0.0033940594059405894,0.12606336633663331,0.6900594059405959,0.1769821782178211,0.00442772277227721
210,Tony Campbell\campbto01,DAL,SF,0.0033940594059405894,0.12606336633663331,0.6900594059405959,0.1769821782178211,0.00442772277227721
211,Cedric Ceballos\cebalce01,PHO,SF,0.0033940594059405894,0.12606336633663331,0.6900594059405959,0.1769821782178211,0.00442772277227721
212,Tyrone Corbin\corbity01,UTA,SF,0.0033940594059405894,0.12606336633663331,0.6900594059405959,0.1769821782178211,0.00442772277227721
213,Brian Davis\davisbr02,MIN,SF,0.0033940594059405894,0.12606336633663331,0.6900594059405959,0.1769821782178211,0.00442772277227721
214,Blue Edwards\edwarbl01,MIL,SF,0.0033940594059405894,0.12606336633663331,0.6900594059405959,0.1769821782178211,0.00442772277227721
215,Mario Elie\eliema01,HOU,SF,0.0033940594059405894,0.12606336633663331,0.6900594059405959,0.1769821782178211,0.00442772277227721
216,Sean Elliott\elliose01,DET,SF,0.0033940594059405894,0.12606336633663331,0.6900594059405959,0.1769821782178211,0.00442772277227721
217,Dale Ellis\ellisda01,SAS,SF,0.0033940594059405894,0.12606336633663331,0.6900594059405959,0.1769821782178211,0.00442772277227721
218,Harold Ellis\ellisha01,LAC,SF,0.0033940594059405894,0.12606336633663331,0.6900594059405959,0.1769821782178211,0.00442772277227721
219,Duane Ferrell\ferredu01,ATL,SF,0.0033940594059405894,0.12606336633663331,0.6900594059405959,0.1769821782178211,0.00442772277227721
220,Rick Fox\foxri01,BOS,SF,0.0033940594059405894,0.12606336633663331,0.6900594059405959,0.1769821782178211,0.00442772277227721
221,Kevin Gamble\gamblke01,BOS,SF,0.0033940594059405894,0.12606336633663331,0.6900594059405959,0.1769821782178211,0.00442772277227721
222,Harvey Grant\grantha01,POR,SF,0.0033940594059405894,0.12606336633663331,0.6900594059405959,0.1769821782178211,0.00442772277227721
223,Rod Higgins\higgiro01,CLE,SF,0.0033940594059405894,0.12606336633663331,0.6900594059405959,0.1769821782178211,0.00442772277227721
224,Robert Horry\horryro01,HOU,SF,0.0033940594059405894,0.12606336633663331,0.6900594059405959,0.1769821782178211,0.00442772277227721
225,Stephen Howard\howarst01,UTA,SF,0.0033940594059405894,0.12606336633663331,0.6900594059405959,0.1769821782178211,0.00442772277227721
226,Chris Jent\jentch01,HOU,SF,0.0033940594059405894,0.12606336633663331,0.6900594059405959,0.1769821782178211,0.00442772277227721
227,Eddie Johnson\johnsed03,CHH,SF,0.0033940594059405894,0.12606336633663331,0.6900594059405959,0.1769821782178211,0.00442772277227721
228,Jerome Kersey\kerseje01,POR,SF,0.0033940594059405894,0.12606336633663331,0.6900594059405959,0.1769821782178211,0.00442772277227721
229,Chris King\kingch01,SEA,SF,0.0033940594059405894,0.12606336633663331,0.6900594059405959,0.1769821782178211,0.00442772277227721
230,Toni Kukoč\kukocto01,CHI,SF,0.0033940594059405894,0.12606336633663331,0.6900594059405959,0.1769821782178211,0.00442772277227721
231,Marcus Liberty\liberma01,TOT,SF,0.0033940594059405894,0.12606336633663331,0.6900594059405959,0.1769821782178211,0.00442772277227721
232,Marcus Liberty\liberma01,DEN,SF,0.0033940594059405894,0.12606336633663331,0.6900594059405959,0.1769821782178211,0.00442772277227721
233,Marcus Liberty\liberma01,DET,SF,0.0033940594059405894,0.12606336633663331,0.6900594059405959,0.1769821782178211,0.00442772277227721
234,George Lynch\lynchge01,LAL,SF,0.0033940594059405894,0.12606336633663331,0.6900594059405959,0.1769821782178211,0.00442772277227721
235,Don MacLean\macledo01,WSB,SF,0.0033940594059405894,0.12606336633663331,0.6900594059405959,0.1769821782178211,0.00442772277227721
236,Roy Marble\marblro01,DEN,SF,0.0033940594059405894,0.12606336633663331,0.6900594059405959,0.1769821782178211,0.00442772277227721
237,Jamal Mashburn\mashbja01,DAL,SF,0.0033940594059405894,0.12606336633663331,0.6900594059405959,0.1769821782178211,0.00442772277227721
238,Xavier McDaniel\mcdanxa01,BOS,SF,0.0033940594059405894,0.12606336633663331,0.6900594059405959,0.1769821782178211,0.00442772277227721
239,Derrick McKey\mckeyde01,IND,SF,0.0033940594059405894,0.12606336633663331,0.6900594059405959,0.1769821782178211,0.00442772277227721
240,Chris Mills\millsch01,CLE,SF,0.0033940594059405894,0.12606336633663331,0.6900594059405959,0.1769821782178211,0.00442772277227721
241,Chris Morris\morrich01,NJN,SF,0.0033940594059405894,0.12606336633663331,0.6900594059405959,0.1769821782178211,0.00442772277227721
242,Chris Mullin*\mullich01,GSW,SF,0.0033940594059405894,0.12606336633663331,0.6900594059405959,0.1769821782178211,0.00442772277227721
243,Tracy Murray\murratr01,POR,SF,0.0033940594059405894,0.12606336633663331,0.6900594059405959,0.1769821782178211,0.00442772277227721
244,Johnny Newman\newmajo01,TOT,SF,0.0033940594059405894,0.12606336633663331,0.6900594059405959,0.1769821782178211,0.00442772277227721
245,Johnny Newman\newmajo01,CHH,SF,0.0033940594059405894,0.12606336633663331,0.6900594059405959,0.1769821782178211,0.00442772277227721
246,Johnny Newman\newmajo01,NJN,SF,0.0033940594059405894,0.12606336633663331,0.6900594059405959,0.1769821782178211,0.00442772277227721
247,Ken Norman\normake01,MIL,SF,0.0033940594059405894,0.12606336633663331,0.6900594059405959,0.1769821782178211,0.00442772277227721
248,Bo Outlaw\outlabo01,LAC,SF,0.0033940594059405894,0.12606336633663331,0.6900594059405959,0.1769821782178211,0.00442772277227721
249,Gerald Paddio\paddige01,TOT,SF,0.0033940594059405894,0.12606336633663331,0.6900594059405959,0.1769821782178211,0.00442772277227721
250,Gerald Paddio\paddige01,IND,SF,0.0033940594059405894,0.12606336633663331,0.6900594059405959,0.1769821782178211,0.00442772277227721
251,Gerald Paddio\paddige01,NYK,SF,0.0033940594059405894,0.12606336633663331,0.6900594059405959,0.1769821782178211,0.00442772277227721
252,Gerald Paddio\paddige01,WSB,SF,0.0033940594059405894,0.12606336633663331,0.6900594059405959,0.1769821782178211,0.00442772277227721
253,Chuck Person\persoch01,MIN,SF,0.0033940594059405894,0.12606336633663331,0.6900594059405959,0.1769821782178211,0.00442772277227721
254,Scottie Pippen*\pippesc01,CHI,SF,0.0033940594059405894,0.12606336633663331,0.6900594059405959,0.1769821782178211,0.00442772277227721
255,Glen Rice\ricegl01,MIA,SF,0.0033940594059405894,0.12606336633663331,0.6900594059405959,0.1769821782178211,0.00442772277227721
256,Rodney Rogers\rogerro01,DEN,SF,0.0033940594059405894,0.12606336633663331,0.6900594059405959,0.1769821782178211,0.00442772277227721
257,Donald Royal\royaldo01,ORL,SF,0.0033940594059405894,0.12606336633663331,0.6900594059405959,0.1769821782178211,0.00442772277227721
258,Bryon Russell\russebr01,UTA,SF,0.0033940594059405894,0.12606336633663331,0.6900594059405959,0.1769821782178211,0.00442772277227721
259,Detlef Schrempf\schrede01,SEA,SF,0.0033940594059405894,0.12606336633663331,0.6900594059405959,0.1769821782178211,0.00442772277227721
260,Dennis Scott\scottde01,ORL,SF,0.0033940594059405894,0.12606336633663331,0.6900594059405959,0.1769821782178211,0.00442772277227721
261,Malik Sealy\sealyma01,IND,SF,0.0033940594059405894,0.12606336633663331,0.6900594059405959,0.1769821782178211,0.00442772277227721
262,Lionel Simmons\simmoli01,SAC,SF,0.0033940594059405894,0.12606336633663331,0.6900594059405959,0.1769821782178211,0.00442772277227721
263,Charles Smith\smithch01,NYK,SF,0.0033940594059405894,0.12606336633663331,0.6900594059405959,0.1769821782178211,0.00442772277227721
264,Andre Spencer\spencan01,TOT,SF,0.0033940594059405894,0.12606336633663331,0.6900594059405959,0.1769821782178211,0.00442772277227721
265,Andre Spencer\spencan01,GSW,SF,0.0033940594059405894,0.12606336633663331,0.6900594059405959,0.1769821782178211,0.00442772277227721
266,Andre Spencer\spencan01,SAC,SF,0.0033940594059405894,0.12606336633663331,0.6900594059405959,0.1769821782178211,0.00442772277227721
267,Larry Stewart\stewala01,WSB,SF,0.0033940594059405894,0.12606336633663331,0.6900594059405959,0.1769821782178211,0.00442772277227721
268,Tom Tolbert\tolbeto01,LAC,SF,0.0033940594059405894,0.12606336633663331,0.6900594059405959,0.1769821782178211,0.00442772277227721
269,Kenny Walker\walkeke01,WSB,SF,0.0033940594059405894,0.12606336633663331,0.6900594059405959,0.1769821782178211,0.00442772277227721
270,Clarence Weatherspoon\weathcl01,PHI,SF,0.0033940594059405894,0.12606336633663331,0.6900594059405959,0.1769821782178211,0.00442772277227721
271,Dominique Wilkins*\wilkido01,TOT,SF,0.0033940594059405894,0.12606336633663331,0.6900594059405959,0.1769821782178211,0.00442772277227721
272,Dominique Wilkins*\wilkido01,ATL,SF,0.0033940594059405894,0.12606336633663331,0.6900594059405959,0.1769821782178211,0.00442772277227721
273,Dominique Wilkins*\wilkido01,LAC,SF,0.0033940594059405894,0.12606336633663331,0.6900594059405959,0.1769821782178211,0.00442772277227721
274,John Williams\willijo02,LAC,SF,0.0033940594059405894,0.12606336633663331,0.6900594059405959,0.1769821782178211,0.00442772277227721
275,Kenny Williams\willike03,IND,SF,0.0033940594059405894,0.12606336633663331,0.6900594059405959,0.1769821782178211,0.00442772277227721
276,Reggie Williams\willire01,DEN,SF,0.0033940594059405894,0.12606336633663331,0.6900594059405959,0.1769821782178211,0.00442772277227721
277,Walt Williams\williwa02,SAC,SF,0.0033940594059405894,0.12606336633663331,0.6900594059405959,0.1769821782178211,0.00442772277227721
278,Orlando Woolridge\woolror01,PHI,SF,0.0033940594059405894,0.12606336633663331,0.6900594059405959,0.1769821782178211,0.00442772277227721
279,James Worthy*\worthja01,LAL,SF,0.0033940594059405894,0.12606336633663331,0.6900594059405959,0.1769821782178211,0.00442772277227721
280,Danny Ainge\aingeda01,PHO,SG,0.11192363636363606,0.68289090909091,0.1991599999999993,0.006941818181818165,1.4545454545454546e-05
281,Nick Anderson\anderni01,ORL,SG,0.11192363636363606,0.68289090909091,0.1991599999999993,0.006941818181818165,1.4545454545454546e-05
282,Willie Anderson\anderwi01,SAS,SG,0.11192363636363606,0.68289090909091,0.1991599999999993,0.006941818181818165,1.4545454545454546e-05
283,Vincent Askew\askewvi01,SEA,SG,0.11192363636363606,0.68289090909091,0.1991599999999993,0.006941818181818165,1.4545454545454546e-05
284,Stacey Augmon\augmost01,ATL,SG,0.11192363636363606,0.68289090909091,0.1991599999999993,0.006941818181818165,1.4545454545454546e-05
285,Jon Barry\barryjo01,MIL,SG,0.11192363636363606,0.68289090909091,0.1991599999999993,0.006941818181818165,1.4545454545454546e-05
286,John Battle\battljo01,CLE,SG,0.11192363636363606,0.68289090909091,0.1991599999999993,0.006941818181818165,1.4545454545454546e-05
287,Rolando Blackman\blackro01,NYK,SG,0.11192363636363606,0.68289090909091,0.1991599999999993,0.006941818181818165,1.4545454545454546e-05
288,Walter Bond\bondwa01,UTA,SG,0.11192363636363606,0.68289090909091,0.1991599999999993,0.006941818181818165,1.4545454545454546e-05
289,Anthony Bowie\bowiean01,ORL,SG,0.11192363636363606,0.68289090909091,0.1991599999999993,0.006941818181818165,1.4545454545454546e-05
290,Dee Brown\brownde01,BOS,SG,0.11192363636363606,0.68289090909091,0.1991599999999993,0.006941818181818165,1.4545454545454546e-05
291,Mitchell Butler\butlemi02,WSB,SG,0.11192363636363606,0.68289090909091,0.1991599999999993,0.006941818181818165,1.4545454545454546e-05
292,Rex Chapman\chapmre01,WSB,SG,0.11192363636363606,0.68289090909091,0.1991599999999993,0.006941818181818165,1.4545454545454546e-05
293,Calbert Cheaney\cheanca01,WSB,SG,0.11192363636363606,0.68289090909091,0.1991599999999993,0.006941818181818165,1.4545454545454546e-05
294,Doug Christie\chrisdo01,LAL,SG,0.11192363636363606,0.68289090909091,0.1991599999999993,0.006941818181818165,1.4545454545454546e-05
295,Dell Curry\curryde01,CHH,SG,0.11192363636363606,0.68289090909091,0.1991599999999993,0.006941818181818165,1.4545454545454546e-05
296,Michael Curry\currymi01,PHI,SG,0.11192363636363606,0.68289090909091,0.1991599999999993,0.006941818181818165,1.4545454545454546e-05
297,Lloyd Daniels\daniell01,SAS,SG,0.11192363636363606,0.68289090909091,0.1991599999999993,0.006941818181818165,1.4545454545454546e-05
298,Hubert Davis\davishu01,NYK,SG,0.11192363636363606,0.68289090909091,0.1991599999999993,0.006941818181818165,1.4545454545454546e-05
299,Todd Day\dayto01,MIL,SG,0.11192363636363606,0.68289090909091,0.1991599999999993,0.006941818181818165,1.4545454545454546e-05
300,Vinny Del Negro\delnevi01,SAS,SG,0.11192363636363606,0.68289090909091,0.1991599999999993,0.006941818181818165,1.4545454545454546e-05
301,Clyde Drexler*\drexlcl01,POR,SG,0.11192363636363606,0.68289090909091,0.1991599999999993,0.006941818181818165,1.4545454545454546e-05
302,Joe Dumars*\dumarjo01,DET,SG,0.11192363636363606,0.68289090909091,0.1991599999999993,0.006941818181818165,1.4545454545454546e-05
303,Kevin Edwards\edwarke01,NJN,SG,0.11192363636363606,0.68289090909091,0.1991599999999993,0.006941818181818165,1.4545454545454546e-05
304,Craig Ehlo\ehlocr01,ATL,SG,0.11192363636363606,0.68289090909091,0.1991599999999993,0.006941818181818165,1.4545454545454546e-05
305,Jo Jo English\englijo01,CHI,SG,0.11192363636363606,0.68289090909091,0.1991599999999993,0.006941818181818165,1.4545454545454546e-05
306,Jim Farmer\farmeji01,DEN,SG,0.11192363636363606,0.68289090909091,0.1991599999999993,0.006941818181818165,1.4545454545454546e-05
307,Corey Gaines\gaineco01,NYK,SG,0.11192363636363606,0.68289090909091,0.1991599999999993,0.006941818181818165,1.4545454545454546e-05
308,Andrew Gaze\gazean01,WSB,SG,0.11192363636363606,0.68289090909091,0.1991599999999993,0.006941818181818165,1.4545454545454546e-05
309,Kendall Gill\gillke01,SEA,SG,0.11192363636363606,0.68289090909091,0.1991599999999993,0.006941818181818165,1.4545454545454546e-05
310,Greg Graham\grahagr01,PHI,SG,0.11192363636363606,0.68289090909091,0.1991599999999993,0.006941818181818165,1.4545454545454546e-05
311,Paul Graham\grahapa01,ATL,SG,0.11192363636363606,0.68289090909091,0.1991599999999993,0.006941818181818165,1.4545454545454546e-05
312,Jeff Grayer\grayeje01,GSW,SG,0.11192363636363606,0.68289090909091,0.1991599999999993,0.006941818181818165,1.4545454545454546e-05
313,Sean Green\greense01,TOT,SG,0.11192363636363606,0.68289090909091,0.1991599999999993,0.006941818181818165,1.4545454545454546e-05
314,Sean Green\greense01,PHI,SG,0.11192363636363606,0.68289090909091,0.1991599999999993,0.006941818181818165,1.4545454545454546e-05
315,Sean Green\greense01,UTA,SG,0.11192363636363606,0.68289090909091,0.1991599999999993,0.006941818181818165,1.4545454545454546e-05
316,Ron Harper\harpero01,LAC,SG,0.11192363636363606,0.68289090909091,0.1991599999999993,0.006941818181818165,1.4545454545454546e-05
317,Lucious Harris\harrilu01,DAL,SG,0.11192363636363606,0.68289090909091,0.1991599999999993,0.006941818181818165,1.4545454545454546e-05
318,Tony Harris\harrito01,BOS,SG,0.11192363636363606,0.68289090909091,0.1991599999999993,0.006941818181818165,1.4545454545454546e-05
319,Hersey Hawkins\hawkihe01,CHH,SG,0.11192363636363606,0.68289090909091,0.1991599999999993,0.006941818181818165,1.4545454545454546e-05
320,Skeeter Henry\henrysk01,PHO,SG,0.11192363636363606,0.68289090909091,0.1991599999999993,0.006941818181818165,1.4545454545454546e-05
321,Jeff Hornacek\hornaje01,TOT,SG,0.11192363636363606,0.68289090909091,0.1991599999999993,0.006941818181818165,1.4545454545454546e-05
322,Jeff Hornacek\hornaje01,PHI,SG,0.11192363636363606,0.68289090909091,0.1991599999999993,0.006941818181818165,1.4545454545454546e-05
323,Jeff Hornacek\hornaje01,UTA,SG,0.11192363636363606,0.68289090909091,0.1991599999999993,0.006941818181818165,1.4545454545454546e-05
324,Allan Houston\houstal01,DET,SG,0.11192363636363606,0.68289090909091,0.1991599999999993,0.006941818181818165,1.4545454545454546e-05
325,Jay Humphries\humphja01,UTA,SG,0.11192363636363606,0.68289090909091,0.1991599999999993,0.006941818181818165,1.4545454545454546e-05
326,Jaren Jackson\jacksja01,POR,SG,0.11192363636363606,0.68289090909091,0.1991599999999993,0.006941818181818165,1.4545454545454546e-05
327,Jim Jackson\jacksji01,DAL,SG,0.11192363636363606,0.68289090909091,0.1991599999999993,0.006941818181818165,1.4545454545454546e-05
328,Stanley Jackson\jacksst01,MIN,SG,0.11192363636363606,0.68289090909091,0.1991599999999993,0.006941818181818165,1.4545454545454546e-05
329,Dave Jamerson\jamerda01,TOT,SG,0.11192363636363606,0.68289090909091,0.1991599999999993,0.006941818181818165,1.4545454545454546e-05
330,Dave Jamerson\jamerda01,UTA,SG,0.11192363636363606,0.68289090909091,0.1991599999999993,0.006941818181818165,1.4545454545454546e-05
331,Dave Jamerson\jamerda01,NJN,SG,0.11192363636363606,0.68289090909091,0.1991599999999993,0.006941818181818165,1.4545454545454546e-05
332,Dave Johnson\johnsda01,CHI,SG,0.11192363636363606,0.68289090909091,0.1991599999999993,0.006941818181818165,1.4545454545454546e-05
333,Reggie Jordan\jordare01,LAL,SG,0.11192363636363606,0.68289090909091,0.1991599999999993,0.006941818181818165,1.4545454545454546e-05
334,Tim Legler\legleti01,DAL,SG,0.11192363636363606,0.68289090909091,0.1991599999999993,0.006941818181818165,1.4545454545454546e-05
335,Todd Lichti\lichtto01,TOT,SG,0.11192363636363606,0.68289090909091,0.1991599999999993,0.006941818181818165,1.4545454545454546e-05
336,Todd Lichti\lichtto01,ORL,SG,0.11192363636363606,0.68289090909091,0.1991599999999993,0.006941818181818165,1.4545454545454546e-05
337,Todd Lichti\lichtto01,GSW,SG,0.11192363636363606,0.68289090909091,0.1991599999999993,0.006941818181818165,1.4545454545454546e-05
338,Todd Lichti\lichtto01,BOS,SG,0.11192363636363606,0.68289090909091,0.1991599999999993,0.006941818181818165,1.4545454545454546e-05
339,Mark Macon\maconma01,TOT,SG,0.11192363636363606,0.68289090909091,0.1991599999999993,0.006941818181818165,1.4545454545454546e-05
340,Mark Macon\maconma01,DEN,SG,0.11192363636363606,0.68289090909091,0.1991599999999993,0.006941818181818165,1.4545454545454546e-05
341,Mark Macon\maconma01,DET,SG,0.11192363636363606,0.68289090909091,0.1991599999999993,0.006941818181818165,1.4545454545454546e-05
342,Gerald Madkins\madkige01,CLE,SG,0.11192363636363606,0.68289090909091,0.1991599999999993,0.006941818181818165,1.4545454545454546e-05
343,Dan Majerle\majerda01,PHO,SG,0.11192363636363606,0.68289090909091,0.1991599999999993,0.006941818181818165,1.4545454545454546e-05
344,Jeff Malone\malonje01,TOT,SG,0.11192363636363606,0.68289090909091,0.1991599999999993,0.006941818181818165,1.4545454545454546e-05
345,Jeff Malone\malonje01,UTA,SG,0.11192363636363606,0.68289090909091,0.1991599999999993,0.006941818181818165,1.4545454545454546e-05
346,Jeff Malone\malonje01,PHI,SG,0.11192363636363606,0.68289090909091,0.1991599999999993,0.006941818181818165,1.4545454545454546e-05
347,Vernon Maxwell\maxweve01,HOU,SG,0.11192363636363606,0.68289090909091,0.1991599999999993,0.006941818181818165,1.4545454545454546e-05
348,Darnell Mee\meeda01,DEN,SG,0.11192363636363606,0.68289090909091,0.1991599999999993,0.006941818181818165,1.4545454545454546e-05
349,Reggie Miller*\millere01,IND,SG,0.11192363636363606,0.68289090909091,0.1991599999999993,0.006941818181818165,1.4545454545454546e-05
350,Harold Miner\minerha01,MIA,SG,0.11192363636363606,0.68289090909091,0.1991599999999993,0.006941818181818165,1.4545454545454546e-05
351,Tracy Moore\mooretr01,DET,SG,0.11192363636363606,0.68289090909091,0.1991599999999993,0.006941818181818165,1.4545454545454546e-05
352,Pete Myers\myerspe01,CHI,SG,0.11192363636363606,0.68289090909091,0.1991599999999993,0.006941818181818165,1.4545454545454546e-05
353,Jimmy Oliver\oliveji01,BOS,SG,0.11192363636363606,0.68289090909091,0.1991599999999993,0.006941818181818165,1.4545454545454546e-05
354,Anthony Peeler\peelean01,LAL,SG,0.11192363636363606,0.68289090909091,0.1991599999999993,0.006941818181818165,1.4545454545454546e-05
355,Bobby Phills\phillbo01,CLE,SG,0.11192363636363606,0.68289090909091,0.1991599999999993,0.006941818181818165,1.4545454545454546e-05
356,Ricky Pierce\piercri01,SEA,SG,0.11192363636363606,0.68289090909091,0.1991599999999993,0.006941818181818165,1.4545454545454546e-05
357,Mitch Richmond*\richmmi01,SAC,SG,0.11192363636363606,0.68289090909091,0.1991599999999993,0.006941818181818165,1.4545454545454546e-05
358,Isaiah Rider\rideris01,MIN,SG,0.11192363636363606,0.68289090909091,0.1991599999999993,0.006941818181818165,1.4545454545454546e-05
359,Larry Robinson\robinla01,HOU,SG,0.11192363636363606,0.68289090909091,0.1991599999999993,0.006941818181818165,1.4545454545454546e-05
360,Byron Scott\scottby01,IND,SG,0.11192363636363606,0.68289090909091,0.1991599999999993,0.006941818181818165,1.4545454545454546e-05
361,Brian Shaw\shawbr01,MIA,SG,0.11192363636363606,0.68289090909091,0.1991599999999993,0.006941818181818165,1.4545454545454546e-05
362,LaBradford Smith\smithla02,TOT,SG,0.11192363636363606,0.68289090909091,0.1991599999999993,0.006941818181818165,1.4545454545454546e-05
363,LaBradford Smith\smithla02,WSB,SG,0.11192363636363606,0.68289090909091,0.1991599999999993,0.006941818181818165,1.4545454545454546e-05
364,LaBradford Smith\smithla02,SAC,SG,0.11192363636363606,0.68289090909091,0.1991599999999993,0.006941818181818165,1.4545454545454546e-05
365,Steve Smith\smithst01,MIA,SG,0.11192363636363606,0.68289090909091,0.1991599999999993,0.006941818181818165,1.4545454545454546e-05
366,Tony Smith\smithto02,LAL,SG,0.11192363636363606,0.68289090909091,0.1991599999999993,0.006941818181818165,1.4545454545454546e-05
367,Latrell Sprewell\sprewla01,GSW,SG,0.11192363636363606,0.68289090909091,0.1991599999999993,0.006941818181818165,1.4545454545454546e-05
368,John Starks\starkjo01,NYK,SG,0.11192363636363606,0.68289090909091,0.1991599999999993,0.006941818181818165,1.4545454545454546e-05
369,Bryant Stith\stithbr01,DEN,SG,0.11192363636363606,0.68289090909091,0.1991599999999993,0.006941818181818165,1.4545454545454546e-05
370,Rex Walters\waltere01,NJN,SG,0.11192363636363606,0.68289090909091,0.1991599999999993,0.006941818181818165,1.4545454545454546e-05
371,Doug West\westdo01,MIN,SG,0.11192363636363606,0.68289090909091,0.1991599999999993,0.006941818181818165,1.4545454545454546e-05
372,Gerald Wilkins\wilkige01,CLE,SG,0.11192363636363606,0.68289090909091,0.1991599999999993,0.006941818181818165,1.4545454545454546e-05
373,David Wingate\wingada01,CHH,SG,0.11192363636363606,0.68289090909091,0.1991599999999993,0.006941818181818165,1.4545454545454546e-05
374,Victor Alexander\alexavi01,GSW,C,0.0003214024835646457,4.747991234477721e-05,0.0005332359386413442,0.10326880934989022,0.8964645726807887
375,Isaac Austin\austiis01,PHI,C,0.0003214024835646457,4.747991234477721e-05,0.0005332359386413442,0.10326880934989022,0.8964645726807887
376,Vin Baker\bakervi01,MIL,C,0.0003214024835646457,4.747991234477721e-05,0.0005332359386413442,0.10326880934989022,0.8964645726807887
377,Benoit Benjamin\benjabe01,NJN,C,0.0003214024835646457,4.747991234477721e-05,0.0005332359386413442,0.10326880934989022,0.8964645726807887
378,Manute Bol\bolma01,TOT,C,0.0003214024835646457,4.747991234477721e-05,0.0005332359386413442,0.10326880934989022,0.8964645726807887
379,Manute Bol\bolma01,MIA,C,0.0003214024835646457,4.747991234477721e-05,0.0005332359386413442,0.10326880934989022,0.8964645726807887
380,Manute Bol\bolma01,WSB,C,0.0003214024835646457,4.747991234477721e-05,0.0005332359386413442,0.10326880934989022,0.8964645726807887
381,Manute Bol\bolma01,PHI,C,0.0003214024835646457,4.747991234477721e-05,0.0005332359386413442,0.10326880934989022,0.8964645726807887
382,Sam Bowie\bowiesa01,LAL,C,0.0003214024835646457,4.747991234477721e-05,0.0005332359386413442,0.10326880934989022,0.8964645726807887
383,Shawn Bradley\bradlsh01,PHI,C,0.0003214024835646457,4.747991234477721e-05,0.0005332359386413442,0.10326880934989022,0.8964645726807887
384,Randy Breuer\breuera01,SAC,C,0.0003214024835646457,4.747991234477721e-05,0.0005332359386413442,0.10326880934989022,0.8964645726807887
385,Frank Brickowski\brickfr01,TOT,C,0.0003214024835646457,4.747991234477721e-05,0.0005332359386413442,0.10326880934989022,0.8964645726807887
386,Frank Brickowski\brickfr01,MIL,C,0.0003214024835646457,4.747991234477721e-05,0.0005332359386413442,0.10326880934989022,0.8964645726807887
387,Frank Brickowski\brickfr01,CHH,C,0.0003214024835646457,4.747991234477721e-05,0.0005332359386413442,0.10326880934989022,0.8964645726807887
388,Mike Brown\brownmi01,MIN,C,0.0003214024835646457,4.747991234477721e-05,0.0005332359386413442,0.10326880934989022,0.8964645726807887
389,P.J. Brown\brownpj01,NJN,C,0.0003214024835646457,4.747991234477721e-05,0.0005332359386413442,0.10326880934989022,0.8964645726807887
390,Mark Bryant\bryanma01,POR,C,0.0003214024835646457,4.747991234477721e-05,0.0005332359386413442,0.10326880934989022,0.8964645726807887
391,Michael Cage\cagemi01,SEA,C,0.0003214024835646457,4.747991234477721e-05,0.0005332359386413442,0.10326880934989022,0.8964645726807887
392,Bill Cartwright\cartwbi01,CHI,C,0.0003214024835646457,4.747991234477721e-05,0.0005332359386413442,0.10326880934989022,0.8964645726807887
393,Duane Causwell\causwdu01,SAC,C,0.0003214024835646457,4.747991234477721e-05,0.0005332359386413442,0.10326880934989022,0.8964645726807887
394,Marty Conlon\conloma01,TOT,C,0.0003214024835646457,4.747991234477721e-05,0.0005332359386413442,0.10326880934989022,0.8964645726807887
395,Marty Conlon\conloma01,CHH,C,0.0003214024835646457,4.747991234477721e-05,0.0005332359386413442,0.10326880934989022,0.8964645726807887
396,Marty Conlon\conloma01,WSB,C,0.0003214024835646457,4.747991234477721e-05,0.0005332359386413442,0.10326880934989022,0.8964645726807887
397,Brad Daugherty\daughbr01,CLE,C,0.0003214024835646457,4.747991234477721e-05,0.0005332359386413442,0.10326880934989022,0.8964645726807887
398,Bison Dele\delebi01,DEN,C,0.0003214024835646457,4.747991234477721e-05,0.0005332359386413442,0.10326880934989022,0.8964645726807887
399,Vlade Divac*\divacvl01,LAL,C,0.0003214024835646457,4.747991234477721e-05,0.0005332359386413442,0.10326880934989022,0.8964645726807887
400,Greg Dreiling\dreilgr01,DAL,C,0.0003214024835646457,4.747991234477721e-05,0.0005332359386413442,0.10326880934989022,0.8964645726807887
401,Kevin Duckworth\duckwke01,WSB,C,0.0003214024835646457,4.747991234477721e-05,0.0005332359386413442,0.10326880934989022,0.8964645726807887
402,Chris Dudley\dudlech02,POR,C,0.0003214024835646457,4.747991234477721e-05,0.0005332359386413442,0.10326880934989022,0.8964645726807887
403,Acie Earl\earlac01,BOS,C,0.0003214024835646457,4.747991234477721e-05,0.0005332359386413442,0.10326880934989022,0.8964645726807887
404,James Edwards\edwarja01,LAL,C,0.0003214024835646457,4.747991234477721e-05,0.0005332359386413442,0.10326880934989022,0.8964645726807887
405,LeRon Ellis\ellisle02,CHH,C,0.0003214024835646457,4.747991234477721e-05,0.0005332359386413442,0.10326880934989022,0.8964645726807887
406,Pervis Ellison\ellispe01,WSB,C,0.0003214024835646457,4.747991234477721e-05,0.0005332359386413442,0.10326880934989022,0.8964645726807887
407,Patrick Ewing*\ewingpa01,NYK,C,0.0003214024835646457,4.747991234477721e-05,0.0005332359386413442,0.10326880934989022,0.8964645726807887
408,Chad Gallagher\gallach01,UTA,C,0.0003214024835646457,4.747991234477721e-05,0.0005332359386413442,0.10326880934989022,0.8964645726807887
409,Chris Gatling\gatlich01,GSW,C,0.0003214024835646457,4.747991234477721e-05,0.0005332359386413442,0.10326880934989022,0.8964645726807887
410,Matt Geiger\geigema01,MIA,C,0.0003214024835646457,4.747991234477721e-05,0.0005332359386413442,0.10326880934989022,0.8964645726807887
411,Mike Gminski\gminsmi01,TOT,C,0.0003214024835646457,4.747991234477721e-05,0.0005332359386413442,0.10326880934989022,0.8964645726807887
412,Mike Gminski\gminsmi01,CHH,C,0.0003214024835646457,4.747991234477721e-05,0.0005332359386413442,0.10326880934989022,0.8964645726807887
413,Mike Gminski\gminsmi01,MIL,C,0.0003214024835646457,4.747991234477721e-05,0.0005332359386413442,0.10326880934989022,0.8964645726807887
414,Andrés Guibert\guibean01,MIN,C,0.0003214024835646457,4.747991234477721e-05,0.0005332359386413442,0.10326880934989022,0.8964645726807887
415,Jay Guidinger\guidija01,CLE,C,0.0003214024835646457,4.747991234477721e-05,0.0005332359386413442,0.10326880934989022,0.8964645726807887
416,Geert Hammink\hammige01,ORL,C,0.0003214024835646457,4.747991234477721e-05,0.0005332359386413442,0.10326880934989022,0.8964645726807887
417,Scott Haskin\haskisc01,IND,C,0.0003214024835646457,4.747991234477721e-05,0.0005332359386413442,0.10326880934989022,0.8964645726807887
418,Donald Hodge\hodgedo01,DAL,C,0.0003214024835646457,4.747991234477721e-05,0.0005332359386413442,0.10326880934989022,0.8964645726807887
419,Tito Horford\horfoti01,WSB,C,0.0003214024835646457,4.747991234477721e-05,0.0005332359386413442,0.10326880934989022,0.8964645726807887
420,Ervin Johnson\johnser02,SEA,C,0.0003214024835646457,4.747991234477721e-05,0.0005332359386413442,0.10326880934989022,0.8964645726807887
421,Charles Jones\jonesch01,DET,C,0.0003214024835646457,4.747991234477721e-05,0.0005332359386413442,0.10326880934989022,0.8964645726807887
422,Rich King\kingri01,SEA,C,0.0003214024835646457,4.747991234477721e-05,0.0005332359386413442,0.10326880934989022,0.8964645726807887
423,Stacey King\kingst01,TOT,C,0.0003214024835646457,4.747991234477721e-05,0.0005332359386413442,0.10326880934989022,0.8964645726807887
424,Stacey King\kingst01,CHI,C,0.0003214024835646457,4.747991234477721e-05,0.0005332359386413442,0.10326880934989022,0.8964645726807887
425,Stacey King\kingst01,MIN,C,0.0003214024835646457,4.747991234477721e-05,0.0005332359386413442,0.10326880934989022,0.8964645726807887
426,Greg Kite\kitegr01,ORL,C,0.0003214024835646457,4.747991234477721e-05,0.0005332359386413442,0.10326880934989022,0.8964645726807887
427,Joe Kleine\kleinjo01,PHO,C,0.0003214024835646457,4.747991234477721e-05,0.0005332359386413442,0.10326880934989022,0.8964645726807887
428,Jon Koncak\koncajo01,ATL,C,0.0003214024835646457,4.747991234477721e-05,0.0005332359386413442,0.10326880934989022,0.8964645726807887
429,Bill Laimbeer\laimbbi01,DET,C,0.0003214024835646457,4.747991234477721e-05,0.0005332359386413442,0.10326880934989022,0.8964645726807887
430,Andrew Lang\langan01,ATL,C,0.0003214024835646457,4.747991234477721e-05,0.0005332359386413442,0.10326880934989022,0.8964645726807887
431,Eric Leckner\leckner01,PHI,C,0.0003214024835646457,4.747991234477721e-05,0.0005332359386413442,0.10326880934989022,0.8964645726807887
432,Luc Longley\longllu01,TOT,C,0.0003214024835646457,4.747991234477721e-05,0.0005332359386413442,0.10326880934989022,0.8964645726807887
433,Luc Longley\longllu01,MIN,C,0.0003214024835646457,4.747991234477721e-05,0.0005332359386413442,0.10326880934989022,0.8964645726807887
434,Luc Longley\longllu01,CHI,C,0.0003214024835646457,4.747991234477721e-05,0.0005332359386413442,0.10326880934989022,0.8964645726807887
435,Malcolm Mackey\mackema01,PHO,C,0.0003214024835646457,4.747991234477721e-05,0.0005332359386413442,0.10326880934989022,0.8964645726807887
436,Moses Malone*\malonmo01,PHI,C,0.0003214024835646457,4.747991234477721e-05,0.0005332359386413442,0.10326880934989022,0.8964645726807887
437,Bob Martin\martibo01,LAC,C,0.0003214024835646457,4.747991234477721e-05,0.0005332359386413442,0.10326880934989022,0.8964645726807887
438,Oliver Miller\milleol01,PHO,C,0.0003214024835646457,4.747991234477721e-05,0.0005332359386413442,0.10326880934989022,0.8964645726807887
439,Darren Morningstar\mornida01,TOT,C,0.0003214024835646457,4.747991234477721e-05,0.0005332359386413442,0.10326880934989022,0.8964645726807887
440,Darren Morningstar\mornida01,DAL,C,0.0003214024835646457,4.747991234477721e-05,0.0005332359386413442,0.10326880934989022,0.8964645726807887
441,Darren Morningstar\mornida01,UTA,C,0.0003214024835646457,4.747991234477721e-05,0.0005332359386413442,0.10326880934989022,0.8964645726807887
442,Alonzo Mourning*\mournal01,CHH,C,0.0003214024835646457,4.747991234477721e-05,0.0005332359386413442,0.10326880934989022,0.8964645726807887
443,Gheorghe Mureșan\muresgh01,WSB,C,0.0003214024835646457,4.747991234477721e-05,0.0005332359386413442,0.10326880934989022,0.8964645726807887
444,Dikembe Mutombo*\mutomdi01,DEN,C,0.0003214024835646457,4.747991234477721e-05,0.0005332359386413442,0.10326880934989022,0.8964645726807887
445,Chuck Nevitt\nevitch01,SAS,C,0.0003214024835646457,4.747991234477721e-05,0.0005332359386413442,0.10326880934989022,0.8964645726807887
446,Shaquille O'Neal*\onealsh01,ORL,C,0.0003214024835646457,4.747991234477721e-05,0.0005332359386413442,0.10326880934989022,0.8964645726807887
447,Dan O'Sullivan\osullda01,DET,C,0.0003214024835646457,4.747991234477721e-05,0.0005332359386413442,0.10326880934989022,0.8964645726807887
448,Hakeem Olajuwon*\olajuha01,HOU,C,0.0003214024835646457,4.747991234477721e-05,0.0005332359386413442,0.10326880934989022,0.8964645726807887
449,Robert Parish*\parisro01,BOS,C,0.0003214024835646457,4.747991234477721e-05,0.0005332359386413442,0.10326880934989022,0.8964645726807887
450,Mike Peplowski\peplomi01,SAC,C,0.0003214024835646457,4.747991234477721e-05,0.0005332359386413442,0.10326880934989022,0.8964645726807887
451,Will Perdue\perduwi01,CHI,C,0.0003214024835646457,4.747991234477721e-05,0.0005332359386413442,0.10326880934989022,0.8964645726807887
452,Richard Petruška\petruri01,HOU,C,0.0003214024835646457,4.747991234477721e-05,0.0005332359386413442,0.10326880934989022,0.8964645726807887
453,Olden Polynice\polynol01,TOT,C,0.0003214024835646457,4.747991234477721e-05,0.0005332359386413442,0.10326880934989022,0.8964645726807887
454,Olden Polynice\polynol01,DET,C,0.0003214024835646457,4.747991234477721e-05,0.0005332359386413442,0.10326880934989022,0.8964645726807887
455,Olden Polynice\polynol01,SAC,C,0.0003214024835646457,4.747991234477721e-05,0.0005332359386413442,0.10326880934989022,0.8964645726807887
456,Eric Riley\rileyer01,HOU,C,0.0003214024835646457,4.747991234477721e-05,0.0005332359386413442,0.10326880934989022,0.8964645726807887
457,Stanley Roberts\roberst01,LAC,C,0.0003214024835646457,4.747991234477721e-05,0.0005332359386413442,0.10326880934989022,0.8964645726807887
458,Clifford Robinson\robincl02,POR,C,0.0003214024835646457,4.747991234477721e-05,0.0005332359386413442,0.10326880934989022,0.8964645726807887
459,David Robinson*\robinda01,SAS,C,0.0003214024835646457,4.747991234477721e-05,0.0005332359386413442,0.10326880934989022,0.8964645726807887
460,Tree Rollins\rollitr01,ORL,C,0.0003214024835646457,4.747991234477721e-05,0.0005332359386413442,0.10326880934989022,0.8964645726807887
461,Sean Rooks\rooksse01,DAL,C,0.0003214024835646457,4.747991234477721e-05,0.0005332359386413442,0.10326880934989022,0.8964645726807887
462,Danny Schayes\schayda01,TOT,C,0.0003214024835646457,4.747991234477721e-05,0.0005332359386413442,0.10326880934989022,0.8964645726807887
463,Danny Schayes\schayda01,MIL,C,0.0003214024835646457,4.747991234477721e-05,0.0005332359386413442,0.10326880934989022,0.8964645726807887
464,Danny Schayes\schayda01,LAL,C,0.0003214024835646457,4.747991234477721e-05,0.0005332359386413442,0.10326880934989022,0.8964645726807887
465,Steve Scheffler\schefst01,SEA,C,0.0003214024835646457,4.747991234477721e-05,0.0005332359386413442,0.10326880934989022,0.8964645726807887
466,Dwayne Schintzius\schindw01,NJN,C,0.0003214024835646457,4.747991234477721e-05,0.0005332359386413442,0.10326880934989022,0.8964645726807887
467,Rony Seikaly\seikaro01,MIA,C,0.0003214024835646457,4.747991234477721e-05,0.0005332359386413442,0.10326880934989022,0.8964645726807887
468,Rik Smits\smitsri01,IND,C,0.0003214024835646457,4.747991234477721e-05,0.0005332359386413442,0.10326880934989022,0.8964645726807887
469,Elmore Spencer\spencel01,LAC,C,0.0003214024835646457,4.747991234477721e-05,0.0005332359386413442,0.10326880934989022,0.8964645726807887
470,Felton Spencer\spencfe01,UTA,C,0.0003214024835646457,4.747991234477721e-05,0.0005332359386413442,0.10326880934989022,0.8964645726807887
471,Kevin Thompson\thompke01,POR,C,0.0003214024835646457,4.747991234477721e-05,0.0005332359386413442,0.10326880934989022,0.8964645726807887
472,LaSalle Thompson\thompla01,IND,C,0.0003214024835646457,4.747991234477721e-05,0.0005332359386413442,0.10326880934989022,0.8964645726807887
473,Keith Tower\towerke01,ORL,C,0.0003214024835646457,4.747991234477721e-05,0.0005332359386413442,0.10326880934989022,0.8964645726807887
474,Chris Webber\webbech01,GSW,C,0.0003214024835646457,4.747991234477721e-05,0.0005332359386413442,0.10326880934989022,0.8964645726807887
475,Bill Wennington\wennibi01,CHI,C,0.0003214024835646457,4.747991234477721e-05,0.0005332359386413442,0.10326880934989022,0.8964645726807887
476,Matt Wenstrom\wenstma01,BOS,C,0.0003214024835646457,4.747991234477721e-05,0.0005332359386413442,0.10326880934989022,0.8964645726807887
477,Mark West\westma01,PHO,C,0.0003214024835646457,4.747991234477721e-05,0.0005332359386413442,0.10326880934989022,0.8964645726807887
478,Herb Williams\willihe01,NYK,C,0.0003214024835646457,4.747991234477721e-05,0.0005332359386413442,0.10326880934989022,0.8964645726807887
479,Scott Williams\willisc01,CHI,C,0.0003214024835646457,4.747991234477721e-05,0.0005332359386413442,0.10326880934989022,0.8964645726807887
480,Luther Wright\wrighlu01,UTA,C,0.0003214024835646457,4.747991234477721e-05,0.0005332359386413442,0.10326880934989022,0.8964645726807887
