,Player,Tm,Pos,PG%,SG%,SF%,PF%,C%
0,Alaa Abdelnaby\abdelal01,POR,PF,0.000351000351000351,0.0012706212706212697,0.08266409266409273,0.7044857844857865,0.21231660231660082
1,Mark Alarie\alarima01,WSB,PF,0.000351000351000351,0.0012706212706212697,0.08266409266409273,0.7044857844857865,0.21231660231660082
2,Greg Anderson\andergr01,TOT,PF,0.000351000351000351,0.0012706212706212697,0.08266409266409273,0.7044857844857865,0.21231660231660082
3,Greg Anderson\andergr01,MIL,PF,0.000351000351000351,0.0012706212706212697,0.08266409266409273,0.7044857844857865,0.21231660231660082
4,Greg Anderson\andergr01,NJN,PF,0.000351000351000351,0.0012706212706212697,0.08266409266409273,0.7044857844857865,0.21231660231660082
5,Greg Anderson\andergr01,DEN,PF,0.000351000351000351,0.0012706212706212697,0.08266409266409273,0.7044857844857865,0.21231660231660082
6,Miloš Babić\babicmi01,CLE,PF,0.000351000351000351,0.0012706212706212697,0.08266409266409273,0.7044857844857865,0.21231660231660082
7,Thurl Bailey\baileth01,UTA,PF,0.000351000351000351,0.0012706212706212697,0.08266409266409273,0.7044857844857865,0.21231660231660082
8,Cedric Ball\ballce01,LAC,PF,0.000351000351000351,0.0012706212706212697,0.08266409266409273,0.7044857844857865,0.21231660231660082
9,Ken Bannister\bannike01,LAC,PF,0.000351000351000351,0.0012706212706212697,0.08266409266409273,0.7044857844857865,0.21231660231660082
10,Anthony Bonner\bonnean01,SAC,PF,0.000351000351000351,0.0012706212706212697,0.08266409266409273,0.7044857844857865,0.21231660231660082
11,Frank Brickowski\brickfr01,MIL,PF,0.000351000351000351,0.0012706212706212697,0.08266409266409273,0.7044857844857865,0.21231660231660082
12,Mark Bryant\bryanma01,POR,PF,0.000351000351000351,0.0012706212706212697,0.08266409266409273,0.7044857844857865,0.21231660231660082
13,Matt Bullard\bullama01,HOU,PF,0.000351000351000351,0.0012706212706212697,0.08266409266409273,0.7044857844857865,0.21231660231660082
14,Adrian Caldwell\caldwad01,HOU,PF,0.000351000351000351,0.0012706212706212697,0.08266409266409273,0.7044857844857865,0.21231660231660082
15,Elden Campbell\campbel01,LAL,PF,0.000351000351000351,0.0012706212706212697,0.08266409266409273,0.7044857844857865,0.21231660231660082
16,Antoine Carr\carran01,SAC,PF,0.000351000351000351,0.0012706212706212697,0.08266409266409273,0.7044857844857865,0.21231660231660082
17,Terry Catledge\catlete01,ORL,PF,0.000351000351000351,0.0012706212706212697,0.08266409266409273,0.7044857844857865,0.21231660231660082
18,Tom Chambers\chambto01,PHO,PF,0.000351000351000351,0.0012706212706212697,0.08266409266409273,0.7044857844857865,0.21231660231660082
19,Derrick Coleman\colemde01,NJN,PF,0.000351000351000351,0.0012706212706212697,0.08266409266409273,0.7044857844857865,0.21231660231660082
20,Anthony Cook\cookan01,DEN,PF,0.000351000351000351,0.0012706212706212697,0.08266409266409273,0.7044857844857865,0.21231660231660082
21,Pat Cummings\cummipa01,UTA,PF,0.000351000351000351,0.0012706212706212697,0.08266409266409273,0.7044857844857865,0.21231660231660082
22,Terry Cummings\cummite01,SAS,PF,0.000351000351000351,0.0012706212706212697,0.08266409266409273,0.7044857844857865,0.21231660231660082
23,Earl Cureton\curetea01,CHH,PF,0.000351000351000351,0.0012706212706212697,0.08266409266409273,0.7044857844857865,0.21231660231660082
24,Terry Davis\daviste01,MIA,PF,0.000351000351000351,0.0012706212706212697,0.08266409266409273,0.7044857844857865,0.21231660231660082
25,Danny Ferry\ferryda01,CLE,PF,0.000351000351000351,0.0012706212706212697,0.08266409266409273,0.7044857844857865,0.21231660231660082
26,Greg Foster\fostegr01,WSB,PF,0.000351000351000351,0.0012706212706212697,0.08266409266409273,0.7044857844857865,0.21231660231660082
27,Kenny Gattison\gattike01,CHH,PF,0.000351000351000351,0.0012706212706212697,0.08266409266409273,0.7044857844857865,0.21231660231660082
28,Derrick Gervin\gervide01,NJN,PF,0.000351000351000351,0.0012706212706212697,0.08266409266409273,0.7044857844857865,0.21231660231660082
29,Armen Gilliam\gilliar01,TOT,PF,0.000351000351000351,0.0012706212706212697,0.08266409266409273,0.7044857844857865,0.21231660231660082
30,Armen Gilliam\gilliar01,CHH,PF,0.000351000351000351,0.0012706212706212697,0.08266409266409273,0.7044857844857865,0.21231660231660082
31,Armen Gilliam\gilliar01,PHI,PF,0.000351000351000351,0.0012706212706212697,0.08266409266409273,0.7044857844857865,0.21231660231660082
32,Jim Grandholm\grandji01,DAL,PF,0.000351000351000351,0.0012706212706212697,0.08266409266409273,0.7044857844857865,0.21231660231660082
33,Harvey Grant\grantha01,WSB,PF,0.000351000351000351,0.0012706212706212697,0.08266409266409273,0.7044857844857865,0.21231660231660082
34,Horace Grant\grantho01,CHI,PF,0.000351000351000351,0.0012706212706212697,0.08266409266409273,0.7044857844857865,0.21231660231660082
35,A.C. Green\greenac01,LAL,PF,0.000351000351000351,0.0012706212706212697,0.08266409266409273,0.7044857844857865,0.21231660231660082
36,Sidney Green\greensi02,SAS,PF,0.000351000351000351,0.0012706212706212697,0.08266409266409273,0.7044857844857865,0.21231660231660082
37,Dave Greenwood\greenda01,SAS,PF,0.000351000351000351,0.0012706212706212697,0.08266409266409273,0.7044857844857865,0.21231660231660082
38,Jack Haley\haleyja01,NJN,PF,0.000351000351000351,0.0012706212706212697,0.08266409266409273,0.7044857844857865,0.21231660231660082
39,Tom Hammonds\hammoto01,WSB,PF,0.000351000351000351,0.0012706212706212697,0.08266409266409273,0.7044857844857865,0.21231660231660082
40,Scott Hastings\hastisc01,DET,PF,0.000351000351000351,0.0012706212706212697,0.08266409266409273,0.7044857844857865,0.21231660231660082
41,Tyrone Hill\hillty01,GSW,PF,0.000351000351000351,0.0012706212706212697,0.08266409266409273,0.7044857844857865,0.21231660231660082
42,Roy Hinson\hinsoro01,NJN,PF,0.000351000351000351,0.0012706212706212697,0.08266409266409273,0.7044857844857865,0.21231660231660082
43,Henry James\jameshe01,CLE,PF,0.000351000351000351,0.0012706212706212697,0.08266409266409273,0.7044857844857865,0.21231660231660082
44,Shawn Kemp\kempsh01,SEA,PF,0.000351000351000351,0.0012706212706212697,0.08266409266409273,0.7044857844857865,0.21231660231660082
45,Stacey King\kingst01,CHI,PF,0.000351000351000351,0.0012706212706212697,0.08266409266409273,0.7044857844857865,0.21231660231660082
46,Frank Kornet\kornefr01,MIL,PF,0.000351000351000351,0.0012706212706212697,0.08266409266409273,0.7044857844857865,0.21231660231660082
47,Jerome Lane\laneje01,DEN,PF,0.000351000351000351,0.0012706212706212697,0.08266409266409273,0.7044857844857865,0.21231660231660082
48,Cliff Levingston\levincl01,CHI,PF,0.000351000351000351,0.0012706212706212697,0.08266409266409273,0.7044857844857865,0.21231660231660082
49,Brad Lohaus\lohaubr01,MIL,PF,0.000351000351000351,0.0012706212706212697,0.08266409266409273,0.7044857844857865,0.21231660231660082
50,Grant Long\longgr01,MIA,PF,0.000351000351000351,0.0012706212706212697,0.08266409266409273,0.7044857844857865,0.21231660231660082
51,Karl Malone*\malonka01,UTA,PF,0.000351000351000351,0.0012706212706212697,0.08266409266409273,0.7044857844857865,0.21231660231660082
52,Danny Manning\mannida01,LAC,PF,0.000351000351000351,0.0012706212706212697,0.08266409266409273,0.7044857844857865,0.21231660231660082
53,Anthony Mason\masonan01,DEN,PF,0.000351000351000351,0.0012706212706212697,0.08266409266409273,0.7044857844857865,0.21231660231660082
54,Tony Massenburg\masseto01,SAS,PF,0.000351000351000351,0.0012706212706212697,0.08266409266409273,0.7044857844857865,0.21231660231660082
55,Rodney McCray\mccraro01,DAL,PF,0.000351000351000351,0.0012706212706212697,0.08266409266409273,0.7044857844857865,0.21231660231660082
56,Kevin McHale*\mchalke01,BOS,PF,0.000351000351000351,0.0012706212706212697,0.08266409266409273,0.7044857844857865,0.21231660231660082
57,Scott Meents\meentsc01,SEA,PF,0.000351000351000351,0.0012706212706212697,0.08266409266409273,0.7044857844857865,0.21231660231660082
58,Terry Mills\millste01,TOT,PF,0.000351000351000351,0.0012706212706212697,0.08266409266409273,0.7044857844857865,0.21231660231660082
59,Terry Mills\millste01,DEN,PF,0.000351000351000351,0.0012706212706212697,0.08266409266409273,0.7044857844857865,0.21231660231660082
60,Terry Mills\millste01,NJN,PF,0.000351000351000351,0.0012706212706212697,0.08266409266409273,0.7044857844857865,0.21231660231660082
61,Sam Mitchell\mitchsa01,MIN,PF,0.000351000351000351,0.0012706212706212697,0.08266409266409273,0.7044857844857865,0.21231660231660082
62,Chris Munk\munkch01,UTA,PF,0.000351000351000351,0.0012706212706212697,0.08266409266409273,0.7044857844857865,0.21231660231660082
63,Tod Murphy\murphto01,MIN,PF,0.000351000351000351,0.0012706212706212697,0.08266409266409273,0.7044857844857865,0.21231660231660082
64,Jerrod Mustaf\mustaje01,NYK,PF,0.000351000351000351,0.0012706212706212697,0.08266409266409273,0.7044857844857865,0.21231660231660082
65,Larry Nance\nancela01,CLE,PF,0.000351000351000351,0.0012706212706212697,0.08266409266409273,0.7044857844857865,0.21231660231660082
66,Ed Nealy\nealyed01,PHO,PF,0.000351000351000351,0.0012706212706212697,0.08266409266409273,0.7044857844857865,0.21231660231660082
67,Charles Oakley\oaklech01,NYK,PF,0.000351000351000351,0.0012706212706212697,0.08266409266409273,0.7044857844857865,0.21231660231660082
68,Sam Perkins\perkisa01,LAL,PF,0.000351000351000351,0.0012706212706212697,0.08266409266409273,0.7044857844857865,0.21231660231660082
69,Ed Pinckney\pincked01,BOS,PF,0.000351000351000351,0.0012706212706212697,0.08266409266409273,0.7044857844857865,0.21231660231660082
70,Dave Popson\popsoda01,BOS,PF,0.000351000351000351,0.0012706212706212697,0.08266409266409273,0.7044857844857865,0.21231660231660082
71,Kurt Rambis\rambiku01,PHO,PF,0.000351000351000351,0.0012706212706212697,0.08266409266409273,0.7044857844857865,0.21231660231660082
72,Fred Roberts\roberfr01,MIL,PF,0.000351000351000351,0.0012706212706212697,0.08266409266409273,0.7044857844857865,0.21231660231660082
73,Clifford Robinson\robincl02,POR,PF,0.000351000351000351,0.0012706212706212697,0.08266409266409273,0.7044857844857865,0.21231660231660082
74,John Salley\sallejo01,DET,PF,0.000351000351000351,0.0012706212706212697,0.08266409266409273,0.7044857844857865,0.21231660231660082
75,Jeff Sanders\sandeje01,CHH,PF,0.000351000351000351,0.0012706212706212697,0.08266409266409273,0.7044857844857865,0.21231660231660082
76,Detlef Schrempf\schrede01,IND,PF,0.000351000351000351,0.0012706212706212697,0.08266409266409273,0.7044857844857865,0.21231660231660082
77,Larry Smith\smithla01,HOU,PF,0.000351000351000351,0.0012706212706212697,0.08266409266409273,0.7044857844857865,0.21231660231660082
78,Michael Smith\smithmi01,BOS,PF,0.000351000351000351,0.0012706212706212697,0.08266409266409273,0.7044857844857865,0.21231660231660082
79,Irving Thomas\thomair01,LAL,PF,0.000351000351000351,0.0012706212706212697,0.08266409266409273,0.7044857844857865,0.21231660231660082
80,Bob Thornton\thornbo01,MIN,PF,0.000351000351000351,0.0012706212706212697,0.08266409266409273,0.7044857844857865,0.21231660231660082
81,Otis Thorpe\thorpot01,HOU,PF,0.000351000351000351,0.0012706212706212697,0.08266409266409273,0.7044857844857865,0.21231660231660082
82,Wayman Tisdale\tisdawa01,SAC,PF,0.000351000351000351,0.0012706212706212697,0.08266409266409273,0.7044857844857865,0.21231660231660082
83,Tom Tolbert\tolbeto01,GSW,PF,0.000351000351000351,0.0012706212706212697,0.08266409266409273,0.7044857844857865,0.21231660231660082
84,Jeff Turner\turneje01,ORL,PF,0.000351000351000351,0.0012706212706212697,0.08266409266409273,0.7044857844857865,0.21231660231660082
85,Loy Vaught\vaughlo01,LAC,PF,0.000351000351000351,0.0012706212706212697,0.08266409266409273,0.7044857844857865,0.21231660231660082
86,Randy White\whitera01,DAL,PF,0.000351000351000351,0.0012706212706212697,0.08266409266409273,0.7044857844857865,0.21231660231660082
87,Buck Williams\willibu01,POR,PF,0.000351000351000351,0.0012706212706212697,0.08266409266409273,0.7044857844857865,0.21231660231660082
88,Jayson Williams\willija01,PHI,PF,0.000351000351000351,0.0012706212706212697,0.08266409266409273,0.7044857844857865,0.21231660231660082
89,Kenny Williams\willike03,IND,PF,0.000351000351000351,0.0012706212706212697,0.08266409266409273,0.7044857844857865,0.21231660231660082
90,Scott Williams\willisc01,CHI,PF,0.000351000351000351,0.0012706212706212697,0.08266409266409273,0.7044857844857865,0.21231660231660082
91,Kevin Willis\willike02,ATL,PF,0.000351000351000351,0.0012706212706212697,0.08266409266409273,0.7044857844857865,0.21231660231660082
92,Trevor Wilson\wilsotr01,ATL,PF,0.000351000351000351,0.0012706212706212697,0.08266409266409273,0.7044857844857865,0.21231660231660082
93,Howard Wright\wrighho02,TOT,PF,0.000351000351000351,0.0012706212706212697,0.08266409266409273,0.7044857844857865,0.21231660231660082
94,Howard Wright\wrighho02,ATL,PF,0.000351000351000351,0.0012706212706212697,0.08266409266409273,0.7044857844857865,0.21231660231660082
95,Howard Wright\wrighho02,ORL,PF,0.000351000351000351,0.0012706212706212697,0.08266409266409273,0.7044857844857865,0.21231660231660082
96,Howard Wright\wrighho02,DAL,PF,0.000351000351000351,0.0012706212706212697,0.08266409266409273,0.7044857844857865,0.21231660231660082
97,Mahmoud Abdul-Rauf\abdulma02,DEN,PG,0.8713428571428595,0.1261999999999998,0.0030714285714285626,0.0,0.0
98,Michael Adams\adamsmi01,DEN,PG,0.8713428571428595,0.1261999999999998,0.0030714285714285626,0.0,0.0
99,Steve Alford\alforst01,DAL,PG,0.8713428571428595,0.1261999999999998,0.0030714285714285626,0.0,0.0
100,B.J. Armstrong\armstbj01,CHI,PG,0.8713428571428595,0.1261999999999998,0.0030714285714285626,0.0,0.0
101,Dana Barros\barroda01,SEA,PG,0.8713428571428595,0.1261999999999998,0.0030714285714285626,0.0,0.0
102,Mookie Blaylock\blaylmo01,NJN,PG,0.8713428571428595,0.1261999999999998,0.0030714285714285626,0.0,0.0
103,Muggsy Bogues\boguemu01,CHH,PG,0.8713428571428595,0.1261999999999998,0.0030714285714285626,0.0,0.0
104,Scott Brooks\brooksc01,MIN,PG,0.8713428571428595,0.1261999999999998,0.0030714285714285626,0.0,0.0
105,Dee Brown\brownde01,BOS,PG,0.8713428571428595,0.1261999999999998,0.0030714285714285626,0.0,0.0
106,Rex Chapman\chapmre01,CHH,PG,0.8713428571428595,0.1261999999999998,0.0030714285714285626,0.0,0.0
107,Maurice Cheeks*\cheekma01,NYK,PG,0.8713428571428595,0.1261999999999998,0.0030714285714285626,0.0,0.0
108,Bimbo Coles\colesbi01,MIA,PG,0.8713428571428595,0.1261999999999998,0.0030714285714285626,0.0,0.0
109,Steve Colter\coltest01,SAC,PG,0.8713428571428595,0.1261999999999998,0.0030714285714285626,0.0,0.0
110,Lester Conner\connele01,TOT,PG,0.8713428571428595,0.1261999999999998,0.0030714285714285626,0.0,0.0
111,Lester Conner\connele01,NJN,PG,0.8713428571428595,0.1261999999999998,0.0030714285714285626,0.0,0.0
112,Lester Conner\connele01,MIL,PG,0.8713428571428595,0.1261999999999998,0.0030714285714285626,0.0,0.0
113,Brad Davis\davisbr01,DAL,PG,0.8713428571428595,0.1261999999999998,0.0030714285714285626,0.0,0.0
114,Johnny Dawkins\dawkijo01,PHI,PG,0.8713428571428595,0.1261999999999998,0.0030714285714285626,0.0,0.0
115,Byron Dinkins\dinkiby01,TOT,PG,0.8713428571428595,0.1261999999999998,0.0030714285714285626,0.0,0.0
116,Byron Dinkins\dinkiby01,SAS,PG,0.8713428571428595,0.1261999999999998,0.0030714285714285626,0.0,0.0
117,Byron Dinkins\dinkiby01,IND,PG,0.8713428571428595,0.1261999999999998,0.0030714285714285626,0.0,0.0
118,Sherman Douglas\douglsh01,MIA,PG,0.8713428571428595,0.1261999999999998,0.0030714285714285626,0.0,0.0
119,Larry Drew\drewla01,LAL,PG,0.8713428571428595,0.1261999999999998,0.0030714285714285626,0.0,0.0
120,Vern Fleming\flemive01,IND,PG,0.8713428571428595,0.1261999999999998,0.0030714285714285626,0.0,0.0
121,Sleepy Floyd\floydsl01,HOU,PG,0.8713428571428595,0.1261999999999998,0.0030714285714285626,0.0,0.0
122,Winston Garland\garlawi01,LAC,PG,0.8713428571428595,0.1261999999999998,0.0030714285714285626,0.0,0.0
123,Tate George\georgta01,NJN,PG,0.8713428571428595,0.1261999999999998,0.0030714285714285626,0.0,0.0
124,Gary Grant\grantga01,LAC,PG,0.8713428571428595,0.1261999999999998,0.0030714285714285626,0.0,0.0
125,Greg Grant\grantgr01,NYK,PG,0.8713428571428595,0.1261999999999998,0.0030714285714285626,0.0,0.0
126,Rickey Green\greenri01,PHI,PG,0.8713428571428595,0.1261999999999998,0.0030714285714285626,0.0,0.0
127,Scott Haffner\haffnsc01,CHH,PG,0.8713428571428595,0.1261999999999998,0.0030714285714285626,0.0,0.0
128,Tim Hardaway\hardati01,GSW,PG,0.8713428571428595,0.1261999999999998,0.0030714285714285626,0.0,0.0
129,Derek Harper\harpede01,DAL,PG,0.8713428571428595,0.1261999999999998,0.0030714285714285626,0.0,0.0
130,Gerald Henderson\hendege01,DET,PG,0.8713428571428595,0.1261999999999998,0.0030714285714285626,0.0,0.0
131,Steve Henson\hensost01,MIL,PG,0.8713428571428595,0.1261999999999998,0.0030714285714285626,0.0,0.0
132,Jay Humphries\humphja01,MIL,PG,0.8713428571428595,0.1261999999999998,0.0030714285714285626,0.0,0.0
133,Mark Jackson\jacksma01,NYK,PG,0.8713428571428595,0.1261999999999998,0.0030714285714285626,0.0,0.0
134,Avery Johnson\johnsav01,TOT,PG,0.8713428571428595,0.1261999999999998,0.0030714285714285626,0.0,0.0
135,Avery Johnson\johnsav01,DEN,PG,0.8713428571428595,0.1261999999999998,0.0030714285714285626,0.0,0.0
136,Avery Johnson\johnsav01,SAS,PG,0.8713428571428595,0.1261999999999998,0.0030714285714285626,0.0,0.0
137,Kevin Johnson\johnske02,PHO,PG,0.8713428571428595,0.1261999999999998,0.0030714285714285626,0.0,0.0
138,Magic Johnson*\johnsma02,LAL,PG,0.8713428571428595,0.1261999999999998,0.0030714285714285626,0.0,0.0
139,Steve Kerr\kerrst01,CLE,PG,0.8713428571428595,0.1261999999999998,0.0030714285714285626,0.0,0.0
140,Negele Knight\knighne01,PHO,PG,0.8713428571428595,0.1261999999999998,0.0030714285714285626,0.0,0.0
141,Kurk Lee\leeku01,NJN,PG,0.8713428571428595,0.1261999999999998,0.0030714285714285626,0.0,0.0
142,Jim Les\lesji01,SAC,PG,0.8713428571428595,0.1261999999999998,0.0030714285714285626,0.0,0.0
143,Clifford Lett\lettcl01,SAS,PG,0.8713428571428595,0.1261999999999998,0.0030714285714285626,0.0,0.0
144,Jeff Martin\martije01,LAC,PG,0.8713428571428595,0.1261999999999998,0.0030714285714285626,0.0,0.0
145,Travis Mays\maystr01,SAC,PG,0.8713428571428595,0.1261999999999998,0.0030714285714285626,0.0,0.0
146,Craig Neal\nealcr01,DEN,PG,0.8713428571428595,0.1261999999999998,0.0030714285714285626,0.0,0.0
147,John Paxson\paxsojo01,CHI,PG,0.8713428571428595,0.1261999999999998,0.0030714285714285626,0.0,0.0
148,Gary Payton*\paytoga01,SEA,PG,0.8713428571428595,0.1261999999999998,0.0030714285714285626,0.0,0.0
149,Terry Porter\portete01,POR,PG,0.8713428571428595,0.1261999999999998,0.0030714285714285626,0.0,0.0
150,Mark Price\pricema01,CLE,PG,0.8713428571428595,0.1261999999999998,0.0030714285714285626,0.0,0.0
151,Kevin Pritchard\pritcke01,GSW,PG,0.8713428571428595,0.1261999999999998,0.0030714285714285626,0.0,0.0
152,Pooh Richardson\richapo01,MIN,PG,0.8713428571428595,0.1261999999999998,0.0030714285714285626,0.0,0.0
153,Doc Rivers\riverdo01,ATL,PG,0.8713428571428595,0.1261999999999998,0.0030714285714285626,0.0,0.0
154,Rumeal Robinson\robinru01,ATL,PG,0.8713428571428595,0.1261999999999998,0.0030714285714285626,0.0,0.0
155,Delaney Rudd\ruddde01,UTA,PG,0.8713428571428595,0.1261999999999998,0.0030714285714285626,0.0,0.0
156,Brian Shaw\shawbr01,BOS,PG,0.8713428571428595,0.1261999999999998,0.0030714285714285626,0.0,0.0
157,Scott Skiles\skilesc01,ORL,PG,0.8713428571428595,0.1261999999999998,0.0030714285714285626,0.0,0.0
158,Charles Smith\smithch02,BOS,PG,0.8713428571428595,0.1261999999999998,0.0030714285714285626,0.0,0.0
159,Kenny Smith\smithke01,HOU,PG,0.8713428571428595,0.1261999999999998,0.0030714285714285626,0.0,0.0
160,Rory Sparrow\sparrro01,SAC,PG,0.8713428571428595,0.1261999999999998,0.0030714285714285626,0.0,0.0
161,Everette Stephens\stephev01,MIL,PG,0.8713428571428595,0.1261999999999998,0.0030714285714285626,0.0,0.0
162,John Stockton*\stockjo01,UTA,PG,0.8713428571428595,0.1261999999999998,0.0030714285714285626,0.0,0.0
163,Rod Strickland\stricro02,SAS,PG,0.8713428571428595,0.1261999999999998,0.0030714285714285626,0.0,0.0
164,Isiah Thomas*\thomais01,DET,PG,0.8713428571428595,0.1261999999999998,0.0030714285714285626,0.0,0.0
165,Sedale Threatt\threase01,SEA,PG,0.8713428571428595,0.1261999999999998,0.0030714285714285626,0.0,0.0
166,Andre Turner\turnean01,PHI,PG,0.8713428571428595,0.1261999999999998,0.0030714285714285626,0.0,0.0
167,Darnell Valentine\valenda01,CLE,PG,0.8713428571428595,0.1261999999999998,0.0030714285714285626,0.0,0.0
168,Sam Vincent\vincesa01,ORL,PG,0.8713428571428595,0.1261999999999998,0.0030714285714285626,0.0,0.0
169,Darrell Walker\walkeda01,WSB,PG,0.8713428571428595,0.1261999999999998,0.0030714285714285626,0.0,0.0
170,Spud Webb\webbsp01,ATL,PG,0.8713428571428595,0.1261999999999998,0.0030714285714285626,0.0,0.0
171,Morlon Wiley\wileymo01,ORL,PG,0.8713428571428595,0.1261999999999998,0.0030714285714285626,0.0,0.0
172,Micheal Williams\willimi02,IND,PG,0.8713428571428595,0.1261999999999998,0.0030714285714285626,0.0,0.0
173,Haywoode Workman\workmha01,WSB,PG,0.8713428571428595,0.1261999999999998,0.0030714285714285626,0.0,0.0
174,A.J. Wynder\wyndeaj01,BOS,PG,0.8713428571428595,0.1261999999999998,0.0030714285714285626,0.0,0.0
175,Danny Young\youngda01,POR,PG,0.8713428571428595,0.1261999999999998,0.0030714285714285626,0.0,0.0
176,Mark Acres\acresma01,ORL,C,0.0003214024835646457,4.747991234477721e-05,0.0005332359386413442,0.10326880934989022,0.8964645726807887
177,William Bedford\bedfowi01,DET,C,0.0003214024835646457,4.747991234477721e-05,0.0005332359386413442,0.10326880934989022,0.8964645726807887
178,Benoit Benjamin\benjabe01,TOT,C,0.0003214024835646457,4.747991234477721e-05,0.0005332359386413442,0.10326880934989022,0.8964645726807887
179,Benoit Benjamin\benjabe01,LAC,C,0.0003214024835646457,4.747991234477721e-05,0.0005332359386413442,0.10326880934989022,0.8964645726807887
180,Benoit Benjamin\benjabe01,SEA,C,0.0003214024835646457,4.747991234477721e-05,0.0005332359386413442,0.10326880934989022,0.8964645726807887
181,Manute Bol\bolma01,PHI,C,0.0003214024835646457,4.747991234477721e-05,0.0005332359386413442,0.10326880934989022,0.8964645726807887
182,Sam Bowie\bowiesa01,NJN,C,0.0003214024835646457,4.747991234477721e-05,0.0005332359386413442,0.10326880934989022,0.8964645726807887
183,Randy Breuer\breuera01,MIN,C,0.0003214024835646457,4.747991234477721e-05,0.0005332359386413442,0.10326880934989022,0.8964645726807887
184,Mike Brown\brownmi01,UTA,C,0.0003214024835646457,4.747991234477721e-05,0.0005332359386413442,0.10326880934989022,0.8964645726807887
185,Greg Butler\butlegr01,LAC,C,0.0003214024835646457,4.747991234477721e-05,0.0005332359386413442,0.10326880934989022,0.8964645726807887
186,Michael Cage\cagemi01,SEA,C,0.0003214024835646457,4.747991234477721e-05,0.0005332359386413442,0.10326880934989022,0.8964645726807887
187,Joe Barry Carroll\carrojo01,PHO,C,0.0003214024835646457,4.747991234477721e-05,0.0005332359386413442,0.10326880934989022,0.8964645726807887
188,Bill Cartwright\cartwbi01,CHI,C,0.0003214024835646457,4.747991234477721e-05,0.0005332359386413442,0.10326880934989022,0.8964645726807887
189,Duane Causwell\causwdu01,SAC,C,0.0003214024835646457,4.747991234477721e-05,0.0005332359386413442,0.10326880934989022,0.8964645726807887
190,Wayne Cooper\coopewa01,POR,C,0.0003214024835646457,4.747991234477721e-05,0.0005332359386413442,0.10326880934989022,0.8964645726807887
191,Dave Corzine\corzida01,SEA,C,0.0003214024835646457,4.747991234477721e-05,0.0005332359386413442,0.10326880934989022,0.8964645726807887
192,Brad Daugherty\daughbr01,CLE,C,0.0003214024835646457,4.747991234477721e-05,0.0005332359386413442,0.10326880934989022,0.8964645726807887
193,Vlade Divac*\divacvl01,LAL,C,0.0003214024835646457,4.747991234477721e-05,0.0005332359386413442,0.10326880934989022,0.8964645726807887
194,James Donaldson\donalja01,DAL,C,0.0003214024835646457,4.747991234477721e-05,0.0005332359386413442,0.10326880934989022,0.8964645726807887
195,Greg Dreiling\dreilgr01,IND,C,0.0003214024835646457,4.747991234477721e-05,0.0005332359386413442,0.10326880934989022,0.8964645726807887
196,Kevin Duckworth\duckwke01,POR,C,0.0003214024835646457,4.747991234477721e-05,0.0005332359386413442,0.10326880934989022,0.8964645726807887
197,Chris Dudley\dudlech02,NJN,C,0.0003214024835646457,4.747991234477721e-05,0.0005332359386413442,0.10326880934989022,0.8964645726807887
198,Mark Eaton\eatonma01,UTA,C,0.0003214024835646457,4.747991234477721e-05,0.0005332359386413442,0.10326880934989022,0.8964645726807887
199,James Edwards\edwarja01,DET,C,0.0003214024835646457,4.747991234477721e-05,0.0005332359386413442,0.10326880934989022,0.8964645726807887
200,Pervis Ellison\ellispe01,WSB,C,0.0003214024835646457,4.747991234477721e-05,0.0005332359386413442,0.10326880934989022,0.8964645726807887
201,Patrick Ewing*\ewingpa01,NYK,C,0.0003214024835646457,4.747991234477721e-05,0.0005332359386413442,0.10326880934989022,0.8964645726807887
202,Dave Feitl\feitlda01,HOU,C,0.0003214024835646457,4.747991234477721e-05,0.0005332359386413442,0.10326880934989022,0.8964645726807887
203,Mike Gminski\gminsmi01,TOT,C,0.0003214024835646457,4.747991234477721e-05,0.0005332359386413442,0.10326880934989022,0.8964645726807887
204,Mike Gminski\gminsmi01,PHI,C,0.0003214024835646457,4.747991234477721e-05,0.0005332359386413442,0.10326880934989022,0.8964645726807887
205,Mike Gminski\gminsmi01,CHH,C,0.0003214024835646457,4.747991234477721e-05,0.0005332359386413442,0.10326880934989022,0.8964645726807887
206,Dan Godfread\godfrda01,MIN,C,0.0003214024835646457,4.747991234477721e-05,0.0005332359386413442,0.10326880934989022,0.8964645726807887
207,Stuart Gray\grayst01,NYK,C,0.0003214024835646457,4.747991234477721e-05,0.0005332359386413442,0.10326880934989022,0.8964645726807887
208,Dave Hoppen\hoppeda01,TOT,C,0.0003214024835646457,4.747991234477721e-05,0.0005332359386413442,0.10326880934989022,0.8964645726807887
209,Dave Hoppen\hoppeda01,CHH,C,0.0003214024835646457,4.747991234477721e-05,0.0005332359386413442,0.10326880934989022,0.8964645726807887
210,Dave Hoppen\hoppeda01,PHI,C,0.0003214024835646457,4.747991234477721e-05,0.0005332359386413442,0.10326880934989022,0.8964645726807887
211,Les Jepsen\jepsele01,GSW,C,0.0003214024835646457,4.747991234477721e-05,0.0005332359386413442,0.10326880934989022,0.8964645726807887
212,Steve Johnson\johnsst03,GSW,C,0.0003214024835646457,4.747991234477721e-05,0.0005332359386413442,0.10326880934989022,0.8964645726807887
213,Charles Jones\jonesch01,WSB,C,0.0003214024835646457,4.747991234477721e-05,0.0005332359386413442,0.10326880934989022,0.8964645726807887
214,Alec Kessler\kesslal01,MIA,C,0.0003214024835646457,4.747991234477721e-05,0.0005332359386413442,0.10326880934989022,0.8964645726807887
215,Greg Kite\kitegr01,ORL,C,0.0003214024835646457,4.747991234477721e-05,0.0005332359386413442,0.10326880934989022,0.8964645726807887
216,Joe Kleine\kleinjo01,BOS,C,0.0003214024835646457,4.747991234477721e-05,0.0005332359386413442,0.10326880934989022,0.8964645726807887
217,Jon Koncak\koncajo01,ATL,C,0.0003214024835646457,4.747991234477721e-05,0.0005332359386413442,0.10326880934989022,0.8964645726807887
218,Bill Laimbeer\laimbbi01,DET,C,0.0003214024835646457,4.747991234477721e-05,0.0005332359386413442,0.10326880934989022,0.8964645726807887
219,Andrew Lang\langan01,PHO,C,0.0003214024835646457,4.747991234477721e-05,0.0005332359386413442,0.10326880934989022,0.8964645726807887
220,Eric Leckner\leckner01,TOT,C,0.0003214024835646457,4.747991234477721e-05,0.0005332359386413442,0.10326880934989022,0.8964645726807887
221,Eric Leckner\leckner01,SAC,C,0.0003214024835646457,4.747991234477721e-05,0.0005332359386413442,0.10326880934989022,0.8964645726807887
222,Eric Leckner\leckner01,CHH,C,0.0003214024835646457,4.747991234477721e-05,0.0005332359386413442,0.10326880934989022,0.8964645726807887
223,Gary Leonard\leonaga01,ATL,C,0.0003214024835646457,4.747991234477721e-05,0.0005332359386413442,0.10326880934989022,0.8964645726807887
224,Alton Lister\listeal01,GSW,C,0.0003214024835646457,4.747991234477721e-05,0.0005332359386413442,0.10326880934989022,0.8964645726807887
225,Rick Mahorn\mahorri01,PHI,C,0.0003214024835646457,4.747991234477721e-05,0.0005332359386413442,0.10326880934989022,0.8964645726807887
226,Moses Malone*\malonmo01,ATL,C,0.0003214024835646457,4.747991234477721e-05,0.0005332359386413442,0.10326880934989022,0.8964645726807887
227,Tim McCormick\mccorti01,ATL,C,0.0003214024835646457,4.747991234477721e-05,0.0005332359386413442,0.10326880934989022,0.8964645726807887
228,Mark McNamara\mcnamma01,ORL,C,0.0003214024835646457,4.747991234477721e-05,0.0005332359386413442,0.10326880934989022,0.8964645726807887
229,Paul Mokeski\mokespa01,GSW,C,0.0003214024835646457,4.747991234477721e-05,0.0005332359386413442,0.10326880934989022,0.8964645726807887
230,Dan O'Sullivan\osullda01,UTA,C,0.0003214024835646457,4.747991234477721e-05,0.0005332359386413442,0.10326880934989022,0.8964645726807887
231,Alan Ogg\oggal01,MIA,C,0.0003214024835646457,4.747991234477721e-05,0.0005332359386413442,0.10326880934989022,0.8964645726807887
232,Hakeem Olajuwon*\olajuha01,HOU,C,0.0003214024835646457,4.747991234477721e-05,0.0005332359386413442,0.10326880934989022,0.8964645726807887
233,Jawann Oldham\oldhaja01,IND,C,0.0003214024835646457,4.747991234477721e-05,0.0005332359386413442,0.10326880934989022,0.8964645726807887
234,Walter Palmer\palmewa01,UTA,C,0.0003214024835646457,4.747991234477721e-05,0.0005332359386413442,0.10326880934989022,0.8964645726807887
235,Robert Parish*\parisro01,BOS,C,0.0003214024835646457,4.747991234477721e-05,0.0005332359386413442,0.10326880934989022,0.8964645726807887
236,Will Perdue\perduwi01,CHI,C,0.0003214024835646457,4.747991234477721e-05,0.0005332359386413442,0.10326880934989022,0.8964645726807887
237,Tim Perry\perryti01,PHO,C,0.0003214024835646457,4.747991234477721e-05,0.0005332359386413442,0.10326880934989022,0.8964645726807887
238,Jim Petersen\peterji01,GSW,C,0.0003214024835646457,4.747991234477721e-05,0.0005332359386413442,0.10326880934989022,0.8964645726807887
239,Olden Polynice\polynol01,TOT,C,0.0003214024835646457,4.747991234477721e-05,0.0005332359386413442,0.10326880934989022,0.8964645726807887
240,Olden Polynice\polynol01,SEA,C,0.0003214024835646457,4.747991234477721e-05,0.0005332359386413442,0.10326880934989022,0.8964645726807887
241,Olden Polynice\polynol01,LAC,C,0.0003214024835646457,4.747991234477721e-05,0.0005332359386413442,0.10326880934989022,0.8964645726807887
242,Blair Rasmussen\rasmubl01,DEN,C,0.0003214024835646457,4.747991234477721e-05,0.0005332359386413442,0.10326880934989022,0.8964645726807887
243,J.R. Reid\reidjr01,CHH,C,0.0003214024835646457,4.747991234477721e-05,0.0005332359386413442,0.10326880934989022,0.8964645726807887
244,David Robinson*\robinda01,SAS,C,0.0003214024835646457,4.747991234477721e-05,0.0005332359386413442,0.10326880934989022,0.8964645726807887
245,Tree Rollins\rollitr01,DET,C,0.0003214024835646457,4.747991234477721e-05,0.0005332359386413442,0.10326880934989022,0.8964645726807887
246,Ralph Sampson*\sampsra01,SAC,C,0.0003214024835646457,4.747991234477721e-05,0.0005332359386413442,0.10326880934989022,0.8964645726807887
247,Danny Schayes\schayda01,MIL,C,0.0003214024835646457,4.747991234477721e-05,0.0005332359386413442,0.10326880934989022,0.8964645726807887
248,Steve Scheffler\schefst01,CHH,C,0.0003214024835646457,4.747991234477721e-05,0.0005332359386413442,0.10326880934989022,0.8964645726807887
249,Dwayne Schintzius\schindw01,SAS,C,0.0003214024835646457,4.747991234477721e-05,0.0005332359386413442,0.10326880934989022,0.8964645726807887
250,Rony Seikaly\seikaro01,MIA,C,0.0003214024835646457,4.747991234477721e-05,0.0005332359386413442,0.10326880934989022,0.8964645726807887
251,John Shasky\shaskjo01,DAL,C,0.0003214024835646457,4.747991234477721e-05,0.0005332359386413442,0.10326880934989022,0.8964645726807887
252,Jack Sikma*\sikmaja01,MIL,C,0.0003214024835646457,4.747991234477721e-05,0.0005332359386413442,0.10326880934989022,0.8964645726807887
253,Rik Smits\smitsri01,IND,C,0.0003214024835646457,4.747991234477721e-05,0.0005332359386413442,0.10326880934989022,0.8964645726807887
254,Mike Smrek\smrekmi01,TOT,C,0.0003214024835646457,4.747991234477721e-05,0.0005332359386413442,0.10326880934989022,0.8964645726807887
255,Mike Smrek\smrekmi01,GSW,C,0.0003214024835646457,4.747991234477721e-05,0.0005332359386413442,0.10326880934989022,0.8964645726807887
256,Mike Smrek\smrekmi01,LAC,C,0.0003214024835646457,4.747991234477721e-05,0.0005332359386413442,0.10326880934989022,0.8964645726807887
257,Felton Spencer\spencfe01,MIN,C,0.0003214024835646457,4.747991234477721e-05,0.0005332359386413442,0.10326880934989022,0.8964645726807887
258,Roy Tarpley\tarplro01,DAL,C,0.0003214024835646457,4.747991234477721e-05,0.0005332359386413442,0.10326880934989022,0.8964645726807887
259,LaSalle Thompson\thompla01,IND,C,0.0003214024835646457,4.747991234477721e-05,0.0005332359386413442,0.10326880934989022,0.8964645726807887
260,Mychal Thompson\thompmy01,LAL,C,0.0003214024835646457,4.747991234477721e-05,0.0005332359386413442,0.10326880934989022,0.8964645726807887
261,Stojko Vranković\vrankst01,BOS,C,0.0003214024835646457,4.747991234477721e-05,0.0005332359386413442,0.10326880934989022,0.8964645726807887
262,Bill Wennington\wennibi01,SAC,C,0.0003214024835646457,4.747991234477721e-05,0.0005332359386413442,0.10326880934989022,0.8964645726807887
263,Mark West\westma01,PHO,C,0.0003214024835646457,4.747991234477721e-05,0.0005332359386413442,0.10326880934989022,0.8964645726807887
264,Eddie Lee Wilkins\wilkied01,NYK,C,0.0003214024835646457,4.747991234477721e-05,0.0005332359386413442,0.10326880934989022,0.8964645726807887
265,Herb Williams\willihe01,DAL,C,0.0003214024835646457,4.747991234477721e-05,0.0005332359386413442,0.10326880934989022,0.8964645726807887
266,Hot Rod Williams\williho01,CLE,C,0.0003214024835646457,4.747991234477721e-05,0.0005332359386413442,0.10326880934989022,0.8964645726807887
267,Joe Wolf\wolfjo01,DEN,C,0.0003214024835646457,4.747991234477721e-05,0.0005332359386413442,0.10326880934989022,0.8964645726807887
268,Mark Aguirre\aguirma01,DET,SF,0.0033940594059405894,0.12606336633663331,0.6900594059405959,0.1769821782178211,0.00442772277227721
269,Ron Anderson\anderro01,PHI,SF,0.0033940594059405894,0.12606336633663331,0.6900594059405959,0.1769821782178211,0.00442772277227721
270,Michael Ansley\anslemi01,ORL,SF,0.0033940594059405894,0.12606336633663331,0.6900594059405959,0.1769821782178211,0.00442772277227721
271,Keith Askins\askinke01,MIA,SF,0.0033940594059405894,0.12606336633663331,0.6900594059405959,0.1769821782178211,0.00442772277227721
272,Charles Barkley*\barklch01,PHI,SF,0.0033940594059405894,0.12606336633663331,0.6900594059405959,0.1769821782178211,0.00442772277227721
273,Winston Bennett\bennewi01,CLE,SF,0.0033940594059405894,0.12606336633663331,0.6900594059405959,0.1769821782178211,0.00442772277227721
274,Larry Bird*\birdla01,BOS,SF,0.0033940594059405894,0.12606336633663331,0.6900594059405959,0.1769821782178211,0.00442772277227721
275,Chucky Brown\brownch01,CLE,SF,0.0033940594059405894,0.12606336633663331,0.6900594059405959,0.1769821782178211,0.00442772277227721
276,Tony Brown\brownto01,LAL,SF,0.0033940594059405894,0.12606336633663331,0.6900594059405959,0.1769821782178211,0.00442772277227721
277,Jud Buechler\buechju01,NJN,SF,0.0033940594059405894,0.12606336633663331,0.6900594059405959,0.1769821782178211,0.00442772277227721
278,Willie Burton\burtowi01,MIA,SF,0.0033940594059405894,0.12606336633663331,0.6900594059405959,0.1769821782178211,0.00442772277227721
279,Cedric Ceballos\cebalce01,PHO,SF,0.0033940594059405894,0.12606336633663331,0.6900594059405959,0.1769821782178211,0.00442772277227721
280,Derrick Chievous\chievde01,CLE,SF,0.0033940594059405894,0.12606336633663331,0.6900594059405959,0.1769821782178211,0.00442772277227721
281,Richard Coffey\cofferi01,MIN,SF,0.0033940594059405894,0.12606336633663331,0.6900594059405959,0.1769821782178211,0.00442772277227721
282,Tyrone Corbin\corbity01,MIN,SF,0.0033940594059405894,0.12606336633663331,0.6900594059405959,0.1769821782178211,0.00442772277227721
283,Adrian Dantley*\dantlad01,MIL,SF,0.0033940594059405894,0.12606336633663331,0.6900594059405959,0.1769821782178211,0.00442772277227721
284,Tony Dawson\dawsoto01,SAC,SF,0.0033940594059405894,0.12606336633663331,0.6900594059405959,0.1769821782178211,0.00442772277227721
285,Blue Edwards\edwarbl01,UTA,SF,0.0033940594059405894,0.12606336633663331,0.6900594059405959,0.1769821782178211,0.00442772277227721
286,Mario Elie\eliema01,GSW,SF,0.0033940594059405894,0.12606336633663331,0.6900594059405959,0.1769821782178211,0.00442772277227721
287,Sean Elliott\elliose01,SAS,SF,0.0033940594059405894,0.12606336633663331,0.6900594059405959,0.1769821782178211,0.00442772277227721
288,Alex English*\englial01,DAL,SF,0.0033940594059405894,0.12606336633663331,0.6900594059405959,0.1769821782178211,0.00442772277227721
289,Duane Ferrell\ferredu01,ATL,SF,0.0033940594059405894,0.12606336633663331,0.6900594059405959,0.1769821782178211,0.00442772277227721
290,Anthony Frederick\fredean01,SAC,SF,0.0033940594059405894,0.12606336633663331,0.6900594059405959,0.1769821782178211,0.00442772277227721
291,Kevin Gamble\gamblke01,BOS,SF,0.0033940594059405894,0.12606336633663331,0.6900594059405959,0.1769821782178211,0.00442772277227721
292,Gerald Glass\glassge01,MIN,SF,0.0033940594059405894,0.12606336633663331,0.6900594059405959,0.1769821782178211,0.00442772277227721
293,Mike Higgins\higgimi01,SAC,SF,0.0033940594059405894,0.12606336633663331,0.6900594059405959,0.1769821782178211,0.00442772277227721
294,Rod Higgins\higgiro01,GSW,SF,0.0033940594059405894,0.12606336633663331,0.6900594059405959,0.1769821782178211,0.00442772277227721
295,Sean Higgins\higgise01,SAS,SF,0.0033940594059405894,0.12606336633663331,0.6900594059405959,0.1769821782178211,0.00442772277227721
296,Dennis Hopson\hopsode01,CHI,SF,0.0033940594059405894,0.12606336633663331,0.6900594059405959,0.1769821782178211,0.00442772277227721
297,Buck Johnson\johnsbu01,HOU,SF,0.0033940594059405894,0.12606336633663331,0.6900594059405959,0.1769821782178211,0.00442772277227721
298,Jerome Kersey\kerseje01,POR,SF,0.0033940594059405894,0.12606336633663331,0.6900594059405959,0.1769821782178211,0.00442772277227721
299,Randolph Keys\keysra01,CHH,SF,0.0033940594059405894,0.12606336633663331,0.6900594059405959,0.1769821782178211,0.00442772277227721
300,Bernard King*\kingbe01,WSB,SF,0.0033940594059405894,0.12606336633663331,0.6900594059405959,0.1769821782178211,0.00442772277227721
301,Marcus Liberty\liberma01,DEN,SF,0.0033940594059405894,0.12606336633663331,0.6900594059405959,0.1769821782178211,0.00442772277227721
302,Ian Lockhart\lockhia01,PHO,SF,0.0033940594059405894,0.12606336633663331,0.6900594059405959,0.1769821782178211,0.00442772277227721
303,Dan Majerle\majerda01,PHO,SF,0.0033940594059405894,0.12606336633663331,0.6900594059405959,0.1769821782178211,0.00442772277227721
304,George McCloud\mccloge01,IND,SF,0.0033940594059405894,0.12606336633663331,0.6900594059405959,0.1769821782178211,0.00442772277227721
305,Xavier McDaniel\mcdanxa01,TOT,SF,0.0033940594059405894,0.12606336633663331,0.6900594059405959,0.1769821782178211,0.00442772277227721
306,Xavier McDaniel\mcdanxa01,SEA,SF,0.0033940594059405894,0.12606336633663331,0.6900594059405959,0.1769821782178211,0.00442772277227721
307,Xavier McDaniel\mcdanxa01,PHO,SF,0.0033940594059405894,0.12606336633663331,0.6900594059405959,0.1769821782178211,0.00442772277227721
308,Derrick McKey\mckeyde01,SEA,SF,0.0033940594059405894,0.12606336633663331,0.6900594059405959,0.1769821782178211,0.00442772277227721
309,Chris Morris\morrich01,NJN,SF,0.0033940594059405894,0.12606336633663331,0.6900594059405959,0.1769821782178211,0.00442772277227721
310,John Morton\mortojo01,CLE,SF,0.0033940594059405894,0.12606336633663331,0.6900594059405959,0.1769821782178211,0.00442772277227721
311,Chris Mullin*\mullich01,GSW,SF,0.0033940594059405894,0.12606336633663331,0.6900594059405959,0.1769821782178211,0.00442772277227721
312,Johnny Newman\newmajo01,CHH,SF,0.0033940594059405894,0.12606336633663331,0.6900594059405959,0.1769821782178211,0.00442772277227721
313,Ken Norman\normake01,LAC,SF,0.0033940594059405894,0.12606336633663331,0.6900594059405959,0.1769821782178211,0.00442772277227721
314,Gerald Paddio\paddige01,CLE,SF,0.0033940594059405894,0.12606336633663331,0.6900594059405959,0.1769821782178211,0.00442772277227721
315,Kenny Payne\payneke01,PHI,SF,0.0033940594059405894,0.12606336633663331,0.6900594059405959,0.1769821782178211,0.00442772277227721
316,Chuck Person\persoch01,IND,SF,0.0033940594059405894,0.12606336633663331,0.6900594059405959,0.1769821782178211,0.00442772277227721
317,Scottie Pippen*\pippesc01,CHI,SF,0.0033940594059405894,0.12606336633663331,0.6900594059405959,0.1769821782178211,0.00442772277227721
318,Robert Reid\reidro01,PHI,SF,0.0033940594059405894,0.12606336633663331,0.6900594059405959,0.1769821782178211,0.00442772277227721
319,Glen Rice\ricegl01,MIA,SF,0.0033940594059405894,0.12606336633663331,0.6900594059405959,0.1769821782178211,0.00442772277227721
320,Dennis Rodman*\rodmade01,DET,SF,0.0033940594059405894,0.12606336633663331,0.6900594059405959,0.1769821782178211,0.00442772277227721
321,Mike Sanders\sandemi01,IND,SF,0.0033940594059405894,0.12606336633663331,0.6900594059405959,0.1769821782178211,0.00442772277227721
322,Lionel Simmons\simmoli01,SAC,SF,0.0033940594059405894,0.12606336633663331,0.6900594059405959,0.1769821782178211,0.00442772277227721
323,Charles Smith\smithch01,LAC,SF,0.0033940594059405894,0.12606336633663331,0.6900594059405959,0.1769821782178211,0.00442772277227721
324,Derek Smith\smithde02,BOS,SF,0.0033940594059405894,0.12606336633663331,0.6900594059405959,0.1769821782178211,0.00442772277227721
325,Otis Smith\smithot01,ORL,SF,0.0033940594059405894,0.12606336633663331,0.6900594059405959,0.1769821782178211,0.00442772277227721
326,Billy Thompson\thompbi01,MIA,SF,0.0033940594059405894,0.12606336633663331,0.6900594059405959,0.1769821782178211,0.00442772277227721
327,Andy Toolson\toolsan01,UTA,SF,0.0033940594059405894,0.12606336633663331,0.6900594059405959,0.1769821782178211,0.00442772277227721
328,Kelly Tripucka\tripuke01,CHH,SF,0.0033940594059405894,0.12606336633663331,0.6900594059405959,0.1769821782178211,0.00442772277227721
329,Kiki Vandeweghe\vandeki01,NYK,SF,0.0033940594059405894,0.12606336633663331,0.6900594059405959,0.1769821782178211,0.00442772277227721
330,Kenny Walker\walkeke01,NYK,SF,0.0033940594059405894,0.12606336633663331,0.6900594059405959,0.1769821782178211,0.00442772277227721
331,Dominique Wilkins*\wilkido01,ATL,SF,0.0033940594059405894,0.12606336633663331,0.6900594059405959,0.1769821782178211,0.00442772277227721
332,John Williams\willijo02,WSB,SF,0.0033940594059405894,0.12606336633663331,0.6900594059405959,0.1769821782178211,0.00442772277227721
333,Reggie Williams\willire01,TOT,SF,0.0033940594059405894,0.12606336633663331,0.6900594059405959,0.1769821782178211,0.00442772277227721
334,Reggie Williams\willire01,SAS,SF,0.0033940594059405894,0.12606336633663331,0.6900594059405959,0.1769821782178211,0.00442772277227721
335,Reggie Williams\willire01,DEN,SF,0.0033940594059405894,0.12606336633663331,0.6900594059405959,0.1769821782178211,0.00442772277227721
336,Kennard Winchester\winchke01,HOU,SF,0.0033940594059405894,0.12606336633663331,0.6900594059405959,0.1769821782178211,0.00442772277227721
337,Randy Wittman\wittmra01,IND,SF,0.0033940594059405894,0.12606336633663331,0.6900594059405959,0.1769821782178211,0.00442772277227721
338,David Wood\woodda01,HOU,SF,0.0033940594059405894,0.12606336633663331,0.6900594059405959,0.1769821782178211,0.00442772277227721
339,Orlando Woolridge\woolror01,DEN,SF,0.0033940594059405894,0.12606336633663331,0.6900594059405959,0.1769821782178211,0.00442772277227721
340,James Worthy*\worthja01,LAL,SF,0.0033940594059405894,0.12606336633663331,0.6900594059405959,0.1769821782178211,0.00442772277227721
341,Danny Ainge\aingeda01,POR,SG,0.11192363636363606,0.68289090909091,0.1991599999999993,0.006941818181818165,1.4545454545454546e-05
342,Nick Anderson\anderni01,ORL,SG,0.11192363636363606,0.68289090909091,0.1991599999999993,0.006941818181818165,1.4545454545454546e-05
343,Willie Anderson\anderwi01,SAS,SG,0.11192363636363606,0.68289090909091,0.1991599999999993,0.006941818181818165,1.4545454545454546e-05
344,Vincent Askew\askewvi01,GSW,SG,0.11192363636363606,0.68289090909091,0.1991599999999993,0.006941818181818165,1.4545454545454546e-05
345,John Battle\battljo01,ATL,SG,0.11192363636363606,0.68289090909091,0.1991599999999993,0.006941818181818165,1.4545454545454546e-05
346,Kenny Battle\battlke01,TOT,SG,0.11192363636363606,0.68289090909091,0.1991599999999993,0.006941818181818165,1.4545454545454546e-05
347,Kenny Battle\battlke01,PHO,SG,0.11192363636363606,0.68289090909091,0.1991599999999993,0.006941818181818165,1.4545454545454546e-05
348,Kenny Battle\battlke01,DEN,SG,0.11192363636363606,0.68289090909091,0.1991599999999993,0.006941818181818165,1.4545454545454546e-05
349,Rolando Blackman\blackro01,DAL,SG,0.11192363636363606,0.68289090909091,0.1991599999999993,0.006941818181818165,1.4545454545454546e-05
350,Lance Blanks\blankla01,DET,SG,0.11192363636363606,0.68289090909091,0.1991599999999993,0.006941818181818165,1.4545454545454546e-05
351,Tony Brown\brownto01,UTA,SG,0.11192363636363606,0.68289090909091,0.1991599999999993,0.006941818181818165,1.4545454545454546e-05
352,Rick Calloway\callori01,SAC,SG,0.11192363636363606,0.68289090909091,0.1991599999999993,0.006941818181818165,1.4545454545454546e-05
353,Tony Campbell\campbto01,MIN,SG,0.11192363636363606,0.68289090909091,0.1991599999999993,0.006941818181818165,1.4545454545454546e-05
354,Dell Curry\curryde01,CHH,SG,0.11192363636363606,0.68289090909091,0.1991599999999993,0.006941818181818165,1.4545454545454546e-05
355,Quintin Dailey\dailequ01,SEA,SG,0.11192363636363606,0.68289090909091,0.1991599999999993,0.006941818181818165,1.4545454545454546e-05
356,Walter Davis\daviswa03,TOT,SG,0.11192363636363606,0.68289090909091,0.1991599999999993,0.006941818181818165,1.4545454545454546e-05
357,Walter Davis\daviswa03,DEN,SG,0.11192363636363606,0.68289090909091,0.1991599999999993,0.006941818181818165,1.4545454545454546e-05
358,Walter Davis\daviswa03,POR,SG,0.11192363636363606,0.68289090909091,0.1991599999999993,0.006941818181818165,1.4545454545454546e-05
359,Clyde Drexler*\drexlcl01,POR,SG,0.11192363636363606,0.68289090909091,0.1991599999999993,0.006941818181818165,1.4545454545454546e-05
360,Joe Dumars*\dumarjo01,DET,SG,0.11192363636363606,0.68289090909091,0.1991599999999993,0.006941818181818165,1.4545454545454546e-05
361,T.R. Dunn\dunntr01,DEN,SG,0.11192363636363606,0.68289090909091,0.1991599999999993,0.006941818181818165,1.4545454545454546e-05
362,Ledell Eackles\eacklle01,WSB,SG,0.11192363636363606,0.68289090909091,0.1991599999999993,0.006941818181818165,1.4545454545454546e-05
363,Kevin Edwards\edwarke01,MIA,SG,0.11192363636363606,0.68289090909091,0.1991599999999993,0.006941818181818165,1.4545454545454546e-05
364,Craig Ehlo\ehlocr01,CLE,SG,0.11192363636363606,0.68289090909091,0.1991599999999993,0.006941818181818165,1.4545454545454546e-05
365,Mario Elie\eliema01,PHI,SG,0.11192363636363606,0.68289090909091,0.1991599999999993,0.006941818181818165,1.4545454545454546e-05
366,Dale Ellis\ellisda01,TOT,SG,0.11192363636363606,0.68289090909091,0.1991599999999993,0.006941818181818165,1.4545454545454546e-05
367,Dale Ellis\ellisda01,SEA,SG,0.11192363636363606,0.68289090909091,0.1991599999999993,0.006941818181818165,1.4545454545454546e-05
368,Dale Ellis\ellisda01,MIL,SG,0.11192363636363606,0.68289090909091,0.1991599999999993,0.006941818181818165,1.4545454545454546e-05
369,A.J. English\engliaj01,WSB,SG,0.11192363636363606,0.68289090909091,0.1991599999999993,0.006941818181818165,1.4545454545454546e-05
370,Jim Farmer\farmeji01,TOT,SG,0.11192363636363606,0.68289090909091,0.1991599999999993,0.006941818181818165,1.4545454545454546e-05
371,Jim Farmer\farmeji01,PHI,SG,0.11192363636363606,0.68289090909091,0.1991599999999993,0.006941818181818165,1.4545454545454546e-05
372,Jim Farmer\farmeji01,DEN,SG,0.11192363636363606,0.68289090909091,0.1991599999999993,0.006941818181818165,1.4545454545454546e-05
373,Corey Gaines\gaineco01,DEN,SG,0.11192363636363606,0.68289090909091,0.1991599999999993,0.006941818181818165,1.4545454545454546e-05
374,Tom Garrick\garrito01,LAC,SG,0.11192363636363606,0.68289090909091,0.1991599999999993,0.006941818181818165,1.4545454545454546e-05
375,Kendall Gill\gillke01,CHH,SG,0.11192363636363606,0.68289090909091,0.1991599999999993,0.006941818181818165,1.4545454545454546e-05
376,Jeff Grayer\grayeje01,MIL,SG,0.11192363636363606,0.68289090909091,0.1991599999999993,0.006941818181818165,1.4545454545454546e-05
377,Darrell Griffith\griffda01,UTA,SG,0.11192363636363606,0.68289090909091,0.1991599999999993,0.006941818181818165,1.4545454545454546e-05
378,Bob Hansen\hansebo01,SAC,SG,0.11192363636363606,0.68289090909091,0.1991599999999993,0.006941818181818165,1.4545454545454546e-05
379,Ron Harper\harpero01,LAC,SG,0.11192363636363606,0.68289090909091,0.1991599999999993,0.006941818181818165,1.4545454545454546e-05
380,Tony Harris\harrito01,PHI,SG,0.11192363636363606,0.68289090909091,0.1991599999999993,0.006941818181818165,1.4545454545454546e-05
381,Hersey Hawkins\hawkihe01,PHI,SG,0.11192363636363606,0.68289090909091,0.1991599999999993,0.006941818181818165,1.4545454545454546e-05
382,Craig Hodges\hodgecr01,CHI,SG,0.11192363636363606,0.68289090909091,0.1991599999999993,0.006941818181818165,1.4545454545454546e-05
383,Jeff Hornacek\hornaje01,PHO,SG,0.11192363636363606,0.68289090909091,0.1991599999999993,0.006941818181818165,1.4545454545454546e-05
384,Byron Irvin\irvinby01,WSB,SG,0.11192363636363606,0.68289090909091,0.1991599999999993,0.006941818181818165,1.4545454545454546e-05
385,Dave Jamerson\jamerda01,HOU,SG,0.11192363636363606,0.68289090909091,0.1991599999999993,0.006941818181818165,1.4545454545454546e-05
386,Eddie Johnson\johnsed03,TOT,SG,0.11192363636363606,0.68289090909091,0.1991599999999993,0.006941818181818165,1.4545454545454546e-05
387,Eddie Johnson\johnsed03,PHO,SG,0.11192363636363606,0.68289090909091,0.1991599999999993,0.006941818181818165,1.4545454545454546e-05
388,Eddie Johnson\johnsed03,SEA,SG,0.11192363636363606,0.68289090909091,0.1991599999999993,0.006941818181818165,1.4545454545454546e-05
389,Vinnie Johnson\johnsvi01,DET,SG,0.11192363636363606,0.68289090909091,0.1991599999999993,0.006941818181818165,1.4545454545454546e-05
390,Michael Jordan*\jordami01,CHI,SG,0.11192363636363606,0.68289090909091,0.1991599999999993,0.006941818181818165,1.4545454545454546e-05
391,Bo Kimble\kimblbo01,LAC,SG,0.11192363636363606,0.68289090909091,0.1991599999999993,0.006941818181818165,1.4545454545454546e-05
392,Bart Kofoed\kofoeba01,GSW,SG,0.11192363636363606,0.68289090909091,0.1991599999999993,0.006941818181818165,1.4545454545454546e-05
393,Tim Legler\legleti01,DEN,SG,0.11192363636363606,0.68289090909091,0.1991599999999993,0.006941818181818165,1.4545454545454546e-05
394,Fat Lever\leverfa01,DAL,SG,0.11192363636363606,0.68289090909091,0.1991599999999993,0.006941818181818165,1.4545454545454546e-05
395,Reggie Lewis\lewisre01,BOS,SG,0.11192363636363606,0.68289090909091,0.1991599999999993,0.006941818181818165,1.4545454545454546e-05
396,Todd Lichti\lichtto01,DEN,SG,0.11192363636363606,0.68289090909091,0.1991599999999993,0.006941818181818165,1.4545454545454546e-05
397,John Long\longjo01,DET,SG,0.11192363636363606,0.68289090909091,0.1991599999999993,0.006941818181818165,1.4545454545454546e-05
398,Jeff Malone\malonje01,UTA,SG,0.11192363636363606,0.68289090909091,0.1991599999999993,0.006941818181818165,1.4545454545454546e-05
399,Šarūnas Marčiulionis*\marcisa01,GSW,SG,0.11192363636363606,0.68289090909091,0.1991599999999993,0.006941818181818165,1.4545454545454546e-05
400,Vernon Maxwell\maxweve01,HOU,SG,0.11192363636363606,0.68289090909091,0.1991599999999993,0.006941818181818165,1.4545454545454546e-05
401,Nate McMillan\mcmilna01,SEA,SG,0.11192363636363606,0.68289090909091,0.1991599999999993,0.006941818181818165,1.4545454545454546e-05
402,Reggie Miller*\millere01,IND,SG,0.11192363636363606,0.68289090909091,0.1991599999999993,0.006941818181818165,1.4545454545454546e-05
403,Sidney Moncrief*\moncrsi01,ATL,SG,0.11192363636363606,0.68289090909091,0.1991599999999993,0.006941818181818165,1.4545454545454546e-05
404,Pete Myers\myerspe01,SAS,SG,0.11192363636363606,0.68289090909091,0.1991599999999993,0.006941818181818165,1.4545454545454546e-05
405,Brian Oliver\olivebr01,PHI,SG,0.11192363636363606,0.68289090909091,0.1991599999999993,0.006941818181818165,1.4545454545454546e-05
406,Dražen Petrović*\petrodr01,TOT,SG,0.11192363636363606,0.68289090909091,0.1991599999999993,0.006941818181818165,1.4545454545454546e-05
407,Dražen Petrović*\petrodr01,POR,SG,0.11192363636363606,0.68289090909091,0.1991599999999993,0.006941818181818165,1.4545454545454546e-05
408,Dražen Petrović*\petrodr01,NJN,SG,0.11192363636363606,0.68289090909091,0.1991599999999993,0.006941818181818165,1.4545454545454546e-05
409,Ricky Pierce\piercri01,TOT,SG,0.11192363636363606,0.68289090909091,0.1991599999999993,0.006941818181818165,1.4545454545454546e-05
410,Ricky Pierce\piercri01,MIL,SG,0.11192363636363606,0.68289090909091,0.1991599999999993,0.006941818181818165,1.4545454545454546e-05
411,Ricky Pierce\piercri01,SEA,SG,0.11192363636363606,0.68289090909091,0.1991599999999993,0.006941818181818165,1.4545454545454546e-05
412,Paul Pressey\presspa01,SAS,SG,0.11192363636363606,0.68289090909091,0.1991599999999993,0.006941818181818165,1.4545454545454546e-05
413,Brian Quinnett\quinnbr01,NYK,SG,0.11192363636363606,0.68289090909091,0.1991599999999993,0.006941818181818165,1.4545454545454546e-05
414,Jerry Reynolds\reynoje01,ORL,SG,0.11192363636363606,0.68289090909091,0.1991599999999993,0.006941818181818165,1.4545454545454546e-05
415,Mitch Richmond*\richmmi01,GSW,SG,0.11192363636363606,0.68289090909091,0.1991599999999993,0.006941818181818165,1.4545454545454546e-05
416,Alvin Robertson\roberal01,MIL,SG,0.11192363636363606,0.68289090909091,0.1991599999999993,0.006941818181818165,1.4545454545454546e-05
417,Larry Robinson\robinla01,TOT,SG,0.11192363636363606,0.68289090909091,0.1991599999999993,0.006941818181818165,1.4545454545454546e-05
418,Larry Robinson\robinla01,GSW,SG,0.11192363636363606,0.68289090909091,0.1991599999999993,0.006941818181818165,1.4545454545454546e-05
419,Larry Robinson\robinla01,WSB,SG,0.11192363636363606,0.68289090909091,0.1991599999999993,0.006941818181818165,1.4545454545454546e-05
420,Byron Scott\scottby01,LAL,SG,0.11192363636363606,0.68289090909091,0.1991599999999993,0.006941818181818165,1.4545454545454546e-05
421,Dennis Scott\scottde01,ORL,SG,0.11192363636363606,0.68289090909091,0.1991599999999993,0.006941818181818165,1.4545454545454546e-05
422,Clinton Smith\smithcl01,WSB,SG,0.11192363636363606,0.68289090909091,0.1991599999999993,0.006941818181818165,1.4545454545454546e-05
423,Tony Smith\smithto02,LAL,SG,0.11192363636363606,0.68289090909091,0.1991599999999993,0.006941818181818165,1.4545454545454546e-05
424,John Starks\starkjo01,NYK,SG,0.11192363636363606,0.68289090909091,0.1991599999999993,0.006941818181818165,1.4545454545454546e-05
425,Jon Sundvold\sundvjo01,MIA,SG,0.11192363636363606,0.68289090909091,0.1991599999999993,0.006941818181818165,1.4545454545454546e-05
426,Terry Teagle\teaglte01,LAL,SG,0.11192363636363606,0.68289090909091,0.1991599999999993,0.006941818181818165,1.4545454545454546e-05
427,Reggie Theus\theusre01,NJN,SG,0.11192363636363606,0.68289090909091,0.1991599999999993,0.006941818181818165,1.4545454545454546e-05
428,Jim Thomas\thomaji01,MIN,SG,0.11192363636363606,0.68289090909091,0.1991599999999993,0.006941818181818165,1.4545454545454546e-05
429,Trent Tucker\tucketr01,NYK,SG,0.11192363636363606,0.68289090909091,0.1991599999999993,0.006941818181818165,1.4545454545454546e-05
430,Kelvin Upshaw\upshake01,DAL,SG,0.11192363636363606,0.68289090909091,0.1991599999999993,0.006941818181818165,1.4545454545454546e-05
431,Milt Wagner\wagnemi01,MIA,SG,0.11192363636363606,0.68289090909091,0.1991599999999993,0.006941818181818165,1.4545454545454546e-05
432,Doug West\westdo01,MIN,SG,0.11192363636363606,0.68289090909091,0.1991599999999993,0.006941818181818165,1.4545454545454546e-05
433,Gerald Wilkins\wilkige01,NYK,SG,0.11192363636363606,0.68289090909091,0.1991599999999993,0.006941818181818165,1.4545454545454546e-05
434,David Wingate\wingada01,SAS,SG,0.11192363636363606,0.68289090909091,0.1991599999999993,0.006941818181818165,1.4545454545454546e-05
435,Leon Wood\woodle01,SAC,SG,0.11192363636363606,0.68289090909091,0.1991599999999993,0.006941818181818165,1.4545454545454546e-05
436,Mike Woodson\woodsmi01,TOT,SG,0.11192363636363606,0.68289090909091,0.1991599999999993,0.006941818181818165,1.4545454545454546e-05
437,Mike Woodson\woodsmi01,HOU,SG,0.11192363636363606,0.68289090909091,0.1991599999999993,0.006941818181818165,1.4545454545454546e-05
438,Mike Woodson\woodsmi01,CLE,SG,0.11192363636363606,0.68289090909091,0.1991599999999993,0.006941818181818165,1.4545454545454546e-05
439,Tony Brown\brownto01,TOT,SG-SF,0.057500000000000016,0.5566666666666668,0.35749999999999993,0.03000000000000001,0.0
440,Mario Elie\eliema01,TOT,SF-SG,0.014000000000000002,0.30639999999999995,0.6187999999999999,0.059200000000000016,0.0024
