Rk,Player,Pos,Age,Tm,G,MP,PG%,SG%,SF%,PF%,C%,OnCourt,On-Off,BadPass,LostBall,Shoot,Off.,Shoot,Off.,PGA,And1,Blkd
1,Quincy Acy\acyqu01,PF,25,SAC,59,876,,,,92%,8%,-7.1,-5.5,8,6,51,5,27,5,62,9,6
2,Jordan Adams\adamsjo01,SG,21,MEM,2,15,,60%,40%,,,9.3,11.7,0,2,0,0,2,0,6,1,0
3,Steven Adams\adamsst01,C,22,OKC,80,2014,,,,,100%,11.3,8.2,24,22,107,23,83,7,144,20,31
4,Arron Afflalo\afflaar01,SG,30,NYK,71,2371,1%,81%,18%,,,-3.6,-1.9,27,25,51,13,67,4,337,23,47
5,Alexis Ajinça\ajincal01,C,27,NOP,59,861,,,,,100%,-3.3,0.7,13,21,56,13,28,7,77,6,12
6,Cole Aldrich\aldrico01,C,27,LAC,60,800,,,,3%,97%,0.3,-5.0,20,16,79,19,39,2,125,5,18
7,LaMarcus Aldridge\aldrila01,PF,30,SAS,74,2261,,,,54%,46%,11.6,0.1,34,32,91,12,144,5,261,27,37
8,Cliff Alexander\alexacl01,PF,20,POR,8,36,,,,100%,,-17.0,-17.9,0,1,1,0,0,0,0,0,1
9,Lavoy Allen\allenla01,PF,26,IND,79,1599,,,1%,89%,11%,6.3,7.3,39,11,92,11,30,3,183,6,22
10,Tony Allen\allento01,SG,34,MEM,64,1620,6%,93%,2%,,,-0.6,3.0,34,25,67,8,63,4,151,14,59
11,Al-Farouq Aminu\aminual01,SF,25,POR,82,2341,,,56%,44%,1%,1.7,2.2,44,44,70,16,74,15,335,17,35
12,Lou Amundson\amundlo01,PF,33,NYK,29,204,,,,65%,35%,-10.4,-8.0,5,4,22,4,13,0,25,5,3
13,Chris Andersen\anderch01,C,37,TOT,27,402,,,,1%,100%,-9.2,-9.5,4,2,17,2,12,2,28,0,6
13,Chris Andersen\anderch01,C,37,MIA,7,36,,,,,100%,-21.5,-23.7,1,0,2,1,2,0,7,0,1
13,Chris Andersen\anderch01,C,37,MEM,20,366,,,,1%,100%,-7.9,-6.1,3,2,15,1,10,2,21,0,5
14,Alan Anderson\anderal01,SG,33,WAS,13,192,12%,33%,55%,,,6.6,7.4,2,0,12,0,7,0,31,3,3
15,James Anderson\anderja01,SG,26,SAC,51,721,,32%,64%,3%,,-4.5,-2.0,17,13,35,4,10,2,98,2,11
16,Justin Anderson\anderju01,SF,22,DAL,55,647,2%,15%,77%,7%,,1.4,1.9,11,6,24,2,21,0,70,3,11
17,Kyle Anderson\anderky01,SF,22,SAS,78,1245,,1%,65%,34%,,9.4,-3.1,35,7,42,7,34,9,277,8,16
18,Ryan Anderson\anderry01,PF,27,NOP,66,2008,,,1%,85%,14%,-0.7,6.6,31,32,44,11,94,8,177,14,41
19,Giannis Antetokounmpo\antetgi01,PG,21,MIL,80,2823,40%,59%,1%,,,-3.0,3.7,85,52,107,31,176,8,758,38,61
20,Thanasis Antetokounmpo\antetth01,SF,23,NYK,2,6,,,100%,,,-46.2,-43.4,0,0,1,0,0,0,0,0,0
21,Carmelo Anthony\anthoca01,SF,31,NYK,72,2530,,2%,91%,8%,,-0.8,5.7,80,41,73,30,154,6,704,25,76
22,Joel Anthony\anthojo01,C,33,DET,19,96,,,,,100%,-7.7,-8.3,1,0,9,1,3,0,2,0,1
23,Keith Appling\applike01,PG,23,ORL,5,27,56%,44%,,,,19.2,21.0,2,1,2,0,1,0,3,0,0
24,Trevor Ariza\arizatr01,SF,30,HOU,81,2859,,,58%,41%,1%,0.7,2.4,68,18,52,9,65,5,456,9,38
25,Darrell Arthur\arthuda01,PF,27,DEN,70,1516,,,1%,79%,21%,-1.8,2.1,36,11,99,12,26,5,217,5,21
26,Ömer Aşık\asikom01,C,29,NOP,68,1178,,,,9%,91%,-8.6,-6.7,23,15,60,16,53,5,60,5,38
27,D.J. Augustin\augusdj01,PG,28,TOT,62,1178,100%,,,,,-1.1,-3.8,52,19,40,8,47,14,445,10,32
27,D.J. Augustin\augusdj01,PG,28,OKC,34,519,100%,,,,,-1.5,-10.0,20,5,23,2,12,8,145,1,12
27,D.J. Augustin\augusdj01,PG,28,DEN,28,659,100%,,,,,-0.9,2.7,32,14,17,6,35,6,300,9,20
28,Jeff Ayres\pendeje02,C,28,LAC,17,107,,,,17%,83%,-20.8,-25.8,1,0,9,5,3,1,11,0,3
29,Luke Babbitt\babbilu01,SF,26,NOP,47,845,,,28%,66%,6%,-3.0,1.2,7,8,40,6,22,3,124,6,25
30,Cameron Bairstow\bairsca01,C,25,CHI,18,103,,,,34%,66%,-6.0,-4.5,1,2,11,1,3,1,13,0,5
31,Leandro Barbosa\barbole01,SG,33,GSW,68,1079,1%,85%,14%,,,2.8,-11.3,27,16,35,9,31,7,191,6,20
32,J.J. Barea\bareajo01,PG,31,DAL,74,1667,100%,,,,,-2.2,-3.5,71,25,28,6,35,34,690,9,45
33,Andrea Bargnani\bargnan01,C,30,BRK,46,634,,,,33%,67%,-14.7,-8.4,7,7,26,6,25,3,43,10,14
34,Harrison Barnes\barneha02,SF,23,GSW,66,2042,,,44%,55%,1%,10.4,-1.4,29,15,70,6,61,5,289,16,36
35,Matt Barnes\barnema02,SF,35,MEM,76,2190,,10%,73%,17%,,-4.8,-5.5,82,25,134,10,49,5,355,8,35
36,Will Barton\bartowi01,SG,25,DEN,82,2353,20%,73%,8%,,,-2.9,0.6,59,45,53,13,104,11,454,28,58
37,Brandon Bass\bassbr01,PF,30,LAL,66,1342,,,7%,90%,3%,-1.2,13.9,13,11,75,10,76,4,175,17,35
38,Nicolas Batum\batumni01,SF,27,CHO,70,2448,,10%,89%,1%,,4.5,4.2,134,37,45,17,61,4,955,15,27
39,Jerryd Bayless\bayleje01,SG,27,MIL,52,1505,9%,67%,24%,,,-5.6,-2.5,42,12,58,4,31,13,367,8,20
40,Aron Baynes\baynear01,C,29,DET,81,1233,,,,2%,98%,-3.8,-6.0,11,18,73,28,64,4,124,11,26
41,Kent Bazemore\bazemke01,SF,26,ATL,75,2083,,20%,79%,,,2.4,-2.6,65,42,71,14,65,18,380,15,37
42,Bradley Beal\bealbr01,SG,22,WAS,55,1708,2%,76%,21%,1%,,-1.0,-1.0,48,41,54,11,68,8,374,21,27
43,Michael Beasley\beaslmi01,PF,27,HOU,20,363,,,5%,88%,7%,-9.6,-10.6,12,5,21,2,23,1,36,5,13
44,Marco Belinelli\belinma01,SG,29,SAC,68,1672,,56%,43%,1%,,-6.2,-5.9,51,17,40,4,48,10,300,17,9
45,Anthony Bennett\bennean01,PF,22,TOR,19,84,,,35%,65%,,-13.8,-19.0,2,1,6,1,2,0,0,0,2
46,Patrick Beverley\beverpa01,PG,27,HOU,71,2041,94%,6%,,,,3.8,7.5,60,12,67,6,26,25,569,4,32
47,Bismack Biyombo\biyombi01,C,23,TOR,82,1808,,,,4%,96%,4.1,-1.3,9,17,116,28,87,5,72,15,45
48,Nemanja Bjelica\bjeline01,PF,27,MIN,60,1075,,,,94%,6%,-5.5,-3.0,15,15,72,6,21,3,184,6,10
49,Tarik Black\blackta01,C,24,LAL,39,496,,,,2%,98%,1.0,12.9,4,11,40,5,19,3,39,1,9
50,DeJuan Blair\blairde01,C,26,WAS,29,218,,,,1%,99%,-8.8,-8.9,6,1,24,8,6,2,27,1,4
51,Steve Blake\blakest01,PG,35,DET,58,986,100%,,,,,-2.8,-4.2,59,15,25,0,6,7,477,2,10
52,Eric Bledsoe\bledser01,PG,26,PHO,31,1059,100%,,,,,-2.9,5.9,67,24,27,9,58,10,447,13,25
53,Bojan Bogdanović\bogdabo02,SF,26,BRK,79,2115,,30%,63%,5%,2%,-9.0,-3.0,43,48,46,8,55,5,227,11,74
54,Andrew Bogut\bogutan01,C,31,GSW,70,1451,,,,,100%,13.9,4.4,53,9,102,15,12,3,392,2,7
55,Matt Bonner\bonnema01,C,35,SAS,30,206,,,,48%,52%,16.8,5.6,2,1,8,0,1,0,22,0,2
56,Devin Booker\bookede01,SG,19,PHO,76,2108,1%,80%,17%,1%,,-9.3,-4.3,99,33,100,17,86,14,470,18,64
57,Trevor Booker\booketr01,PF,28,UTA,79,1632,,,,96%,4%,2.8,1.6,31,14,62,20,42,4,210,10,18
58,Chris Bosh\boshch01,PF,31,MIA,53,1778,,,,55%,45%,1.0,-1.9,37,29,54,5,123,3,295,26,32
59,Avery Bradley\bradlav01,SG,25,BOS,76,2536,10%,76%,14%,,,4.4,3.2,61,29,65,6,48,10,352,7,44
60,Elton Brand\brandel01,C,36,PHI,17,225,,,,10%,90%,-7.6,3.2,3,6,17,0,4,3,47,3,2
61,Corey Brewer\breweco01,SF,29,HOU,82,1669,,5%,83%,12%,,-2.2,-3.8,45,20,48,6,54,18,257,12,27
62,Aaron Brooks\brookaa01,PG,31,CHI,69,1108,100%,,,,,-0.5,1.5,54,19,64,4,24,7,429,4,34
63,Anthony Brown\brownan02,SF,23,LAL,29,599,,5%,95%,1%,,-3.8,7.6,8,6,17,0,8,1,45,2,10
64,Lorenzo Brown\brownlo01,PG,25,PHO,8,61,100%,,,,,-27.3,-20.3,4,2,1,2,2,0,25,2,0
65,Markel Brown\brownma02,SG,24,BRK,62,982,5%,90%,5%,,,-11.2,-4.8,34,17,52,0,35,7,202,9,10
66,Kobe Bryant*\bryanko01,SF,37,LAL,66,1863,,2%,97%,1%,,-15.4,-9.8,85,36,44,3,106,2,416,16,35
67,Chase Budinger\budinch01,SF,27,TOT,66,929,,11%,73%,16%,,-0.2,2.8,27,6,32,3,25,3,144,3,12
67,Chase Budinger\budinch01,SF,27,IND,49,729,,14%,69%,18%,,2.6,0.9,16,6,25,2,21,3,109,3,8
67,Chase Budinger\budinch01,SF,27,PHO,17,200,,3%,88%,8%,,-10.3,-3.2,11,0,7,1,4,0,35,0,4
68,Reggie Bullock\bullore01,SF,24,DET,37,429,,40%,60%,,,-6.4,-7.6,2,1,16,3,6,3,64,1,5
69,Trey Burke\burketr01,PG,23,UTA,64,1366,94%,6%,,,,-1.6,-5.2,48,22,39,6,33,1,339,11,33
70,Alec Burks\burksal01,SG,24,UTA,31,797,30%,69%,,,,-1.4,-4.1,21,14,28,6,58,6,146,10,27
71,Caron Butler\butleca01,SF,35,SAC,17,176,,7%,85%,8%,,-12.9,-10.5,2,1,11,0,4,0,24,1,0
72,Jimmy Butler\butleji01,SG,26,CHI,67,2474,1%,81%,18%,,,-0.7,2.6,72,41,63,17,193,5,742,31,56
73,Rasual Butler\butlera01,SF,36,SAS,46,432,,26%,69%,5%,,9.8,-1.9,7,1,7,0,5,1,58,2,4
74,Bruno Caboclo\cabocbr01,SF,20,TOR,6,43,,5%,69%,26%,,-6.0,-10.9,3,1,0,0,0,0,3,0,2
75,José Calderón\caldejo01,PG,34,NYK,72,2024,79%,21%,,,,-2.2,1.2,63,17,68,1,14,15,692,4,10
76,Kentavious Caldwell-Pope\caldwke01,SG,22,DET,76,2789,,100%,,,,2.6,7.6,42,38,74,9,99,21,335,27,35
77,Isaiah Canaan\canaais01,SG,24,PHI,77,1966,16%,81%,3%,,,-13.0,-4.7,49,19,52,7,60,18,324,16,39
78,Clint Capela\capelca01,C,21,HOU,77,1471,,,,20%,80%,4.0,6.3,19,20,88,13,75,1,108,19,46
79,DeMarre Carroll\carrode01,SF,29,TOR,26,786,,1%,81%,19%,,3.1,-2.2,11,12,27,2,19,6,66,3,18
80,Vince Carter\cartevi01,SG,39,MEM,60,1005,3%,59%,36%,2%,,-2.7,-0.4,18,8,56,7,27,8,127,6,14
81,Michael Carter-Williams\cartemi01,PG,24,MIL,54,1649,99%,1%,,,,-3.5,0.8,94,38,64,8,64,22,622,18,43
82,Omri Casspi\casspom01,PF,27,SAC,69,1880,,,34%,66%,1%,0.4,6.0,52,22,68,8,72,8,210,17,29
83,Willie Cauley-Stein\caulewi01,C,22,SAC,66,1412,,,,70%,30%,-2.2,0.9,16,17,78,5,46,4,85,5,22
84,Mario Chalmers\chalmma01,PG,29,TOT,61,1373,85%,16%,,,,2.7,3.5,63,30,79,8,91,33,525,17,27
84,Mario Chalmers\chalmma01,PG,29,MIA,6,120,100%,,,,,25.1,23.8,7,1,9,2,2,0,48,0,4
84,Mario Chalmers\chalmma01,PG,29,MEM,55,1253,83%,17%,,,,0.6,4.3,56,29,70,6,89,33,477,17,23
85,Tyson Chandler\chandty01,C,33,PHO,66,1618,,,,30%,70%,-11.7,-7.5,41,11,67,21,82,4,151,20,23
86,Rakeem Christmas\chrisra01,PF,24,IND,1,6,,,49%,51%,,-83.3,-85.4,0,0,1,0,0,0,0,0,0
87,Ian Clark\clarkia01,SG,24,GSW,66,578,48%,52%,1%,,,-6.3,-20.2,20,19,28,2,9,1,155,2,11
88,Coty Clarke\clarkco01,SF,23,BOS,3,6,,,,100%,,22.7,19.5,1,0,0,0,0,0,0,0,0
89,Jordan Clarkson\clarkjo01,SG,23,LAL,79,2552,3%,96%,1%,,,-12.5,-6.3,55,45,68,17,83,13,450,16,87
90,Norris Cole\coleno01,PG,27,NOP,45,1198,94%,6%,,,,-5.0,-1.7,49,11,50,7,22,5,370,4,17
91,Darren Collison\collida01,PG,28,SAC,74,2219,100%,,,,,-2.2,1.3,69,38,48,12,87,9,733,23,59
92,Nick Collison\collini01,PF,35,OKC,59,699,,,,86%,15%,2.2,-6.1,28,8,49,7,15,4,112,1,10
93,Mike Conley\conlemi01,PG,28,MEM,56,1761,100%,,,,,1.8,7.4,56,21,45,4,81,17,756,16,33
94,Pat Connaughton\connapa01,SG,23,POR,34,143,,98%,2%,,,-7.1,-8.2,6,4,4,0,1,0,25,1,5
95,Chris Copeland\copelch01,PF,31,MIL,24,156,,,34%,65%,1%,-26.5,-23.3,2,2,9,1,3,0,26,1,2
96,Bryce Cotton\cottobr01,PG,23,TOT,8,39,100%,,,,,-35.2,-30.5,3,2,2,0,0,0,7,0,0
96,Bryce Cotton\cottobr01,PG,23,PHO,3,33,100%,,,,,-25.1,-18.0,3,2,2,0,0,0,7,0,0
96,Bryce Cotton\cottobr01,PG,23,MEM,5,6,100%,,,,,-100.0,-97.8,0,0,0,0,0,0,0,0,0
97,DeMarcus Cousins\couside01,C,25,SAC,65,2246,,,,13%,87%,0.1,6.8,96,89,89,45,268,13,497,63,118
98,Robert Covington\covinro01,SF,25,PHI,67,1903,,,23%,73%,4%,-8.3,4.7,54,43,102,17,67,8,225,9,40
99,Allen Crabbe\crabbal01,SG,23,POR,81,2105,,36%,62%,2%,,0.0,-1.7,23,19,96,8,42,3,234,11,14
100,Jamal Crawford\crawfja01,SG,35,LAC,79,2126,,48%,50%,2%,,1.1,-7.0,63,34,39,7,109,8,417,24,26
101,Jae Crowder\crowdja01,SF,25,BOS,73,2308,,1%,77%,22%,,5.0,4.0,42,15,95,15,104,9,305,29,20
102,Dante Cunningham\cunnida01,SF,28,NOP,80,1971,,2%,74%,24%,1%,-6.1,-4.5,18,8,95,5,39,7,175,6,24
103,Jared Cunningham\cunnija01,SG,24,TOT,44,410,29%,66%,6%,,,-3.3,-4.7,8,9,20,4,23,8,46,1,17
103,Jared Cunningham\cunnija01,SG,24,CLE,40,355,33%,63%,4%,,,-0.2,-7.3,6,9,19,3,19,3,43,0,14
103,Jared Cunningham\cunnija01,SG,24,MIL,4,55,,84%,16%,,,-24.2,-20.5,2,0,1,1,4,5,3,1,3
104,Seth Curry\curryse01,PG,25,SAC,44,692,35%,63%,2%,,,-2.7,0.1,21,6,15,4,18,2,153,1,12
105,Stephen Curry\curryst01,PG,27,GSW,79,2700,100%,,,,,18.0,22.6,167,61,74,6,129,19,1213,32,51
106,Troy Daniels\danietr01,SG,24,CHO,43,476,,52%,48%,,,-5.1,-9.1,11,10,27,0,3,0,48,0,3
107,Anthony Davis\davisan02,C,22,NOP,61,2164,,,,46%,54%,-4.7,-1.8,40,43,78,18,169,6,274,36,54
108,Ed Davis\davised01,PF,26,POR,81,1684,,,,55%,45%,1.3,0.8,16,21,115,19,96,6,208,26,25
109,Branden Dawson\dawsobr01,PF,22,LAC,6,29,,,17%,83%,,-25.5,-30.0,0,0,2,0,1,0,0,1,2
110,Dewayne Dedmon\dedmode01,C,26,ORL,58,705,,,,2%,98%,-3.1,-1.8,8,7,61,7,34,2,31,7,15
111,Bryce Dejean-Jones\dejeabr01,SG,23,NOP,14,279,,82%,18%,,,-6.2,-2.5,5,2,7,0,10,2,34,1,6
112,Sam Dekker\dekkesa01,PF,21,HOU,3,6,,,15%,85%,,-5.2,-5.3,0,0,0,0,0,0,0,0,0
113,Matthew Dellavedova\dellama01,PG,25,CLE,76,1867,71%,29%,,,,10.7,8.0,80,18,55,9,18,11,785,4,20
114,Luol Deng\denglu01,PF,30,MIA,74,2394,,,26%,71%,3%,0.6,-3.5,35,23,54,9,83,6,328,19,31
115,DeMar DeRozan\derozde01,SG,26,TOR,78,2804,,68%,32%,,,3.1,-6.2,67,76,53,17,258,8,784,51,97
116,Boris Diaw\diawbo01,PF,33,SAS,76,1386,,,,96%,4%,10.1,-2.2,52,25,46,7,34,7,410,11,16
117,Gorgui Dieng\dienggo01,C,26,MIN,82,2220,,,,53%,47%,0.0,7.5,38,27,95,31,119,10,325,27,51
118,Spencer Dinwiddie\dinwisp01,PG,22,DET,12,159,100%,,,,,-17.3,-18.4,5,1,11,0,15,4,50,3,4
119,Toney Douglas\douglto01,PG,29,NOP,61,1262,64%,35%,1%,,,-5.3,-2.0,33,10,50,7,35,7,359,5,29
120,Goran Dragić\dragigo01,PG,29,MIA,72,2363,99%,1%,,,,3.9,4.6,102,42,70,17,62,15,946,11,40
121,Andre Drummond\drumman01,C,22,DET,81,2666,,,,,100%,2.4,6.2,41,55,121,30,198,3,164,46,72
122,Jared Dudley\dudleja01,PF,30,WAS,81,2098,,,1%,94%,5%,1.3,3.8,52,19,78,5,36,15,388,7,6
123,Duje Dukan\dukandu01,SF,24,SAC,1,24,,,100%,,,-17.8,-15.1,0,0,2,0,0,0,2,0,0
124,Tim Duncan*\duncati01,C,39,SAS,61,1536,,,,1%,99%,13.9,3.9,51,19,70,11,65,4,354,21,38
125,Mike Dunleavy\dunlemi02,SF,35,CHI,31,703,,,91%,9%,,-4.9,-3.9,18,4,34,0,16,2,89,5,11
126,Kevin Durant\duranke01,SF,27,OKC,72,2578,,,74%,26%,,11.5,12.6,133,82,70,16,169,6,825,32,38
127,Cleanthony Early\earlycl01,SF,24,NYK,17,154,,,72%,28%,,1.0,4.0,7,2,12,0,1,1,14,0,4
128,Jarell Eddie\eddieja01,SF,24,WAS,26,147,,2%,58%,40%,,-11.9,-11.9,0,1,2,0,4,1,11,0,3
129,Wayne Ellington\ellinwa01,SG,28,BRK,76,1615,,92%,8%,,,-10.5,-4.9,29,11,40,1,19,4,187,3,24
130,Monta Ellis\ellismo01,SG,30,IND,81,2734,14%,86%,1%,,,2.4,1.5,121,49,75,12,76,12,891,24,32
131,James Ennis\ennisja01,SF,25,TOT,22,329,,69%,29%,3%,,-6.7,-5.4,4,11,11,2,14,1,42,2,5
131,James Ennis\ennisja01,SF,25,MIA,3,7,,,100%,,,0.0,-2.0,0,0,0,0,0,0,2,0,0
131,James Ennis\ennisja01,SF,25,MEM,10,40,,32%,46%,22%,,-24.4,-22.3,1,1,0,0,5,0,4,0,0
131,James Ennis\ennisja01,SF,25,NOP,9,282,,75%,25%,,,-4.4,-0.6,3,10,11,2,9,1,36,2,5
132,Tyler Ennis\ennisty01,PG,21,MIL,46,654,100%,,,,,-5.7,-2.0,29,10,31,1,8,2,214,3,18
133,Jeremy Evans\evansje01,SF,28,DAL,30,251,,2%,53%,43%,3%,-4.6,-4.7,3,2,12,1,8,1,4,3,2
134,Tyreke Evans\evansty01,SG,26,NOP,25,765,1%,60%,39%,1%,,-0.3,4.4,34,21,29,4,37,2,390,5,23
135,Festus Ezeli\ezelife01,C,26,GSW,46,770,,,,,100%,14.1,3.7,13,10,48,11,57,1,80,13,20
136,Kenneth Faried\farieke01,PF,26,DEN,67,1694,,,1%,80%,20%,-3.6,-0.9,26,32,68,22,102,10,188,32,59
137,Jordan Farmar\farmajo01,PG,29,MEM,12,291,100%,,,,,-11.2,-9.5,12,3,7,2,1,4,83,0,7
138,Derrick Favors\favorde01,PF,24,UTA,62,1983,,,,46%,54%,1.8,-0.2,42,24,72,18,123,3,231,36,63
139,Cristiano Felício\feliccr01,C,23,CHI,31,321,,,,,100%,6.2,8.5,3,6,13,2,15,1,64,3,5
140,Raymond Felton\feltora01,PG,31,DAL,80,2192,69%,31%,,,,-0.5,-0.7,82,22,59,9,45,11,690,12,32
141,Evan Fournier\fournev01,SF,23,ORL,79,2566,1%,51%,48%,1%,,-3.1,-4.2,58,41,79,12,93,17,468,20,70
142,Randy Foye\foyera01,SG,32,TOT,81,1642,12%,45%,41%,3%,,1.5,-0.8,59,15,71,4,32,9,372,6,26
142,Randy Foye\foyera01,SG,32,DEN,54,1070,,33%,63%,4%,,-1.5,2.2,42,8,46,2,21,7,257,5,21
142,Randy Foye\foyera01,SG,32,OKC,27,572,34%,66%,,,,6.9,-0.4,17,7,25,2,11,2,115,1,5
143,Tim Frazier\fraziti01,PG,25,TOT,51,741,100%,,,,,-0.7,0.9,31,25,23,1,26,8,372,7,22
143,Tim Frazier\fraziti01,PG,25,POR,35,272,100%,,,,,-1.7,-2.7,12,11,10,0,6,1,95,1,8
143,Tim Frazier\fraziti01,PG,25,NOP,16,469,100%,,,,,-0.3,4.1,19,14,13,1,20,7,277,6,14
144,Jimmer Fredette\fredeji01,SG,26,TOT,6,18,,51%,50%,,,-76.3,-73.1,0,2,2,0,2,0,0,0,0
144,Jimmer Fredette\fredeji01,SG,26,NOP,4,13,,32%,69%,,,-80.8,-77.2,0,1,1,0,0,0,0,0,0
144,Jimmer Fredette\fredeji01,SG,26,NYK,2,5,,100%,,,,-66.4,-63.6,0,1,1,0,2,0,0,0,0
145,Channing Frye\fryech01,PF-C,32,TOT,70,1200,,,,68%,32%,4.4,2.4,19,5,67,13,13,6,164,4,6
145,Channing Frye\fryech01,PF,32,ORL,44,754,,,,91%,9%,3.2,6.0,16,4,36,7,5,3,101,2,2
145,Channing Frye\fryech01,C,32,CLE,26,446,,,,30%,71%,6.5,0.0,3,1,31,6,8,3,63,2,4
146,Danilo Gallinari\gallida01,SF,27,DEN,53,1839,,,67%,32%,1%,-3.0,0.2,30,25,34,10,160,14,301,22,49
147,Langston Galloway\gallola01,PG,24,NYK,82,2033,100%,,,,,-2.7,0.4,40,8,65,5,47,5,480,12,22
148,Kevin Garnett*\garneke01,PF,39,MIN,38,556,,,,99%,1%,6.3,11.2,6,1,28,8,6,4,135,1,2
149,Marc Gasol\gasolma01,C,31,MEM,52,1791,,,,,100%,-0.1,4.1,41,47,63,22,93,7,449,21,25
150,Pau Gasol\gasolpa01,C,35,CHI,72,2291,,,,,100%,-1.1,1.4,102,47,91,7,106,4,669,27,59
151,Rudy Gay\gayru01,SF,29,SAC,70,2379,,1%,76%,24%,,-2.3,1.3,61,55,94,11,95,6,281,19,60
152,Alonzo Gee\geeal01,SF,28,NOP,73,1632,,14%,83%,3%,,-4.3,-0.6,21,17,73,9,29,8,174,8,23
153,Paul George\georgpa01,SF,25,IND,81,2819,,,61%,39%,1%,3.1,4.4,143,78,78,30,182,22,730,36,77
154,Taj Gibson\gibsota01,PF,30,CHI,73,1936,,,11%,87%,2%,-2.1,-0.9,19,22,83,20,68,4,244,23,54
155,Manu Ginóbili\ginobma01,SG,38,SAS,58,1134,1%,86%,13%,,,14.5,4.3,70,20,26,6,31,19,396,5,22
156,Rudy Gobert\goberru01,C,23,UTA,61,1932,,,,,100%,4.4,4.8,38,35,77,20,104,4,211,10,42
157,Drew Gooden\goodedr01,PF,34,WAS,30,305,,,,70%,30%,-13.2,-13.8,7,3,22,0,6,0,31,2,6
158,Archie Goodwin\goodwar01,PG,21,PHO,57,1114,69%,31%,1%,,,-9.9,-3.7,64,25,47,5,82,15,275,15,45
159,Aaron Gordon\gordoaa01,PF,20,ORL,78,1863,,,40%,60%,,-1.4,0.4,17,19,61,16,83,3,277,20,34
160,Eric Gordon\gordoer01,SG,27,NOP,45,1481,21%,64%,15%,,,-2.5,2.2,32,27,53,3,47,3,271,13,30
161,Marcin Gortat\gortama01,C,31,WAS,75,2256,,,,,100%,0.8,2.9,39,35,84,30,94,15,245,20,50
162,Andrew Goudelock\goudean01,PG,27,HOU,8,50,99%,1%,,,,14.4,14.6,5,1,1,0,0,1,9,0,0
163,Jerami Grant\grantje01,PF,21,PHI,77,2066,,4%,55%,41%,1%,-10.1,1.3,38,27,98,30,148,20,331,23,76
164,Jerian Grant\grantje02,PG,23,NYK,76,1265,24%,75%,1%,,,-6.5,-5.4,61,18,41,5,61,14,418,16,29
165,Danny Green\greenda02,SG,28,SAS,79,2062,,82%,18%,,,12.7,2.5,41,15,76,5,15,10,315,1,21
166,Draymond Green\greendr01,PF,25,GSW,81,2808,,,,80%,21%,18.5,26.3,170,48,116,19,143,17,1402,36,55
167,Erick Green\greener01,PG,24,TOT,9,42,100%,,,,,-1.3,-0.6,0,0,4,0,0,0,9,0,0
167,Erick Green\greener01,PG,24,DEN,3,7,100%,,,,,22.1,25.2,0,0,0,0,0,0,3,0,0
167,Erick Green\greener01,PG,24,UTA,6,35,100%,,,,,-6.8,-8.7,0,0,4,0,0,0,6,0,0
168,Gerald Green\greenge01,SG,30,MIA,69,1557,1%,42%,57%,,,1.5,-0.9,16,6,61,9,38,3,124,11,19
169,JaMychal Green\greenja01,PF,25,MEM,78,1446,,,1%,83%,16%,-1.3,1.7,25,27,79,18,62,2,151,17,48
170,Jeff Green\greenje02,SF,29,TOT,80,2253,,,40%,59%,1%,-0.4,-2.0,37,29,78,12,102,5,328,23,56
170,Jeff Green\greenje02,SF,29,MEM,53,1544,,,49%,51%,,-0.6,2.9,28,18,46,10,72,3,232,16,42
170,Jeff Green\greenje02,SF,29,LAC,27,709,,,21%,77%,2%,0.1,-5.2,9,11,32,2,30,2,96,7,14
171,Blake Griffin\griffbl01,PF,26,LAC,35,1170,,,,85%,15%,6.9,3.7,37,30,31,13,76,7,411,18,12
172,Jorge Gutiérrez\gutiejo01,PG,27,CHO,12,63,100%,,,,,6.2,3.4,4,2,0,0,2,0,42,1,0
173,P.J. Hairston\hairspj02,SF,23,TOT,66,1313,,56%,40%,4%,,-6.0,-7.5,17,11,74,9,32,10,92,10,16
173,P.J. Hairston\hairspj02,SF,23,CHO,48,938,,60%,38%,2%,,-5.4,-10.8,12,5,62,5,21,8,73,7,11
173,P.J. Hairston\hairspj02,SF,23,MEM,18,375,,45%,46%,9%,,-7.4,-5.6,5,6,12,4,11,2,19,3,5
174,Jordan Hamilton\hamiljo02,SF,25,NOP,11,304,,24%,66%,10%,,-10.4,-7.0,8,8,16,0,7,1,59,3,5
175,Tyler Hansbrough\hansbty01,PF,30,CHO,44,343,,,,86%,14%,-3.9,-7.4,2,3,20,3,26,3,20,1,13
176,Tim Hardaway Jr.\hardati02,SG,23,ATL,51,864,1%,90%,9%,,,6.5,3.6,11,8,21,3,19,4,121,6,15
177,James Harden\hardeja01,SG,26,HOU,82,3125,2%,77%,21%,1%,,1.6,7.1,223,98,93,42,311,14,1458,56,95
178,Maurice Harkless\harklma01,SF,22,POR,78,1457,,2%,70%,28%,,1.3,0.9,22,17,77,8,50,2,161,9,29
179,Justin Harper\harpeju01,PF,26,DET,5,35,,,,100%,,-50.6,-51.4,2,0,2,0,1,0,0,0,0
180,Montrezl Harrell\harremo01,PF,22,HOU,39,379,,,,81%,19%,6.3,6.9,6,5,26,2,19,1,43,2,8
181,Devin Harris\harride01,PG,32,DAL,64,1280,15%,69%,16%,,,-2.5,-3.4,44,10,59,3,44,18,268,16,17
182,Gary Harris\harriga01,SG,21,DEN,76,2439,1%,62%,35%,2%,,-4.2,-2.8,34,41,51,9,56,4,334,17,46
183,Joe Harris\harrijo01,SG,24,CLE,5,15,,69%,31%,,,-57.6,-64.3,1,0,0,0,0,0,5,0,0
184,Tobias Harris\harrito02,PF,23,TOT,76,2513,,,33%,67%,,0.3,1.4,37,41,76,22,111,7,408,34,71
184,Tobias Harris\harrito02,PF,23,ORL,49,1610,,,51%,49%,,-0.8,1.4,27,33,44,12,68,7,240,20,47
184,Tobias Harris\harrito02,PF,23,DET,27,903,,,2%,98%,,2.4,2.6,10,8,32,10,43,0,168,14,24
185,Aaron Harrison\harriaa01,SG,21,CHO,21,93,,3%,97%,,,-2.5,-5.5,1,0,7,0,2,1,4,0,0
186,Udonis Haslem\hasleud01,PF,35,MIA,37,260,,,4%,83%,14%,-0.7,-2.9,1,1,15,3,4,5,31,1,1
187,Spencer Hawes\hawessp01,PF,27,CHO,57,1035,,,,73%,27%,1.8,-1.4,25,11,79,12,30,5,253,3,13
188,Chuck Hayes\hayesch01,C,32,HOU,2,24,,,,,100%,-4.1,-4.2,1,1,2,1,0,0,4,0,0
189,Gordon Hayward\haywago01,SF,25,UTA,80,2893,,12%,86%,3%,,1.5,-1.4,85,67,66,33,175,16,704,37,57
190,Gerald Henderson\hendege02,SG,28,POR,72,1431,,80%,20%,,,1.1,0.5,30,17,33,10,63,14,181,8,18
191,John Henson\hensojo01,C,25,MIL,57,960,,,,23%,77%,-6.6,-3.4,23,16,65,8,55,4,118,10,12
192,Mario Hezonja\hezonma01,SF,20,ORL,79,1413,,22%,72%,6%,,-1.0,0.9,50,24,60,12,18,3,237,6,15
193,Roy Hibbert\hibbero01,C,29,LAL,81,1878,,,,,100%,-18.2,-15.1,30,14,170,23,56,5,216,10,30
194,J.J. Hickson\hicksjj01,C,27,TOT,35,436,,,,4%,96%,-7.2,-5.8,10,5,18,6,50,0,54,7,15
194,J.J. Hickson\hicksjj01,C,27,DEN,20,305,,,,2%,98%,-6.7,-3.9,8,2,14,6,30,0,35,3,10
194,J.J. Hickson\hicksjj01,C,27,WAS,15,131,,,,9%,91%,-8.3,-8.2,2,3,4,0,20,0,19,4,5
195,Nenê\hilarne01,PF,33,WAS,57,1094,,,,11%,89%,2.1,3.5,32,23,69,16,86,8,214,16,22
196,George Hill\hillge01,PG,29,IND,74,2524,98%,2%,,,,2.1,0.5,50,26,57,12,50,17,596,11,32
197,Jordan Hill\hilljo01,C,28,IND,73,1513,,,,26%,74%,1.6,-0.5,33,30,94,16,53,1,204,11,31
198,Solomon Hill\hillso01,SF,24,IND,59,866,,6%,55%,39%,,4.4,3.2,20,8,26,2,12,1,130,0,13
199,Darrun Hilliard\hillida01,SG,22,DET,38,383,,94%,6%,,,0.4,0.1,6,4,13,3,17,2,63,3,4
200,Kirk Hinrich\hinriki01,PG,35,TOT,46,631,67%,33%,,,,1.0,0.0,19,5,26,2,6,7,171,2,6
200,Kirk Hinrich\hinriki01,PG,35,CHI,35,555,69%,31%,,,,-1.1,0.6,18,5,25,2,6,5,136,2,5
200,Kirk Hinrich\hinriki01,PG,35,ATL,11,76,50%,50%,,,,17.8,14.4,1,0,1,0,0,2,35,0,1
201,Jrue Holiday\holidjr01,PG,25,NOP,65,1831,32%,65%,3%,,,0.3,7.7,107,45,60,4,90,14,901,21,49
202,Justin Holiday\holidju01,SG,26,TOT,53,773,10%,87%,3%,,,-3.8,-5.4,25,9,33,3,15,7,126,3,20
202,Justin Holiday\holidju01,SG,26,ATL,26,263,,99%,1%,,,-4.1,-8.3,7,4,10,1,4,3,26,0,8
202,Justin Holiday\holidju01,SG,26,CHI,27,510,15%,80%,4%,,,-3.7,-2.4,18,5,23,2,11,4,100,3,12
203,Ryan Hollins\holliry01,C,31,TOT,37,460,,,,1%,99%,-16.2,-15.7,5,7,33,9,17,1,22,3,13
203,Ryan Hollins\holliry01,C,31,WAS,5,48,,,,,100%,-18.3,-18.1,0,1,1,0,0,0,0,0,1
203,Ryan Hollins\holliry01,C,31,MEM,32,412,,,,1%,99%,-16.0,-15.2,5,6,32,9,17,1,22,3,12
204,Rondae Hollis-Jefferson\holliro01,SF,21,BRK,29,615,,61%,27%,12%,,-3.0,5.4,10,10,35,4,22,6,93,2,8
205,Richaun Holmes\holmeri01,PF,22,PHI,51,702,,,,37%,63%,-4.1,8.1,12,10,56,5,39,5,78,9,19
206,Rodney Hood\hoodro01,SG,23,UTA,79,2541,4%,89%,7%,,,2.3,1.1,59,39,102,15,81,6,505,8,39
207,Al Horford\horfoal01,C,29,ATL,82,2631,,,,10%,90%,3.9,0.8,50,29,88,15,57,1,627,16,35
208,Dwight Howard\howardw01,C,30,HOU,71,2280,,,,,100%,0.3,0.6,48,35,90,40,172,1,233,49,48
209,Marcelo Huertas\huertma01,PG,32,LAL,53,869,100%,,,,,0.4,13.6,60,11,33,3,11,8,415,6,14
210,Josh Huestis\huestjo01,PF,24,OKC,5,55,,,22%,78%,,-1.2,-8.5,2,1,1,0,1,0,0,0,0
211,Kris Humphries\humphkr01,PF,30,TOT,53,835,,,,58%,42%,-5.0,-3.9,16,11,45,2,23,6,82,3,17
211,Kris Humphries\humphkr01,PF,30,WAS,28,466,,,,75%,26%,-6.9,-7.3,10,4,21,0,9,5,35,1,10
211,Kris Humphries\humphkr01,PF,30,PHO,4,74,,,,100%,,-18.2,-11.2,1,1,2,1,1,1,15,0,3
211,Kris Humphries\humphkr01,PF,30,ATL,21,295,,,,22%,78%,1.5,-2.4,5,6,22,1,13,0,32,2,4
212,R.J. Hunter\hunterj01,SG,22,BOS,36,315,21%,69%,10%,1%,,-3.8,-7.7,6,3,13,2,3,1,27,1,4
213,Serge Ibaka\ibakase01,PF,26,OKC,78,2500,,,,92%,9%,10.1,7.8,31,36,124,18,51,4,170,15,27
214,Andre Iguodala\iguodan01,SF,32,GSW,65,1732,,1%,85%,15%,,13.5,4.3,51,17,67,4,29,10,522,9,10
215,Ersan İlyasova\ilyaser01,PF,28,TOT,74,1881,,,,96%,4%,-4.1,-4.6,25,15,77,10,68,23,158,9,41
215,Ersan İlyasova\ilyaser01,PF,28,DET,52,1434,,,,100%,,-1.6,-3.1,19,15,56,8,48,18,131,5,30
215,Ersan İlyasova\ilyaser01,PF,28,ORL,22,447,,,,83%,17%,-11.9,-11.6,6,0,21,2,20,5,27,4,11
216,Joe Ingles\inglejo01,SF,28,UTA,81,1241,,,81%,19%,,-1.8,-5.4,42,5,29,8,6,3,219,4,7
217,Damien Inglis\inglida01,SF,20,MIL,20,156,,,80%,20%,,-9.8,-6.0,7,1,9,0,2,0,22,0,3
218,Kyrie Irving\irvinky01,PG,23,CLE,53,1667,99%,2%,,,,6.4,-0.3,57,49,39,7,69,6,597,19,54
219,Jarrett Jack\jackja01,PG,32,BRK,32,1027,89%,11%,,,,-6.0,2.1,65,24,25,4,33,5,509,3,23
220,Reggie Jackson\jacksre01,PG,25,DET,79,2424,100%,,,,,2.2,4.6,134,58,72,21,113,18,1150,30,69
221,LeBron James\jamesle01,SF,31,CLE,76,2709,,,77%,23%,,11.5,15.8,145,54,47,32,219,13,1262,74,69
222,Al Jefferson\jeffeal01,C,31,CHO,47,1096,,,,51%,49%,2.7,-0.2,11,14,85,6,59,2,164,15,36
223,Cory Jefferson\jeffeco01,PF,25,PHO,8,50,,,,100%,,-5.1,2.2,0,0,2,0,2,1,0,0,3
224,Richard Jefferson\jefferi01,SF,35,CLE,74,1326,,19%,68%,13%,,-2.0,-12.7,18,13,68,2,36,10,139,7,11
225,John Jenkins\jenkijo01,SG,24,TOT,43,480,14%,60%,25%,,,-6.2,-2.6,13,7,12,1,11,0,83,5,6
225,John Jenkins\jenkijo01,SG,24,DAL,21,193,16%,55%,28%,1%,,3.1,3.5,3,4,8,0,3,0,22,2,2
225,John Jenkins\jenkijo01,SG,24,PHO,22,287,13%,64%,23%,,,-12.1,-5.2,10,3,4,1,8,0,61,3,4
226,Brandon Jennings\jennibr01,PG,26,TOT,48,868,100%,,,,,0.4,1.1,38,15,29,2,27,6,395,6,7
226,Brandon Jennings\jennibr01,PG,26,DET,23,416,100%,,,,,4.0,4.1,14,6,16,1,15,1,168,3,6
226,Brandon Jennings\jennibr01,PG,26,ORL,25,452,100%,,,,,-2.8,-1.3,24,9,13,1,12,5,227,3,1
227,Jonas Jerebko\jerebjo01,PF,28,BOS,78,1176,,,6%,78%,16%,2.8,-0.7,13,16,56,10,26,11,142,5,23
228,Amir Johnson\johnsam01,PF,28,BOS,79,1800,,,2%,89%,9%,5.2,3.4,41,22,88,20,42,8,320,6,26
229,Chris Johnson\johnsch04,SF,25,UTA,70,857,2%,67%,31%,,,4.2,3.0,16,12,38,3,15,2,103,3,14
230,James Johnson\johnsja01,PF,28,TOR,57,926,,,3%,84%,13%,0.8,-5.2,19,22,36,5,34,0,156,6,13
231,Joe Johnson\johnsjo02,SF,34,TOT,81,2703,,,83%,17%,,-1.2,2.5,84,50,48,16,54,4,711,9,28
231,Joe Johnson\johnsjo02,SF,34,BRK,57,1934,,,91%,9%,,-4.3,6.5,64,35,34,10,40,3,522,5,23
231,Joe Johnson\johnsjo02,SF,34,MIA,24,769,,,64%,36%,,6.6,5.7,20,15,14,6,14,1,189,4,5
232,Orlando Johnson\johnsor01,SG,26,TOT,7,101,24%,76%,,,,-18.0,-12.5,3,1,5,0,3,0,4,0,3
232,Orlando Johnson\johnsor01,SG,26,PHO,2,47,41%,59%,,,,-3.1,4.2,1,0,2,0,2,0,0,0,1
232,Orlando Johnson\johnsor01,SG,26,NOP,5,54,9%,91%,,,,-30.3,-26.8,2,1,3,0,1,0,4,0,2
233,Stanley Johnson\johnsst04,SF,19,DET,73,1687,,36%,63%,2%,,-3.1,-6.1,41,29,77,22,43,3,282,14,35
234,Tyler Johnson\johnsty01,SG,23,MIA,36,863,52%,48%,,,,0.6,-1.8,24,14,40,4,27,7,182,12,20
235,Wesley Johnson\johnswe01,SF,28,LAC,80,1666,,1%,60%,38%,,2.2,-3.8,33,10,97,4,23,2,117,9,8
236,Nikola Jokić\jokicni01,C,20,DEN,80,1733,,,,5%,95%,2.3,9.5,45,28,94,15,73,9,438,22,57
237,Dahntay Jones\jonesda02,SF,35,CLE,1,42,14%,86%,,,,-1.3,-7.9,0,0,4,0,0,1,5,0,2
238,James Jones\jonesja02,SF,35,CLE,48,463,,1%,43%,57%,,-3.8,-11.7,7,2,20,4,11,2,34,4,3
239,Terrence Jones\joneste01,PF,24,HOU,50,1044,,,,77%,23%,-11.2,-15.2,15,16,36,10,57,1,104,16,39
240,Tyus Jones\jonesty01,PG,19,MIN,37,573,100%,,,,,-10.2,-8.1,27,5,19,1,16,4,243,3,12
241,DeAndre Jordan\jordade01,C,27,LAC,77,2598,,,,,100%,9.0,13.3,36,33,119,20,146,8,207,37,20
242,Cory Joseph\josepco01,SG,24,TOR,80,2046,43%,57%,,,,7.2,4.9,44,40,64,11,59,10,602,13,46
243,Chris Kaman\kamanch01,C,33,POR,16,112,,,,,100%,-14.0,-15.2,5,1,7,1,2,0,25,1,3
244,Frank Kaminsky\kaminfr01,C,22,CHO,81,1708,,,,,100%,-0.1,-5.2,13,22,70,16,63,2,245,17,48
245,Enes Kanter\kanteen01,C,23,OKC,82,1721,,,,7%,93%,3.3,-7.0,21,32,91,34,121,1,82,30,79
246,Sergey Karasev\karasse01,SF,22,BRK,40,399,,50%,45%,5%,1%,0.5,9.0,16,6,14,0,7,7,81,1,3
247,Sasha Kaun\kaunsa01,C,30,CLE,25,95,,,,15%,85%,-1.6,-8.3,2,1,8,1,2,0,7,1,5
248,Ryan Kelly\kellyry01,PF,24,LAL,36,470,,,,54%,46%,-0.8,10.8,5,9,24,3,26,3,47,6,13
249,Michael Kidd-Gilchrist\kiddgmi01,SF,22,CHO,7,205,,,100%,,,15.3,13.1,1,3,4,1,14,0,24,7,8
250,Sean Kilpatrick\kilpase01,SG,26,TOT,31,616,,41%,56%,3%,,-11.8,-7.0,11,13,18,6,31,5,70,5,14
250,Sean Kilpatrick\kilpase01,SG,26,DEN,8,82,,94%,6%,,,-4.6,-1.5,1,2,6,1,4,1,7,0,0
250,Sean Kilpatrick\kilpase01,SG,26,BRK,23,534,,33%,64%,3%,1%,-13.0,-6.3,10,11,12,5,27,4,63,5,14
251,Brandon Knight\knighbr03,SG,24,PHO,52,1870,37%,59%,4%,,,-6.4,1.6,111,45,49,8,54,12,633,14,34
252,Kyle Korver\korveky01,SG,34,ATL,80,2401,,84%,16%,,,5.5,4.6,59,16,100,10,11,4,373,5,12
253,Kosta Koufos\koufoko01,C,26,SAC,78,1482,,,,,100%,-6.9,-6.6,11,13,99,16,48,4,80,11,30
254,Jeremy Lamb\lambje01,SG,23,CHO,66,1227,,76%,25%,,,5.6,3.9,28,9,50,8,43,5,184,14,20
255,Carl Landry\landrca01,PF,32,PHI,36,569,,,,52%,48%,-10.3,0.4,6,8,32,4,36,2,81,7,16
256,Shane Larkin\larkish01,PG,23,BRK,78,1751,100%,,,,,-9.5,-3.5,93,37,59,3,46,16,773,13,31
257,Joffrey Lauvergne\lauvejo01,C,24,DEN,59,1041,,,,23%,77%,-9.7,-9.0,17,10,44,16,32,1,134,6,32
258,Zach LaVine\lavinza01,SG,20,MIN,82,2294,35%,65%,,,,-6.1,-6.7,65,49,92,11,82,5,556,21,61
259,Ty Lawson\lawsoty01,PG,28,TOT,66,1411,100%,,,,,-6.1,-8.7,72,13,28,4,40,3,557,9,28
259,Ty Lawson\lawsoty01,PG,28,HOU,53,1176,100%,,,,,-7.8,-11.2,63,12,26,2,37,2,425,7,22
259,Ty Lawson\lawsoty01,PG,28,IND,13,235,100%,,,,,2.1,0.2,9,1,2,2,3,1,132,2,6
260,Courtney Lee\leeco01,SG,30,TOT,79,2334,,65%,34%,,,2.9,3.7,31,20,67,4,42,6,315,12,27
260,Courtney Lee\leeco01,SG,30,MEM,51,1489,,60%,39%,,,0.8,5.0,22,14,37,3,29,2,170,8,18
260,Courtney Lee\leeco01,SG,30,CHO,28,845,,74%,26%,,,6.6,4.8,9,6,30,1,13,4,145,4,9
261,David Lee\leeda02,PF,32,TOT,55,903,,,11%,71%,18%,-3.6,-5.9,26,27,56,10,42,4,203,9,42
261,David Lee\leeda02,PF,32,BOS,30,470,,,19%,69%,12%,-4.3,-8.6,18,14,23,4,22,1,130,3,27
261,David Lee\leeda02,PF,32,DAL,25,433,,1%,2%,73%,25%,-2.8,-3.0,8,13,33,6,20,3,73,6,15
262,Alex Len\lenal01,C,22,PHO,78,1821,,,,,100%,-8.0,-1.3,56,33,111,31,113,2,231,21,60
263,Kawhi Leonard\leonaka01,SF,24,SAS,72,2380,,5%,90%,6%,,14.3,7.1,38,32,48,15,129,11,425,37,29
264,Meyers Leonard\leoname01,PF,23,POR,61,1333,,,,25%,75%,1.8,1.5,37,14,113,18,9,5,226,2,8
265,Jon Leuer\leuerjo01,PF,26,PHO,67,1255,,,,58%,42%,-3.2,6.0,43,22,75,5,49,3,172,13,30
266,Damian Lillard\lillada01,PG,25,POR,75,2676,98%,2%,,,,1.4,2.0,169,56,80,6,162,27,1214,37,93
267,Jeremy Lin\linje01,SG,27,CHO,78,2048,37%,63%,,,,2.4,-0.9,65,53,65,17,108,25,556,15,65
268,Shaun Livingston\livinsh01,PG,30,GSW,78,1520,64%,36%,,,,7.2,-6.2,47,15,63,10,44,5,550,15,18
269,Kevon Looney\looneke01,PF,19,GSW,5,21,,,10%,74%,16%,-44.0,-55.4,0,0,2,0,0,0,0,0,1
270,Brook Lopez\lopezbr01,C,27,BRK,73,2457,,,,,100%,-3.7,10.1,58,50,102,41,195,6,333,58,60
271,Robin Lopez\lopezro01,C,27,NYK,82,2219,,,,,100%,-2.3,1.3,37,41,111,24,67,6,258,15,27
272,Kevin Love\loveke01,PF,27,CLE,77,2424,,,,40%,60%,8.8,5.8,79,33,68,17,128,12,444,17,52
273,Kyle Lowry\lowryky01,PG,29,TOR,77,2851,100%,,,,,6.6,6.3,132,56,81,20,177,29,1141,26,74
274,Trey Lyles\lylestr01,PF,20,UTA,80,1382,,,,85%,15%,-1.2,-4.7,30,11,58,11,40,5,161,11,15
275,Shelvin Mack\macksh01,PG,25,TOT,52,1058,92%,8%,,,,4.3,1.7,61,24,20,3,28,1,432,9,23
275,Shelvin Mack\macksh01,PG,25,ATL,24,179,94%,6%,,,,-9.5,-13.9,10,1,2,0,7,0,90,3,5
275,Shelvin Mack\macksh01,PG,25,UTA,28,879,92%,8%,,,,7.5,7.2,51,23,18,3,21,1,342,6,18
276,Ian Mahinmi\mahinia01,C,29,IND,71,1816,,,,,100%,3.7,3.4,37,26,103,24,91,5,252,19,41
277,Devyn Marble\marblde01,SG,23,ORL,28,249,,52%,46%,2%,,-4.2,-2.7,1,4,13,0,10,1,30,2,3
278,Boban Marjanović\marjabo01,C,27,SAS,54,508,,,,,100%,6.5,-5.8,8,10,32,4,48,0,47,12,13
279,Kendall Marshall\marshke01,PG,24,PHI,30,400,58%,40%,2%,,,-15.4,-5.2,31,8,14,1,7,2,166,1,5
280,Jarell Martin\martija01,PF,21,MEM,27,380,,,1%,31%,68%,-5.0,-2.9,5,8,27,6,28,2,35,6,15
281,Kevin Martin\martike02,SG,32,TOT,55,1095,,81%,18%,,,-5.8,-11.4,18,19,20,7,68,4,133,9,21
281,Kevin Martin\martike02,SG,32,MIN,39,834,,95%,5%,,,-5.4,-2.6,12,16,17,6,57,3,104,5,15
281,Kevin Martin\martike02,SG,32,SAS,16,261,,36%,62%,2%,,-7.2,-20.0,6,3,3,1,11,1,29,4,6
282,Wesley Matthews\matthwe02,SF,29,DAL,78,2644,,35%,63%,2%,,2.2,6.8,34,32,67,6,42,19,361,7,39
283,O.J. Mayo\mayooj01,SG,28,MIL,41,1090,3%,60%,35%,3%,,-2.1,2.7,44,14,45,9,14,8,257,3,17
284,Luc Mbah a Moute\mbahalu01,PF,29,LAC,75,1274,,,27%,73%,1%,10.6,9.1,15,11,49,4,25,3,74,4,32
285,James Michael McAdoo\mcadoja01,PF,23,GSW,41,262,,,8%,45%,47%,-17.2,-30.2,5,5,20,6,17,1,41,3,15
286,Ray McCallum\mccalra01,PG,24,TOT,41,475,84%,16%,,,,3.6,-1.0,18,2,16,1,5,1,132,0,14
286,Ray McCallum\mccalra01,PG,24,SAS,31,256,86%,14%,,,,8.2,-3.5,8,1,6,1,3,1,73,0,7
286,Ray McCallum\mccalra01,PG,24,MEM,10,219,81%,19%,,,,-1.6,0.7,10,1,10,0,2,0,59,0,7
287,CJ McCollum\mccolcj01,SG,24,POR,80,2780,34%,66%,,,,2.4,5.5,95,56,83,19,82,7,799,17,91
288,T.J. McConnell\mccontj01,PG,23,PHI,81,1606,92%,8%,,,,-8.1,4.3,81,44,55,2,10,10,888,3,24
289,Chris McCullough\mcculch01,PF,20,BRK,24,362,,,,82%,18%,-14.9,-8.0,2,6,28,4,11,0,20,1,9
290,K.J. McDaniels\mcdankj01,SF,22,HOU,37,235,1%,42%,57%,1%,,20.6,21.9,6,3,7,2,14,0,22,1,3
291,Doug McDermott\mcderdo01,SF,24,CHI,81,1861,,3%,92%,6%,,-3.7,-3.8,19,19,64,8,32,5,140,12,34
292,Mitch McGary\mcgarmi01,PF,23,OKC,20,72,,,,70%,30%,-30.9,-38.9,2,3,6,0,3,0,7,0,3
293,JaVale McGee\mcgeeja01,C,28,DAL,34,370,,,,1%,99%,-7.7,-8.3,5,5,24,5,14,5,6,2,10
294,Ben McLemore\mclembe01,SG,22,SAC,68,1443,2%,88%,11%,,,0.4,5.0,29,40,68,13,37,11,182,8,24
295,Jordan McRae\mcraejo01,PG,24,TOT,22,195,67%,33%,,,,12.2,13.0,7,4,8,2,13,2,59,3,8
295,Jordan McRae\mcraejo01,PG,24,PHO,7,82,69%,31%,,,,8.8,16.4,3,1,3,0,6,1,23,1,1
295,Jordan McRae\mcraejo01,PG,24,CLE,15,113,66%,33%,,,,14.7,8.4,4,3,5,2,7,1,36,2,7
296,Josh McRoberts\mcrobjo01,PF,28,MIA,42,595,,,,79%,21%,1.5,-0.6,17,7,37,5,16,0,179,4,8
297,Jodie Meeks\meeksjo01,SG,28,DET,3,43,,100%,,,,7.4,7.1,0,1,0,0,2,0,7,0,2
298,Salah Mejri\mejrisa01,C,29,DAL,34,397,,,,,100%,5.7,6.5,7,6,28,4,18,6,21,2,15
299,Jordan Mickey\mickejo01,PF,21,BOS,16,57,,,16%,80%,5%,6.3,3.0,1,0,2,0,6,0,3,2,5
300,Khris Middleton\middlkh01,SG,24,MIL,79,2852,,2%,81%,17%,,-0.6,12.4,95,48,79,24,107,6,704,20,42
301,C.J. Miles\milescj01,SF,28,IND,64,1464,,19%,78%,3%,,-0.6,-4.0,37,15,71,12,54,5,150,8,27
302,Andre Miller\millean02,PG,39,TOT,39,461,93%,8%,,,,3.2,-0.8,27,9,12,1,14,4,198,3,11
302,Andre Miller\millean02,PG,39,MIN,26,280,99%,1%,,,,-2.8,0.6,19,5,8,1,8,2,136,2,6
302,Andre Miller\millean02,PG,39,SAS,13,181,83%,17%,,,,12.5,1.1,8,4,4,0,6,2,62,1,5
303,Mike Miller\millemi01,SF,35,DEN,47,373,,,48%,52%,1%,-13.0,-10.9,12,1,24,4,0,1,93,0,3
304,Patty Mills\millspa02,PG,27,SAS,81,1662,100%,,,,,11.8,0.5,47,19,39,5,11,24,498,5,12
305,Elijah Millsap\millsel01,SG,28,UTA,20,173,2%,67%,31%,,,7.3,5.7,4,3,8,1,7,2,47,0,4
306,Paul Millsap\millspa01,PF,30,ATL,81,2647,,,2%,92%,6%,3.5,-0.4,79,69,117,26,183,10,640,39,71
307,Nikola Mirotić\mirotni01,PF,24,CHI,66,1646,,,2%,86%,12%,-0.2,2.6,42,35,87,14,58,1,229,6,24
308,Nazr Mohammed\mohamna01,C,38,OKC,5,19,,,,,100%,-9.7,-17.0,0,1,2,0,1,0,0,0,0
309,Greg Monroe\monrogr01,C,25,MIL,79,2314,,,,,100%,-2.6,3.5,47,55,86,12,142,11,412,35,97
310,Luis Montero\montelu01,SG,22,POR,12,42,,6%,94%,,,-56.5,-57.9,3,1,0,0,1,0,2,0,2
311,E'Twaun Moore\mooreet01,SG,26,CHI,59,1263,32%,66%,2%,,,-0.7,1.4,32,14,44,4,14,3,225,5,25
312,Eric Moreland\moreler01,PF,24,SAC,8,48,,,,51%,49%,1.6,4.5,2,1,1,0,1,0,3,0,2
313,Marcus Morris\morrima03,SF,26,DET,80,2856,,,91%,9%,,2.3,6.8,72,32,75,15,105,13,473,25,29
314,Markieff Morris\morrima02,PF,26,TOT,64,1629,,,,85%,15%,-3.4,0.5,56,26,79,33,59,5,293,14,40
314,Markieff Morris\morrima02,PF,26,PHO,37,917,,,,74%,26%,-8.2,-1.2,37,20,44,22,38,2,206,12,33
314,Markieff Morris\morrima02,PF,26,WAS,27,712,,,,99%,1%,2.7,3.8,19,6,35,11,21,3,87,2,7
315,Anthony Morrow\morroan01,SG,30,OKC,68,926,,42%,57%,,,4.1,-4.1,8,6,37,3,12,4,57,3,8
316,Donatas Motiejūnas\motiedo01,PF,25,HOU,37,547,,,,86%,14%,3.5,4.0,26,11,23,4,22,7,96,1,9
317,Timofey Mozgov\mozgoti01,C,29,CLE,76,1326,,,,,100%,1.0,-8.2,14,27,99,13,51,2,79,15,30
318,Emmanuel Mudiay\mudiaem01,PG,19,DEN,68,2068,86%,14%,,,,-2.8,0.6,126,53,67,14,85,3,841,17,84
319,Shabazz Muhammad\muhamsh01,SF,23,MIN,82,1682,,50%,50%,1%,,-7.2,-6.6,26,25,52,10,114,6,117,23,55
320,Xavier Munford\munfoxa02,SG,23,MEM,14,244,73%,25%,3%,,,-6.6,-4.5,6,4,10,2,8,2,47,4,7
321,Mike Muscala\muscami01,C,24,ATL,60,565,,,,5%,95%,-2.4,-7.1,15,7,46,3,11,4,79,3,2
322,Larry Nance Jr.\nancela02,PF,23,LAL,63,1266,,,8%,61%,31%,-4.5,8.5,16,10,61,9,18,1,105,5,19
323,Shabazz Napier\napiesh01,PG,24,ORL,55,600,99%,2%,,,,-5.0,-3.9,30,11,17,3,19,4,231,3,7
324,Gary Neal\nealga01,SG,31,WAS,40,807,,85%,15%,,,-9.7,-11.6,10,12,22,5,21,2,112,6,11
325,Jameer Nelson\nelsoja01,PG,33,DEN,39,1036,100%,,,,,-6.4,-4.4,47,14,43,2,11,7,440,1,11
326,Raul Neto\netora01,PG,23,UTA,81,1499,100%,,,,,3.2,2.2,70,23,45,1,29,17,396,8,28
327,Andrew Nicholson\nichoan01,PF,26,ORL,56,823,,,,93%,7%,1.2,3.6,13,9,26,13,27,1,65,10,8
328,Joakim Noah\noahjo01,C,30,CHI,29,635,,,,21%,79%,-0.4,1.6,34,6,38,4,16,1,254,1,16
329,Nerlens Noel\noelne01,C,21,PHI,67,1965,,,,35%,65%,-11.4,-1.4,67,62,96,13,101,9,283,19,39
330,Lucas Nogueira\noguelu01,C,23,TOR,29,225,,,,,100%,7.7,3.1,1,5,11,3,6,0,16,1,3
331,Steve Novak\novakst01,PF,32,TOT,10,44,,,10%,90%,,8.5,6.8,1,0,2,0,0,0,0,0,0
331,Steve Novak\novakst01,PF,32,OKC,7,24,,,12%,88%,,20.5,13.4,1,0,1,0,0,0,0,0,0
331,Steve Novak\novakst01,PF,32,MIL,3,20,,,8%,92%,,-4.5,-0.5,0,0,1,0,0,0,0,0,0
332,Dirk Nowitzki\nowitdi01,PF,37,DAL,75,2364,,,,67%,33%,2.6,6.9,47,27,100,9,82,10,324,16,14
333,Jusuf Nurkić\nurkiju01,C,21,DEN,32,547,,,,,100%,-0.4,3.1,14,20,47,15,42,7,92,11,26
334,J.J. O'Brien\obriejj01,SF,23,UTA,2,6,,29%,71%,,,-51.6,-53.6,0,0,1,0,0,0,0,0,0
335,Johnny O'Bryant\obryajo01,PF,22,MIL,66,857,,,,98%,2%,-6.4,-3.1,11,11,39,4,21,3,70,6,18
336,Kyle O'Quinn\oquinky01,PF,25,NYK,65,764,,,,29%,71%,-3.6,-0.9,29,9,62,13,25,2,156,6,18
337,Jahlil Okafor\okafoja01,C,20,PHI,53,1591,,,,,100%,-16.4,-9.4,29,46,72,27,96,2,152,27,68
338,Victor Oladipo\oladivi01,SG,23,ORL,72,2379,19%,78%,3%,,,-0.1,3.9,79,51,78,8,93,10,642,14,68
339,Kelly Olynyk\olynyke01,C,24,BOS,69,1395,,,,15%,86%,5.7,3.8,16,20,77,15,53,8,243,12,33
340,Kelly Oubre Jr.\oubreke01,SF,20,WAS,63,671,,10%,84%,6%,,-1.5,-1.3,9,13,53,6,27,5,29,9,20
341,Zaza Pachulia\pachuza01,C,31,DAL,76,2004,,,,,100%,0.1,0.6,34,41,45,28,108,10,301,13,48
342,Kostas Papanikolaou\papanko01,SF,25,DEN,26,294,,,59%,39%,2%,-1.1,2.2,15,4,10,1,3,2,38,0,8
343,Jabari Parker\parkeja01,PF,20,MIL,76,2408,,,9%,90%,1%,-4.0,0.0,56,32,71,9,108,5,285,21,77
344,Tony Parker\parketo01,PG,33,SAS,72,1980,92%,8%,,,,10.8,-1.3,72,37,46,4,63,7,841,11,39
345,Chandler Parsons\parsoch01,SF,27,DAL,61,1799,,,66%,34%,,0.7,1.6,51,30,51,8,56,13,410,11,42
346,Lamar Patterson\pattela01,SG,24,ATL,35,395,1%,78%,19%,2%,,4.4,0.8,11,8,23,0,10,2,91,2,5
347,Patrick Patterson\pattepa01,PF,26,TOR,79,2020,,,15%,85%,,10.3,11.0,28,17,55,11,15,8,224,5,10
348,Chris Paul\paulch01,PG,30,LAC,74,2420,100%,,,,,10.6,16.2,130,36,54,14,67,15,1707,13,29
349,Adreian Payne\paynead01,PF,24,MIN,52,486,,,1%,95%,4%,-11.7,-9.5,14,10,34,7,8,1,65,0,9
350,Cameron Payne\payneca01,PG,21,OKC,57,698,95%,5%,,,,-1.4,-10.4,25,8,33,2,11,4,251,4,11
351,Elfrid Payton\paytoel01,PG,21,ORL,73,2145,93%,7%,,,,-1.5,0.4,102,40,54,12,82,7,1051,28,87
352,Nikola Peković\pekovni01,C,30,MIN,12,156,,,,,100%,-20.6,-18.0,1,3,5,4,9,0,27,0,2
353,Kendrick Perkins\perkike01,C,31,NOP,37,542,,,,8%,92%,-6.0,-2.5,11,10,26,12,8,1,70,1,7
354,Paul Pierce\piercpa01,SF,38,LAC,68,1231,,,60%,40%,,0.7,-5.3,33,13,64,7,28,5,167,3,17
355,Tibor Pleiß\pleisti01,C,26,UTA,12,82,,,,,100%,-4.9,-6.9,1,2,11,3,1,0,5,0,4
356,Mason Plumlee\plumlma01,C,25,POR,82,2084,,,,2%,98%,1.8,2.1,73,43,115,29,144,8,543,28,63
357,Miles Plumlee\plumlmi01,C,27,MIL,61,870,,,,,100%,-5.2,-1.5,14,9,34,8,22,1,34,3,14
358,Otto Porter\porteot01,SF,22,WAS,75,2276,,,81%,18%,1%,0.8,3.1,28,21,77,9,53,12,267,13,27
359,Bobby Portis\portibo01,PF,20,CHI,62,1102,,,,49%,51%,-7.9,-8.6,21,17,48,8,29,3,128,5,22
360,Kristaps Porziņģis\porzikr01,PF,20,NYK,72,2047,,,,70%,30%,-0.1,5.7,45,47,109,20,93,6,221,13,26
361,Dwight Powell\poweldw01,PF,24,DAL,69,992,,,,70%,29%,-1.9,-2.3,13,14,46,9,59,9,108,15,20
362,Norman Powell\powelno01,SG,22,TOR,49,725,,91%,9%,,,6.2,1.7,10,8,23,3,25,2,117,4,24
363,Phil Pressey\pressph01,PG,24,TOT,23,283,100%,,,,,-8.2,0.8,26,4,8,1,10,1,182,3,9
363,Phil Pressey\pressph01,PG,24,PHI,14,170,100%,,,,,-4.2,6.8,15,1,2,1,8,0,113,2,8
363,Phil Pressey\pressph01,PG,24,PHO,9,113,100%,,,,,-13.9,-6.8,11,3,6,0,2,1,69,1,1
364,Ronnie Price\pricero01,PG,32,PHO,62,1211,87%,14%,,,,-2.7,6.6,45,20,50,2,14,14,341,2,12
365,Pablo Prigioni\prigipa01,PG,38,LAC,59,823,98%,2%,,,,-3.4,-9.8,37,8,17,3,2,7,305,1,5
366,Tayshaun Prince\princta01,SF,35,MIN,77,1462,,,84%,16%,,-2.7,0.9,15,7,34,2,8,10,163,1,4
367,Julius Randle\randlju01,PF,21,LAL,81,2286,,,2%,71%,27%,-15.3,-11.8,54,48,97,27,127,4,359,33,81
368,Zach Randolph\randoza01,PF,34,MEM,68,2016,,,,63%,37%,-1.3,2.2,46,33,56,10,81,5,338,9,72
369,J.J. Redick\redicjj01,SG,31,LAC,75,2097,4%,96%,,,,10.8,13.7,44,22,63,3,67,19,249,14,21
370,Willie Reed\reedwi02,C,25,BRK,39,426,,,,71%,29%,-8.2,-0.7,4,8,26,3,28,4,23,5,8
371,Josh Richardson\richajo01,SG,22,MIA,52,1107,12%,84%,4%,,,2.4,0.5,17,7,55,2,25,5,166,4,20
372,Austin Rivers\riverau01,SG,23,LAC,67,1464,42%,51%,7%,,,-3.2,-12.1,30,21,47,1,46,6,245,9,32
373,Andre Roberson\roberan03,SG,24,OKC,70,1553,,66%,32%,2%,,9.6,3.9,16,12,72,0,24,6,111,4,18
374,Brian Roberts\roberbr01,PG,30,TOT,51,470,87%,13%,,,,-7.6,-10.0,17,4,22,2,20,5,129,9,7
374,Brian Roberts\roberbr01,PG,30,CHO,30,333,81%,19%,,,,-2.7,-6.1,12,3,16,1,16,4,94,5,4
374,Brian Roberts\roberbr01,PG,30,POR,21,137,100%,,,,,-18.8,-20.3,5,1,6,1,4,1,35,4,3
375,Glenn Robinson III\robingl02,SF,22,IND,45,508,2%,79%,19%,,,-3.5,-6.1,10,6,12,0,20,1,57,4,14
376,Nate Robinson\robinna01,PG,31,NOP,2,23,100%,,,,,-44.1,-40.5,0,0,1,0,0,0,9,0,0
377,Thomas Robinson\robinth01,PF,24,BRK,71,917,,,,40%,60%,-14.6,-9.1,26,22,51,9,56,2,102,17,26
378,Rajon Rondo\rondora01,PG,29,SAC,72,2537,58%,42%,,,,-3.5,-2.1,202,48,49,9,37,12,1871,6,54
379,Derrick Rose\rosede01,PG,27,CHI,66,2097,95%,6%,,,,-3.9,-4.8,102,55,38,6,90,9,713,23,75
380,Terrence Ross\rosste01,SF,24,TOR,73,1747,,13%,85%,3%,,6.1,2.3,18,20,51,3,19,4,136,5,15
381,Terry Rozier\roziete01,PG,21,BOS,39,311,86%,15%,,,,-6.5,-10.6,9,9,13,1,4,2,92,1,4
382,Ricky Rubio\rubiori01,PG,25,MIN,76,2323,100%,,,,,0.6,9.4,141,38,65,4,84,42,1396,11,32
383,Damjan Rudež\rudezda01,SF,29,MIN,33,277,,1%,15%,85%,,-2.4,1.0,7,1,13,3,2,0,24,0,4
384,Brandon Rush\rushbr01,SG,30,GSW,72,1055,1%,61%,36%,2%,,0.0,-15.1,15,10,40,1,10,2,137,0,9
385,D'Angelo Russell\russeda01,PG,19,LAL,80,2259,86%,14%,,,,-12.5,-5.2,115,53,64,13,86,10,609,19,50
386,Robert Sacre\sacrero01,C,26,LAL,25,320,,,,,100%,-6.1,4.6,3,3,32,4,13,0,34,0,9
387,JaKarr Sampson\sampsja02,SF,22,TOT,73,1160,,4%,73%,23%,1%,-7.4,-0.5,15,28,66,11,53,4,115,6,32
387,JaKarr Sampson\sampsja02,SF,22,PHI,47,691,,7%,60%,32%,1%,-9.9,0.9,14,19,45,7,40,1,75,5,21
387,JaKarr Sampson\sampsja02,SF,22,DEN,26,469,,,91%,9%,,-3.5,-0.4,1,9,21,4,13,3,40,1,11
388,Dennis Schröder\schrode01,PG,22,ATL,80,1621,100%,,,,,7.2,5.9,111,45,49,13,71,7,834,16,68
389,Luis Scola\scolalu01,PF,35,TOR,76,1636,,,30%,61%,10%,-1.5,-10.9,28,20,75,11,38,6,163,8,35
390,Mike Scott\scottmi01,PF,27,ATL,75,1146,,,3%,96%,1%,5.2,2.1,18,11,46,6,31,4,183,5,12
391,Thabo Sefolosha\sefolth01,SF,31,ATL,75,1758,,,96%,4%,,2.7,-1.6,30,23,41,5,42,6,252,12,26
392,Kevin Séraphin\serapke01,C,26,NYK,48,526,,,,3%,97%,-9.1,-7.3,15,12,46,8,10,2,100,1,12
393,Ramon Sessions\sessira01,PG,29,WAS,82,1667,100%,,,,,-1.3,-1.5,64,33,22,10,136,10,540,33,40
394,Iman Shumpert\shumpim01,SG,25,CLE,54,1316,2%,78%,20%,,,8.7,3.3,29,13,50,8,18,10,228,5,16
395,Jonathon Simmons\simmojo02,SG,26,SAS,55,813,8%,90%,2%,,,7.0,-5.7,21,14,37,7,43,15,142,17,24
396,Henry Sims\simshe01,C,25,BRK,14,263,,,,,100%,-16.8,-9.9,5,2,18,3,14,0,19,2,1
397,Kyle Singler\singlky01,SF,27,OKC,68,977,,8%,78%,14%,,-0.2,-9.9,12,9,66,4,17,5,55,5,13
398,Donald Sloan\sloando01,PG,28,BRK,61,1318,94%,6%,,,,-5.1,3.8,51,20,23,6,42,3,598,8,24
399,Marcus Smart\smartma01,PG,21,BOS,61,1667,42%,57%,1%,,,3.1,-0.3,50,13,69,9,52,38,427,8,40
400,Greg Smith\smithgr02,PF,25,MIN,18,192,,,,39%,61%,-18.3,-15.7,3,4,17,0,6,2,13,2,8
401,Ish Smith\smithis01,PG,27,TOT,77,2239,99%,1%,,,,-7.9,-0.9,106,54,63,3,66,10,1177,22,54
401,Ish Smith\smithis01,PG,27,NOP,27,617,98%,2%,,,,-2.5,1.6,30,10,16,3,13,7,360,5,19
401,Ish Smith\smithis01,PG,27,PHI,50,1622,100%,,,,,-10.0,1.2,76,44,47,0,53,3,817,17,35
402,J.R. Smith\smithjr01,SG,30,CLE,77,2362,1%,77%,22%,,,6.7,0.4,32,16,99,8,26,14,314,3,20
403,Jason Smith\smithja02,C,29,ORL,76,1181,,,,12%,88%,-1.7,0.0,21,8,81,23,22,8,144,7,21
404,Josh Smith\smithjo03,PF,30,TOT,55,880,,,,60%,40%,-4.0,-7.0,52,12,58,6,26,5,205,1,15
404,Josh Smith\smithjo03,PF,30,LAC,32,459,,,,37%,63%,-9.0,-15.1,28,7,28,3,15,5,91,0,10
404,Josh Smith\smithjo03,PF,30,HOU,23,421,,,,85%,15%,1.1,1.1,24,5,30,3,11,0,114,1,5
405,Russ Smith\smithru01,PG,24,MEM,15,66,100%,,,,,-24.3,-22.4,5,1,1,0,5,1,26,1,5
406,Tony Snell\snellto01,SF,24,CHI,64,1301,,30%,70%,1%,,4.2,8.7,24,10,48,11,15,2,138,2,28
407,Marreese Speights\speigma01,C,28,GSW,72,832,,,,17%,84%,0.5,-13.3,15,26,50,15,54,15,144,14,31
408,Tiago Splitter\splitti01,C,31,ATL,36,579,,,,,100%,9.4,6.7,7,7,34,7,24,2,67,4,19
409,Nik Stauskas\stausni01,SG,22,PHI,73,1809,,76%,23%,1%,,-11.9,-2.3,56,30,83,1,54,6,317,10,34
410,Lance Stephenson\stephla01,SF,25,TOT,69,1372,,22%,69%,9%,,-2.2,-3.9,43,22,50,10,51,7,299,11,30
410,Lance Stephenson\stephla01,SF,25,LAC,43,680,,8%,78%,14%,,-1.6,-7.3,22,11,31,6,14,1,135,2,8
410,Lance Stephenson\stephla01,SF,25,MEM,26,692,1%,35%,61%,4%,,-2.7,-0.5,21,11,19,4,37,6,164,9,22
411,Alex Stepheson\stephal01,PF,28,TOT,8,73,,,,15%,85%,-2.7,-3.8,0,0,8,0,6,0,5,2,6
411,Alex Stepheson\stephal01,PF,28,LAC,4,12,,,,25%,75%,18.9,14.6,0,0,2,0,1,0,0,0,0
411,Alex Stepheson\stephal01,PF,28,MEM,4,61,,,,13%,87%,-7.5,-5.3,0,0,6,0,5,0,5,2,6
412,Jarnell Stokes\stokeja01,C,22,TOT,7,18,,,,,100%,20.7,20.9,0,0,1,0,1,0,3,0,0
412,Jarnell Stokes\stokeja01,C,22,MEM,2,4,,,,,100%,22.2,24.6,0,0,0,0,0,0,0,0,0
412,Jarnell Stokes\stokeja01,C,22,MIA,5,14,,,,,100%,19.4,17.5,0,0,1,0,1,0,3,0,0
413,Amar'e Stoudemire\stoudam01,C,33,MIA,52,762,,,,,100%,0.8,-1.6,12,16,48,6,33,2,60,7,29
414,Rodney Stuckey\stuckro01,PG,29,IND,58,1275,40%,59%,1%,,,0.2,-2.5,40,23,39,9,62,12,335,13,31
415,Jared Sullinger\sullija01,PF,23,BOS,81,1915,,,,14%,86%,4.9,3.2,39,20,107,27,71,9,440,12,50
416,Edy Tavares\tavarwa01,C,23,ATL,11,73,,,,,100%,-0.9,-4.6,1,2,5,0,3,0,7,0,2
417,Jeff Teague\teaguje01,PG,27,ATL,79,2255,94%,6%,,,,1.0,-6.2,119,65,72,20,125,8,1093,27,87
418,Mirza Teletović\teletmi01,PF,30,PHO,79,1686,,,4%,84%,13%,-5.7,2.8,37,24,80,13,49,4,213,7,36
419,Garrett Temple\templga01,SF,29,WAS,80,1951,1%,54%,42%,3%,,0.4,1.8,32,18,96,9,37,21,320,7,35
420,Jason Terry\terryja01,SG,38,HOU,72,1258,60%,40%,1%,,,-1.3,-2.0,38,6,44,2,9,0,249,4,4
421,Isaiah Thomas\thomais02,PG,26,BOS,82,2644,100%,,,,,4.0,2.2,107,81,43,16,197,22,1187,40,109
422,Lance Thomas\thomala01,PF,27,NYK,59,1313,,,13%,87%,,0.2,4.5,23,16,47,5,58,15,119,20,24
423,Hollis Thompson\thompho01,SG,24,PHI,77,2154,,27%,67%,7%,,-9.3,3.0,35,13,95,11,41,2,232,15,16
424,Jason Thompson\thompja02,C,29,TOT,47,471,,,,36%,64%,-0.4,-9.0,5,3,39,6,21,1,66,4,8
424,Jason Thompson\thompja02,C,29,GSW,28,179,,,,19%,81%,-13.2,-25.5,3,3,22,1,12,0,42,0,6
424,Jason Thompson\thompja02,C,29,TOR,19,292,,,,47%,53%,8.2,3.7,2,0,17,5,9,1,24,4,2
425,Klay Thompson\thompkl01,SG,25,GSW,80,2666,,58%,40%,2%,,15.2,12.7,71,40,81,16,91,1,384,19,42
426,Tristan Thompson\thomptr01,PF,24,CLE,82,2269,,,,77%,23%,8.7,5.1,13,18,96,17,94,3,165,26,39
427,Marcus Thornton\thornma01,SG,28,TOT,61,1109,3%,86%,11%,,,0.2,0.5,27,15,42,5,29,3,195,7,21
427,Marcus Thornton\thornma01,SG,28,HOU,47,885,2%,86%,12%,,,-0.9,-1.2,20,14,34,3,18,2,155,2,15
427,Marcus Thornton\thornma01,SG,28,WAS,14,224,9%,86%,6%,,,4.4,5.1,7,1,8,2,11,1,40,5,6
428,Anthony Tolliver\tollian01,PF,30,DET,72,1341,,,2%,98%,,0.2,-0.2,16,4,49,6,18,8,124,1,14
429,Axel Toupane\toupaax01,SF,23,DEN,21,305,,2%,81%,17%,,-0.8,2.5,4,2,17,0,9,2,32,3,1
430,Karl-Anthony Towns\townska01,C,20,MIN,82,2627,,,,2%,98%,-2.6,2.3,74,41,118,43,128,15,360,43,67
431,P.J. Tucker\tuckepj01,SF,30,PHO,82,2540,,6%,89%,6%,,-7.2,0.2,57,17,71,13,54,14,412,12,44
432,Evan Turner\turneev01,SG,27,BOS,81,2271,,30%,67%,3%,,2.2,-2.6,108,46,67,7,73,9,817,15,43
433,Myles Turner\turnemy01,C,19,IND,60,1367,,,,39%,62%,-2.4,-6.6,17,18,87,24,53,4,98,17,24
434,Beno Udrih\udrihbe01,PG,33,TOT,44,707,93%,7%,,,,-0.7,-0.6,33,14,22,1,10,5,261,2,7
434,Beno Udrih\udrihbe01,PG,33,MEM,8,120,90%,10%,,,,-6.2,-4.0,6,3,6,1,2,3,59,1,6
434,Beno Udrih\udrihbe01,PG,33,MIA,36,587,94%,6%,,,,0.5,-1.8,27,11,16,0,8,2,202,1,1
435,Jonas Valančiūnas\valanjo01,C,23,TOR,60,1557,,,,,100%,3.7,-1.7,15,19,80,25,86,3,106,22,48
436,Anderson Varejão\varejan01,C,33,TOT,53,496,,,,7%,93%,1.9,-7.4,8,6,31,4,23,11,86,6,5
436,Anderson Varejão\varejan01,C,33,CLE,31,310,,,,12%,89%,7.0,0.6,7,4,13,1,8,8,49,1,2
436,Anderson Varejão\varejan01,C,33,GSW,22,186,,,,,100%,-6.3,-18.2,1,2,18,3,15,3,37,5,3
437,Greivis Vásquez\vasqugr01,PG,29,MIL,23,460,82%,18%,,,,-9.9,-6.7,27,4,17,7,12,3,206,5,8
438,Rashad Vaughn\vaughra01,SG,19,MIL,70,1001,,45%,49%,6%,,-6.2,-2.9,15,7,40,2,7,3,84,1,25
439,Charlie Villanueva\villach01,PF,31,DAL,62,665,,1%,8%,86%,6%,-7.6,-9.0,11,8,40,7,9,0,52,2,12
440,Noah Vonleh\vonleno01,PF,20,POR,78,1174,,,,97%,3%,-2.0,-3.9,8,9,62,19,24,1,77,5,24
441,Nikola Vučević\vucevni01,C,25,ORL,65,2037,,,,,100%,-1.2,0.8,41,35,122,12,61,3,441,18,56
442,Sasha Vujačić\vujacsa01,SG,31,NYK,61,908,,70%,30%,1%,,-1.4,1.9,20,13,34,4,11,12,196,3,8
443,Dwyane Wade\wadedw01,SG,34,MIA,74,2258,16%,81%,3%,,,0.0,-4.8,113,70,60,11,163,6,789,27,43
444,Dion Waiters\waitedi01,SG,24,OKC,78,2152,1%,88%,12%,,,4.2,-6.6,69,25,50,7,70,13,374,14,34
445,Kemba Walker\walkeke02,PG,25,CHO,81,2885,100%,,,,,3.9,3.9,100,57,54,3,158,29,1037,25,103
446,John Wall\walljo01,PG,25,WAS,77,2784,79%,21%,,,,1.0,4.8,214,77,73,15,125,7,1856,38,72
447,T.J. Warren\warretj01,SF,22,PHO,47,1070,,,75%,24%,1%,-6.2,1.5,13,7,53,5,27,4,105,8,15
448,C.J. Watson\watsocj01,PG,31,ORL,33,656,66%,33%,1%,,,-3.1,-1.7,15,3,28,3,14,1,204,4,3
449,Briante Weber\weberbr01,PG,23,TOT,7,169,100%,,,,,-22.5,-22.9,8,1,6,0,0,0,48,0,2
449,Briante Weber\weberbr01,PG,23,MEM,6,166,100%,,,,,-24.4,-23.1,8,1,6,0,0,0,46,0,2
449,Briante Weber\weberbr01,PG,23,MIA,1,3,100%,,,,,100.0,98.1,0,0,0,0,0,0,2,0,0
450,Sonny Weems\weemsso01,SG-SF,29,TOT,43,499,7%,51%,36%,7%,,-9.4,-0.5,29,3,18,1,5,3,114,1,10
450,Sonny Weems\weemsso01,SG,29,PHO,36,421,9%,60%,30%,2%,,-10.2,-3.3,26,3,16,1,5,1,110,1,8
450,Sonny Weems\weemsso01,SF,29,PHI,7,78,,,66%,34%,,-4.8,6.0,3,0,2,0,0,2,4,0,2
451,David West\westda01,PF,35,SAS,78,1404,,,1%,50%,49%,11.8,0.5,38,8,74,13,40,3,326,16,27
452,Russell Westbrook\westbru01,PG,27,OKC,80,2750,94%,7%,,,,11.0,12.6,220,77,49,28,235,17,1832,50,84
453,Hassan Whiteside\whiteha01,C,26,MIA,73,2125,,,,,100%,2.3,0.5,28,37,96,30,145,3,64,43,41
454,Shayne Whittington\whittsh01,PF,24,IND,7,41,,,,73%,27%,-6.4,-8.4,0,1,4,1,1,1,7,0,0
455,Andrew Wiggins\wiggian01,SF,20,MIN,81,2845,,30%,64%,6%,,-1.5,6.7,60,81,71,21,252,7,371,51,88
456,C.J. Wilcox\wilcocj01,SG,25,LAC,23,167,14%,67%,19%,,,7.2,3.0,1,1,6,0,2,2,22,0,2
457,Alan Williams\willial03,PF,23,PHO,10,68,,,14%,85%,2%,-0.8,6.6,1,1,7,4,7,0,12,1,3
458,Deron Williams\willide01,PG,31,DAL,65,2106,27%,63%,10%,,,-0.3,-0.2,98,38,74,5,56,14,905,9,39
459,Derrick Williams\willide02,SF,24,NYK,80,1435,,,47%,53%,,-7.6,-7.6,21,24,42,7,127,1,172,23,37
460,Elliot Williams\williel01,PG,26,MEM,5,45,90%,10%,,,,2.4,4.8,1,0,1,0,1,0,9,0,0
461,Lou Williams\willilo02,SG,29,LAL,67,1907,56%,44%,,,,-10.6,-0.6,62,28,61,4,180,9,377,21,40
462,Marvin Williams\willima02,PF,29,CHO,81,2338,,,17%,83%,,4.7,4.4,24,13,51,20,46,12,270,11,28
463,Mo Williams\willima01,PG,33,CLE,41,748,100%,,,,,-4.3,-13.3,33,12,24,4,11,6,223,1,14
464,Justise Winslow\winslju01,SF,19,MIA,78,2232,,4%,81%,15%,,3.5,3.5,39,26,87,12,51,8,263,9,43
465,Jeff Withey\witheje01,C,25,UTA,51,658,,,,2%,98%,4.1,2.7,10,6,47,8,26,1,53,5,16
466,Christian Wood\woodch01,PF,20,PHI,17,145,,,,40%,60%,-16.9,-6.4,0,1,6,1,9,1,7,1,10
467,Metta World Peace\artesro01,SF,36,LAL,35,590,,,92%,8%,,-5.5,5.6,6,4,22,3,22,3,60,2,15
468,Brandan Wright\wrighbr03,PF,28,MEM,12,212,,,,51%,49%,-12.2,-10.4,3,2,12,3,15,1,14,4,1
469,Delon Wright\wrighde01,PG,23,TOR,27,229,94%,6%,,,,4.6,-0.2,10,3,2,1,14,2,75,1,8
470,Tony Wroten\wroteto01,PG,22,PHI,8,144,96%,4%,,,,-22.2,-12.0,16,5,2,4,16,0,46,1,11
471,James Young\youngja01,SG,20,BOS,29,199,15%,56%,29%,,,-6.4,-10.3,1,1,8,2,1,1,23,0,2
472,Joe Young\youngjo01,PG,23,IND,41,384,97%,3%,,,,-4.5,-7.1,18,8,12,3,11,0,141,3,7
473,Nick Young\youngni01,SG,30,LAL,54,1033,,26%,74%,,,-9.7,0.8,11,12,20,3,27,1,78,2,10
474,Thaddeus Young\youngth01,PF,27,BRK,73,2407,,,,99%,1%,-4.7,7.2,48,58,74,15,66,10,311,8,77
475,Cody Zeller\zelleco01,C,23,CHO,73,1774,,,,21%,79%,4.6,3.1,13,21,93,21,103,9,171,18,60
476,Tyler Zeller\zellety01,C,26,BOS,60,710,,,,,100%,-3.3,-8.0,10,17,47,8,45,7,64,10,20