Rk,Player,Pos,Age,Tm,G,GS,MP,FG,FGA,FG%,3P,3PA,3P%,2P,2PA,2P%,FT,FTA,FT%,ORB,DRB,TRB,AST,STL,BLK,TOV,PF,PTS
1,Zaid Abdul-Aziz,C,30,BUF,22,,195,4.6,13.7,.338,,,,4.6,13.7,.338,6.1,7.9,.767,7.6,9.0,16.6,1.3,0.6,1.7,,3.9,15.3
2,Kareem Abdul-Jabbar*,C,29,LAL,82,,3016,10.6,18.3,.579,,,,10.6,18.3,.579,4.5,6.4,.701,3.2,9.8,13.0,3.8,1.2,3.1,,3.1,25.7
3,Tom Abernethy,SF,22,LAL,70,,1378,4.4,9.1,.484,,,,4.4,9.1,.484,2.6,3.5,.754,3.0,4.7,7.6,2.6,1.3,0.3,,3.1,11.5
4,Alvan Adams,C,22,PHO,72,,2278,8.2,17.4,.474,,,,8.2,17.4,.474,4.0,5.3,.754,2.8,7.5,10.3,5.1,1.5,1.4,,4.1,20.5
5,Don Adams,SF,29,BUF,77,,1710,4.5,11.1,.411,,,,4.5,11.1,.411,2.7,3.6,.746,2.7,5.1,7.8,3.2,1.6,0.3,,4.2,11.8
6,Lucius Allen,PG,29,LAL,78,,2482,6.8,15.0,.456,,,,6.8,15.0,.456,2.8,3.7,.774,0.8,2.8,3.6,5.9,1.7,0.3,,2.7,16.5
7,Jerome Anderson,SG,23,IND,27,,164,5.7,13.0,.441,,,,5.7,13.0,.441,3.1,4.4,.700,2.0,0.7,2.6,2.2,1.3,0.4,,5.7,14.5
8,Tiny Archibald*,PG,28,NYN,34,,1277,7.0,15.8,.446,,,,7.0,15.8,.446,5.6,7.1,.785,0.6,1.6,2.3,7.2,1.7,0.3,,2.2,19.6
9,Jim Ard,C,28,BOS,63,,969,3.6,9.4,.378,,,,3.6,9.4,.378,1.8,2.8,.645,2.9,8.1,11.0,2.0,0.7,1.0,,4.8,9.0
10,Bird Averitt,SG,24,BUF,75,,1136,7.4,19.6,.378,,,,7.4,19.6,.378,3.8,5.4,.716,0.6,1.8,2.5,4.2,1.0,0.2,,4.0,18.7
11,Dennis Awtrey,C,28,PHO,72,,1760,3.3,7.6,.429,,,,3.3,7.6,.429,1.9,2.6,.722,2.3,5.0,7.3,3.7,0.5,0.6,,3.5,8.4
12,Mike Bantom,PF-SF,25,TOT,77,,1909,6.8,14.2,.478,,,,6.8,14.2,.478,4.2,5.8,.723,3.5,5.4,8.9,1.9,1.2,0.9,,4.4,17.8
12,Mike Bantom,PF,25,SEA,44,,795,6.2,12.7,.488,,,,6.2,12.7,.488,2.6,3.8,.690,3.8,4.7,8.4,2.4,1.6,1.0,,5.1,15.0
12,Mike Bantom,SF,25,NYN,33,,1114,7.2,15.3,.473,,,,7.2,15.3,.473,5.4,7.3,.735,3.3,5.9,9.2,1.6,0.9,0.9,,3.9,19.8
13,Tom Barker,C,21,ATL,59,,1354,4.8,11.6,.417,,,,4.8,11.6,.417,3.0,4.4,.683,3.0,7.7,10.7,1.6,0.9,1.1,,5.9,12.7
14,Marvin Barnes,PF,24,DET,53,,989,7.4,16.5,.447,,,,7.4,16.5,.447,3.9,5.7,.679,2.5,6.7,9.2,1.6,1.4,1.2,,5.1,18.6
15,Jim Barnett,SG,32,PHI,16,,231,4.4,10.0,.438,,,,4.4,10.0,.438,1.6,2.8,.556,1.1,1.1,2.2,3.6,0.6,0.0,,4.4,10.3
16,Norton Barnhill,SG,23,SEA,4,,10,7.2,21.6,.333,,,,7.2,21.6,.333,0.0,0.0,,7.2,3.6,10.8,3.6,0.0,0.0,,18.0,14.4
17,Mike Barr,SG,26,KCK,73,,1224,3.6,8.2,.437,,,,3.6,8.2,.437,1.2,1.7,.719,1.0,2.9,3.8,5.1,1.5,0.5,,2.8,8.4
18,Rick Barry*,SF,32,GSW,79,,2904,8.5,19.2,.440,,,,8.5,19.2,.440,4.5,4.9,.916,0.9,4.3,5.2,5.9,2.1,0.7,,2.4,21.4
19,Tim Bassett,PF,25,NYN,76,,2442,4.3,10.9,.396,,,,4.3,10.9,.396,1.5,2.6,.571,2.6,6.9,9.4,1.6,1.4,0.8,,3.6,10.1
20,Butch Beard,PG,29,NYK,70,,1082,4.9,9.7,.505,,,,4.9,9.7,.505,2.5,3.6,.688,1.7,3.8,5.4,4.8,1.9,0.2,,4.6,12.3
21,Byron Beck,PF,32,DEN,53,,480,8.0,18.5,.435,,,,8.0,18.5,.435,2.7,3.3,.818,3.4,3.8,7.2,2.5,1.1,0.1,,4.4,18.7
22,Ron Behagen,PF,26,NOJ,60,,1170,6.6,15.7,.418,,,,6.6,15.7,.418,2.8,3.9,.714,4.4,8.8,13.3,2.6,1.3,0.6,,5.1,15.9
23,Mel Bennett,PF,22,IND,67,,911,4.0,11.6,.344,,,,4.0,11.6,.344,4.4,7.4,.599,4.3,5.0,9.4,2.8,1.5,1.3,,6.1,12.4
24,Henry Bibby,PG,27,PHI,81,80,2639,4.1,9.6,.430,,,,4.1,9.6,.430,3.0,3.8,.784,1.2,2.6,3.7,4.9,1.5,0.1,,2.7,11.3
25,Bob Bigelow,SF,23,KCK,29,,162,7.8,15.6,.500,,,,7.8,15.6,.500,3.3,3.8,.882,1.8,4.2,6.0,1.8,0.7,0.2,,3.8,18.9
26,Dave Bing*,SG,33,WSB,64,,1516,6.4,14.2,.454,,,,6.4,14.2,.454,3.2,4.2,.773,1.3,2.1,3.4,6.5,1.4,0.1,,3.6,16.1
27,Tom Boerwinkle,C,31,CHI,82,,1070,4.5,9.2,.491,,,,4.5,9.2,.491,1.1,2.1,.540,3.4,7.1,10.5,6.4,0.6,0.6,,4.9,10.2
28,Ron Boone,SG,30,KCK,82,,3021,8.9,18.8,.474,,,,8.9,18.8,.474,3.9,4.6,.844,1.5,2.3,3.8,4.0,1.4,0.2,,3.1,21.7
29,Tom Boswell,PF,23,BOS,70,,1083,5.8,11.3,.515,,,,5.8,11.3,.515,3.2,4.5,.711,3.7,6.5,10.2,2.8,0.9,0.3,,7.9,14.8
30,Freddie Boyd,PG,26,NOJ,47,,1212,5.8,12.1,.478,,,,5.8,12.1,.478,2.3,2.9,.806,0.6,2.1,2.7,4.4,1.3,0.2,,2.3,13.9
31,Bill Bradley*,SF,33,NYK,67,,1027,4.5,9.6,.464,,,,4.5,9.6,.464,1.2,1.5,.810,0.9,2.7,3.6,4.5,0.9,0.3,,4.3,10.1
32,Jim Brewer,PF,25,CLE,81,,2672,4.0,8.9,.451,,,,4.0,8.9,.451,1.3,2.4,.545,3.7,6.6,10.3,2.6,1.3,1.1,,2.9,9.3
33,Junior Bridgeman,SF,23,MIL,82,,2410,7.3,16.3,.449,,,,7.3,16.3,.449,2.9,3.4,.864,1.9,4.3,6.2,3.1,1.2,0.4,,3.3,17.6
34,Allan Bristow,SF,25,SAS,82,,2017,6.5,13.3,.489,,,,6.5,13.3,.489,3.7,4.6,.798,2.1,4.1,6.2,4.3,1.6,0.0,,3.5,16.7
35,Gary Brokaw,SG,23,TOT,80,,1487,5.9,13.7,.429,,,,5.9,13.7,.429,3.9,5.3,.744,0.5,2.4,3.0,5.5,0.9,0.9,,4.0,15.7
35,Gary Brokaw,SG,23,MIL,41,,891,5.3,13.1,.401,,,,5.3,13.1,.401,4.2,5.5,.766,0.4,2.2,2.6,4.5,0.9,0.9,,3.4,14.7
35,Gary Brokaw,SG,23,CLE,39,,596,6.8,14.5,.467,,,,6.8,14.5,.467,3.5,5.0,.707,0.7,2.8,3.6,7.1,0.8,0.8,,4.8,17.0
36,Fred Brown,SG,28,SEA,72,,2098,9.2,19.1,.479,,,,9.2,19.1,.479,2.9,3.3,.884,1.2,2.8,4.0,3.0,2.1,0.3,,2.4,21.2
37,John Brown,SF,25,ATL,77,,1405,4.1,9.0,.457,,,,4.1,9.0,.457,3.1,3.8,.807,1.9,4.1,6.0,2.6,1.2,0.2,,5.6,11.3
38,Roger Brown,C,26,DET,43,,322,2.3,6.3,.375,,,,2.3,6.3,.375,2.0,2.9,.692,3.5,6.6,10.1,1.3,1.7,2.0,,7.6,6.7
39,Joe Bryant,PF,22,PHI,61,,612,6.3,14.1,.446,,,,6.3,14.1,.446,3.1,4.1,.757,2.6,4.2,6.9,2.8,2.1,0.8,,4.9,15.7
40,Quinn Buckner,PG,22,MIL,79,,2095,5.1,11.8,.434,,,,5.1,11.8,.434,1.4,2.6,.539,1.6,3.0,4.5,6.4,3.3,0.4,,5.0,11.7
41,Ticky Burden,SG,23,NYK,61,,608,8.8,20.8,.420,,,,8.8,20.8,.420,3.0,5.0,.600,1.5,2.4,3.9,3.7,2.8,0.1,,5.2,20.5
42,Tom Burleson,C,24,SEA,82,,1803,5.8,13.0,.442,,,,5.8,13.0,.442,4.4,6.0,.731,3.7,7.3,11.0,1.9,1.5,2.3,,5.2,15.9
43,Don Buse,PG,26,IND,81,,2947,3.2,7.8,.416,,,,3.2,7.8,.416,1.4,1.8,.786,0.8,2.5,3.3,8.4,3.4,0.2,,1.6,7.9
44,Corky Calhoun,SF,26,POR,70,,743,4.1,8.9,.464,,,,4.1,8.9,.464,3.2,4.1,.776,1.9,5.0,7.0,1.7,1.2,0.4,,6.0,11.4
45,Mack Calvin,PG,29,TOT,76,,1438,5.5,13.6,.404,,,,5.5,13.6,.404,7.2,8.5,.849,0.9,1.5,2.4,6.0,1.5,0.1,,3.2,18.2
45,Mack Calvin,PG,29,LAL,12,,207,4.7,14.3,.329,,,,4.7,14.3,.329,7.1,8.3,.854,1.0,1.7,2.8,3.7,1.9,0.2,,2.8,16.5
45,Mack Calvin,PG,29,SAS,35,,606,5.5,14.1,.392,,,,5.5,14.1,.392,7.3,8.7,.842,0.7,1.2,1.8,6.2,1.4,0.1,,3.4,18.4
45,Mack Calvin,PG,29,DEN,29,,625,5.8,13.0,.444,,,,5.8,13.0,.444,7.1,8.3,.854,1.1,1.7,2.8,6.6,1.6,0.1,,3.1,18.6
46,Austin Carr,SG,28,CLE,82,,2409,8.3,18.2,.457,,,,8.3,18.2,.457,3.2,4.0,.795,1.8,1.8,3.6,3.3,0.9,0.1,,3.3,19.9
47,M.L. Carr,SF,26,DET,82,,2643,6.0,12.7,.476,,,,6.0,12.7,.476,2.8,3.8,.735,2.9,5.7,8.6,2.5,2.2,0.8,,3.9,14.9
48,Fred Carter,SG,31,TOT,61,,1112,6.8,16.2,.418,,,,6.8,16.2,.418,2.2,3.1,.708,1.8,2.0,3.8,4.0,1.3,0.3,,4.0,15.7
48,Fred Carter,SG,31,PHI,14,,237,6.5,15.3,.426,,,,6.5,15.3,.426,1.5,2.9,.526,1.5,2.1,3.6,3.2,1.7,0.3,,4.4,14.6
48,Fred Carter,SG,31,MIL,47,,875,6.8,16.4,.416,,,,6.8,16.4,.416,2.4,3.2,.753,1.9,2.0,3.8,4.3,1.2,0.3,,3.9,16.0
49,Cornelius Cash,PF,24,DET,6,,49,6.6,16.9,.391,,,,6.6,16.9,.391,2.2,4.4,.500,5.9,5.9,11.8,0.7,1.5,0.7,,5.9,15.4
50,Harvey Catchings,C,25,PHI,53,25,864,2.6,5.1,.504,,,,2.6,5.1,.504,1.4,2.0,.702,2.7,7.1,9.7,1.2,1.0,3.2,,5.4,6.5
51,Don Chaney,SG,30,LAL,81,,2408,3.2,7.8,.408,,,,3.2,7.8,.408,1.0,1.4,.745,1.8,3.1,4.9,4.6,2.1,0.5,,3.3,7.4
52,Ken Charles,SG,25,ATL,82,,2487,5.1,12.4,.414,,,,5.1,12.4,.414,3.0,3.7,.801,0.6,1.8,2.4,4.3,2.0,0.7,,3.5,13.2
53,Phil Chenier,SG,26,WSB,78,,2842,8.3,18.6,.444,,,,8.3,18.6,.444,3.4,4.1,.841,0.7,3.1,3.8,3.7,1.5,0.5,,2.1,20.0
54,Jim Chones,C,27,CLE,82,,2378,6.8,14.7,.463,,,,6.8,14.7,.463,2.3,3.2,.731,3.1,7.3,10.4,1.6,0.5,1.2,,3.9,16.0
55,Jim Cleamons,PG,27,CLE,60,,2045,4.5,10.4,.434,,,,4.5,10.4,.434,2.0,2.6,.757,1.7,3.1,4.8,5.4,1.2,0.4,,2.2,11.0
56,E.C. Coleman,PF,26,NOJ,77,,2369,4.4,9.5,.462,,,,4.4,9.5,.462,1.2,1.7,.732,2.3,6.1,8.3,1.6,0.9,0.5,,4.3,10.1
57,Doug Collins,SG,25,PHI,58,47,2037,7.5,14.5,.518,,,,7.5,14.5,.518,3.7,4.4,.840,1.1,2.3,3.4,4.8,1.2,0.3,,3.1,18.8
58,Norm Cook,SF,21,BOS,25,,138,7.0,18.8,.375,,,,7.0,18.8,.375,2.3,4.4,.529,2.6,4.4,7.0,1.3,2.6,0.8,,7.0,16.4
59,Dave Cowens*,C,28,BOS,50,,1888,6.3,14.4,.434,,,,6.3,14.4,.434,3.1,3.8,.818,2.8,10.5,13.3,4.7,0.9,0.9,,3.5,15.6
60,Mike D'Antoni,SG,25,SAS,2,,9,4.0,12.0,.333,,,,4.0,12.0,.333,4.0,8.0,.500,0.0,8.0,8.0,8.0,0.0,0.0,,12.0,12.0
61,Louie Dampier*,PG,32,SAS,80,,1634,5.1,11.2,.460,,,,5.1,11.2,.460,1.4,1.9,.744,0.5,1.2,1.7,5.2,1.1,0.3,,2.0,11.7
62,Bob Dandridge,SF,29,MIL,70,,2501,8.4,18.0,.467,,,,8.4,18.0,.467,4.1,5.3,.771,2.1,4.2,6.3,3.9,1.4,0.4,,3.2,20.9
63,Mel Daniels*,C,32,NYN,11,,126,3.7,10.0,.371,,,,3.7,10.0,.371,3.7,6.6,.565,2.9,6.9,9.7,1.7,0.9,3.1,,8.3,11.1
64,Adrian Dantley*,SF,21,BUF,77,,2816,7.0,13.4,.520,,,,7.0,13.4,.520,6.1,7.4,.818,3.2,4.3,7.5,1.8,1.2,0.2,,2.7,20.0
65,Dwight Davis,PF,27,GSW,33,,552,3.6,8.1,.444,,,,3.6,8.1,.444,3.2,4.7,.681,2.2,4.0,6.2,1.9,0.7,0.5,,6.1,10.4
66,Johnny Davis,SG,21,POR,79,,1451,5.8,13.2,.441,,,,5.8,13.2,.441,4.1,5.2,.794,1.5,1.6,3.1,3.7,1.0,0.3,,3.2,15.7
67,Mel Davis,PF,26,TOT,56,,1094,5.5,15.3,.362,,,,5.5,15.3,.362,2.1,3.0,.703,3.2,6.4,9.6,2.3,1.0,0.2,,4.3,13.2
67,Mel Davis,PF,26,NYK,22,,342,4.3,11.6,.373,,,,4.3,11.6,.373,2.3,3.3,.710,3.2,7.4,10.5,2.5,0.9,0.1,,4.7,10.9
67,Mel Davis,PF,26,NYN,34,,752,6.1,16.9,.359,,,,6.1,16.9,.359,2.0,2.9,.700,3.3,6.0,9.2,2.3,1.1,0.2,,4.1,14.2
68,Mickey Davis,SF,26,MIL,19,,165,6.3,14.8,.426,,,,6.3,14.8,.426,5.0,5.5,.920,2.4,3.9,6.3,4.4,1.3,0.9,,2.4,17.7
69,Ron Davis,SF,22,ATL,7,,67,4.3,18.8,.229,,,,4.3,18.8,.229,2.1,7.0,.308,1.1,2.7,3.8,1.1,3.8,0.0,,4.8,10.7
70,Darryl Dawkins,C,20,PHI,59,,684,7.1,11.3,.628,,,,7.1,11.3,.628,2.1,4.2,.506,3.1,9.0,12.1,1.3,0.6,2.6,,6.8,16.3
71,Randy Denton,C,27,ATL,45,,700,5.3,13.2,.402,,,,5.3,13.2,.402,1.7,2.4,.702,4.2,7.0,11.2,1.7,0.7,0.8,,5.1,12.3
72,Henry Dickerson,PG,25,ATL,6,,63,3.4,6.9,.500,,,,3.4,6.9,.500,2.9,4.6,.625,0.0,1.1,1.1,6.3,0.6,0.0,,7.4,9.7
73,Derrek Dickey,PF,25,GSW,49,,856,6.6,14.5,.458,,,,6.6,14.5,.458,1.9,2.6,.738,4.2,5.9,10.1,2.6,0.8,0.5,,4.2,15.2
74,Coby Dietrick,C,28,SAS,82,,1772,5.8,12.6,.460,,,,5.8,12.6,.460,2.4,3.4,.717,2.3,5.3,7.6,3.0,1.8,1.2,,5.4,14.0
75,Ernie DiGregorio,PG,26,BUF,81,,2267,5.8,13.9,.417,,,,5.8,13.9,.417,2.2,2.3,.945,0.8,2.1,2.9,6.0,0.9,0.0,,2.4,13.8
76,Leon Douglas,C,22,DET,82,,1626,5.4,11.3,.479,,,,5.4,11.3,.479,2.8,5.1,.555,4.0,7.6,11.6,1.5,1.0,1.8,,6.5,13.7
77,John Drew,SF,22,ATL,74,,2688,9.2,19.0,.487,,,,9.2,19.0,.487,5.5,7.7,.714,3.7,5.3,9.0,1.8,1.4,0.4,,3.7,24.0
78,Charles Dudley,PG,26,GSW,79,,1682,4.7,9.0,.523,,,,4.7,9.0,.523,2.8,4.3,.635,2.5,3.8,6.3,7.4,1.4,0.1,,3.6,12.2
79,Mike Dunleavy,PG,22,PHI,32,,359,6.0,14.5,.414,,,,6.0,14.5,.414,3.4,4.5,.756,1.0,2.4,3.4,5.6,1.3,0.2,,6.4,15.4
80,Jim Eakins,C,30,KCK,82,,1338,4.1,9.0,.449,,,,4.1,9.0,.449,5.1,6.0,.847,3.0,6.7,9.7,3.2,0.8,1.3,,5.2,13.2
81,Al Eberhard,SF,24,DET,68,,1219,5.3,11.2,.476,,,,5.3,11.2,.476,3.2,4.1,.790,2.2,4.3,6.5,1.5,1.3,0.4,,5.8,13.9
82,Len Elmore,C,24,IND,6,,46,5.5,13.3,.412,,,,5.5,13.3,.412,3.1,3.9,.800,5.5,6.3,11.7,1.6,0.0,3.1,,8.6,14.1
83,Darrell Elston,SG,24,IND,5,,40,1.8,12.6,.143,,,,1.8,12.6,.143,0.9,1.8,.500,0.9,4.5,5.4,1.8,0.9,0.0,,5.4,4.5
84,Alex English*,SF,23,MIL,60,,648,7.3,15.4,.477,,,,7.3,15.4,.477,2.6,3.3,.767,3.8,5.6,9.3,1.4,0.9,1.0,,4.3,17.2
85,Keith Erickson,SF,32,PHO,50,,949,5.4,11.2,.483,,,,5.4,11.2,.483,1.4,1.9,.740,1.4,4.1,5.5,3.9,1.1,0.3,,4.6,12.2
86,Julius Erving*,SF,26,PHI,82,77,2940,8.4,16.8,.499,,,,8.4,16.8,.499,4.9,6.3,.777,2.4,6.2,8.5,3.7,1.9,1.4,,3.1,21.7
87,Butch Feher,SG,22,PHO,48,,487,6.4,12.0,.531,,,,6.4,12.0,.531,5.6,7.3,.768,1.3,4.1,5.5,2.7,0.8,0.5,,3.4,18.3
88,Eric Fernsten,C,23,CHI,5,,61,1.8,8.9,.200,,,,1.8,8.9,.200,4.7,6.5,.727,5.3,4.1,9.4,3.5,0.6,1.8,,5.3,8.3
89,Mike Flynn,SG,23,IND,73,,1324,6.8,15.6,.436,,,,6.8,15.6,.436,2.7,3.9,.711,2.1,3.0,5.1,4.9,1.5,0.2,,2.9,16.3
90,Chris Ford,SG,28,DET,82,,2539,6.2,13.0,.476,,,,6.2,13.0,.476,1.9,2.4,.771,1.4,2.5,3.8,4.8,2.5,0.4,,2.7,14.2
91,Don Ford,PF,24,LAL,82,,1782,5.3,11.5,.460,,,,5.3,11.5,.460,1.5,2.1,.716,2.1,5.0,7.1,2.7,1.2,0.4,,3.4,12.1
92,Fred Foster,SF,30,BUF,59,,689,5.2,12.9,.401,,,,5.2,12.9,.401,1.6,2.3,.682,1.7,2.2,4.0,2.5,0.8,0.0,,4.8,11.9
93,Jim Fox,C,33,NYN,71,,1165,5.7,12.3,.462,,,,5.7,12.3,.462,2.9,3.5,.833,3.1,7.1,10.2,1.5,0.6,0.8,,4.9,14.3
94,Walt Frazier*,PG,31,NYK,76,,2687,7.1,14.6,.489,,,,7.1,14.6,.489,3.5,4.5,.771,0.7,3.2,3.9,5.4,1.8,0.1,,2.6,17.7
95,World B. Free,SG,23,PHI,78,37,2253,7.5,16.3,.457,,,,7.5,16.3,.457,5.3,7.4,.720,1.5,2.2,3.8,4.3,1.2,0.4,,3.3,20.3
96,Terry Furlow,SG,22,PHI,32,,174,7.0,20.7,.340,,,,7.0,20.7,.340,3.3,3.7,.889,3.7,4.3,8.1,3.9,1.4,0.4,,2.3,17.4
97,Mike Gale,SG,26,SAS,82,,2598,4.9,10.4,.468,,,,4.9,10.4,.468,1.9,2.3,.820,0.7,3.0,3.8,6.6,2.6,0.7,,3.1,11.7
98,Rowland Garrett,SF,26,TOT,62,,598,6.4,14.4,.444,,,,6.4,14.4,.444,2.5,3.1,.804,2.2,4.5,6.7,1.6,1.3,0.6,,4.8,15.2
98,Rowland Garrett,SF,26,CLE,29,,215,6.7,15.6,.430,,,,6.7,15.6,.430,3.0,3.7,.818,1.7,5.0,6.7,1.2,1.2,0.5,,5.0,16.4
98,Rowland Garrett,SF,26,MIL,33,,383,6.2,13.7,.452,,,,6.2,13.7,.452,2.2,2.7,.793,2.5,4.2,6.8,1.9,1.3,0.7,,4.7,14.6
99,Gus Gerard,SF,23,TOT,65,,1048,6.9,15.6,.443,,,,6.9,15.6,.443,2.7,4.0,.667,3.1,4.4,7.5,3.2,1.5,2.1,,5.6,16.5
99,Gus Gerard,SF,23,DEN,24,,456,8.0,16.6,.481,,,,8.0,16.6,.481,3.0,4.4,.679,3.0,4.9,7.9,3.9,1.7,2.4,,5.8,18.9
99,Gus Gerard,SF,23,BUF,41,,592,6.1,14.8,.410,,,,6.1,14.8,.410,2.4,3.7,.656,3.1,4.0,7.1,2.6,1.4,1.9,,5.5,14.6
100,George Gervin*,SF,24,SAS,82,,2705,9.7,17.8,.544,,,,9.7,17.8,.544,5.9,7.1,.833,1.8,4.3,6.0,3.2,1.4,1.4,,3.8,25.2
101,John Gianelli,C,26,TOT,76,,1913,4.8,10.9,.444,,,,4.8,10.9,.444,1.7,2.4,.720,2.9,6.0,8.9,1.6,0.7,1.8,,3.2,11.4
101,John Gianelli,C,26,NYK,19,,630,4.9,10.4,.473,,,,4.9,10.4,.473,2.0,2.7,.729,3.4,6.7,10.2,1.5,0.8,1.6,,3.1,11.8
101,John Gianelli,C,26,BUF,57,,1283,4.8,11.1,.431,,,,4.8,11.1,.431,1.5,2.2,.714,2.6,5.7,8.3,1.6,0.6,2.0,,3.3,11.1
102,Herm Gilliam,SG,30,POR,80,,1665,7.0,16.1,.438,,,,7.0,16.1,.438,2.0,2.6,.767,1.4,3.0,4.3,3.7,1.6,0.1,,3.6,16.1
103,Artis Gilmore*,C,27,CHI,82,,2877,7.1,13.7,.522,,,,7.1,13.7,.522,4.8,7.3,.660,3.9,9.5,13.4,2.5,0.6,2.5,,3.3,19.1
104,Gail Goodrich*,SG,33,NOJ,27,,609,8.0,18.0,.446,,,,8.0,18.0,.446,4.0,5.0,.800,1.5,2.1,3.6,4.4,1.3,0.1,,2.5,20.1
105,Leonard Gray,PF,25,TOT,83,,1639,5.7,13.0,.436,,,,5.7,13.0,.436,2.6,3.5,.747,1.8,4.6,6.4,2.7,1.3,0.7,,6.0,13.9
105,Leonard Gray,PF,25,SEA,25,,643,6.4,14.7,.435,,,,6.4,14.7,.435,3.3,4.4,.756,1.3,4.7,6.0,3.1,1.5,0.7,,4.7,16.1
105,Leonard Gray,PF,25,WSB,58,,996,5.2,11.9,.436,,,,5.2,11.9,.436,2.1,2.9,.738,2.2,4.5,6.7,2.5,1.1,0.7,,6.8,12.5
106,Mike Green,C,25,SEA,76,,1928,5.4,12.3,.441,,,,5.4,12.3,.441,3.1,4.4,.706,3.6,5.8,9.4,2.2,0.8,2.4,,3.8,13.9
107,Steve Green,SF,23,IND,70,,918,7.2,16.6,.432,,,,7.2,16.6,.432,3.3,4.4,.743,3.1,3.8,6.9,1.8,1.8,0.5,,6.2,17.6
108,Kevin Grevey,SF,23,WSB,76,,1306,6.2,14.6,.423,,,,6.2,14.6,.423,2.2,3.3,.664,2.0,2.9,4.9,1.9,0.8,0.2,,4.1,14.5
109,Paul Griffin,PF,23,NOJ,81,,1645,3.1,5.6,.547,,,,3.1,5.6,.547,3.2,4.4,.721,3.7,7.2,10.8,3.7,1.1,0.9,,5.3,9.3
110,Bob Gross,SF,23,POR,82,,2232,6.1,11.5,.529,,,,6.1,11.5,.529,3.0,3.5,.851,2.8,3.6,6.4,3.9,1.7,0.9,,4.1,15.1
111,Rudy Hackett,PF,23,TOT,6,,46,2.3,7.8,.300,,,,2.3,7.8,.300,6.3,11.0,.571,3.1,7.0,10.2,2.3,0.0,0.8,,6.3,11.0
111,Rudy Hackett,PF,23,NYN,1,,8,0.0,9.0,.000,,,,0.0,9.0,.000,9.0,22.5,.400,4.5,9.0,13.5,0.0,0.0,0.0,,4.5,9.0
111,Rudy Hackett,PF,23,IND,5,,38,2.8,7.6,.375,,,,2.8,7.6,.375,5.7,8.5,.667,2.8,6.6,9.5,2.8,0.0,0.9,,6.6,11.4
112,Glenn Hansen,SG,24,KCK,41,,289,8.3,19.3,.432,,,,8.3,19.3,.432,2.9,4.0,.719,3.5,3.9,7.3,3.1,1.6,0.4,,5.5,19.6
113,John Havlicek*,SF,36,BOS,79,,2913,7.2,15.9,.452,,,,7.2,15.9,.452,2.9,3.6,.816,1.3,3.4,4.7,4.9,1.0,0.2,,2.6,17.2
114,Steve Hawes,PF,26,ATL,44,,945,5.6,11.6,.482,,,,5.6,11.6,.482,2.6,3.4,.761,3.0,7.0,9.9,2.4,1.4,0.9,,5.4,13.8
115,Bubbles Hawkins,SG,22,NYN,52,,1481,9.9,22.1,.447,,,,9.9,22.1,.447,4.7,6.9,.688,1.6,2.1,3.7,2.3,1.9,0.6,,4.0,24.5
116,Elvin Hayes*,PF,31,WSB,82,,3364,8.1,16.2,.501,,,,8.1,16.2,.501,4.5,6.6,.687,3.1,7.9,11.0,1.7,0.9,2.4,,3.3,20.8
117,Spencer Haywood*,PF,27,NYK,31,,1021,7.1,15.8,.450,,,,7.1,15.8,.450,3.8,4.6,.832,2.7,7.2,9.9,1.8,0.5,1.0,,2.5,18.1
118,Gar Heard,PF,28,PHO,46,,1363,4.6,12.1,.379,,,,4.6,12.1,.379,2.6,3.6,.725,3.2,8.5,11.6,2.4,1.5,1.5,,3.7,11.8
119,Tom Henderson,PG,25,TOT,87,,2791,4.8,10.7,.449,,,,4.8,10.7,.449,3.0,4.0,.744,0.6,2.5,3.1,7.7,1.8,0.2,,1.9,12.6
119,Tom Henderson,PG,25,ATL,46,,1568,4.5,10.4,.433,,,,4.5,10.4,.433,2.9,3.9,.750,0.4,2.4,2.8,8.9,1.8,0.2,,1.7,11.9
119,Tom Henderson,PG,25,WSB,41,,1223,5.2,11.0,.469,,,,5.2,11.0,.469,3.1,4.3,.738,0.7,2.6,3.4,6.2,1.7,0.3,,2.2,13.5
120,Phil Hicks,SF,24,TOT,37,,262,5.6,12.2,.461,,,,5.6,12.2,.461,1.5,1.8,.846,3.6,5.5,9.1,3.3,1.1,0.0,,5.1,12.8
120,Phil Hicks,SF,24,HOU,2,,7,0.0,10.3,.000,,,,0.0,10.3,.000,0.0,0.0,,5.1,0.0,5.1,5.1,5.1,0.0,,5.1,0.0
120,Phil Hicks,SF,24,CHI,35,,255,5.8,12.3,.471,,,,5.8,12.3,.471,1.6,1.8,.846,3.5,5.6,9.2,3.2,1.0,0.0,,5.1,13.1
121,Armond Hill,PG,23,ATL,81,,1825,3.5,8.7,.399,,,,3.5,8.7,.399,2.7,3.4,.799,0.8,2.1,2.8,7.9,1.7,0.1,,4.8,9.6
122,Darnell Hillman,C,27,IND,82,,2302,5.6,12.7,.443,,,,5.6,12.7,.443,2.5,3.8,.660,3.6,7.3,10.8,2.6,1.5,1.7,,5.5,13.7
123,Wilbur Holland,SG,25,CHI,79,,2453,7.5,16.4,.454,,,,7.5,16.4,.454,2.3,2.8,.823,1.1,2.6,3.7,3.7,2.5,0.2,,2.9,17.3
124,Lionel Hollins,PG,23,POR,76,,2224,7.3,16.9,.432,,,,7.3,16.9,.432,3.5,4.6,.749,0.8,2.6,3.4,5.1,2.7,0.6,,4.3,18.1
125,Mo Howard,SG,22,TOT,32,,345,6.7,13.8,.485,,,,6.7,13.8,.485,2.5,3.7,.686,1.8,2.3,4.1,4.4,1.8,0.8,,5.3,15.9
125,Mo Howard,SG,22,CLE,9,,28,10.3,19.3,.533,,,,10.3,19.3,.533,6.4,7.7,.833,2.6,3.9,6.4,6.4,1.3,2.6,,9.0,27.0
125,Mo Howard,SG,22,NOJ,23,,317,6.4,13.3,.479,,,,6.4,13.3,.479,2.2,3.3,.655,1.7,2.2,3.9,4.2,1.8,0.7,,5.0,14.9
126,Lou Hudson,SG,32,ATL,58,,1745,8.5,18.7,.456,,,,8.5,18.7,.456,2.9,3.5,.840,1.0,1.7,2.7,3.2,1.4,0.4,,3.3,20.0
127,Kim Hughes,C,24,NYN,81,,2081,2.6,6.1,.427,,,,2.6,6.1,.427,0.3,1.2,.275,3.3,6.5,9.8,1.7,2.1,2.1,,5.3,5.6
128,Dan Issel*,C,28,DEN,79,,2507,9.5,18.4,.515,,,,9.5,18.4,.515,6.4,8.0,.797,3.0,7.0,10.0,2.5,1.3,0.4,,3.5,25.3
129,Phil Jackson*,PF,31,NYK,76,,1033,3.6,8.1,.440,,,,3.6,8.1,.440,1.8,2.5,.718,2.6,5.4,8.0,3.0,1.2,0.6,,6.4,8.9
130,Aaron James,SF,24,NOJ,52,,1059,8.1,16.5,.490,,,,8.1,16.5,.490,3.0,3.9,.781,1.9,4.4,6.3,1.9,0.7,0.2,,4.3,19.2
131,Charles Johnson,PG,27,GSW,79,,1196,7.7,17.5,.437,,,,7.7,17.5,.437,1.5,2.1,.710,1.5,2.7,4.2,2.7,2.3,0.2,,4.0,16.8
132,Dennis Johnson*,SG,22,SEA,81,,1667,6.2,12.2,.504,,,,6.2,12.2,.504,3.9,6.2,.624,3.5,3.0,6.5,2.7,2.7,1.2,,4.8,16.2
133,George Johnson,C,28,TOT,78,,1652,4.3,9.3,.462,,,,4.3,9.3,.462,1.5,2.1,.724,4.4,8.9,13.3,2.3,0.8,3.9,,5.4,10.2
133,George Johnson,C,28,GSW,39,,597,4.4,9.0,.487,,,,4.4,9.0,.487,1.5,1.9,.806,5.2,7.5,12.7,1.6,0.9,4.4,,6.3,10.3
133,George Johnson,C,28,BUF,39,,1055,4.3,9.5,.448,,,,4.3,9.5,.448,1.6,2.3,.687,4.0,9.7,13.6,2.7,0.8,3.5,,4.8,10.1
134,John Johnson,SF,29,HOU,79,,1738,6.6,14.4,.458,,,,6.6,14.4,.458,1.9,2.7,.712,1.6,4.0,5.5,3.4,1.0,0.5,,4.1,15.2
135,Mickey Johnson,PF,24,CHI,81,,2847,6.8,15.2,.446,,,,6.8,15.2,.446,4.1,5.1,.796,3.8,6.7,10.5,2.5,1.3,0.8,,4.0,17.7
136,Ollie Johnson,SF,27,KCK,81,,1386,5.7,11.6,.489,,,,5.7,11.6,.489,2.6,3.0,.878,1.8,3.7,5.5,2.7,1.1,0.5,,4.4,13.9
137,Bobby Jones*,PF,25,DEN,82,,2419,7.5,13.1,.570,,,,7.5,13.1,.570,3.5,4.9,.717,2.6,7.5,10.1,3.9,2.8,2.4,,3.5,18.4
138,Caldwell Jones,C,26,PHI,82,57,2023,3.8,7.5,.507,,,,3.8,7.5,.507,1.1,2.1,.552,3.4,8.5,11.9,1.6,0.8,3.6,,5.4,8.8
139,Dwight Jones,PF,24,HOU,74,,1239,4.9,9.8,.494,,,,4.9,9.8,.494,2.9,3.7,.802,2.8,5.4,8.3,1.4,1.1,0.6,,5.1,12.6
140,Jimmy Jones,PG,32,WSB,3,,33,2.2,9.8,.222,,,,2.2,9.8,.222,2.2,4.4,.500,1.1,3.3,4.4,1.1,2.2,0.0,,4.4,6.5
141,Rich Jones,SF,30,NYN,34,,877,5.5,14.3,.385,,,,5.5,14.3,.385,3.8,5.0,.760,2.0,6.0,8.0,1.9,1.6,0.5,,4.5,14.8
142,Robin Jones,C,22,POR,63,,1065,4.7,10.1,.465,,,,4.7,10.1,.465,2.2,3.7,.606,3.5,6.5,10.0,2.7,1.3,1.3,,4.2,11.6
143,Wil Jones,PF,29,IND,80,,2709,5.8,13.5,.430,,,,5.8,13.5,.430,2.2,3.0,.744,2.9,5.1,8.0,2.5,1.4,1.1,,4.1,13.8
144,George Karl,PG,25,SAS,29,,251,3.6,10.5,.342,,,,3.6,10.5,.342,4.2,6.0,.690,0.6,1.9,2.4,6.6,1.4,0.0,,5.2,11.3
145,Rich Kelley,C,23,NOJ,76,,1505,4.4,9.2,.477,,,,4.4,9.2,.477,3.7,4.7,.792,5.0,9.0,14.0,5.0,1.1,1.5,,5.8,12.5
146,Goo Kennedy,SF,27,HOU,32,,277,4.0,7.5,.534,,,,4.0,7.5,.534,0.4,1.0,.375,1.8,4.8,6.6,0.8,0.9,0.6,,5.8,8.4
147,Larry Kenon,PF,24,SAS,78,,2936,8.7,17.6,.492,,,,8.7,17.6,.492,3.6,4.4,.823,3.5,7.3,10.8,2.8,2.0,0.7,,2.3,20.9
148,Billy Knight,SF,24,IND,78,,3117,9.6,19.5,.493,,,,9.6,19.5,.493,4.8,5.8,.816,2.6,4.1,6.7,3.0,1.4,0.2,,2.3,24.0
149,Tom Kropp,SG,23,CHI,53,,480,5.5,11.4,.480,,,,5.5,11.4,.480,2.1,3.1,.683,1.6,1.9,3.5,2.9,1.4,0.1,,5.8,13.1
150,Steve Kuberski,SF,29,BOS,76,,860,5.5,13.1,.420,,,,5.5,13.1,.420,2.6,3.5,.759,3.2,5.6,8.7,1.6,0.3,0.2,,3.7,13.6
151,Kevin Kunnert,C,25,HOU,81,,2050,5.8,12.0,.486,,,,5.8,12.0,.486,1.6,2.2,.738,3.7,8.1,11.7,2.7,0.6,1.8,,6.3,13.3
152,Mitch Kupchak,C,22,WSB,82,,1513,8.1,14.2,.572,,,,8.1,14.2,.572,4.0,5.9,.691,4.4,7.4,11.8,1.5,0.5,0.8,,4.9,20.3
153,C.J. Kupec,SF,24,LAL,82,,908,6.1,13.6,.447,,,,6.1,13.6,.447,3.1,4.0,.772,3.0,4.9,7.9,2.1,0.7,0.2,,4.5,15.2
154,Sam Lacey,C,28,KCK,82,,2595,4.5,10.7,.422,,,,4.5,10.7,.422,3.0,3.9,.762,2.6,7.6,10.2,5.4,1.7,1.8,,4.1,12.1
155,Bo Lamar,PG,25,LAL,71,,1165,7.0,17.3,.406,,,,7.0,17.3,.406,1.4,2.1,.676,0.9,1.9,2.8,5.5,1.8,0.1,,2.3,15.5
156,John Lambert,PF,24,CLE,63,,555,4.3,10.2,.427,,,,4.3,10.2,.427,1.6,2.3,.694,4.0,6.0,10.0,2.0,1.0,1.2,,4.9,10.3
157,Bob Lanier*,C,28,DET,64,,2446,10.0,18.7,.534,,,,10.0,18.7,.534,3.8,4.7,.818,2.9,8.0,11.0,3.1,1.0,1.9,,2.6,23.8
158,John Laskowski,SG,23,CHI,47,,562,4.8,13.6,.354,,,,4.8,13.6,.354,1.7,1.9,.900,1.0,3.0,4.0,2.8,2.0,0.1,,1.4,11.3
159,Mo Layton,SG,28,NYK,56,,765,6.3,13.0,.484,,,,6.3,13.0,.484,2.7,3.4,.795,0.5,1.7,2.2,7.2,1.0,0.3,,4.1,15.3
160,Ron Lee,PG,24,PHO,82,,1849,6.8,15.3,.441,,,,6.8,15.3,.441,2.8,4.1,.676,1.9,3.9,5.8,5.1,3.0,0.6,,5.4,16.3
161,Freddie Lewis,PG,33,IND,32,,552,5.3,13.0,.407,,,,5.3,13.0,.407,4.0,5.0,.805,1.1,2.0,3.1,3.7,1.2,0.1,,3.8,14.6
162,Scott Lloyd,C,24,MIL,69,,1025,5.4,11.4,.472,,,,5.4,11.4,.472,3.3,4.4,.754,2.8,4.5,7.4,1.2,0.7,0.5,,5.5,14.1
163,Bob Love,SF,34,TOT,59,,1174,5.0,13.1,.379,,,,5.0,13.1,.379,3.3,4.0,.826,2.4,3.6,6.1,1.5,0.7,0.2,,3.7,13.3
163,Bob Love,SF,34,CHI,14,,496,4.9,14.6,.338,,,,4.9,14.6,.338,2.5,3.3,.761,2.8,2.5,5.3,1.7,0.6,0.1,,3.4,12.4
163,Bob Love,SF,34,NYN,13,,228,7.7,16.7,.462,,,,7.7,16.7,.462,5.2,6.2,.846,2.4,3.6,6.0,0.6,0.2,0.3,,3.6,20.7
163,Bob Love,SF,34,SEA,32,,450,3.6,9.7,.372,,,,3.6,9.7,.372,3.3,3.8,.872,2.1,4.9,7.0,1.7,1.0,0.2,,4.0,10.5
164,John Lucas,SG,23,HOU,82,,2531,5.5,11.6,.477,,,,5.5,11.6,.477,1.9,2.4,.789,0.8,2.3,3.1,6.6,1.8,0.3,,2.5,13.0
165,Maurice Lucas,PF,24,POR,79,,2863,7.9,17.1,.466,,,,7.9,17.1,.466,4.2,5.5,.765,3.4,7.9,11.3,2.9,1.0,0.7,,3.7,20.1
166,Moses Malone*,C,21,TOT,82,,2506,5.6,11.6,.480,,,,5.6,11.6,.480,4.4,6.3,.693,6.3,9.1,15.4,1.3,1.0,2.6,,4.0,15.6
166,Moses Malone*,C,21,BUF,2,,6,0.0,0.0,,,,,0.0,0.0,,0.0,0.0,,0.0,6.0,6.0,0.0,0.0,0.0,,6.0,0.0
166,Moses Malone*,C,21,HOU,80,,2500,5.6,11.7,.480,,,,5.6,11.7,.480,4.4,6.3,.693,6.3,9.1,15.4,1.3,1.0,2.6,,3.9,15.6
167,Pete Maravich*,SG,29,NOJ,73,,3041,10.5,24.2,.433,,,,10.5,24.2,.433,5.9,7.1,.835,1.1,3.4,4.4,4.6,1.0,0.3,,2.3,26.9
168,Jack Marin,SF,32,CHI,54,,869,6.9,14.9,.465,,,,6.9,14.9,.465,1.3,1.6,.795,1.1,2.7,3.8,2.6,0.5,0.2,,3.5,15.1
169,Scott May,SF,22,CHI,72,,2369,6.5,14.5,.451,,,,6.5,14.5,.451,2.9,3.4,.828,2.1,4.5,6.6,2.2,1.2,0.3,,2.8,16.0
170,Clyde Mayes,PF,23,TOT,9,,52,3.5,13.2,.263,,,,3.5,13.2,.263,2.1,4.8,.429,6.9,4.2,11.1,2.1,0.0,2.8,,8.3,9.0
170,Clyde Mayes,PF,23,IND,2,,21,5.1,12.0,.429,,,,5.1,12.0,.429,1.7,6.9,.250,6.9,5.1,12.0,5.1,0.0,3.4,,8.6,12.0
170,Clyde Mayes,PF,23,BUF,2,,7,0.0,15.4,.000,,,,0.0,15.4,.000,10.3,15.4,.667,0.0,15.4,15.4,0.0,0.0,0.0,,10.3,10.3
170,Clyde Mayes,PF,23,POR,5,,24,3.0,13.5,.222,,,,3.0,13.5,.222,0.0,0.0,,9.0,0.0,9.0,0.0,0.0,3.0,,7.5,6.0
171,Bob McAdoo*,C,25,TOT,72,,2798,9.5,18.6,.512,,,,9.5,18.6,.512,4.9,6.6,.738,2.6,9.4,11.9,2.6,1.0,1.3,,3.4,23.9
171,Bob McAdoo*,C,25,BUF,20,,767,8.5,18.8,.455,,,,8.5,18.8,.455,5.2,7.4,.696,3.1,9.3,12.4,3.1,0.8,1.6,,3.5,22.2
171,Bob McAdoo*,C,25,NYK,52,,2031,9.9,18.5,.534,,,,9.9,18.5,.534,4.8,6.3,.757,2.4,9.4,11.7,2.5,1.1,1.2,,3.3,24.6
172,Andre McCarter,PG,23,KCK,59,,725,5.9,12.8,.463,,,,5.9,12.8,.463,1.6,2.2,.711,0.8,1.9,2.7,4.9,1.1,0.0,,3.1,13.4
173,Ted McClain,SG,30,DEN,72,,2002,4.4,9.9,.445,,,,4.4,9.9,.445,1.8,2.4,.744,0.9,3.2,4.1,5.8,1.9,0.2,,4.6,10.6
174,Paul McCracken,SG,26,CHI,9,,119,5.4,14.2,.383,,,,5.4,14.2,.383,3.3,5.4,.611,1.8,3.0,4.8,4.2,1.8,0.0,,5.1,14.2
175,Glenn McDonald,SF,24,MIL,9,,79,3.6,15.5,.235,,,,3.6,15.5,.235,1.4,1.8,.750,3.6,1.8,5.5,3.2,1.8,0.0,,5.0,8.7
176,Jim McElroy,PG,23,NOJ,73,,2029,5.3,11.4,.470,,,,5.3,11.4,.470,3.0,3.9,.779,1.0,2.3,3.2,4.6,1.1,0.1,,2.1,13.7
177,George McGinnis*,PF,26,PHI,79,78,2769,8.6,18.7,.458,,,,8.6,18.7,.458,4.8,7.1,.681,4.2,7.6,11.8,3.9,2.1,0.5,,3.9,22.0
178,Tom McMillen,C,24,TOT,76,,1492,6.6,13.6,.487,,,,6.6,13.6,.487,2.3,3.0,.780,2.8,6.6,9.4,1.6,0.3,0.1,,3.9,15.5
178,Tom McMillen,C,24,BUF,20,,270,6.0,12.3,.489,,,,6.0,12.3,.489,3.5,4.8,.722,3.9,5.7,9.6,2.1,0.1,0.3,,3.9,15.5
178,Tom McMillen,C,24,NYK,56,,1222,6.7,13.9,.486,,,,6.7,13.9,.486,2.1,2.6,.805,2.5,6.8,9.3,1.5,0.3,0.1,,3.9,15.6
179,Jim McMillian,SF,28,NYK,67,,2158,5.0,10.7,.464,,,,5.0,10.7,.464,1.1,1.4,.779,1.1,4.0,5.1,2.3,1.1,0.1,,1.7,11.1
180,Larry McNeill,PF,26,TOT,24,,230,7.4,17.5,.420,,,,7.4,17.5,.420,8.1,9.5,.852,4.4,7.4,11.7,0.9,1.6,0.3,,5.0,22.9
180,Larry McNeill,PF,26,NYN,8,,93,7.0,19.7,.353,,,,7.0,19.7,.353,9.3,11.6,.800,3.9,6.2,10.1,1.2,1.5,0.4,,5.0,23.2
180,Larry McNeill,PF,26,GSW,16,,137,7.6,16.0,.475,,,,7.6,16.0,.475,7.4,8.1,.903,4.7,8.1,12.9,0.8,1.6,0.3,,5.0,22.6
181,Dean Meminger,SG,28,NYK,32,,254,2.1,5.1,.417,,,,2.1,5.1,.417,1.8,3.3,.565,1.7,2.0,3.7,4.1,1.1,0.1,,2.4,6.1
182,John Mengelt,SG,27,CHI,61,,1178,6.4,14.0,.456,,,,6.4,14.0,.456,2.7,3.5,.788,0.9,2.5,3.4,3.5,1.1,0.1,,3.1,15.5
183,Joe Meriweather,C,23,ATL,74,,2068,5.6,10.6,.526,,,,5.6,10.6,.526,3.2,4.4,.714,3.8,6.6,10.4,1.4,0.7,1.4,,5.6,14.3
184,Dave Meyers,PF,23,MIL,50,,1262,5.1,10.9,.467,,,,5.1,10.9,.467,3.6,5.5,.661,3.5,6.2,9.7,2.5,1.2,0.9,,4.3,13.8
185,Steve Mix,SF,29,PHI,75,9,1958,5.3,10.1,.523,,,,5.3,10.1,.523,4.0,4.8,.817,2.3,4.6,6.9,2.8,1.7,0.4,,3.1,14.5
186,Eric Money,PG,21,DET,73,,1586,7.5,14.3,.521,,,,7.5,14.3,.521,2.0,2.6,.789,1.0,1.8,2.8,5.5,2.1,0.3,,4.5,17.0
187,Earl Monroe*,SG,32,NYK,77,,2656,8.3,16.1,.517,,,,8.3,16.1,.517,4.2,5.0,.839,0.6,2.4,3.0,5.0,1.2,0.3,,2.7,20.8
188,Otto Moore,C,30,NOJ,81,,2084,3.3,8.2,.405,,,,3.3,8.2,.405,1.6,2.3,.679,2.9,8.0,11.0,3.1,0.9,2.0,,4.0,8.2
189,Allen Murphy,SG,24,LAL,2,,18,2.0,10.0,.200,,,,2.0,10.0,.200,6.0,14.0,.429,6.0,2.0,8.0,0.0,0.0,0.0,,10.0,10.0
190,Calvin Murphy*,PG,28,HOU,82,,2764,7.8,15.8,.490,,,,7.8,15.8,.490,3.5,4.0,.886,0.7,1.5,2.2,5.0,1.9,0.1,,3.7,19.1
191,Swen Nater,C,27,MIL,72,,1960,7.0,13.3,.528,,,,7.0,13.3,.528,3.2,4.2,.754,4.9,11.0,15.9,2.0,1.0,0.9,,3.9,17.2
192,Lloyd Neal,PF,26,POR,58,,955,6.0,12.8,.471,,,,6.0,12.8,.471,2.9,4.3,.675,3.3,6.3,9.6,2.2,0.3,1.3,,5.6,15.0
193,Louie Nelson,SG,25,SAS,4,,57,4.4,8.8,.500,,,,4.4,8.8,.500,2.5,4.4,.571,1.3,3.2,4.4,1.9,1.3,0.0,,5.7,11.4
194,Johnny Neumann,SG,25,TOT,63,,937,6.2,15.3,.406,,,,6.2,15.3,.406,2.3,3.3,.678,0.9,1.8,2.8,5.4,1.2,0.4,,5.1,14.6
194,Johnny Neumann,SG,25,BUF,4,,49,11.0,25.0,.441,,,,11.0,25.0,.441,3.7,4.4,.833,3.7,2.9,6.6,2.9,2.2,1.5,,5.1,25.7
194,Johnny Neumann,SG,25,LAL,59,,888,5.9,14.7,.402,,,,5.9,14.7,.402,2.2,3.3,.667,0.8,1.8,2.6,5.6,1.1,0.3,,5.1,14.0
195,Mike Newlin,SG,28,HOU,82,,2119,6.6,14.4,.455,,,,6.6,14.4,.455,4.6,5.2,.885,0.9,2.6,3.5,5.4,1.0,0.1,,3.8,17.7
196,Willie Norwood,SF,29,SEA,76,,1647,4.7,10.1,.469,,,,4.7,10.1,.469,3.3,4.5,.733,2.8,3.6,6.4,2.2,1.4,0.1,,4.2,12.7
197,Mark Olberding,PF,20,SAS,82,,1949,5.6,11.0,.503,,,,5.6,11.0,.503,4.6,5.8,.794,3.0,5.3,8.3,2.2,1.1,0.5,,5.1,15.8
198,Frank Oleynick,PG,21,SEA,50,,516,5.7,15.6,.363,,,,5.7,15.6,.363,2.7,3.7,.736,0.9,2.2,3.1,4.2,0.9,0.3,,3.3,14.0
199,Tom Owens,C,27,HOU,46,,462,5.3,10.5,.504,,,,5.3,10.5,.504,4.1,5.9,.684,3.7,7.4,11.1,1.4,0.3,1.0,,7.5,14.6
200,Joe Pace,C,23,WSB,30,,119,7.3,16.6,.436,,,,7.3,16.6,.436,4.8,8.8,.552,4.8,5.4,10.3,1.2,0.6,5.1,,8.8,19.4
201,Robert Parish*,C,23,GSW,77,,1384,7.5,14.9,.503,,,,7.5,14.9,.503,3.1,4.4,.708,5.2,8.9,14.1,1.9,1.4,2.4,,5.8,18.1
202,Sonny Parker,SF,21,GSW,65,,889,6.2,11.8,.527,,,,6.2,11.8,.527,2.9,3.7,.772,3.4,3.6,7.0,2.4,2.1,1.1,,3.1,15.3
203,Billy Paultz,C,28,SAS,82,,2694,7.0,14.7,.473,,,,7.0,14.7,.473,3.2,4.3,.744,2.6,6.6,9.2,3.0,0.7,2.3,,3.5,17.1
204,Curtis Perry,PF,28,PHO,44,,1391,4.6,10.7,.432,,,,4.6,10.7,.432,2.9,3.7,.789,3.9,6.4,10.2,2.0,1.3,0.7,,4.2,12.2
205,Cliff Pondexter,PF,22,CHI,78,,996,3.9,9.3,.416,,,,3.9,9.3,.416,1.5,2.3,.646,2.8,5.7,8.5,1.5,1.2,0.4,,3.0,9.3
206,Howard Porter,PF,28,DET,78,,2200,7.6,15.7,.483,,,,7.6,15.7,.483,1.7,2.0,.858,2.5,5.0,7.5,0.9,0.8,1.2,,3.3,16.9
207,Kevin Porter,PG,26,DET,81,,2117,5.3,10.3,.512,,,,5.3,10.3,.512,1.6,2.3,.729,0.5,1.2,1.7,10.1,1.5,0.1,,4.6,12.2
208,Jim Price,PG,27,TOT,81,,1828,5.0,11.2,.446,,,,5.0,11.2,.446,1.6,2.0,.806,1.0,3.6,4.5,5.1,2.5,0.4,,4.9,11.6
208,Jim Price,PG,27,MIL,6,,111,6.8,13.3,.512,,,,6.8,13.3,.512,2.3,2.9,.778,1.3,2.9,4.2,4.9,2.3,0.3,,4.5,15.9
208,Jim Price,PG,27,BUF,20,,333,4.8,11.2,.423,,,,4.8,11.2,.423,1.8,2.2,.850,0.5,3.1,3.7,4.1,2.7,0.5,,5.6,11.4
208,Jim Price,PG,27,DEN,55,,1384,4.9,11.0,.445,,,,4.9,11.0,.445,1.5,1.9,.797,1.1,3.7,4.8,5.4,2.5,0.4,,4.7,11.3
209,Ed Ratleff,SF,26,HOU,37,,533,4.7,10.9,.435,,,,4.7,10.9,.435,1.8,2.8,.619,1.6,3.6,5.2,2.9,1.4,0.4,,3.0,11.2
210,Clifford Ray,C,28,GSW,77,,2018,4.7,8.0,.584,,,,4.7,8.0,.584,1.9,3.6,.528,3.6,7.4,11.0,2.0,1.3,1.4,,4.3,11.3
211,Kevin Restani,PF,25,MIL,64,,1116,5.6,10.8,.518,,,,5.6,10.8,.518,0.4,0.8,.500,2.6,5.8,8.5,2.8,1.1,0.4,,3.3,11.5
212,Mike Riordan,SF,31,WSB,49,,289,4.2,11.7,.362,,,,4.2,11.7,.362,1.4,1.9,.733,0.9,2.5,3.4,2.5,0.4,0.2,,4.1,9.8
213,Marv Roberts,SF,27,LAL,28,,209,4.7,13.1,.355,,,,4.7,13.1,.355,0.7,1.0,.667,1.6,2.8,4.3,3.3,0.7,0.3,,5.9,10.0
214,Truck Robinson,PF,25,TOT,77,,2777,7.4,15.6,.478,,,,7.4,15.6,.478,4.1,5.6,.730,3.3,7.5,10.7,1.8,0.9,0.5,,3.3,19.0
214,Truck Robinson,PF,25,WSB,41,,1328,7.2,15.0,.478,,,,7.2,15.0,.478,3.5,5.1,.677,3.2,6.7,9.9,1.2,0.8,0.5,,3.3,17.8
214,Truck Robinson,PF,25,ATL,36,,1449,7.7,16.1,.478,,,,7.7,16.1,.478,4.6,6.0,.772,3.3,8.2,11.5,2.4,0.9,0.5,,3.2,20.0
215,Bill Robinzine,PF,24,KCK,75,,1594,6.9,15.3,.453,,,,6.9,15.3,.453,3.6,4.9,.736,3.7,7.0,10.7,2.1,1.9,0.3,,6.4,17.5
216,Dave Robisch,C,27,IND,80,,1966,6.8,14.9,.455,,,,6.8,14.9,.455,3.9,4.7,.832,3.1,7.0,10.1,2.9,1.0,0.7,,3.1,17.4
217,Marshall Rogers,PG,23,GSW,26,,176,8.8,23.7,.371,,,,8.8,23.7,.371,2.9,3.1,.933,1.2,1.0,2.3,2.0,1.6,0.6,,6.8,20.5
218,Dan Roundfield,PF,23,IND,61,,1645,7.5,16.1,.466,,,,7.5,16.1,.466,3.6,5.2,.686,3.9,7.4,11.3,1.5,1.3,2.9,,5.3,18.6
219,Curtis Rowe,PF,27,BOS,79,,2190,5.2,10.4,.498,,,,5.2,10.4,.498,2.8,3.9,.708,3.1,6.2,9.3,1.8,0.4,0.8,,3.5,13.2
220,Campy Russell,SF,25,CLE,70,,2109,7.4,17.1,.434,,,,7.4,17.1,.434,4.9,6.3,.778,2.5,4.7,7.2,3.2,1.2,0.4,,3.3,19.8
221,Cazzie Russell,SF,32,LAL,82,,2583,8.1,16.4,.490,,,,8.1,16.4,.490,2.6,3.1,.858,1.2,2.9,4.1,2.9,1.2,0.1,,2.3,18.7
222,Fred Saunders,SF,25,BOS,68,,1051,6.3,13.5,.466,,,,6.3,13.5,.466,1.2,1.8,.660,2.5,5.1,7.6,2.9,0.9,0.2,,6.5,13.8
223,Dale Schlueter,C,31,PHO,39,,337,2.8,7.7,.361,,,,2.8,7.7,.361,1.9,3.3,.581,3.2,5.3,8.5,4.1,0.9,0.9,,6.6,7.5
224,Charlie Scott*,SG,28,BOS,43,,1581,7.4,16.7,.444,,,,7.4,16.7,.444,2.9,3.9,.746,1.2,3.2,4.3,4.5,1.4,0.3,,3.5,17.8
225,Bruce Seals,PF,23,SEA,81,,1977,6.9,15.5,.444,,,,6.9,15.5,.444,2.5,3.6,.708,2.1,4.3,6.4,1.7,0.9,1.1,,4.8,16.3
226,Phil Sellers,SG,23,DET,44,,329,8.0,20.8,.384,,,,8.0,20.8,.384,5.7,7.9,.722,2.1,2.4,4.5,2.7,2.4,0.0,,6.1,21.7
227,Lonnie Shelton,PF,21,NYK,82,,2104,6.8,14.3,.476,,,,6.8,14.3,.476,2.7,3.8,.707,3.8,7.1,10.8,2.5,2.1,1.7,,6.2,16.3
228,John Shumate,PF,24,BUF,74,,2601,5.6,11.2,.502,,,,5.6,11.2,.502,4.2,6.2,.671,2.3,7.4,9.7,2.2,1.2,1.2,,2.7,15.4
229,James Silas,PG,27,SAS,22,,356,6.2,14.4,.430,,,,6.2,14.4,.430,8.8,10.8,.813,0.7,2.5,3.2,5.1,1.3,0.3,,3.6,21.1
230,Paul Silas,PF,33,DEN,81,,1959,3.8,10.5,.360,,,,3.8,10.5,.360,3.1,4.7,.667,4.3,6.8,11.1,2.4,1.1,0.4,,3.4,10.7
231,Ralph Simpson,SG,27,DET,77,,1597,8.0,18.8,.427,,,,8.0,18.8,.427,3.1,4.4,.708,1.1,3.0,4.1,4.1,1.5,0.1,,2.3,19.2
232,Al Skinner,SG,24,NYN,79,,2256,6.1,14.2,.431,,,,6.1,14.2,.431,3.7,4.7,.791,1.8,4.0,5.8,4.6,1.6,0.8,,4.5,15.9
233,Bingo Smith,SF,30,CLE,81,,2135,8.7,19.4,.446,,,,8.7,19.4,.446,2.5,3.1,.818,1.6,3.8,5.3,2.6,1.0,0.5,,3.6,19.8
234,Elmore Smith,C,27,TOT,70,,1464,5.9,12.5,.475,,,,5.9,12.5,.475,2.9,5.2,.549,2.8,8.0,10.8,1.1,0.9,3.5,,5.1,14.7
234,Elmore Smith,C,27,MIL,34,,789,5.2,11.5,.447,,,,5.2,11.5,.447,2.8,4.8,.581,2.4,7.1,9.5,1.4,0.9,3.1,,5.0,13.1
234,Elmore Smith,C,27,CLE,36,,675,6.8,13.5,.504,,,,6.8,13.5,.504,3.0,5.8,.519,3.3,9.0,12.3,0.7,0.9,4.0,,5.2,16.6
235,Phil Smith,SG,24,GSW,82,,2880,7.9,16.5,.479,,,,7.9,16.5,.479,3.7,4.7,.785,1.3,2.9,4.1,4.1,1.2,0.4,,2.8,19.5
236,Randy Smith,SG,28,BUF,82,,3094,8.2,17.5,.467,,,,8.2,17.5,.467,3.4,4.5,.762,1.6,3.8,5.3,5.1,2.0,0.1,,3.1,19.8
237,Willie Smith,PG,23,CHI,2,,11,0.0,3.3,.000,,,,0.0,3.3,.000,0.0,0.0,,0.0,0.0,0.0,0.0,0.0,0.0,,3.3,0.0
238,Dick Snyder,SG,32,CLE,82,,1685,6.8,14.8,.456,,,,6.8,14.8,.456,2.7,3.2,.852,1.0,2.2,3.2,3.4,1.0,0.6,,3.8,16.2
239,Ricky Sobers,SG,24,PHO,79,,2005,7.4,15.0,.496,,,,7.4,15.0,.496,4.4,5.2,.841,1.5,2.7,4.2,4.3,1.7,0.3,,4.6,19.2
240,Mike Sojourner,PF,23,ATL,51,,551,6.2,13.3,.468,,,,6.2,13.3,.468,2.7,3.7,.719,3.2,6.3,9.5,1.4,1.0,0.6,,4.3,15.1
241,Kevin Stacom,SG,25,BOS,79,,1051,6.1,15.0,.409,,,,6.1,15.0,.409,1.6,2.0,.793,1.4,2.0,3.3,4.0,0.7,0.1,,2.2,13.8
242,Bud Stallworth,SF,27,NOJ,40,,526,8.6,18.6,.463,,,,8.6,18.6,.463,1.2,2.0,.586,1.3,3.6,4.9,1.6,1.3,0.8,,5.2,18.4
243,Keith Starr,SG,22,CHI,17,,65,3.3,13.3,.250,,,,3.3,13.3,.250,1.1,1.1,1.000,3.3,2.2,5.5,3.3,0.6,0.0,,6.1,7.8
244,Larry Steele,SG,27,POR,81,,1680,7.0,14.0,.500,,,,7.0,14.0,.500,3.9,4.9,.806,1.5,2.5,4.0,3.7,2.5,0.3,,4.6,17.9
245,Earl Tatum,SG,23,LAL,68,,1249,8.2,17.5,.466,,,,8.2,17.5,.466,2.1,2.9,.720,2.4,4.4,6.8,3.4,2.4,0.6,,4.8,18.4
246,Brian Taylor,PG,25,KCK,72,,2488,7.2,14.4,.504,,,,7.2,14.4,.504,3.3,4.0,.818,1.3,2.2,3.4,4.6,2.9,0.2,,3.0,17.8
247,Fatty Taylor,PG,30,DEN,79,,1548,3.1,7.3,.420,,,,3.1,7.3,.420,0.9,1.5,.569,2.1,2.8,4.9,6.7,3.1,0.2,,4.7,7.0
248,Ira Terrell,SF,22,PHO,78,,1751,5.7,11.2,.508,,,,5.7,11.2,.508,2.3,3.6,.631,2.0,5.9,8.0,2.1,0.8,1.0,,3.4,13.7
249,Chuck Terry,SF,26,NYN,61,,1075,4.3,10.6,.403,,,,4.3,10.6,.403,1.6,2.1,.774,1.4,3.3,4.8,1.3,1.9,0.3,,4.0,10.2
250,Claude Terry,SG,27,TOT,45,,545,6.3,12.6,.503,,,,6.3,12.6,.503,2.4,2.9,.818,0.8,2.2,3.0,3.8,1.3,0.1,,3.2,15.1
250,Claude Terry,SG,27,BUF,33,,304,5.8,12.3,.471,,,,5.8,12.3,.471,2.1,2.7,.783,0.5,2.8,3.3,3.9,1.3,0.0,,3.2,13.7
250,Claude Terry,SG,27,ATL,12,,241,7.0,13.0,.540,,,,7.0,13.0,.540,2.7,3.1,.857,1.2,1.5,2.7,3.7,1.3,0.1,,3.1,16.7
251,David Thompson*,SG,22,DEN,82,,3001,9.9,19.5,.507,,,,9.9,19.5,.507,5.7,7.5,.766,1.7,2.4,4.0,4.0,1.4,0.6,,2.8,25.5
252,Nate Thurmond*,C,35,CLE,49,,997,3.6,8.9,.407,,,,3.6,8.9,.407,2.5,3.8,.642,4.4,9.1,13.5,3.0,0.6,2.9,,4.6,9.7
253,Dean Tolson,PF,25,SEA,60,,587,8.4,14.8,.566,,,,8.4,14.8,.566,5.2,9.8,.535,4.5,5.2,9.6,1.7,2.0,1.3,,5.1,22.0
254,Rudy Tomjanovich*,PF,28,HOU,81,,3130,8.4,16.5,.510,,,,8.4,16.5,.510,3.3,3.9,.839,2.0,5.9,7.9,2.0,0.7,0.3,,2.3,20.2
255,Monte Towe,PG,23,DEN,51,,409,4.9,12.1,.406,,,,4.9,12.1,.406,1.6,2.2,.720,0.7,2.3,3.0,7.7,1.4,0.0,,5.4,11.4
256,George Trapp,PF,28,DET,6,,68,7.9,15.4,.517,,,,7.9,15.4,.517,1.6,2.1,.750,2.1,3.2,5.3,1.6,0.0,0.5,,6.9,17.5
257,Dave Twardzik,PG,26,POR,74,,1937,4.9,8.0,.612,,,,4.9,8.0,.612,4.4,5.3,.842,1.4,2.4,3.8,4.6,2.4,0.3,,4.2,14.2
258,Wes Unseld*,C,30,WSB,82,,2860,3.4,6.9,.490,,,,3.4,6.9,.490,1.3,2.1,.602,3.1,8.0,11.0,4.6,1.1,0.6,,3.2,8.1
259,Dick Van Arsdale,SG,33,PHO,78,,1535,5.3,11.7,.456,,,,5.3,11.7,.456,3.4,3.9,.873,0.7,2.0,2.7,2.8,0.8,0.1,,2.2,14.0
260,Tom Van Arsdale,SF,33,PHO,77,,1425,4.3,10.0,.433,,,,4.3,10.0,.433,2.6,3.7,.703,1.2,3.5,4.6,1.7,0.5,0.1,,4.1,11.2
261,Jan van Breda Kolff,SF,25,NYN,72,,2398,4.1,9.1,.445,,,,4.1,9.1,.445,2.9,3.4,.855,2.3,4.6,6.9,1.8,1.1,1.0,,3.1,11.1
262,Norm Van Lier,PG,29,CHI,82,,3097,3.5,8.5,.412,,,,3.5,8.5,.412,2.8,3.6,.778,1.3,3.0,4.3,7.4,1.5,0.2,,3.1,9.7
263,Neal Walk,C,28,NYK,11,,135,7.5,15.2,.491,,,,7.5,15.2,.491,1.6,1.9,.857,1.3,5.9,7.2,1.6,1.1,0.8,,5.9,16.5
264,Andy Walker,SF,21,NOJ,40,,438,5.9,12.8,.462,,,,5.9,12.8,.462,3.0,3.9,.766,1.9,4.3,6.2,2.6,1.6,0.6,,4.8,14.8
265,Foots Walker,PG,25,CLE,62,,1216,4.6,10.3,.450,,,,4.6,10.3,.450,2.6,3.4,.774,1.6,3.1,4.7,7.5,2.5,0.1,,3.7,11.9
266,Wally Walker,SF,22,POR,66,,627,7.9,17.5,.449,,,,7.9,17.5,.449,3.8,5.7,.670,2.6,3.6,6.2,2.9,0.8,0.1,,5.3,19.6
267,Bill Walton*,C,24,POR,65,,2264,7.8,14.8,.528,,,,7.8,14.8,.528,3.6,5.2,.697,3.4,11.5,14.9,3.9,1.0,3.4,,2.8,19.2
268,Lloyd Walton,PG,23,MIL,53,,678,4.7,10.0,.468,,,,4.7,10.0,.468,2.8,3.5,.815,0.8,1.9,2.7,7.5,2.1,0.1,,2.8,12.2
269,Henry Ward,SG,25,SAS,27,,171,7.2,18.9,.378,,,,7.2,18.9,.378,3.2,3.6,.882,2.1,4.8,6.9,1.3,1.3,1.1,,6.3,17.5
270,Cornell Warner,PF,28,LAL,14,,170,5.3,11.2,.472,,,,5.3,11.2,.472,0.8,1.3,.667,4.4,10.2,14.6,2.3,0.2,0.4,,5.9,11.4
271,Kermit Washington,PF,25,LAL,53,,1342,5.1,10.2,.503,,,,5.1,10.2,.503,3.5,5.0,.706,4.9,8.3,13.2,1.3,1.2,1.4,,4.9,13.8
272,Richard Washington,PF,21,KCK,82,,2265,7.1,16.4,.431,,,,7.1,16.4,.431,2.8,4.0,.697,3.2,7.9,11.1,1.4,1.0,1.4,,5.1,17.0
273,Slick Watts,PG,25,SEA,79,,2627,5.9,13.9,.422,,,,5.9,13.9,.422,2.4,4.0,.587,1.1,3.1,4.2,8.6,2.9,0.3,,3.5,14.1
274,Nick Weatherspoon,SF,26,TOT,62,,1657,6.7,15.0,.449,,,,6.7,15.0,.449,2.0,3.1,.632,2.6,6.7,9.3,1.2,1.1,0.6,,3.6,15.4
274,Nick Weatherspoon,SF,26,WSB,11,,152,6.4,18.0,.355,,,,6.4,18.0,.355,1.2,1.9,.625,2.6,3.1,5.7,0.5,0.7,1.2,,4.5,14.0
274,Nick Weatherspoon,SF,26,SEA,51,,1505,6.8,14.7,.461,,,,6.8,14.7,.461,2.1,3.3,.632,2.6,7.1,9.7,1.2,1.2,0.6,,3.6,15.6
275,Marvin Webster,C,24,DEN,80,,1276,5.6,11.3,.495,,,,5.6,11.3,.495,4.0,6.2,.650,4.3,9.4,13.7,1.7,0.6,3.3,,4.2,15.2
276,Scott Wedman,SF,24,KCK,81,,2743,6.8,14.9,.460,,,,6.8,14.9,.460,2.7,3.2,.855,2.5,4.2,6.6,3.0,1.3,0.3,,3.0,16.4
277,Bob Weiss,PG,34,WSB,62,,768,2.9,6.2,.466,,,,2.9,6.2,.466,1.4,1.7,.784,0.7,2.5,3.2,6.1,2.5,0.3,,3.1,7.2
278,Paul Westphal*,PG,26,PHO,81,,2600,9.4,18.2,.518,,,,9.4,18.2,.518,5.0,6.1,.825,0.8,1.8,2.6,6.4,1.9,0.3,,2.4,23.9
279,Jo Jo White*,PG,30,BOS,82,,3333,6.9,16.1,.429,,,,6.9,16.1,.429,3.6,4.1,.869,0.9,3.2,4.1,5.3,1.3,0.2,,2.1,17.4
280,Rudy White,SG,23,HOU,46,,368,4.6,10.4,.443,,,,4.6,10.4,.443,1.5,2.4,.600,1.3,2.7,4.0,3.4,1.1,0.1,,3.8,10.7
281,Sidney Wicks,PF,27,BOS,82,,2642,6.3,13.8,.458,,,,6.3,13.8,.458,4.2,6.3,.668,3.7,7.6,11.2,2.3,0.9,0.8,,4.5,16.9
282,Bob Wilkerson,SF,22,SEA,78,,1552,5.1,13.3,.386,,,,5.1,13.3,.386,1.9,2.8,.689,2.2,3.8,6.0,4.0,1.7,0.2,,3.2,12.2
283,Jamaal Wilkes*,PF,23,GSW,76,,2579,7.6,16.0,.478,,,,7.6,16.0,.478,3.4,4.3,.797,2.2,5.9,8.1,2.9,1.8,0.2,,3.1,18.7
284,Chuck Williams,PG,30,TOT,65,,867,3.2,8.7,.371,,,,3.2,8.7,.371,2.8,3.6,.782,1.1,3.1,4.2,5.5,1.3,0.1,,2.5,9.3
284,Chuck Williams,PG,30,DEN,21,,311,4.1,10.8,.376,,,,4.1,10.8,.376,3.5,4.5,.769,0.9,3.0,3.9,5.1,0.9,0.0,,3.0,11.6
284,Chuck Williams,PG,30,BUF,44,,556,2.8,7.6,.368,,,,2.8,7.6,.368,2.5,3.1,.792,1.2,3.2,4.3,5.7,1.6,0.2,,2.2,8.0
285,Chuckie Williams,SG,23,CLE,22,,65,7.8,26.0,.298,,,,7.8,26.0,.298,5.0,6.6,.750,1.7,0.6,2.2,3.9,0.6,0.0,,3.9,20.5
286,Earl Williams,C,25,NYN,1,,7,0.0,10.3,.000,,,,0.0,10.3,.000,15.4,30.9,.500,5.1,5.1,10.3,5.1,0.0,5.1,,10.3,15.4
287,Gus Williams,PG,23,GSW,82,,1930,6.1,13.1,.464,,,,6.1,13.1,.464,2.1,2.8,.747,1.3,3.0,4.3,5.4,2.3,0.4,,4.1,14.2
288,Nate Williams,SF,26,NOJ,79,,1776,8.4,18.6,.451,,,,8.4,18.6,.451,3.0,3.9,.753,2.2,4.0,6.2,1.9,1.5,0.3,,4.1,19.7
289,John Williamson,SG,25,TOT,72,,2481,9.0,19.5,.459,,,,9.0,19.5,.459,3.8,4.8,.787,0.6,2.2,2.8,2.9,1.6,0.2,,3.6,21.7
289,John Williamson,SG,25,NYN,42,,1426,9.0,20.3,.445,,,,9.0,20.3,.445,4.1,5.2,.789,0.6,2.4,3.0,2.3,1.5,0.2,,3.6,22.1
289,John Williamson,SG,25,IND,30,,1055,8.9,18.6,.480,,,,8.9,18.6,.480,3.3,4.3,.784,0.6,1.9,2.5,3.8,1.6,0.2,,3.5,21.2
290,Bill Willoughby,SF,19,ATL,39,,549,4.9,11.1,.444,,,,4.9,11.1,.444,2.8,4.1,.683,4.3,6.9,11.1,0.9,1.2,1.5,,4.2,12.7
291,Bobby Wilson,SG,26,BOS,25,,131,5.2,16.2,.322,,,,5.2,16.2,.322,3.0,3.6,.846,0.8,1.6,2.5,3.8,0.8,0.0,,5.2,13.5
292,Brian Winters,SG,24,MIL,78,,2717,8.6,17.3,.498,,,,8.6,17.3,.498,2.7,3.2,.847,0.8,2.2,3.1,4.5,1.5,0.4,,3.0,20.0
293,Willie Wise,SF,29,DEN,75,,1403,6.1,13.2,.462,,,,6.1,13.2,.462,3.6,5.6,.651,2.0,4.5,6.5,3.6,1.5,0.5,,4.6,15.8
294,Dave Wohl,PG,27,TOT,51,,986,4.2,10.6,.400,,,,4.2,10.6,.400,2.2,3.2,.685,0.6,2.4,3.0,5.2,1.4,0.2,,4.2,10.7
294,Dave Wohl,PG,27,HOU,14,,62,4.1,9.9,.412,,,,4.1,9.9,.412,2.3,2.3,1.000,0.6,2.3,2.9,8.7,0.0,0.0,,10.5,10.5
294,Dave Wohl,PG,27,NYN,37,,924,4.2,10.6,.399,,,,4.2,10.6,.399,2.2,3.3,.671,0.6,2.4,3.0,4.9,1.5,0.2,,3.8,10.7
295,Larry Wright,PG,22,WSB,78,,1421,6.6,15.1,.440,,,,6.6,15.1,.440,2.2,2.9,.765,0.8,1.7,2.5,5.9,1.4,0.1,,4.3,15.5
