Rk,Player,Pos,Age,Tm,G,GS,MP,FG,FGA,FG%,3P,3PA,3P%,2P,2PA,2P%,FT,FTA,FT%,ORB,DRB,TRB,AST,STL,BLK,TOV,PF,PTS
1,Quincy Acy\acyqu01,PF,24,NYK,68,22,1287,4.3,9.3,.459,0.5,1.7,.300,3.7,7.6,.494,2.1,2.7,.784,2.2,6.2,8.4,1.9,0.8,0.6,1.7,4.1,11.1
2,Jordan Adams\adamsjo01,SG,20,MEM,30,0,248,5.1,12.5,.407,1.5,3.6,.400,3.6,8.9,.410,2.0,3.3,.609,1.3,2.8,4.1,2.3,2.3,1.0,2.0,3.5,13.6
3,Steven Adams\adamsst01,C,21,OKC,70,67,1771,4.4,8.1,.544,0.0,0.0,.000,4.4,8.1,.547,2.1,4.2,.502,4.0,6.6,10.6,1.3,0.8,1.7,2.0,4.5,10.9
4,Jeff Adrien\adrieje01,PF,28,MIN,17,0,215,3.2,7.4,.432,0.0,0.0,,3.2,7.4,.432,3.7,6.4,.579,3.9,9.0,12.9,2.5,0.7,1.5,1.5,5.0,10.0
5,Arron Afflalo\afflaar01,SG,29,TOT,78,72,2502,5.4,12.7,.424,1.7,4.8,.354,3.7,7.9,.466,2.4,2.8,.843,0.4,3.2,3.6,1.9,0.6,0.1,1.7,2.4,14.9
5,Arron Afflalo\afflaar01,SG,29,DEN,53,53,1750,5.8,13.5,.428,1.7,5.0,.337,4.1,8.5,.481,2.6,3.1,.841,0.4,3.3,3.7,2.1,0.7,0.1,1.7,2.2,15.9
5,Arron Afflalo\afflaar01,SG,29,POR,25,19,752,4.5,10.9,.414,1.7,4.3,.400,2.8,6.6,.423,1.9,2.3,.851,0.3,2.9,3.2,1.3,0.4,0.1,1.6,2.8,12.6
6,Alexis Ajinça\ajincal01,C,26,NOP,68,8,957,6.8,12.4,.550,0.0,0.0,,6.8,12.4,.550,3.0,3.7,.818,3.9,7.9,11.8,1.8,0.8,1.9,2.6,5.7,16.7
7,Furkan Aldemir\aldemfu01,PF,23,PHI,41,9,540,2.7,5.2,.513,0.0,0.3,.000,2.7,4.9,.548,0.9,1.8,.481,5.2,6.5,11.7,1.9,1.1,1.1,1.1,6.4,6.2
8,Cole Aldrich\aldrico01,C,26,NYK,61,16,976,5.3,11.1,.478,0.0,0.0,,5.3,11.1,.478,1.8,2.4,.781,3.7,8.7,12.5,2.8,1.4,2.4,2.2,4.5,12.5
9,LaMarcus Aldridge\aldrila01,PF,29,POR,71,71,2512,9.4,20.3,.466,0.5,1.5,.352,8.9,18.8,.475,4.4,5.2,.845,2.5,7.9,10.4,1.8,0.7,1.0,1.7,1.8,23.8
10,Lavoy Allen\allenla01,C,25,IND,63,0,1070,4.7,10.1,.472,0.0,0.0,,4.7,10.1,.472,1.1,1.6,.702,4.1,6.7,10.9,2.5,0.5,1.4,1.3,3.4,10.6
11,Tony Allen\allento01,SG,33,MEM,63,41,1648,4.9,9.9,.495,0.2,0.6,.345,4.7,9.3,.505,1.7,2.8,.627,2.3,3.9,6.1,1.9,2.8,0.7,1.9,3.6,11.8
12,Al-Farouq Aminu\aminual01,SF,24,DAL,74,3,1366,3.9,9.4,.412,0.9,3.3,.274,3.0,6.1,.485,2.2,3.1,.712,3.0,6.0,9.0,1.6,1.8,1.6,1.4,3.6,10.9
13,Lou Amundson\amundlo01,PF,32,TOT,53,35,937,4.2,9.8,.427,0.0,0.0,.000,4.2,9.8,.429,1.6,3.3,.471,3.6,6.7,10.3,2.7,0.8,2.0,2.4,4.8,10.0
13,Lou Amundson\amundlo01,PF,32,CLE,12,0,79,1.8,5.5,.333,0.0,0.0,,1.8,5.5,.333,1.4,2.3,.600,2.3,6.8,9.1,2.3,0.5,0.0,2.3,5.0,5.0
13,Lou Amundson\amundlo01,PF,32,NYK,41,35,858,4.4,10.2,.432,0.0,0.0,.000,4.4,10.2,.434,1.6,3.4,.463,3.7,6.7,10.4,2.7,0.9,2.2,2.4,4.8,10.4
14,Chris Andersen\anderch01,C,36,MIA,60,20,1132,3.8,6.6,.580,0.1,0.4,.308,3.7,6.2,.598,2.4,3.6,.667,2.4,7.1,9.5,1.4,0.8,1.9,1.3,2.8,10.2
15,Alan Anderson\anderal01,SG,32,BRK,74,19,1744,4.0,9.1,.443,1.5,4.3,.348,2.5,4.7,.530,1.7,2.1,.812,0.6,3.6,4.2,1.7,1.2,0.1,1.2,3.1,11.3
16,Kyle Anderson\anderky01,SF,21,SAS,33,8,358,3.1,8.9,.348,0.3,1.1,.273,2.8,7.8,.359,0.9,1.4,.643,0.5,6.7,7.2,2.8,1.5,0.7,1.0,2.8,7.4
17,Ryan Anderson\anderry01,PF,26,NOP,61,5,1675,6.3,15.7,.399,2.6,7.7,.340,3.6,8.0,.457,2.8,3.2,.854,2.3,4.0,6.3,1.2,0.7,0.4,1.3,2.4,17.9
18,Giannis Antetokounmpo\antetgi01,SG,20,MIL,81,71,2541,5.4,11.1,.491,0.1,0.6,.159,5.3,10.4,.511,3.6,4.9,.741,1.4,6.3,7.7,2.9,1.0,1.2,2.5,3.6,14.6
19,Carmelo Anthony\anthoca01,SF,30,NYK,40,40,1428,9.0,20.3,.444,1.5,4.5,.341,7.5,15.8,.474,4.8,6.0,.797,1.8,4.8,6.7,3.1,1.0,0.4,2.2,2.2,24.4
20,Joel Anthony\anthojo01,C,32,DET,49,0,406,3.2,5.5,.581,0.0,0.0,,3.2,5.5,.581,1.3,2.0,.682,2.8,5.4,8.2,0.4,1.1,4.3,1.1,4.9,7.7
21,Pero Antić\anticpe01,C,32,ATL,63,3,1037,3.7,10.3,.365,1.8,6.0,.301,1.9,4.3,.455,3.1,4.3,.715,2.0,4.5,6.6,1.7,0.6,0.5,1.7,4.6,12.4
22,Trevor Ariza\arizatr01,SF,29,HOU,82,82,2930,4.5,11.2,.402,2.4,6.8,.350,2.1,4.4,.485,1.5,1.8,.853,0.9,4.7,5.6,2.6,1.9,0.2,1.7,2.3,12.9
23,Darrell Arthur\arthuda01,PF,26,DEN,58,4,988,5.6,14.0,.404,0.9,4.0,.236,4.7,10.0,.471,1.7,2.1,.780,1.9,4.3,6.2,2.1,1.7,0.9,1.7,5.3,13.9
24,Ömer Aşık\asikom01,C,28,NOP,76,76,1982,3.9,7.5,.517,0.0,0.0,,3.9,7.5,.517,2.4,4.1,.582,4.4,9.2,13.6,1.3,0.5,1.0,1.7,2.6,10.1
25,D.J. Augustin\augusdj01,PG,27,TOT,82,14,1964,4.7,11.9,.399,1.5,4.5,.337,3.2,7.4,.436,3.3,3.8,.868,0.4,2.6,3.0,6.5,0.9,0.1,2.7,1.7,14.2
25,D.J. Augustin\augusdj01,PG,27,DET,54,13,1287,5.3,12.9,.410,1.4,4.2,.327,3.9,8.7,.450,4.1,4.7,.870,0.4,2.4,2.8,7.4,0.9,0.1,3.1,1.7,16.1
25,D.J. Augustin\augusdj01,PG,27,OKC,28,1,677,3.7,9.9,.371,1.8,5.1,.354,1.9,4.8,.389,1.6,1.9,.861,0.4,2.9,3.2,4.7,0.9,0.1,1.9,1.7,10.8
26,Jeff Ayres\pendeje02,PF,27,SAS,51,0,383,5.2,8.9,.579,0.0,0.0,,5.2,8.9,.579,2.5,3.4,.750,3.5,7.5,11.0,1.3,0.8,0.8,2.4,5.6,12.9
27,Luke Babbitt\babbilu01,SF,25,NOP,63,19,830,4.0,8.3,.479,2.6,5.0,.513,1.4,3.3,.429,0.6,0.8,.684,0.5,4.3,4.8,1.0,0.7,0.5,1.1,2.7,11.1
28,Cameron Bairstow\bairsca01,PF,24,CHI,18,1,64,1.7,7.9,.214,0.0,0.0,,1.7,7.9,.214,2.3,2.8,.800,3.4,1.1,4.5,0.6,1.1,0.6,1.7,4.5,5.6
29,Leandro Barbosa\barbole01,SG,32,GSW,66,1,982,6.7,14.2,.474,1.6,4.1,.384,5.1,10.0,.511,2.1,2.7,.784,0.8,2.5,3.3,3.6,1.5,0.3,1.6,3.2,17.1
30,J.J. Barea\bareajo01,PG,30,DAL,77,10,1362,5.9,14.2,.420,1.4,4.4,.323,4.5,9.8,.463,2.0,2.5,.809,0.6,2.9,3.5,7.0,0.9,0.0,1.9,2.7,15.3
31,Andrea Bargnani\bargnan01,C,29,NYK,29,22,785,7.5,16.6,.454,0.7,1.9,.366,6.8,14.7,.466,4.0,4.9,.813,1.5,4.4,5.8,2.1,0.1,1.2,1.9,2.4,19.7
32,Harrison Barnes\barneha02,SF,22,GSW,82,82,2318,4.9,10.2,.482,1.4,3.3,.405,3.6,6.8,.519,1.7,2.3,.720,1.8,5.2,7.0,1.8,0.9,0.3,1.1,2.3,12.8
33,Matt Barnes\barnema02,SF,34,LAC,76,74,2271,4.4,9.9,.444,2.2,6.0,.362,2.2,3.9,.569,1.2,1.5,.779,0.8,4.0,4.8,1.8,1.1,0.8,1.4,3.8,12.1
34,Earl Barron\barroea01,C,33,PHO,16,1,143,3.0,9.8,.308,0.5,1.0,.500,2.5,8.8,.286,1.5,3.0,.500,3.5,3.5,7.0,1.3,1.0,0.5,1.3,6.5,8.1
35,Will Barton\bartowi01,SG,24,TOT,58,0,983,5.5,12.9,.425,0.8,3.1,.271,4.7,9.8,.474,2.7,3.4,.787,1.0,5.0,5.9,3.0,1.8,0.7,2.2,2.6,14.5
35,Will Barton\bartowi01,SG,24,POR,30,0,300,4.6,12.0,.380,0.5,2.2,.222,4.1,9.8,.415,1.2,1.8,.667,0.4,3.7,4.1,3.2,1.7,0.5,2.0,2.4,10.8
35,Will Barton\bartowi01,SG,24,DEN,28,0,683,5.9,13.3,.443,1.0,3.5,.284,4.9,9.8,.500,3.4,4.2,.810,1.2,5.5,6.7,2.8,1.8,0.8,2.3,2.6,16.2
36,Brandon Bass\bassbr01,PF,29,BOS,82,43,1929,6.4,12.7,.504,0.2,0.6,.281,6.3,12.1,.515,3.2,4.0,.790,2.6,4.8,7.4,1.9,0.8,0.6,1.5,2.6,16.2
37,Nicolas Batum\batumni01,SF,26,POR,71,71,2380,3.6,9.1,.400,1.5,4.7,.324,2.1,4.4,.481,1.3,1.5,.857,0.9,5.4,6.3,5.2,1.2,0.6,2.0,1.6,10.0
38,Jerryd Bayless\bayleje01,PG,26,MIL,77,4,1717,4.6,10.8,.426,0.8,2.5,.308,3.8,8.3,.462,2.5,2.9,.883,0.5,4.0,4.4,4.9,1.2,0.3,2.8,3.4,12.5
39,Aron Baynes\baynear01,C,28,SAS,70,17,1122,5.9,10.5,.566,0.0,0.1,.250,5.9,10.4,.570,2.9,3.3,.865,3.5,6.7,10.2,1.1,0.5,0.7,2.1,5.2,14.8
40,Kent Bazemore\bazemke01,SG,25,ATL,75,10,1324,3.8,9.0,.426,1.3,3.6,.364,2.5,5.4,.467,1.6,2.7,.600,0.6,5.5,6.0,2.1,1.4,0.9,2.0,3.5,10.6
41,Bradley Beal\bealbr01,SG,21,WAS,63,59,2107,6.2,14.5,.427,1.8,4.4,.409,4.4,10.1,.434,2.2,2.8,.783,1.0,3.1,4.1,3.3,1.3,0.3,2.1,2.3,16.4
42,Michael Beasley\beaslmi01,PF,26,MIA,24,1,505,6.6,15.1,.434,0.6,2.4,.235,6.0,12.7,.472,1.4,1.9,.769,0.9,5.5,6.3,2.3,1.1,0.9,2.6,4.7,15.1
43,Marco Belinelli\belinma01,SG,28,SAS,62,9,1388,5.2,12.2,.423,2.2,6.0,.374,2.9,6.2,.471,2.2,2.6,.848,0.7,3.4,4.1,2.4,0.8,0.1,1.6,2.2,14.7
44,Jerrelle Benimon\benimje01,PF,23,UTA,2,0,3,0.0,0.0,,0.0,0.0,,0.0,0.0,,0.0,0.0,,12.0,24.0,36.0,0.0,0.0,0.0,12.0,0.0,0.0
45,Anthony Bennett\bennean01,PF,21,MIN,57,3,894,5.0,12.0,.421,0.3,0.9,.304,4.8,11.0,.431,1.7,2.6,.641,2.1,6.6,8.7,1.9,1.1,0.6,1.4,3.5,12.0
46,Patrick Beverley\beverpa01,PG,26,HOU,56,55,1727,4.3,11.1,.383,2.4,6.7,.356,1.9,4.4,.426,0.9,1.3,.750,1.4,3.5,4.9,4.0,1.2,0.5,1.7,3.8,11.8
47,Sim Bhullar\bhullsi01,C,22,SAC,3,0,3,12.0,24.0,.500,0.0,0.0,,12.0,24.0,.500,0.0,0.0,,0.0,12.0,12.0,12.0,0.0,12.0,0.0,0.0,24.0
48,Bismack Biyombo\biyombi01,C,22,CHO,64,21,1243,2.9,5.4,.543,0.0,0.0,,2.9,5.4,.543,3.0,5.1,.583,4.6,7.2,11.8,0.5,0.5,2.9,1.5,4.1,8.8
49,Tarik Black\blackta01,C,23,TOT,63,39,1196,4.7,8.2,.575,0.0,0.0,.000,4.7,8.2,.577,2.0,3.6,.551,4.3,6.8,11.1,1.3,0.6,0.7,1.4,4.8,11.4
49,Tarik Black\blackta01,C,23,HOU,25,12,393,4.1,7.6,.542,0.0,0.1,.000,4.1,7.5,.549,1.4,2.7,.517,5.3,6.3,11.6,0.7,0.5,0.2,1.7,5.1,9.6
49,Tarik Black\blackta01,C,23,LAL,38,27,803,5.0,8.5,.589,0.0,0.0,,5.0,8.5,.589,2.2,4.0,.562,3.8,7.0,10.8,1.5,0.6,1.0,1.3,4.6,12.3
50,DeJuan Blair\blairde01,PF,25,WAS,29,0,180,5.2,11.4,.456,0.0,0.0,,5.2,11.4,.456,0.8,1.2,.667,3.2,8.0,11.2,0.6,1.4,0.2,2.6,8.2,11.2
51,Steve Blake\blakest01,PG,34,POR,81,0,1529,2.9,7.7,.373,1.8,5.2,.352,1.1,2.5,.417,0.7,1.0,.707,0.4,2.8,3.2,6.8,1.0,0.1,2.4,2.8,8.2
52,Eric Bledsoe\bledser01,PG,25,PHO,81,81,2800,6.0,13.4,.447,1.1,3.5,.324,4.9,10.0,.491,4.5,5.7,.800,0.9,4.5,5.4,6.3,1.6,0.6,3.5,2.4,17.7
53,Vander Blue\blueva01,SG,22,LAL,2,1,74,4.4,14.6,.300,1.0,4.9,.200,3.4,9.7,.350,1.0,2.4,.400,1.0,3.4,4.4,3.9,1.5,0.0,2.9,1.9,10.7
54,Bojan Bogdanović\bogdabo02,SF,25,BRK,78,28,1854,5.1,11.2,.453,1.8,5.0,.355,3.3,6.2,.531,1.7,2.1,.821,1.0,3.2,4.1,1.3,0.7,0.2,1.5,2.0,13.6
55,Andrew Bogut\bogutan01,C,30,GSW,67,65,1583,4.5,8.1,.563,0.0,0.0,,4.5,8.1,.563,0.5,1.0,.524,3.2,9.1,12.3,4.1,0.9,2.6,2.4,4.3,9.6
56,Matt Bonner\bonnema01,PF,34,SAS,72,19,935,3.6,8.9,.409,1.8,4.9,.365,1.8,4.0,.462,1.2,1.4,.811,1.1,3.3,4.4,1.8,0.4,0.5,0.4,2.5,10.2
57,Trevor Booker\booketr01,PF,27,UTA,79,5,1564,5.2,10.7,.487,0.7,1.9,.345,4.5,8.7,.518,2.0,3.4,.581,3.2,5.9,9.1,1.9,1.0,0.9,2.0,3.3,13.1
58,Carlos Boozer\boozeca01,PF,33,LAL,71,26,1692,7.9,15.8,.499,0.0,0.0,,7.9,15.8,.499,2.0,3.2,.627,2.4,7.9,10.3,2.0,0.9,0.3,2.0,3.9,17.8
59,Chris Bosh\boshch01,C,30,MIA,44,44,1556,7.9,17.2,.460,1.5,3.9,.375,6.5,13.3,.485,4.1,5.4,.772,1.1,6.1,7.2,2.2,0.9,0.6,2.2,1.6,21.5
60,Avery Bradley\bradlav01,SG,24,BOS,77,77,2428,6.4,15.0,.429,1.8,5.2,.352,4.6,9.8,.470,1.2,1.5,.790,0.7,2.9,3.6,2.0,1.2,0.2,1.6,2.6,15.9
61,Elton Brand\brandel01,C,35,ATL,36,4,486,3.1,7.0,.442,0.0,0.1,.000,3.1,7.0,.447,0.9,1.7,.522,2.1,5.3,7.4,1.6,1.3,1.9,1.3,4.0,7.1
62,Corey Brewer\breweco01,SF,28,TOT,80,17,2087,5.9,13.9,.426,1.1,4.1,.268,4.8,9.8,.491,2.9,3.9,.743,1.4,3.7,5.1,3.0,2.0,0.3,2.3,3.0,15.8
62,Corey Brewer\breweco01,SF,28,MIN,24,16,680,5.0,11.9,.418,0.4,2.2,.195,4.6,9.7,.467,2.9,4.1,.705,1.7,3.3,5.0,4.1,2.9,0.2,2.6,3.3,13.3
62,Corey Brewer\breweco01,SF,28,HOU,56,1,1407,6.4,14.8,.429,1.4,5.0,.284,5.0,9.9,.503,2.9,3.8,.764,1.2,4.0,5.2,2.4,1.5,0.4,2.1,2.8,17.0
63,Aaron Brooks\brookaa01,PG,30,CHI,82,21,1885,6.6,15.6,.421,2.3,6.0,.387,4.3,9.6,.442,2.8,3.3,.833,0.6,2.6,3.2,5.0,1.0,0.3,3.0,3.6,18.2
64,Jabari Brown\brownja01,SG,22,LAL,19,5,568,4.4,10.8,.412,1.5,3.9,.371,3.0,6.8,.435,4.1,5.4,.753,0.2,2.1,2.3,2.5,0.8,0.1,2.0,2.1,14.4
65,Lorenzo Brown\brownlo01,PG,24,MIN,29,7,549,3.4,8.0,.426,0.4,1.8,.214,3.0,6.2,.489,0.8,1.2,.632,0.9,3.7,4.6,5.9,1.8,0.4,2.0,3.2,8.0
66,Markel Brown\brownma02,SG,23,BRK,47,29,781,3.5,9.7,.362,0.8,3.0,.266,2.7,6.7,.404,2.2,2.6,.825,0.7,4.2,4.9,1.8,1.4,0.6,1.2,2.6,10.0
67,Shannon Brown\brownsh01,SG,29,MIA,5,2,89,2.8,7.7,.368,1.2,2.8,.429,1.6,4.9,.333,1.2,1.6,.750,0.0,0.4,0.4,1.2,1.6,0.0,1.6,3.2,8.1
68,Kobe Bryant*\bryanko01,SG,36,LAL,35,35,1207,7.9,21.3,.373,1.6,5.5,.293,6.3,15.8,.401,5.8,7.2,.813,0.8,5.2,5.9,5.9,1.4,0.2,3.8,1.9,23.3
69,Chase Budinger\budinch01,SF,26,MIN,67,4,1286,4.7,10.9,.433,1.5,4.0,.364,3.3,6.9,.474,1.9,2.3,.827,0.9,4.6,5.5,1.8,1.2,0.3,1.4,2.0,12.8
70,Reggie Bullock\bullore01,SF,23,TOT,36,2,338,2.6,7.5,.343,1.6,4.9,.326,1.0,2.6,.375,0.6,1.0,.667,0.1,5.2,5.3,0.9,1.1,0.4,0.9,2.0,7.3
70,Reggie Bullock\bullore01,SF,23,LAC,25,2,263,3.1,7.4,.426,2.1,5.3,.385,1.1,2.1,.533,0.5,0.7,.800,0.0,5.5,5.5,0.8,1.2,0.3,0.8,2.3,8.9
70,Reggie Bullock\bullore01,SF,23,PHO,11,0,75,0.5,7.7,.063,0.0,3.4,.000,0.5,4.3,.111,1.0,1.9,.500,0.5,4.3,4.8,1.0,0.5,1.0,1.0,1.0,1.9
71,Trey Burke\burketr01,PG,22,UTA,76,43,2288,5.8,15.8,.368,2.0,6.1,.318,3.9,9.7,.400,1.7,2.3,.752,0.5,2.7,3.2,5.2,1.0,0.2,2.0,1.9,15.3
72,Alec Burks\burksal01,SG,23,UTA,27,27,899,4.8,12.0,.403,1.0,2.7,.382,3.8,9.3,.409,4.2,5.2,.822,0.8,3.8,4.6,3.3,0.7,0.2,2.1,2.6,15.0
73,Caron Butler\butleca01,SF,34,DET,78,21,1623,3.6,8.8,.407,1.8,4.9,.379,1.7,3.9,.441,1.2,1.4,.902,0.5,3.9,4.3,1.8,1.0,0.1,1.1,2.7,10.2
74,Jimmy Butler\butleji01,SG,25,CHI,65,65,2513,6.0,13.1,.462,1.0,2.8,.378,5.0,10.3,.484,5.5,6.6,.834,1.6,3.8,5.4,3.0,1.6,0.5,1.3,1.5,18.6
75,Rasual Butler\butlera01,SF,35,WAS,75,1,1505,5.2,12.4,.422,2.2,5.6,.387,3.0,6.7,.450,1.3,1.6,.791,0.6,4.1,4.7,1.5,0.7,0.5,1.1,2.3,13.9
76,Dwight Buycks\buyckdw01,PG,25,LAL,6,0,123,5.3,11.7,.450,2.0,3.2,.636,3.2,8.5,.379,2.6,2.9,.900,0.6,2.9,3.5,4.1,0.9,0.0,3.5,0.9,15.2
77,Will Bynum\bynumwi01,SG,32,WAS,7,0,67,5.4,16.7,.323,0.0,4.8,.000,5.4,11.8,.455,1.1,2.1,.500,1.1,2.1,3.2,9.7,0.5,0.5,4.3,4.8,11.8
78,Bruno Caboclo\cabocbr01,SF,19,TOR,8,0,23,6.3,18.8,.333,3.1,4.7,.667,3.1,14.1,.222,0.0,0.0,,1.6,1.6,3.1,0.0,0.0,1.6,6.3,4.7,15.7
79,Nick Calathes\calatni01,SG,25,MEM,58,0,838,4.5,10.6,.421,0.5,1.8,.256,4.0,8.8,.456,1.0,1.9,.533,0.8,3.7,4.6,6.3,2.7,0.2,2.6,4.3,10.4
80,José Calderón\caldejo01,PG,33,NYK,42,42,1270,4.2,10.0,.415,1.7,4.0,.415,2.5,6.0,.415,0.8,0.9,.906,0.5,3.0,3.5,5.6,0.9,0.0,2.1,2.2,10.8
81,Kentavious Caldwell-Pope\caldwke01,SG,21,DET,82,82,2587,5.4,13.5,.401,2.1,6.2,.345,3.3,7.3,.449,1.5,2.2,.696,0.6,2.9,3.5,1.5,1.3,0.3,1.3,2.2,14.5
82,Isaiah Canaan\canaais01,PG,23,TOT,47,21,938,5.6,14.5,.386,3.5,9.4,.370,2.1,5.1,.417,1.9,2.3,.817,0.7,2.6,3.3,3.8,1.1,0.1,2.4,3.2,16.6
82,Isaiah Canaan\canaais01,PG,23,HOU,25,9,369,5.2,12.8,.405,3.1,8.2,.381,2.0,4.6,.447,1.6,2.0,.762,1.1,2.1,3.2,2.8,1.4,0.0,2.2,2.7,15.0
82,Isaiah Canaan\canaais01,PG,23,PHI,22,12,569,5.9,15.6,.377,3.7,10.2,.364,2.2,5.4,.400,2.1,2.5,.846,0.4,3.0,3.4,4.4,0.9,0.2,2.5,3.5,17.6
83,Clint Capela\capelca01,C,20,HOU,12,0,90,5.6,11.6,.483,0.0,0.0,,5.6,11.6,.483,1.6,9.2,.174,4.0,10.4,14.4,0.8,0.4,3.6,2.0,5.6,12.8
84,DeMarre Carroll\carrode01,SF,28,ATL,70,69,2189,5.2,10.7,.487,2.0,5.0,.395,3.3,5.7,.567,2.1,3.0,.702,1.6,4.5,6.1,1.9,1.5,0.3,1.2,2.5,14.5
85,Vince Carter\cartevi01,SG,38,MEM,66,1,1091,4.5,13.4,.333,2.3,7.7,.297,2.2,5.7,.379,1.5,1.9,.789,0.9,3.5,4.4,2.6,1.4,0.5,1.4,3.4,12.7
86,Michael Carter-Williams\cartemi01,PG,23,TOT,66,63,2149,6.1,15.4,.396,0.6,2.6,.235,5.5,12.8,.428,3.4,4.9,.694,1.1,4.8,5.9,7.4,1.9,0.5,4.2,2.8,16.2
86,Michael Carter-Williams\cartemi01,PG,23,PHI,41,38,1391,6.0,15.8,.380,0.8,3.2,.256,5.2,12.6,.412,3.0,4.7,.643,1.1,5.5,6.6,7.8,1.6,0.5,4.5,2.7,15.9
86,Michael Carter-Williams\cartemi01,PG,23,MIL,25,25,758,6.3,14.6,.429,0.2,1.3,.143,6.1,13.3,.457,4.0,5.2,.780,1.0,3.7,4.7,6.6,2.4,0.6,3.8,3.0,16.8
87,Omri Casspi\casspom01,SF,26,SAC,67,19,1416,5.3,10.9,.489,0.9,2.2,.402,4.4,8.6,.512,3.6,4.9,.733,1.4,5.2,6.6,2.6,0.8,0.2,2.2,2.7,15.1
88,Mario Chalmers\chalmma01,PG,28,MIA,80,37,2368,4.1,10.1,.403,1.1,3.8,.294,2.9,6.3,.467,3.1,4.0,.774,0.4,2.8,3.1,4.7,1.9,0.2,2.6,3.8,12.4
89,Tyson Chandler\chandty01,C,32,DAL,75,75,2286,4.6,6.9,.666,0.0,0.0,,4.6,6.9,.666,2.9,4.0,.720,4.6,9.0,13.6,1.3,0.7,1.4,1.7,2.7,12.1
90,Wilson Chandler\chandwi01,SF,27,DEN,78,75,2471,6.1,14.2,.429,2.0,5.9,.342,4.1,8.3,.490,1.6,2.1,.775,1.4,5.5,6.9,2.0,0.8,0.4,1.6,3.4,15.8
91,Will Cherry\cherrwi01,PG,23,CLE,8,0,69,2.6,9.9,.263,1.0,4.7,.222,1.6,5.2,.300,1.6,3.1,.500,0.5,2.1,2.6,4.2,3.1,0.5,2.1,5.2,7.8
92,Patrick Christopher\chrispa01,SG,26,UTA,4,1,29,3.7,14.9,.250,0.0,5.0,.000,3.7,9.9,.375,0.0,0.0,,2.5,5.0,7.4,0.0,1.2,0.0,1.2,7.4,7.4
93,Earl Clark\clarkea01,PF,27,BRK,10,0,93,4.3,11.6,.367,1.5,5.4,.286,2.7,6.2,.438,0.4,1.5,.250,0.4,8.5,8.9,1.2,1.2,1.5,2.3,4.6,10.5
94,Ian Clark\clarkia01,SG,23,TOT,30,0,192,3.6,10.3,.345,1.9,5.6,.333,1.7,4.7,.360,1.7,1.7,1.000,0.7,2.3,3.0,2.3,1.7,0.6,1.7,3.7,10.7
94,Ian Clark\clarkia01,SG,23,UTA,23,0,161,3.4,9.8,.341,2.0,5.6,.360,1.3,4.2,.316,1.1,1.1,1.000,0.9,2.0,2.9,2.2,1.3,0.4,1.6,2.7,9.8
94,Ian Clark\clarkia01,SG,23,DEN,7,0,31,4.6,12.8,.364,1.2,5.8,.200,3.5,7.0,.500,4.6,4.6,1.000,0.0,3.5,3.5,2.3,3.5,1.2,2.3,9.3,15.1
95,Jordan Clarkson\clarkjo01,PG,22,LAL,59,38,1476,6.5,14.5,.448,0.9,3.0,.314,5.6,11.6,.482,3.2,3.9,.829,1.4,3.3,4.7,5.0,1.2,0.3,2.3,2.7,17.1
96,Victor Claver\clavevi01,SF,26,POR,10,0,76,4.3,9.5,.450,2.8,5.2,.545,1.4,4.3,.333,0.0,0.0,,1.4,8.1,9.5,0.5,0.5,0.5,1.9,5.7,11.4
97,Norris Cole\coleno01,PG,26,TOT,75,25,1831,4.5,11.0,.412,1.1,3.5,.313,3.4,7.5,.458,1.1,1.6,.716,0.3,2.9,3.1,5.0,1.1,0.3,1.9,2.4,11.3
97,Norris Cole\coleno01,PG,26,MIA,47,23,1148,3.7,9.6,.386,0.8,3.2,.265,2.9,6.4,.446,1.0,1.4,.696,0.4,3.0,3.4,5.2,1.3,0.3,1.8,2.4,9.3
97,Norris Cole\coleno01,PG,26,NOP,28,2,683,5.9,13.3,.444,1.5,3.9,.378,4.4,9.4,.472,1.4,1.8,.743,0.1,2.6,2.7,4.7,0.8,0.4,2.2,2.6,14.7
98,Darren Collison\collida01,PG,27,SAC,45,45,1565,6.0,12.7,.473,1.4,3.7,.373,4.6,8.9,.514,3.3,4.2,.788,0.4,2.9,3.3,5.8,1.5,0.3,2.6,2.2,16.7
99,Nick Collison\collini01,PF,34,OKC,66,2,1101,3.5,8.3,.419,0.5,2.0,.267,2.9,6.3,.466,1.5,2.1,.692,2.9,5.2,8.2,2.9,1.1,0.8,1.5,5.1,8.9
100,Mike Conley\conlemi01,PG,27,MEM,70,70,2225,6.4,14.3,.446,1.7,4.5,.386,4.6,9.8,.473,3.5,4.0,.859,0.5,2.9,3.4,6.1,1.4,0.2,2.5,2.2,17.9
101,Jack Cooley\cooleja01,C,23,UTA,16,0,87,3.7,9.1,.409,0.0,0.0,,3.7,9.1,.409,3.7,8.7,.429,4.1,6.2,10.3,0.4,2.5,1.2,1.2,9.5,11.2
102,Chris Copeland\copelch01,SF,30,IND,50,12,828,4.9,13.5,.361,2.3,7.3,.311,2.6,6.2,.420,1.4,2.0,.733,1.0,3.8,4.8,2.2,0.5,0.5,2.6,3.4,13.4
103,Bryce Cotton\cottobr01,PG,22,UTA,15,0,159,6.6,15.6,.420,1.6,4.5,.350,5.0,11.1,.449,3.4,4.1,.833,0.7,3.4,4.1,3.4,0.9,0.0,2.7,1.4,18.1
104,DeMarcus Cousins\couside01,C,24,SAC,59,59,2013,8.9,19.1,.467,0.0,0.1,.250,8.9,18.9,.469,7.6,9.7,.782,3.3,10.1,13.4,3.8,1.6,1.8,4.5,4.3,25.4
105,Robert Covington\covinro01,SF,24,PHI,70,49,1956,5.5,13.9,.396,3.1,8.2,.374,2.4,5.7,.426,3.3,4.0,.820,1.2,4.6,5.8,1.9,1.8,0.6,2.4,3.5,17.4
106,Allen Crabbe\crabbal01,SG,22,POR,51,9,683,3.3,8.1,.412,1.6,4.5,.353,1.7,3.6,.485,0.6,0.8,.750,0.4,3.5,3.8,2.1,1.0,0.8,0.8,3.9,8.9
107,Jamal Crawford\crawfja01,SG,34,LAC,64,4,1703,7.0,17.7,.396,2.5,7.7,.327,4.5,10.0,.448,4.8,5.3,.901,0.4,2.2,2.6,3.3,1.2,0.3,1.9,2.3,21.4
108,Jae Crowder\crowdja01,SF,24,TOT,82,17,1647,5.0,11.9,.420,1.3,4.5,.293,3.7,7.4,.499,2.4,3.1,.773,1.6,4.8,6.4,2.1,1.6,0.5,1.1,3.0,13.7
108,Jae Crowder\crowdja01,SF,24,DAL,25,0,265,4.5,10.3,.434,1.8,5.2,.342,2.7,5.2,.526,1.4,1.5,.909,1.6,2.3,3.9,1.6,2.0,0.7,1.4,3.5,12.1
108,Jae Crowder\crowdja01,SF,24,BOS,57,17,1382,5.1,12.2,.418,1.3,4.4,.282,3.9,7.8,.495,2.6,3.4,.762,1.6,5.3,6.9,2.1,1.5,0.5,1.0,2.9,14.0
109,Dante Cunningham\cunnida01,PF,27,NOP,66,27,1652,3.4,7.4,.457,0.0,0.2,.100,3.4,7.2,.468,0.6,1.0,.617,1.5,4.1,5.6,1.1,1.0,0.8,0.8,2.2,7.4
110,Jared Cunningham\cunnija01,SG,23,LAC,19,0,89,4.9,13.3,.364,1.6,5.3,.308,3.2,8.1,.400,2.8,5.3,.538,0.4,3.2,3.6,4.0,1.2,0.0,2.8,4.9,14.2
111,Seth Curry\curryse01,PG,24,PHO,2,0,8,0.0,13.5,.000,0.0,4.5,.000,0.0,9.0,.000,0.0,0.0,,0.0,9.0,9.0,4.5,0.0,0.0,0.0,9.0,0.0
112,Stephen Curry\curryst01,PG,26,GSW,80,80,2613,9.0,18.5,.487,3.9,8.9,.443,5.1,9.6,.528,4.2,4.6,.914,0.8,3.9,4.7,8.5,2.2,0.2,3.4,2.2,26.2
113,Samuel Dalembert\dalemsa01,C,33,NYK,32,21,544,3.8,8.6,.438,0.0,0.0,,3.8,8.6,.438,0.9,1.3,.700,3.5,7.6,11.1,1.9,0.9,2.7,2.6,4.6,8.5
114,Troy Daniels\danietr01,SG,23,TOT,47,0,397,5.5,15.0,.370,3.9,10.7,.364,1.6,4.3,.383,1.0,1.2,.846,0.7,2.3,3.0,2.0,0.5,0.1,1.8,3.6,16.0
114,Troy Daniels\danietr01,SG,23,HOU,17,0,108,5.0,15.7,.319,4.3,14.3,.302,0.7,1.3,.500,1.0,1.3,.750,0.0,2.0,2.0,1.3,0.0,0.0,1.7,4.7,15.3
114,Troy Daniels\danietr01,SG,23,MIN,19,0,154,4.4,13.8,.322,3.0,9.1,.333,1.4,4.7,.300,0.5,0.5,1.000,1.4,3.0,4.4,3.0,0.7,0.0,1.9,3.3,12.4
114,Troy Daniels\danietr01,SG,23,CHO,11,0,135,7.2,15.7,.458,4.5,9.6,.472,2.7,6.1,.435,1.6,1.9,.857,0.5,1.6,2.1,1.3,0.8,0.3,1.9,3.2,20.5
115,Gigi Datome\datomlu01,SF,27,TOT,21,1,209,7.4,15.3,.483,3.1,6.9,.450,4.3,8.4,.510,0.2,0.2,1.000,0.5,4.5,5.0,1.6,0.3,1.2,1.6,2.6,18.1
115,Gigi Datome\datomlu01,SF,27,DET,3,0,17,10.6,25.4,.417,2.1,8.5,.250,8.5,16.9,.500,0.0,0.0,,2.1,6.4,8.5,4.2,2.1,0.0,4.2,2.1,23.3
115,Gigi Datome\datomlu01,SF,27,BOS,18,1,192,7.1,14.4,.494,3.2,6.8,.472,3.9,7.7,.512,0.2,0.2,1.000,0.4,4.3,4.7,1.3,0.2,1.3,1.3,2.6,17.6
116,Brandon Davies\daviebr01,PF,23,TOT,27,6,423,4.7,11.7,.401,0.7,2.9,.235,4.0,8.8,.456,2.0,3.1,.649,3.2,3.8,7.1,2.6,1.5,0.6,2.5,5.0,12.1
116,Brandon Davies\daviebr01,PF,23,PHI,20,6,379,4.7,11.3,.412,0.7,2.8,.233,4.0,8.5,.472,2.0,3.1,.636,3.3,3.6,6.9,2.7,1.6,0.4,2.4,5.1,12.0
116,Brandon Davies\daviebr01,PF,23,BRK,7,0,44,4.9,14.7,.333,0.8,3.3,.250,4.1,11.5,.357,2.5,3.3,.750,2.5,5.7,8.2,1.6,0.8,2.5,3.3,4.1,13.1
117,Anthony Davis\davisan02,PF,21,NOP,68,68,2455,9.4,17.6,.535,0.0,0.2,.083,9.4,17.4,.540,5.4,6.8,.805,2.5,7.7,10.2,2.2,1.5,2.9,1.4,2.1,24.3
118,Ed Davis\davised01,PF,25,LAL,79,24,1840,5.5,9.2,.601,0.0,0.0,,5.5,9.2,.601,1.8,3.7,.487,4.5,7.2,11.7,1.8,1.0,1.9,1.1,4.0,12.8
119,Glen Davis\davisgl01,PF,29,LAC,74,0,904,4.7,10.2,.459,0.0,0.2,.000,4.7,10.0,.466,2.4,3.8,.632,1.7,5.0,6.7,1.6,1.6,0.8,1.6,5.3,11.7
120,Andre Dawkins\dawkian01,SG,23,MIA,4,0,22,1.6,9.8,.167,1.6,9.8,.167,0.0,0.0,,0.0,0.0,,0.0,3.3,3.3,1.6,0.0,0.0,1.6,4.9,4.9
121,Austin Daye\dayeau01,SF,26,TOT,34,4,344,5.2,14.8,.355,2.5,7.4,.338,2.7,7.3,.371,0.5,0.6,.833,1.0,6.8,7.8,1.8,1.3,0.5,2.4,4.1,13.5
121,Austin Daye\dayeau01,SF,26,SAS,26,4,268,5.4,15.4,.348,2.6,7.7,.333,2.8,7.8,.362,0.5,0.5,1.000,0.8,7.4,8.2,1.2,1.1,0.4,2.4,4.0,13.8
121,Austin Daye\dayeau01,SF,26,ATL,8,0,76,4.7,12.3,.385,2.4,6.6,.357,2.4,5.7,.417,0.5,0.9,.500,1.9,4.7,6.6,3.8,1.9,0.9,2.4,4.3,12.3
122,Dewayne Dedmon\dedmode01,C,25,ORL,59,15,845,3.9,6.9,.562,0.0,0.0,.000,3.9,6.9,.565,1.4,2.7,.531,5.0,7.5,12.6,0.4,0.7,2.1,2.2,6.0,9.2
123,Matthew Dellavedova\dellama01,SG,24,CLE,67,13,1380,2.9,8.0,.362,1.8,4.4,.407,1.1,3.7,.307,0.8,1.0,.763,1.0,2.3,3.3,5.3,0.6,0.1,1.6,4.0,8.3
124,Luol Deng\denglu01,SF,29,MIA,72,72,2421,5.5,11.7,.469,1.2,3.3,.355,4.3,8.4,.513,2.8,3.7,.761,1.5,4.1,5.6,2.1,1.0,0.3,1.6,1.6,15.0
125,DeMar DeRozan\derozde01,SG,25,TOR,60,60,2100,7.0,17.0,.413,0.4,1.5,.284,6.6,15.5,.426,6.2,7.4,.832,0.7,4.0,4.7,3.6,1.3,0.2,2.3,2.1,20.6
126,Boris Diaw\diawbo01,PF,32,SAS,81,15,1984,5.3,11.5,.460,1.0,3.1,.320,4.3,8.4,.512,1.3,1.7,.774,1.4,4.9,6.3,4.2,0.7,0.4,2.3,2.7,12.8
127,Gorgui Dieng\dienggo01,C,25,MIN,73,49,2193,4.3,8.4,.506,0.0,0.1,.167,4.2,8.3,.510,3.1,4.0,.783,3.7,6.3,10.0,2.4,1.2,2.1,2.1,3.1,11.7
128,Spencer Dinwiddie\dinwisp01,PG,21,DET,34,1,455,4.0,13.4,.302,0.9,5.1,.185,3.1,8.2,.375,2.5,2.7,.912,0.3,3.5,3.8,8.2,1.5,0.5,2.6,4.2,11.5
129,Joey Dorsey\dorsejo01,PF,31,HOU,69,17,854,3.4,6.1,.552,0.0,0.0,.000,3.4,6.1,.556,1.0,3.5,.289,4.3,7.4,11.8,1.1,1.7,1.1,1.7,6.6,7.8
130,Toney Douglas\douglto01,SG,28,NOP,12,0,177,3.9,10.4,.373,1.0,3.7,.278,2.8,6.7,.424,1.6,2.6,.615,0.4,4.1,4.5,4.9,2.2,0.8,2.0,4.1,10.4
131,Chris Douglas-Roberts\douglch01,SG,28,LAC,12,0,103,1.7,7.3,.238,0.3,2.4,.143,1.4,4.9,.286,2.8,2.8,1.000,0.3,3.8,4.2,1.4,0.3,0.0,0.0,4.9,6.6
132,Goran Dragić\dragigo01,SG-PG,28,TOT,78,78,2640,6.8,13.7,.501,1.2,3.5,.347,5.6,10.1,.555,2.5,3.2,.774,1.1,2.6,3.7,4.8,1.1,0.2,2.4,2.7,17.4
132,Goran Dragić\dragigo01,SG,28,PHO,52,52,1735,7.1,14.1,.501,1.4,3.9,.355,5.7,10.2,.556,2.0,2.7,.746,1.1,2.8,3.8,4.4,1.0,0.2,2.4,2.5,17.5
132,Goran Dragić\dragigo01,PG,28,MIA,26,26,905,6.4,12.8,.502,1.0,2.9,.329,5.5,9.9,.552,3.3,4.1,.808,1.2,2.3,3.5,5.5,1.1,0.2,2.3,3.0,17.2
133,Zoran Dragić\dragizo01,SG,25,TOT,16,1,75,5.3,14.4,.367,1.4,6.7,.214,3.8,7.7,.500,1.4,2.4,.600,2.4,1.4,3.8,2.4,1.0,0.0,2.4,2.9,13.4
133,Zoran Dragić\dragizo01,SG,25,PHO,6,0,13,5.5,22.2,.250,0.0,13.8,.000,5.5,8.3,.667,5.5,8.3,.667,5.5,2.8,8.3,2.8,0.0,0.0,0.0,2.8,16.6
133,Zoran Dragić\dragizo01,SG,25,MIA,10,1,62,5.2,12.8,.409,1.7,5.2,.333,3.5,7.5,.462,0.6,1.2,.500,1.7,1.2,2.9,2.3,1.2,0.0,2.9,2.9,12.8
134,Larry Drew II\drewla02,PG,24,PHI,12,1,219,3.3,9.5,.345,0.7,4.3,.154,2.6,5.3,.500,0.3,0.5,.667,0.2,2.3,2.5,7.4,1.0,0.0,4.1,2.1,7.6
135,Andre Drummond\drumman01,C,21,DET,82,82,2502,7.1,13.8,.514,0.0,0.0,.000,7.1,13.8,.515,2.0,5.3,.389,6.3,9.6,15.9,0.8,1.1,2.2,1.7,4.1,16.3
136,Jared Dudley\dudleja01,SG,29,MIL,72,22,1717,4.2,8.9,.468,1.6,4.0,.385,2.6,4.8,.537,1.0,1.4,.716,0.9,3.7,4.6,2.7,1.5,0.2,1.3,2.4,10.9
137,Tim Duncan*\duncati01,C,38,SAS,77,77,2227,6.8,13.2,.512,0.0,0.1,.286,6.7,13.1,.514,3.7,5.0,.740,2.7,8.6,11.4,3.7,1.0,2.4,2.1,2.7,17.3
138,Mike Dunleavy\dunlemi02,SF,34,CHI,63,63,1838,4.1,9.4,.435,2.1,5.2,.407,2.0,4.3,.468,1.4,1.7,.805,0.5,4.3,4.9,2.2,0.8,0.4,1.2,2.4,11.7
139,Kevin Durant\duranke01,SF,26,OKC,27,27,913,9.4,18.4,.510,2.5,6.3,.403,6.9,12.1,.565,5.8,6.7,.854,0.6,6.4,7.0,4.3,0.9,1.0,2.9,1.6,27.0
140,Cleanthony Early\earlycl01,SF,23,NYK,39,7,647,4.2,11.9,.355,1.2,4.7,.262,3.0,7.2,.415,2.0,2.7,.750,1.2,4.2,5.4,2.0,1.3,0.7,2.2,3.2,11.7
141,Wayne Ellington\ellinwa01,SG,27,LAL,65,36,1675,5.5,13.3,.412,1.9,5.2,.370,3.5,8.0,.439,1.1,1.4,.813,0.7,3.8,4.5,2.3,0.7,0.0,1.1,1.7,14.0
142,Monta Ellis\ellismo01,SG,29,DAL,80,80,2699,8.0,18.1,.445,1.1,3.8,.285,6.9,14.3,.487,3.0,4.0,.752,0.5,2.1,2.5,4.4,2.0,0.3,2.6,2.6,20.2
143,James Ennis\ennisja01,SF,24,MIA,62,3,1051,3.5,8.5,.409,1.1,3.3,.326,2.4,5.2,.461,2.7,3.2,.840,1.7,4.3,6.0,1.6,0.9,0.6,1.3,3.0,10.7
144,Tyler Ennis\ennisty01,PG,20,TOT,33,1,411,4.6,12.6,.361,1.1,3.8,.279,3.5,8.8,.396,0.4,0.6,.714,0.6,2.5,3.1,6.4,1.6,0.4,3.7,3.2,10.6
144,Tyler Ennis\ennisty01,PG,20,PHO,8,0,58,5.6,13.0,.429,1.2,3.7,.333,4.3,9.3,.467,1.2,1.2,1.000,0.6,3.7,4.3,8.7,0.0,1.2,5.0,1.9,13.7
144,Tyler Ennis\ennisty01,PG,20,MIL,25,1,353,4.4,12.5,.350,1.0,3.8,.270,3.4,8.8,.384,0.3,0.5,.600,0.6,2.2,2.9,6.0,1.8,0.3,3.5,3.4,10.1
145,Jeremy Evans\evansje01,SF,27,UTA,38,0,266,4.3,7.8,.552,0.3,0.7,.400,4.1,7.2,.566,3.2,3.9,.828,3.5,6.1,9.6,1.8,1.5,1.6,0.7,3.9,12.2
146,Reggie Evans\evansre01,PF,34,SAC,47,7,764,2.7,6.5,.423,0.0,0.1,.000,2.7,6.4,.430,2.8,4.6,.619,4.6,9.5,14.1,1.5,1.0,0.2,2.1,4.3,8.3
147,Tyreke Evans\evansty01,SG,25,NOP,79,76,2690,7.0,15.6,.447,0.9,3.0,.304,6.0,12.6,.482,2.7,3.9,.694,1.1,4.5,5.6,7.0,1.3,0.5,3.3,2.6,17.6
148,Dante Exum\exumda01,PG,19,UTA,82,41,1817,2.9,8.2,.349,1.6,5.2,.314,1.2,3.0,.408,0.4,0.6,.625,0.5,2.1,2.6,3.9,0.8,0.3,2.3,2.9,7.8
149,Festus Ezeli\ezelife01,C,25,GSW,46,7,504,5.4,9.9,.547,0.0,0.0,,5.4,9.9,.547,3.5,5.6,.628,4.3,6.8,11.1,0.6,0.5,3.0,2.3,5.5,14.4
150,Kenneth Faried\farieke01,PF,25,DEN,75,71,2086,6.4,12.7,.507,0.0,0.1,.125,6.4,12.6,.511,3.4,5.0,.691,4.2,7.4,11.5,1.5,1.1,1.0,2.0,3.6,16.3
151,Jordan Farmar\farmajo01,PG,28,LAC,36,0,529,4.2,10.8,.386,2.4,6.6,.361,1.8,4.2,.426,0.7,0.7,.909,0.5,2.3,2.9,4.6,1.4,0.3,2.2,3.5,11.4
152,Derrick Favors\favorde01,PF,23,UTA,74,74,2280,7.6,14.5,.525,0.0,0.1,.167,7.6,14.4,.527,3.5,5.2,.669,3.1,6.5,9.6,1.8,0.9,1.9,1.9,3.3,18.7
153,Raymond Felton\feltora01,PG,30,DAL,29,3,281,5.5,13.6,.406,1.3,4.4,.294,4.2,9.2,.458,1.5,1.9,.800,0.3,3.1,3.3,5.3,1.4,0.5,2.3,2.2,13.8
154,Landry Fields\fieldla01,SF,26,TOR,26,9,216,3.3,6.8,.488,0.2,0.3,.500,3.2,6.5,.487,0.8,1.0,.833,1.7,2.7,4.3,2.5,1.8,0.0,1.3,1.5,7.7
155,Evan Fournier\fournev01,SG,22,ORL,58,32,1661,5.5,12.5,.440,1.8,4.9,.378,3.6,7.6,.480,2.3,3.2,.728,0.6,2.7,3.3,2.6,0.9,0.0,1.8,2.5,15.1
156,Randy Foye\foyera01,SG,31,DEN,50,21,1087,4.9,13.3,.368,3.1,8.7,.357,1.8,4.6,.388,1.5,1.8,.818,0.3,2.5,2.8,3.9,1.1,0.4,2.0,3.2,14.4
157,Jamaal Franklin\frankja01,SG,23,DEN,3,0,13,2.8,5.5,.500,2.8,5.5,.500,0.0,0.0,,0.0,0.0,,2.8,2.8,5.5,8.3,0.0,2.8,8.3,11.1,8.3
158,Tim Frazier\fraziti01,PG,24,TOT,11,3,239,3.2,9.2,.344,0.8,2.6,.294,2.4,6.6,.364,1.5,3.2,.476,0.9,3.3,4.2,9.0,1.2,0.0,3.8,3.9,8.6
158,Tim Frazier\fraziti01,PG,24,PHI,6,3,171,2.7,9.1,.302,0.6,2.3,.273,2.1,6.7,.313,1.1,3.2,.333,0.8,3.2,4.0,9.1,1.3,0.0,3.8,3.4,7.2
158,Tim Frazier\fraziti01,PG,24,POR,5,0,68,4.2,9.5,.444,1.1,3.2,.333,3.2,6.4,.500,2.6,3.2,.833,1.1,3.7,4.8,9.0,1.1,0.0,3.7,5.3,12.2
159,Jimmer Fredette\fredeji01,PG,25,NOP,50,0,509,4.5,11.7,.380,0.6,3.4,.188,3.8,8.3,.458,3.0,3.2,.956,0.6,2.3,2.8,4.1,1.1,0.1,2.3,3.0,12.6
160,Joel Freeland\freeljo01,C,27,POR,48,8,617,4.3,8.8,.490,0.0,0.0,,4.3,8.8,.490,1.2,1.5,.840,3.6,7.5,11.1,0.9,0.5,1.3,1.3,5.4,9.9
161,Channing Frye\fryech01,PF,31,ORL,75,51,1870,3.7,9.4,.392,2.6,6.7,.393,1.1,2.7,.390,0.6,0.7,.886,0.5,5.1,5.6,1.8,0.9,0.8,1.5,3.7,10.6
162,Danilo Gallinari\gallida01,SF,26,DEN,59,27,1426,5.8,14.3,.401,2.7,7.6,.355,3.1,6.7,.453,4.3,4.8,.895,0.8,4.7,5.5,2.1,1.2,0.5,1.4,2.4,18.5
163,Langston Galloway\gallola01,PG,23,NYK,45,41,1457,5.0,12.6,.399,1.5,4.3,.352,3.5,8.3,.424,1.6,1.9,.808,0.9,3.8,4.7,3.7,1.3,0.3,1.5,3.2,13.2
164,Francisco García\garcifr01,SF,33,HOU,14,0,200,3.1,11.3,.270,1.8,8.1,.222,1.3,3.2,.389,0.2,0.7,.250,0.5,2.5,3.1,2.7,1.6,0.9,1.8,3.6,8.1
165,Kevin Garnett*\garneke01,PF,38,TOT,47,47,952,5.4,11.6,.467,0.0,0.3,.143,5.4,11.3,.475,1.4,1.7,.800,1.8,9.9,11.8,2.9,1.7,0.6,1.7,4.1,12.2
165,Kevin Garnett*\garneke01,PF,38,BRK,42,42,854,5.3,11.6,.455,0.0,0.3,.167,5.2,11.3,.461,1.4,1.7,.829,1.9,10.1,12.0,2.9,1.7,0.5,1.9,4.0,12.0
165,Kevin Garnett*\garneke01,PF,38,MIN,5,5,98,6.6,11.4,.581,0.0,0.4,.000,6.6,11.0,.600,0.7,1.5,.500,0.7,8.8,9.6,2.9,1.8,1.5,0.4,4.8,14.0
166,Marc Gasol\gasolma01,C,30,MEM,81,81,2687,7.1,14.4,.494,0.0,0.2,.176,7.1,14.1,.500,4.7,5.9,.795,1.5,6.9,8.4,4.1,0.9,1.8,2.4,2.8,18.9
167,Pau Gasol\gasolpa01,PF,34,CHI,78,78,2681,7.7,15.5,.494,0.2,0.3,.462,7.5,15.1,.495,3.9,4.9,.803,3.0,9.4,12.3,2.8,0.3,2.0,2.1,2.0,19.4
168,Rudy Gay\gayru01,SF,28,SAC,68,67,2408,7.6,16.7,.455,1.2,3.3,.359,6.4,13.4,.479,5.0,5.9,.858,1.5,4.5,6.0,3.7,1.1,0.6,2.7,2.3,21.4
169,Alonzo Gee\geeal01,SF,27,TOT,54,2,662,4.7,10.1,.468,0.7,1.9,.371,4.0,8.2,.490,2.9,4.2,.701,2.0,3.1,5.1,1.4,1.9,0.4,1.8,3.2,13.1
169,Alonzo Gee\geeal01,SF,27,DEN,39,0,511,4.6,9.7,.482,0.7,1.7,.417,3.9,8.0,.496,3.4,4.6,.738,2.0,2.9,4.9,1.3,2.0,0.4,1.8,3.0,13.4
169,Alonzo Gee\geeal01,SF,27,POR,15,2,151,5.0,11.7,.429,0.7,2.6,.273,4.3,9.1,.474,1.4,2.9,.500,1.9,3.8,5.7,1.4,1.7,0.2,1.9,3.8,12.2
170,Paul George\georgpa01,SF,24,IND,6,0,91,7.1,19.4,.367,3.6,8.7,.409,3.6,10.7,.333,3.2,4.4,.727,1.6,7.1,8.7,2.4,2.0,0.4,4.7,4.4,21.0
171,Taj Gibson\gibsota01,PF,29,CHI,62,17,1692,5.4,10.8,.502,0.0,0.0,,5.4,10.8,.502,2.8,3.9,.717,3.4,5.0,8.4,1.5,0.8,1.6,1.6,3.4,13.6
172,Manu Ginóbili\ginobma01,SG,37,SAS,70,0,1587,5.7,13.4,.426,2.0,5.9,.345,3.7,7.5,.489,3.3,4.6,.721,0.6,4.2,4.8,6.6,1.5,0.5,3.5,3.1,16.7
173,Rudy Gobert\goberru01,C,22,UTA,82,37,2158,4.3,7.1,.604,0.0,0.0,.000,4.3,7.1,.607,2.8,4.6,.623,4.4,8.5,12.9,1.8,1.1,3.2,1.9,2.9,11.4
174,Drew Gooden\goodedr01,PF,33,WAS,51,7,864,4.6,11.5,.399,1.0,2.5,.390,3.6,9.0,.401,1.4,1.8,.773,3.0,6.3,9.3,2.0,0.9,0.4,1.2,3.8,11.5
175,Archie Goodwin\goodwar01,SG,20,PHO,41,2,535,5.3,13.5,.393,0.8,2.8,.293,4.5,10.8,.419,4.1,5.6,.735,1.8,3.2,5.0,3.0,1.2,0.6,3.2,3.7,15.5
176,Aaron Gordon\gordoaa01,PF,19,ORL,47,8,797,4.2,9.4,.447,0.6,2.2,.271,3.6,7.2,.500,2.0,2.8,.721,2.1,5.6,7.6,1.5,0.9,1.0,1.7,3.7,11.0
177,Ben Gordon\gordobe01,SG,31,ORL,56,0,790,5.9,13.4,.437,1.6,4.4,.361,4.3,9.0,.475,2.6,3.1,.836,0.3,2.6,2.9,2.3,0.6,0.0,2.5,2.7,15.9
178,Drew Gordon\gordodr01,PF,24,PHI,9,0,71,4.1,9.6,.421,0.0,1.5,.000,4.1,8.1,.500,0.5,1.0,.500,3.5,5.6,9.1,1.0,0.5,0.0,4.1,3.5,8.6
179,Eric Gordon\gordoer01,SG,26,NOP,61,60,2018,5.1,12.4,.411,2.5,5.6,.448,2.6,6.8,.380,1.9,2.4,.805,0.5,2.3,2.8,4.1,0.9,0.2,2.2,2.6,14.6
180,Marcin Gortat\gortama01,C,30,WAS,82,82,2453,6.4,11.4,.566,0.0,0.0,.000,6.4,11.3,.569,1.8,2.6,.703,2.6,7.9,10.5,1.4,0.7,1.6,1.5,2.8,14.7
181,Danny Granger\grangda01,SF,31,MIA,30,6,613,3.8,9.5,.401,1.8,4.9,.357,2.1,4.6,.449,1.6,2.2,.757,1.2,3.5,4.7,1.0,0.8,0.4,1.4,3.9,11.0
182,Jerami Grant\grantje01,SF,20,PHI,65,11,1377,3.2,9.2,.352,1.3,4.1,.314,2.0,5.1,.383,3.0,5.0,.591,1.3,3.9,5.2,2.1,1.0,1.8,2.2,3.8,10.7
183,Danny Green\greenda02,SG,27,SAS,81,80,2312,5.0,11.5,.436,3.0,7.1,.418,2.0,4.4,.466,1.7,2.0,.874,0.8,4.5,5.3,2.5,1.6,1.4,1.4,2.5,14.7
184,Draymond Green\greendr01,PF,24,GSW,79,79,2490,4.9,11.1,.443,1.6,4.8,.337,3.3,6.3,.523,1.9,2.9,.660,1.6,7.7,9.4,4.2,1.8,1.4,1.9,3.7,13.3
185,Erick Green\greener01,PG,23,DEN,43,1,410,5.4,14.2,.377,1.2,4.1,.298,4.1,10.1,.409,0.9,1.1,.833,0.6,2.1,2.7,3.4,1.1,0.0,1.2,2.3,12.8
186,Gerald Green\greenge01,SG,29,PHO,74,4,1446,8.1,19.4,.416,3.4,9.6,.354,4.7,9.7,.478,2.5,3.0,.825,0.8,3.8,4.6,2.3,1.0,0.3,2.6,3.6,22.0
187,JaMychal Green\greenja01,PF,24,TOT,24,1,164,5.9,10.3,.574,0.0,1.3,.000,5.9,9.0,.659,1.8,2.2,.800,4.2,5.7,9.9,0.9,1.1,1.1,3.1,5.5,13.6
187,JaMychal Green\greenja01,PF,24,SAS,4,0,25,5.8,10.1,.571,0.0,2.9,.000,5.8,7.2,.800,0.0,0.0,,4.3,4.3,8.6,0.0,0.0,2.9,2.9,8.6,11.5
187,JaMychal Green\greenja01,PF,24,MEM,20,1,139,6.0,10.4,.575,0.0,1.0,.000,6.0,9.3,.639,2.1,2.6,.800,4.1,6.0,10.1,1.0,1.3,0.8,3.1,4.9,14.0
188,Jeff Green\greenje02,SF,28,TOT,78,70,2454,6.1,14.2,.430,1.4,4.3,.332,4.7,9.9,.473,3.5,4.2,.833,0.9,3.9,4.8,2.0,0.8,0.5,1.6,2.2,17.1
188,Jeff Green\greenje02,SF,28,BOS,33,33,1093,6.8,15.6,.434,1.5,5.1,.305,5.2,10.6,.495,4.0,4.7,.840,0.7,4.0,4.6,1.7,0.9,0.4,1.8,2.2,19.1
188,Jeff Green\greenje02,SF,28,MEM,45,37,1361,5.6,13.0,.427,1.3,3.7,.362,4.2,9.4,.452,3.1,3.8,.825,1.1,3.8,4.9,2.1,0.7,0.6,1.4,2.1,15.6
189,Willie Green\greenwi01,SG,33,ORL,52,2,951,4.5,11.6,.386,1.6,4.6,.347,2.9,7.0,.411,1.1,1.3,.824,0.5,2.5,3.0,2.6,1.0,0.2,1.8,3.1,11.6
190,Blake Griffin\griffbl01,PF,25,LAC,67,67,2356,8.8,17.5,.502,0.2,0.4,.400,8.6,17.1,.504,4.8,6.5,.728,1.9,5.8,7.8,5.4,1.0,0.5,2.3,3.0,22.4
191,Jorge Gutiérrez\gutiejo01,PG,26,TOT,20,1,175,4.5,8.4,.537,0.0,0.6,.000,4.5,7.8,.579,1.9,2.7,.692,1.0,4.1,5.1,4.5,1.2,0.0,2.5,5.1,10.9
191,Jorge Gutiérrez\gutiejo01,PG,26,BRK,10,0,44,5.7,11.5,.500,0.0,0.8,.000,5.7,10.6,.538,1.6,2.5,.667,0.0,5.7,5.7,5.7,0.8,0.0,2.5,7.4,13.1
191,Jorge Gutiérrez\gutiejo01,PG,26,MIL,10,1,131,4.1,7.4,.556,0.0,0.5,.000,4.1,6.9,.600,1.9,2.7,.700,1.4,3.6,4.9,4.1,1.4,0.0,2.5,4.4,10.2
192,P.J. Hairston\hairspj02,SG,22,CHO,45,2,687,4.6,14.1,.323,2.6,8.5,.301,2.0,5.6,.358,1.6,1.9,.861,1.2,3.7,4.8,1.1,1.1,0.7,1.2,3.2,13.3
193,Jordan Hamilton\hamiljo02,SF,24,LAC,14,2,122,4.1,10.3,.400,3.0,6.2,.476,1.2,4.1,.286,0.0,0.0,,0.6,4.1,4.7,2.1,0.6,0.0,1.2,4.1,11.2
194,Justin Hamilton\hamilju01,C,24,TOT,41,14,712,4.3,9.0,.478,0.5,1.6,.323,3.8,7.4,.510,2.0,2.4,.830,2.9,3.9,6.8,1.8,1.4,1.5,1.3,3.5,11.1
194,Justin Hamilton\hamilju01,C,24,MIA,24,5,289,3.4,8.1,.415,0.7,2.4,.316,2.6,5.7,.457,0.7,0.9,.857,3.0,3.0,6.0,1.5,1.0,0.6,1.0,4.1,8.2
194,Justin Hamilton\hamilju01,C,24,MIN,17,9,423,4.9,9.6,.513,0.3,1.0,.333,4.6,8.6,.535,2.8,3.4,.825,2.8,4.5,7.3,2.0,1.6,2.1,1.5,3.1,13.0
195,Tyler Hansbrough\hansbty01,PF,29,TOR,74,8,1058,2.9,5.6,.521,0.0,0.2,.143,2.9,5.4,.538,3.3,4.7,.698,3.6,5.4,9.0,0.7,1.0,0.5,0.7,4.8,9.2
196,Tim Hardaway Jr.\hardati02,SG,22,NYK,70,30,1681,6.0,15.4,.389,2.6,7.6,.342,3.4,7.8,.435,2.7,3.3,.801,0.3,3.1,3.3,2.7,0.4,0.3,1.8,2.5,17.2
197,James Harden\hardeja01,SG,25,HOU,81,81,2981,7.8,17.8,.440,2.5,6.7,.375,5.3,11.0,.480,8.6,10.0,.868,0.9,4.6,5.5,6.8,1.9,0.7,3.9,2.5,26.8
198,Maurice Harkless\harklma01,SF,21,ORL,45,4,674,3.4,8.4,.399,0.5,3.0,.179,2.8,5.4,.520,1.2,2.2,.537,2.0,3.6,5.7,1.3,1.7,0.5,1.4,3.5,8.4
199,Devin Harris\harride01,PG,31,DAL,76,3,1685,4.7,11.2,.418,2.0,5.7,.357,2.6,5.5,.481,2.8,3.5,.815,0.3,2.6,2.9,5.1,1.7,0.3,1.8,3.1,14.2
200,Gary Harris\harriga01,SG,20,DEN,55,6,719,3.3,10.9,.304,1.1,5.2,.204,2.3,5.7,.395,1.8,2.4,.745,1.1,2.2,3.2,1.5,2.0,0.4,1.9,3.6,9.4
201,Joe Harris\harrijo01,SG,23,CLE,51,1,493,3.5,8.8,.400,2.3,6.1,.369,1.2,2.6,.472,0.7,1.1,.600,0.5,2.5,3.0,1.9,0.5,0.1,2.0,4.5,9.9
202,Tobias Harris\harrito02,SF,22,ORL,68,63,2369,6.7,14.4,.466,1.3,3.6,.364,5.4,10.8,.500,2.9,3.7,.788,1.1,5.4,6.5,1.9,1.0,0.5,1.7,2.0,17.7
203,Udonis Haslem\hasleud01,PF,34,MIA,62,25,995,3.9,8.6,.448,0.1,0.4,.200,3.8,8.3,.459,1.6,2.3,.703,2.6,6.8,9.3,1.7,0.8,0.5,1.5,4.1,9.4
204,Spencer Hawes\hawessp01,PF,26,LAC,73,15,1274,4.6,11.7,.393,1.6,5.0,.313,3.1,6.8,.452,1.2,1.9,.647,0.8,6.4,7.3,2.5,0.7,1.5,1.7,4.9,12.0
205,Chuck Hayes\hayesch01,C,31,TOR,29,0,255,3.1,6.5,.478,0.0,0.0,,3.1,6.5,.478,0.8,1.6,.545,2.5,4.7,7.2,2.8,1.4,0.6,1.1,5.2,7.1
206,Gordon Hayward\haywago01,SF,24,UTA,76,76,2618,6.7,14.9,.445,1.7,4.5,.364,5.0,10.4,.481,5.2,6.4,.812,0.7,4.4,5.1,4.3,1.5,0.4,2.8,1.8,20.1
207,Brendan Haywood\haywobr01,C,35,CLE,22,1,119,4.2,9.1,.467,0.0,0.0,,4.2,9.1,.467,2.1,3.9,.538,1.8,7.0,8.8,0.6,0.6,3.0,3.0,5.1,10.6
208,Gerald Henderson\hendege02,SG,27,CHO,80,72,2315,5.8,13.2,.437,0.7,2.1,.331,5.1,11.1,.457,2.9,3.4,.848,0.6,3.7,4.2,3.2,0.8,0.3,1.7,2.1,15.1
209,Xavier Henry\henryxa01,SF,23,LAL,9,0,86,1.3,5.4,.231,0.0,0.0,,1.3,5.4,.231,5.9,10.0,.583,0.8,0.8,1.7,1.3,1.3,0.0,1.3,2.5,8.4
210,John Henson\hensojo01,C,24,MIL,67,11,1228,5.7,10.1,.566,0.0,0.0,,5.7,10.1,.566,2.3,4.0,.569,3.6,5.5,9.1,1.7,0.8,4.0,2.6,4.5,13.8
211,Roy Hibbert\hibbero01,C,28,IND,76,76,1926,5.9,13.3,.446,0.0,0.0,.000,5.9,13.2,.448,3.1,3.8,.824,2.9,7.2,10.1,1.6,0.3,2.3,2.0,4.0,15.0
212,J.J. Hickson\hicksjj01,C,26,DEN,73,8,1411,5.6,11.7,.475,0.0,0.1,.000,5.6,11.7,.477,3.0,5.1,.577,3.8,7.7,11.5,1.5,0.9,0.9,2.4,3.5,14.1
213,Nenê\hilarne01,PF,32,WAS,67,58,1693,6.5,12.8,.511,0.0,0.1,.200,6.5,12.7,.513,2.6,4.3,.604,1.8,5.5,7.3,2.6,1.4,0.5,2.6,3.8,15.7
214,George Hill\hillge01,PG,28,IND,43,36,1267,7.2,15.2,.477,2.0,5.5,.358,5.3,9.7,.544,3.2,4.1,.790,0.7,4.4,5.1,6.3,1.3,0.4,2.0,3.2,19.7
215,Jordan Hill\hilljo01,C,27,LAL,70,57,1874,6.9,14.9,.459,0.1,0.2,.273,6.8,14.7,.462,2.4,3.2,.738,3.3,7.3,10.7,2.0,0.7,1.0,2.0,3.2,16.2
216,Solomon Hill\hillso01,SF,23,IND,82,78,2381,3.8,9.6,.396,1.0,3.1,.327,2.8,6.4,.430,2.4,2.9,.824,1.1,3.7,4.7,2.8,1.0,0.3,1.7,2.7,11.0
217,Kirk Hinrich\hinriki01,SG,34,CHI,66,22,1610,3.2,8.5,.373,1.3,3.8,.345,1.9,4.8,.394,0.8,1.1,.700,0.4,2.3,2.7,3.3,1.0,0.3,1.6,3.2,8.4
218,Jrue Holiday\holidjr01,PG,24,NOP,40,37,1303,6.6,14.8,.446,1.4,3.7,.378,5.2,11.0,.469,1.8,2.1,.855,0.9,2.8,3.7,7.6,1.7,0.6,2.5,3.0,16.4
219,Justin Holiday\holidju01,SG,25,GSW,59,4,657,5.0,12.9,.387,1.9,6.0,.321,3.1,6.9,.444,2.0,2.5,.822,0.7,3.3,4.0,2.6,2.2,0.7,1.6,3.0,13.9
220,Ryan Hollins\holliry01,C,30,SAC,46,9,441,4.3,6.7,.646,0.0,0.0,,4.3,6.7,.646,2.5,4.4,.574,2.9,5.5,8.4,1.1,0.5,1.6,2.0,5.3,11.2
221,Rodney Hood\hoodro01,SG,22,UTA,50,21,1064,5.2,12.7,.414,2.1,5.8,.365,3.1,6.9,.456,2.1,2.7,.763,0.3,3.7,4.0,2.8,1.0,0.4,1.5,4.0,14.7
222,Al Horford\horfoal01,C,28,ATL,76,76,2318,8.1,15.0,.538,0.2,0.6,.306,7.9,14.4,.547,1.7,2.2,.759,2.0,6.4,8.4,3.8,1.1,1.5,1.6,1.9,18.0
223,Dwight Howard\howardw01,C,29,HOU,41,41,1223,7.4,12.5,.593,0.0,0.1,.500,7.4,12.4,.594,4.2,8.0,.528,3.2,9.4,12.7,1.5,0.8,1.6,3.4,4.0,19.0
224,Lester Hudson\hudsole01,SG,30,LAC,5,0,56,3.9,9.0,.429,1.9,3.9,.500,1.9,5.1,.375,1.9,2.6,.750,0.6,4.5,5.1,3.2,3.9,0.6,1.9,2.6,11.6
225,Robbie Hummel\hummero01,SF,25,MIN,45,4,742,3.8,8.3,.459,0.8,2.5,.314,3.1,5.9,.521,1.2,1.4,.828,1.5,5.0,6.5,1.3,0.8,0.4,0.9,4.2,9.6
226,Kris Humphries\humphkr01,PF,29,WAS,64,17,1345,5.6,11.9,.473,0.0,0.2,.000,5.6,11.8,.481,2.3,3.1,.744,3.2,8.0,11.1,1.5,0.9,0.7,1.2,3.5,13.6
227,Serge Ibaka\ibakase01,PF,25,OKC,64,64,2116,6.4,13.4,.476,1.3,3.5,.376,5.1,9.9,.511,1.6,1.9,.836,2.3,6.2,8.5,0.9,0.5,2.6,1.7,3.3,15.6
228,Andre Iguodala\iguodan01,SF,31,GSW,77,0,2069,4.0,8.6,.466,1.3,3.7,.349,2.7,4.9,.553,1.2,2.0,.596,0.8,3.7,4.5,4.0,1.5,0.4,1.5,1.7,10.5
229,Ersan İlyasova\ilyaser01,PF,27,MIL,58,36,1319,7.2,15.2,.472,2.0,5.2,.389,5.2,10.0,.515,1.9,2.9,.645,2.2,5.4,7.6,1.5,1.0,0.5,1.2,4.1,18.3
230,Joe Ingles\inglejo01,SF,27,UTA,79,32,1673,3.2,7.6,.415,1.5,4.3,.356,1.6,3.3,.493,0.6,0.9,.750,0.5,3.3,3.8,3.9,1.5,0.2,2.1,2.7,8.5
231,Kyrie Irving\irvinky01,PG,22,CLE,75,75,2730,7.6,16.3,.468,2.1,5.0,.415,5.6,11.3,.491,4.2,4.8,.863,0.7,2.4,3.1,5.1,1.5,0.3,2.5,1.9,21.5
232,Jarrett Jack\jackja01,PG,31,BRK,80,27,2241,5.8,13.1,.439,0.6,2.3,.267,5.1,10.8,.477,3.2,3.6,.881,0.3,3.6,3.9,6.0,1.2,0.2,3.1,2.3,15.4
233,Reggie Jackson\jacksre01,PG,24,TOT,77,40,2268,6.9,15.8,.434,1.1,3.8,.299,5.7,12.0,.477,2.9,3.5,.830,0.9,4.3,5.2,7.3,1.0,0.1,3.0,2.7,17.7
233,Reggie Jackson\jacksre01,PG,24,OKC,50,13,1398,6.4,14.8,.432,1.1,4.1,.278,5.3,10.8,.490,2.5,3.0,.861,0.7,4.5,5.2,5.5,1.1,0.1,2.3,2.4,16.5
233,Reggie Jackson\jacksre01,PG,24,DET,27,27,870,7.6,17.4,.436,1.2,3.4,.337,6.4,13.9,.460,3.4,4.3,.796,1.2,4.1,5.2,10.3,0.8,0.2,3.9,3.0,19.7
234,Bernard James\jamesbe01,C,29,DAL,16,2,158,2.7,6.2,.444,0.0,0.0,,2.7,6.2,.444,4.6,5.2,.870,4.1,4.8,8.9,0.9,0.5,3.4,1.4,3.9,10.0
235,LeBron James\jamesle01,SF,30,CLE,69,69,2493,9.0,18.5,.488,1.7,4.9,.354,7.3,13.6,.536,5.4,7.6,.710,0.7,5.3,6.0,7.4,1.6,0.7,3.9,1.9,25.2
236,Al Jefferson\jeffeal01,C,30,CHO,65,61,1992,8.8,18.3,.481,0.0,0.1,.400,8.7,18.2,.482,2.0,3.0,.655,1.8,8.1,9.9,2.0,0.8,1.5,1.2,2.5,19.6
237,Cory Jefferson\jeffeco01,PF,24,BRK,50,1,531,5.1,11.3,.449,0.1,1.0,.133,4.9,10.3,.480,2.1,3.7,.574,3.2,6.6,9.8,1.1,0.7,1.4,1.4,4.1,12.4
238,Richard Jefferson\jefferi01,SF,34,DAL,74,18,1244,4.2,9.4,.444,1.9,4.5,.426,2.3,4.9,.462,2.3,3.3,.684,0.7,4.6,5.3,1.8,0.9,0.3,1.5,3.3,12.5
239,John Jenkins\jenkijo01,SG,23,ATL,24,3,297,5.9,12.0,.495,2.5,6.3,.404,3.4,5.7,.596,1.9,2.3,.842,0.2,4.5,4.7,1.6,1.2,0.0,1.0,1.8,16.4
240,Brandon Jennings\jennibr01,PG,25,DET,41,41,1173,6.7,16.7,.401,2.3,6.5,.360,4.4,10.2,.428,3.7,4.4,.839,0.6,2.5,3.2,8.3,1.4,0.1,2.8,2.0,19.4
241,Jonas Jerebko\jerebjo01,PF,27,TOT,75,0,1230,4.9,11.1,.446,1.6,4.1,.386,3.4,7.0,.481,1.6,1.9,.848,2.7,5.5,8.3,2.1,1.3,0.5,1.3,4.0,13.1
241,Jonas Jerebko\jerebjo01,PF,27,DET,46,0,703,4.7,10.1,.460,1.4,3.9,.368,3.2,6.2,.516,1.6,1.8,.861,2.4,4.9,7.3,2.1,1.4,0.6,1.3,3.9,12.3
241,Jonas Jerebko\jerebjo01,PF,27,BOS,29,0,527,5.3,12.4,.431,1.8,4.4,.406,3.6,8.0,.444,1.7,2.0,.833,3.1,6.4,9.6,2.0,1.3,0.5,1.2,4.0,14.1
242,Grant Jerrett\jerregr01,PF,21,TOT,8,0,51,4.9,18.4,.269,0.7,10.6,.067,4.2,7.8,.545,0.7,0.7,1.000,1.4,4.9,6.4,2.1,1.4,1.4,2.1,7.8,11.3
242,Grant Jerrett\jerregr01,PF,21,OKC,5,0,25,4.3,24.5,.176,1.4,18.7,.077,2.9,5.8,.500,0.0,0.0,,1.4,4.3,5.8,1.4,0.0,2.9,2.9,10.1,10.1
242,Grant Jerrett\jerregr01,PF,21,UTA,3,0,26,5.5,12.5,.444,0.0,2.8,.000,5.5,9.7,.571,1.4,1.4,1.000,1.4,5.5,6.9,2.8,2.8,0.0,1.4,5.5,12.5
243,Amir Johnson\johnsam01,PF,27,TOR,75,72,1979,5.4,9.4,.574,0.3,0.8,.413,5.1,8.6,.590,1.4,2.3,.612,2.9,5.4,8.3,2.1,0.8,1.1,2.0,4.1,12.6
244,Chris Johnson\johnsch04,SF,24,TOT,29,2,526,4.2,10.5,.403,1.9,6.5,.295,2.3,4.0,.576,1.0,1.1,.875,0.5,3.2,3.8,1.0,1.8,0.5,1.0,3.0,11.4
244,Chris Johnson\johnsch04,SF,24,PHI,9,2,187,3.7,11.6,.317,1.9,7.5,.256,1.7,4.0,.429,1.2,1.5,.750,0.6,4.4,5.0,0.6,1.7,1.0,1.7,3.7,10.4
244,Chris Johnson\johnsch04,SF,24,UTA,12,0,211,5.3,10.9,.484,2.2,6.5,.342,3.1,4.4,.692,1.0,1.0,1.000,0.5,2.6,3.1,1.2,2.0,0.0,1.0,3.1,13.8
244,Chris Johnson\johnsch04,SF,24,MIL,8,0,128,3.4,8.4,.400,1.4,5.1,.278,2.0,3.4,.583,0.6,0.6,1.000,0.6,2.5,3.1,1.4,1.4,0.6,0.0,2.0,8.7
245,James Johnson\johnsja01,PF,27,TOR,70,17,1370,6.3,10.6,.589,0.3,1.3,.216,6.0,9.3,.643,1.8,2.7,.657,1.6,5.2,6.8,2.5,1.4,1.8,2.1,4.1,14.6
246,Joe Johnson\johnsjo02,SG,33,BRK,80,80,2791,5.8,13.2,.435,1.6,4.3,.359,4.2,8.9,.472,1.8,2.3,.801,0.7,4.3,5.0,3.8,0.8,0.2,1.8,1.5,14.9
247,Nick Johnson\johnsni01,SG,22,HOU,28,0,262,3.6,10.3,.347,0.7,2.9,.238,2.9,7.4,.389,2.3,3.4,.680,1.8,3.6,5.4,1.5,1.0,0.4,2.6,4.7,10.2
248,Tyler Johnson\johnsty01,SG,22,MIA,32,2,603,4.2,10.0,.419,1.1,2.9,.375,3.1,7.1,.437,1.9,2.8,.681,0.8,4.0,4.8,2.5,2.0,0.5,1.8,2.5,11.3
249,Wesley Johnson\johnswe01,SF,27,LAL,76,59,2245,4.6,11.1,.414,1.5,4.2,.351,3.1,6.9,.451,1.4,1.8,.804,1.1,4.0,5.1,2.0,0.9,0.7,1.4,2.6,12.1
250,Dahntay Jones\jonesda02,SF,34,LAC,33,0,123,1.8,6.1,.286,0.0,1.2,.000,1.8,5.0,.353,2.6,3.2,.818,0.3,2.9,3.2,0.6,0.9,0.0,0.3,6.7,6.1
251,James Jones\jonesja02,SF,34,CLE,57,2,669,4.0,10.8,.368,3.4,9.4,.360,0.6,1.4,.423,2.1,2.5,.848,0.5,2.9,3.3,1.3,0.7,0.4,0.7,3.6,13.5
252,Perry Jones\jonespe01,SF,23,OKC,43,13,631,4.2,10.5,.397,0.8,3.4,.233,3.4,7.1,.476,1.4,2.1,.649,0.3,4.0,4.3,1.0,1.0,0.5,1.4,2.9,10.5
253,Terrence Jones\joneste01,PF,23,HOU,33,24,889,6.4,12.1,.528,0.5,1.5,.351,5.9,10.6,.553,2.3,3.8,.606,3.2,5.8,8.9,1.5,0.7,2.4,1.5,3.2,15.6
254,DeAndre Jordan\jordade01,C,26,LAC,82,82,2820,4.8,6.8,.710,0.0,0.1,.250,4.8,6.8,.713,2.4,6.0,.397,5.1,10.6,15.7,0.8,1.0,2.3,1.4,3.1,12.1
255,Jerome Jordan\jordaje01,C,28,BRK,44,0,383,4.7,8.8,.532,0.0,0.0,,4.7,8.8,.532,3.6,4.1,.864,4.9,5.0,9.9,1.2,0.8,1.4,2.1,5.5,13.0
256,Cory Joseph\josepco01,PG,23,SAS,79,14,1444,5.2,10.2,.504,0.4,1.1,.364,4.8,9.1,.520,2.6,3.6,.734,1.1,3.7,4.8,4.7,1.1,0.4,1.7,2.6,13.3
257,Chris Kaman\kamanch01,C,32,POR,74,13,1398,7.3,14.1,.515,0.0,0.0,,7.3,14.1,.515,1.9,2.6,.706,3.8,8.6,12.5,1.7,0.5,1.4,2.8,3.6,16.4
258,Enes Kanter\kanteen01,C,22,TOT,75,74,2135,8.1,15.6,.519,0.3,0.8,.356,7.9,14.9,.528,3.1,3.9,.782,4.7,6.6,11.3,0.9,0.6,0.5,2.4,3.2,19.6
258,Enes Kanter\kanteen01,C,22,UTA,49,48,1326,7.8,15.8,.491,0.4,1.1,.317,7.4,14.7,.505,2.5,3.2,.788,4.0,6.4,10.4,0.7,0.6,0.4,2.5,3.1,18.4
258,Enes Kanter\kanteen01,C,22,OKC,26,26,809,8.7,15.4,.566,0.1,0.2,.750,8.6,15.2,.564,4.0,5.2,.776,5.8,7.0,12.8,1.3,0.6,0.6,2.3,3.3,21.6
259,Sergey Karasev\karasse01,SG,21,BRK,33,16,555,3.5,8.7,.403,1.0,3.5,.296,2.5,5.2,.475,1.9,2.5,.763,1.4,2.9,4.3,3.0,1.5,0.1,1.6,2.9,9.9
260,Ryan Kelly\kellyry01,PF,23,LAL,52,34,1233,3.0,9.0,.337,1.3,3.9,.336,1.7,5.1,.337,2.3,2.8,.832,0.4,3.9,4.3,2.7,0.9,0.7,1.1,3.4,9.7
261,Michael Kidd-Gilchrist\kiddgmi01,SF,21,CHO,55,52,1587,5.1,10.9,.465,0.0,0.0,,5.1,10.9,.465,3.4,4.9,.701,2.5,7.0,9.4,1.7,0.7,0.9,1.4,2.6,13.6
262,Sean Kilpatrick\kilpase01,SG,25,MIN,4,0,72,3.5,10.0,.350,2.0,6.5,.308,1.5,3.5,.429,2.0,2.0,1.000,0.5,2.5,3.0,2.0,1.5,0.0,1.0,1.5,11.0
263,Andrei Kirilenko\kirilan01,SF,33,BRK,7,0,36,0.0,5.0,.000,0.0,0.0,,0.0,5.0,.000,3.0,4.0,.750,2.0,6.0,8.0,1.0,1.0,0.0,1.0,1.0,3.0
264,Alex Kirk\kirkal01,C,23,CLE,5,0,14,2.6,10.3,.250,0.0,0.0,,2.6,10.3,.250,5.1,5.1,1.000,2.6,0.0,2.6,2.6,0.0,0.0,0.0,2.6,10.3
265,Brandon Knight\knighbr03,PG-SG,23,TOT,63,61,2035,6.6,15.7,.422,2.2,5.7,.389,4.4,10.0,.441,3.4,3.9,.874,0.5,3.8,4.3,5.8,1.6,0.2,3.3,2.0,18.9
265,Brandon Knight\knighbr03,PG,23,MIL,52,52,1688,6.9,15.9,.435,2.2,5.4,.409,4.7,10.5,.448,3.6,4.1,.881,0.6,4.2,4.7,6.0,1.8,0.2,3.5,2.0,19.7
265,Brandon Knight\knighbr03,SG,23,PHO,11,9,347,5.3,14.8,.357,2.2,7.0,.313,3.1,7.9,.395,2.5,3.0,.828,0.2,2.2,2.4,5.1,0.6,0.1,2.4,2.2,15.3
266,Kyle Korver\korveky01,SG,33,ATL,75,75,2418,4.3,8.9,.487,3.3,6.7,.492,1.1,2.2,.470,1.6,1.8,.898,0.2,4.3,4.5,2.9,0.8,0.6,1.6,2.1,13.6
267,Kosta Koufos\koufoko01,C,25,MEM,81,3,1348,4.9,9.6,.508,0.0,0.0,,4.9,9.6,.508,1.5,2.3,.647,3.2,8.1,11.4,1.0,0.8,1.7,1.8,4.0,11.2
268,Ognjen Kuzmić\kuzmiog01,C,24,GSW,16,0,72,4.0,6.0,.667,0.0,0.0,,4.0,6.0,.667,2.0,2.0,1.000,3.5,5.0,8.5,3.0,1.0,0.5,2.5,6.5,10.0
269,Jeremy Lamb\lambje01,SG,22,OKC,47,8,633,5.9,14.2,.416,2.2,6.3,.342,3.8,7.9,.475,2.8,3.1,.891,0.5,5.6,6.1,2.5,1.2,0.3,1.5,3.0,16.8
270,Carl Landry\landrca01,PF,31,SAC,70,15,1192,5.7,11.1,.515,0.0,0.0,,5.7,11.1,.515,3.7,4.5,.820,3.0,5.1,8.1,0.8,0.5,0.5,1.6,4.0,15.2
271,Shane Larkin\larkish01,PG,22,NYK,76,22,1865,3.6,8.3,.433,0.7,2.2,.302,2.9,6.1,.481,1.2,1.5,.782,0.6,2.8,3.4,4.4,1.8,0.2,1.6,2.9,9.1
272,Joffrey Lauvergne\lauvejo01,C,23,DEN,24,1,268,4.8,12.0,.404,0.4,2.1,.188,4.4,9.8,.452,2.4,3.8,.643,3.6,6.7,10.3,1.7,1.1,1.3,3.0,5.8,12.5
273,Zach LaVine\lavinza01,PG,19,MIN,77,40,1902,5.4,12.8,.422,1.1,3.2,.341,4.3,9.7,.449,2.8,3.4,.842,0.5,3.5,4.1,5.2,1.0,0.2,3.7,3.0,14.7
274,Ty Lawson\lawsoty01,PG,27,DEN,75,75,2665,5.5,12.5,.436,0.9,2.8,.341,4.5,9.7,.463,3.6,4.9,.730,0.6,2.6,3.2,9.7,1.2,0.1,2.5,1.7,15.4
275,Ricky Ledo\ledori01,SG,22,TOT,17,0,244,4.7,14.2,.333,1.5,4.0,.370,3.2,10.2,.319,2.4,3.2,.727,2.4,3.0,5.3,2.8,0.9,0.1,3.8,3.1,13.3
275,Ricky Ledo\ledori01,SG,22,DAL,5,0,11,0.0,19.6,.000,0.0,9.8,.000,0.0,9.8,.000,3.3,6.5,.500,3.3,3.3,6.5,3.3,0.0,0.0,6.5,3.3,3.3
275,Ricky Ledo\ledori01,SG,22,NYK,12,0,233,4.9,13.9,.356,1.5,3.7,.417,3.4,10.2,.333,2.3,3.1,.750,2.3,2.9,5.3,2.8,0.9,0.2,3.7,3.1,13.8
276,Courtney Lee\leeco01,SG,29,MEM,77,74,2354,4.4,9.8,.448,1.4,3.4,.402,3.0,6.4,.473,1.7,2.0,.860,0.3,2.4,2.7,2.3,1.1,0.2,1.2,2.0,11.9
277,David Lee\leeda02,PF,31,GSW,49,4,904,6.4,12.5,.511,0.0,0.1,.000,6.4,12.4,.514,2.7,4.1,.654,3.2,7.0,10.2,3.4,1.2,1.0,2.0,3.3,15.5
278,Malcolm Lee\leema01,SG,24,PHI,1,0,2,0.0,18.0,.000,0.0,0.0,,0.0,18.0,.000,0.0,0.0,,0.0,0.0,0.0,0.0,0.0,0.0,0.0,0.0,0.0
279,Alex Len\lenal01,C,21,PHO,69,44,1518,4.2,8.4,.507,0.0,0.1,.333,4.2,8.3,.509,1.7,2.5,.702,3.4,7.4,10.8,0.8,0.8,2.5,1.8,5.1,10.2
280,Kawhi Leonard\leonaka01,SF,23,SAS,64,64,2033,7.0,14.6,.479,1.2,3.4,.349,5.8,11.2,.519,3.6,4.5,.802,1.5,6.7,8.2,2.9,2.6,0.8,1.7,2.3,18.7
281,Meyers Leonard\leoname01,C,22,POR,55,7,847,5.3,10.4,.510,2.0,4.8,.420,3.3,5.7,.586,1.3,1.4,.938,2.0,8.7,10.6,1.4,0.4,0.6,1.7,4.8,13.9
282,Jon Leuer\leuerjo01,PF,25,MEM,63,6,824,5.3,11.9,.443,0.3,1.3,.241,5.0,10.7,.467,1.6,2.6,.627,2.2,6.9,9.0,2.0,0.7,0.4,1.5,3.8,12.5
283,Damian Lillard\lillada01,PG,24,POR,82,82,2925,7.3,16.7,.434,2.4,7.0,.343,4.8,9.7,.500,4.2,4.9,.864,0.6,4.0,4.7,6.2,1.2,0.3,2.7,2.0,21.2
284,Jeremy Lin\linje01,PG,26,LAL,74,30,1907,5.2,12.3,.424,1.2,3.3,.369,4.0,9.0,.444,4.0,5.1,.795,0.5,3.2,3.7,6.4,1.5,0.6,3.1,3.6,15.7
285,Shaun Livingston\livinsh01,PG,29,GSW,78,2,1468,4.9,9.7,.500,0.0,0.0,.000,4.9,9.7,.503,1.6,2.2,.714,1.1,3.4,4.5,6.4,1.2,0.5,2.5,2.7,11.3
286,Brook Lopez\lopezbr01,C,26,BRK,72,44,2100,8.7,16.9,.513,0.0,0.2,.100,8.7,16.7,.517,3.8,4.7,.814,3.7,5.5,9.2,0.9,0.7,2.2,1.8,3.5,21.2
287,Robin Lopez\lopezro01,C,26,POR,59,59,1638,5.1,9.6,.535,0.0,0.0,.000,5.1,9.6,.537,2.2,2.8,.772,4.2,4.5,8.7,1.2,0.4,1.8,1.6,2.7,12.4
288,Kevin Love\loveke01,PF,26,CLE,75,75,2532,5.9,13.5,.434,2.0,5.6,.367,3.8,8.0,.480,3.7,4.6,.804,2.0,8.4,10.4,2.4,0.7,0.6,1.7,2.0,17.5
289,Kyle Lowry\lowryky01,PG,28,TOR,70,70,2414,6.4,15.6,.412,2.0,5.8,.338,4.4,9.7,.457,3.8,4.7,.808,0.8,4.1,4.9,7.1,1.6,0.2,2.6,3.2,18.6
290,Kalin Lucas\lucaska01,PG,25,MEM,1,0,6,0.0,6.0,.000,0.0,0.0,,0.0,6.0,.000,0.0,0.0,,0.0,0.0,0.0,0.0,6.0,0.0,0.0,6.0,0.0
291,John Lucas III\lucasjo02,PG,32,DET,21,0,272,5.6,13.8,.404,1.2,3.8,.310,4.4,9.9,.440,0.7,0.7,1.000,0.5,1.6,2.1,7.9,1.1,0.0,2.1,2.4,13.0
292,Shelvin Mack\macksh01,PG,24,ATL,55,0,833,5.1,12.6,.401,1.7,5.5,.315,3.3,7.1,.467,1.1,1.3,.806,0.3,3.1,3.4,6.7,1.3,0.1,2.1,1.4,12.9
293,Ian Mahinmi\mahinia01,C,28,IND,61,6,1146,3.7,6.7,.552,0.0,0.0,,3.7,6.7,.552,1.0,3.2,.304,3.3,7.9,11.2,1.0,0.9,1.4,1.9,5.4,8.3
294,Devyn Marble\marblde01,SG,22,ORL,16,7,208,2.4,7.6,.318,0.7,3.8,.182,1.7,3.8,.455,0.9,2.8,.313,0.9,4.5,5.4,2.9,1.6,0.3,1.6,2.4,6.4
295,Shawn Marion\mariosh01,SF,36,CLE,57,24,1101,3.9,8.7,.446,0.4,1.5,.261,3.5,7.2,.484,0.9,1.1,.765,2.1,4.5,6.6,1.7,0.9,0.9,1.1,1.9,9.0
296,Kendall Marshall\marshke01,PG,23,MIL,28,3,417,4.0,8.7,.455,1.6,4.0,.391,2.4,4.7,.509,0.7,0.8,.889,0.2,2.2,2.4,7.4,1.8,0.0,3.0,2.2,10.2
297,Cartier Martin\martica01,SF,30,DET,23,0,198,2.7,9.6,.283,1.1,6.0,.182,1.6,3.6,.450,0.0,0.0,,0.0,3.6,3.6,2.0,0.5,0.2,0.9,3.6,6.5
298,Kenyon Martin\martike01,PF,37,MIL,11,0,104,3.1,7.6,.409,0.0,0.0,,3.1,7.6,.409,0.7,0.7,1.000,2.1,4.5,6.6,1.7,1.7,2.1,1.0,4.5,6.9
299,Kevin Martin\martike02,SG,31,MIN,39,36,1302,7.4,17.3,.427,2.1,5.3,.393,5.3,12.0,.442,4.7,5.3,.881,0.5,3.4,3.9,2.5,0.9,0.0,2.1,2.1,21.5
300,Wesley Matthews\matthwe02,SG,28,POR,60,60,2024,6.0,13.4,.448,3.1,7.9,.389,2.9,5.5,.534,1.9,2.6,.752,0.7,3.3,3.9,2.5,1.4,0.2,1.4,2.3,17.0
301,Jason Maxiell\maxieja01,PF,31,CHO,61,0,878,3.3,7.9,.422,0.0,0.0,,3.3,7.9,.422,1.7,2.9,.577,3.5,4.8,8.3,0.8,0.7,1.8,1.2,3.9,8.3
302,O.J. Mayo\mayooj01,SG,27,MIL,71,15,1697,6.3,14.9,.422,2.1,5.9,.357,4.2,9.0,.465,2.4,2.9,.827,0.6,3.3,4.0,4.2,1.2,0.4,2.7,3.5,17.1
303,Luc Mbah a Moute\mbahalu01,PF,28,PHI,67,61,1916,4.7,11.9,.395,1.2,3.8,.307,3.6,8.2,.435,1.8,3.1,.589,1.5,4.6,6.2,2.0,1.5,0.4,1.9,2.0,12.4
304,James Michael McAdoo\mcadoja01,PF,22,GSW,15,0,137,6.3,11.6,.545,0.0,0.0,,6.3,11.6,.545,3.7,6.6,.560,3.9,5.8,9.7,0.5,1.3,2.4,1.6,5.5,16.3
305,Ray McCallum\mccalra01,PG,23,SAC,68,30,1436,5.2,11.8,.438,0.9,2.8,.306,4.3,9.0,.479,1.4,2.1,.679,1.3,3.2,4.5,4.7,1.1,0.3,2.1,2.3,12.6
306,CJ McCollum\mccolcj01,SG,23,POR,62,3,973,5.9,13.5,.436,2.0,5.1,.396,3.8,8.4,.460,1.9,2.7,.699,0.5,2.8,3.4,2.4,1.6,0.3,1.8,3.0,15.7
307,K.J. McDaniels\mcdankj01,SG,21,TOT,62,15,1352,4.6,11.6,.396,1.1,4.0,.287,3.4,7.6,.454,2.7,3.5,.752,1.7,3.6,5.3,1.9,1.2,1.9,2.8,3.4,13.0
307,K.J. McDaniels\mcdankj01,SG,21,PHI,52,15,1319,4.6,11.4,.399,1.2,4.0,.293,3.4,7.4,.456,2.7,3.6,.756,1.7,3.6,5.3,1.9,1.2,1.9,2.8,3.3,13.0
307,K.J. McDaniels\mcdankj01,SG,21,HOU,10,0,33,5.5,16.4,.333,0.0,3.3,.000,5.5,13.1,.417,1.1,2.2,.500,1.1,4.4,5.5,2.2,0.0,2.2,1.1,5.5,12.0
308,Doug McDermott\mcderdo01,SF,23,CHI,36,0,321,4.8,12.0,.402,1.5,4.6,.317,3.4,7.4,.455,1.1,1.7,.667,0.7,4.1,4.8,0.7,0.4,0.1,1.9,3.3,12.2
309,Mitch McGary\mcgarmi01,PF,22,OKC,32,2,485,6.5,12.2,.533,0.0,0.1,.000,6.5,12.1,.540,1.9,3.0,.625,3.9,8.3,12.2,1.0,1.2,1.2,2.3,5.3,14.9
310,JaVale McGee\mcgeeja01,C,27,TOT,23,0,256,5.9,11.1,.532,0.0,0.0,,5.9,11.1,.532,3.1,4.6,.667,2.5,6.0,8.6,0.4,0.3,2.8,2.5,4.2,14.9
310,JaVale McGee\mcgeeja01,C,27,DEN,17,0,195,6.3,11.3,.557,0.0,0.0,,6.3,11.3,.557,3.7,5.4,.690,2.6,6.3,8.9,0.2,0.4,3.5,2.4,5.2,16.2
310,JaVale McGee\mcgeeja01,C,27,PHI,6,0,61,4.7,10.6,.444,0.0,0.0,,4.7,10.6,.444,1.2,2.4,.500,2.4,5.3,7.7,1.2,0.0,0.6,3.0,1.2,10.6
311,Ben McLemore\mclembe01,SG,21,SAC,82,82,2670,4.9,11.2,.437,1.9,5.3,.358,3.0,5.9,.507,1.8,2.2,.813,0.4,2.8,3.2,1.9,1.0,0.3,1.9,3.0,13.4
312,Jerel McNeal\mcneaje01,PG,27,PHO,6,0,36,3.0,11.0,.273,1.0,2.0,.500,2.0,9.0,.222,2.0,2.0,1.000,0.0,3.0,3.0,2.0,3.0,1.0,5.0,5.0,9.0
313,Josh McRoberts\mcrobjo01,PF,27,MIA,17,4,296,3.4,6.4,.528,1.0,2.3,.421,2.4,4.1,.588,1.0,1.6,.615,0.9,4.6,5.5,4.0,1.5,0.4,2.7,5.0,8.8
314,Jodie Meeks\meeksjo01,SG,27,DET,60,0,1462,5.5,13.1,.416,1.8,5.2,.349,3.6,7.9,.460,3.6,3.9,.906,0.3,2.3,2.6,1.9,1.5,0.1,1.4,1.9,16.3
315,Gal Mekel\mekelga01,PG,26,NOP,4,0,43,2.5,16.7,.150,0.0,2.5,.000,2.5,14.2,.176,0.0,0.0,,0.0,0.8,0.8,10.9,1.7,0.0,1.7,0.8,5.0
316,Khris Middleton\middlkh01,SF,23,MIL,79,58,2378,6.1,13.2,.467,1.7,4.1,.407,4.5,9.1,.494,2.0,2.4,.859,0.7,4.5,5.3,2.8,1.8,0.2,1.7,2.8,16.0
317,C.J. Miles\milescj01,SG,27,IND,70,40,1841,6.4,16.2,.398,3.0,8.7,.345,3.4,7.5,.459,2.5,3.1,.807,0.4,3.8,4.2,1.5,1.2,0.5,1.4,2.6,18.4
318,Andre Miller\millean02,PG,38,TOT,81,0,1253,4.2,8.3,.500,0.2,1.0,.206,4.0,7.4,.539,1.7,2.2,.753,1.1,3.3,4.4,8.2,0.9,0.2,3.0,3.0,10.2
318,Andre Miller\millean02,PG,38,WAS,51,0,631,4.4,8.1,.542,0.1,0.5,.125,4.3,7.6,.567,1.6,2.2,.718,1.2,3.2,4.4,8.2,0.8,0.1,2.6,3.2,10.4
318,Andre Miller\millean02,PG,38,SAC,30,0,622,3.9,8.6,.459,0.3,1.5,.231,3.6,7.1,.508,1.7,2.2,.789,0.9,3.5,4.4,8.2,1.0,0.2,3.4,2.7,10.0
319,Darius Miller\milleda01,SF,24,NOP,5,1,43,0.8,5.9,.143,0.0,0.8,.000,0.8,5.0,.167,0.0,0.0,,0.0,0.8,0.8,1.7,0.8,0.0,0.8,6.7,1.7
320,Mike Miller\millemi01,SF,34,CLE,52,15,701,1.9,5.9,.325,1.6,5.0,.327,0.3,0.8,.313,0.2,0.2,.750,0.2,4.5,4.7,2.4,0.7,0.2,1.2,3.8,5.6
321,Quincy Miller\millequ01,PF,22,TOT,10,0,119,2.7,11.5,.237,0.9,5.4,.167,1.8,6.1,.300,2.4,3.3,.727,1.2,4.8,6.1,2.4,2.1,1.5,1.5,2.7,8.8
321,Quincy Miller\millequ01,PF,22,SAC,6,0,61,2.4,10.6,.222,0.6,4.1,.143,1.8,6.5,.273,4.7,6.5,.727,1.2,5.9,7.1,1.8,3.5,1.8,1.8,2.4,10.0
321,Quincy Miller\millequ01,PF,22,DET,4,0,58,3.1,12.4,.250,1.2,6.8,.182,1.9,5.6,.333,0.0,0.0,,1.2,3.7,5.0,3.1,0.6,1.2,1.2,3.1,7.4
322,Patty Mills\millspa02,PG,26,SAS,51,0,801,5.8,15.1,.381,2.8,8.2,.341,3.0,6.9,.429,1.5,1.8,.825,0.9,2.4,3.4,3.9,1.3,0.1,1.6,2.6,15.8
323,Elijah Millsap\millsel01,SG,27,UTA,47,5,924,3.2,9.3,.340,1.1,3.5,.311,2.1,5.8,.358,2.3,3.4,.674,1.1,4.8,5.8,2.3,2.2,0.6,2.6,4.8,9.7
324,Paul Millsap\millspa01,PF,29,ATL,73,73,2390,6.7,14.0,.476,1.2,3.3,.356,5.5,10.8,.513,3.8,5.1,.757,2.1,6.5,8.6,3.4,2.0,1.0,2.5,3.0,18.3
325,Nikola Mirotić\mirotni01,PF,23,CHI,82,3,1654,5.5,13.6,.405,2.2,6.8,.316,3.4,6.8,.495,5.0,6.2,.803,1.4,7.4,8.8,2.1,1.2,1.2,1.9,3.7,18.1
326,Nazr Mohammed\mohamna01,C,37,CHI,23,0,128,3.7,8.4,.433,0.0,0.0,,3.7,8.4,.433,0.3,0.8,.333,3.1,7.6,10.7,0.8,1.1,1.4,2.0,4.5,7.6
327,Greg Monroe\monrogr01,PF,24,DET,69,57,2137,7.1,14.4,.496,0.0,0.0,,7.1,14.4,.496,4.2,5.7,.750,3.9,8.0,11.9,2.4,1.3,0.6,2.5,2.5,18.5
328,E'Twaun Moore\mooreet01,SG,25,CHI,56,0,504,4.4,9.9,.446,0.9,2.7,.342,3.5,7.2,.485,0.9,1.4,.600,0.9,2.4,3.3,2.4,1.4,0.4,1.0,3.2,10.6
329,Eric Moreland\moreler01,PF,23,SAC,3,0,2,18.0,18.0,1.000,0.0,0.0,,18.0,18.0,1.000,0.0,0.0,,0.0,18.0,18.0,0.0,0.0,0.0,0.0,18.0,36.0
330,Darius Morris\morrida01,PG,24,BRK,38,0,299,4.3,12.8,.340,0.8,4.0,.212,3.5,8.8,.397,0.5,1.1,.444,0.8,2.4,3.3,5.8,1.1,0.0,2.5,2.4,10.0
331,Marcus Morris\morrima03,PF,25,PHO,81,35,2045,5.8,13.4,.434,2.0,5.5,.358,3.9,7.9,.487,1.2,2.0,.628,1.3,5.5,6.8,2.3,1.1,0.3,1.3,3.3,14.9
332,Markieff Morris\morrima02,PF,25,PHO,82,82,2581,7.1,15.3,.465,0.8,2.5,.318,6.3,12.8,.494,2.5,3.2,.763,1.5,5.5,7.1,2.7,1.4,0.5,2.4,3.4,17.5
333,Anthony Morrow\morroan01,SG,29,OKC,74,0,1806,5.7,12.3,.463,2.8,6.5,.434,2.9,5.8,.497,1.6,1.8,.888,0.8,3.1,3.9,1.2,1.1,0.2,0.8,2.7,15.7
334,Donatas Motiejūnas\motiedo01,PF,24,HOU,71,62,2037,6.2,12.4,.504,0.9,2.4,.368,5.4,10.0,.536,1.8,2.9,.602,2.4,5.0,7.4,2.3,1.0,0.6,2.2,3.6,15.1
335,Timofey Mozgov\mozgoti01,C,28,TOT,81,80,2045,5.5,10.0,.555,0.0,0.1,.333,5.5,9.9,.557,2.7,3.8,.718,3.6,6.8,10.4,1.0,0.6,1.7,2.0,4.0,13.8
335,Timofey Mozgov\mozgoti01,C,28,DEN,35,35,897,4.7,9.3,.504,0.1,0.2,.333,4.6,9.1,.509,2.5,3.5,.733,3.7,7.3,10.9,0.6,0.6,1.6,1.9,4.6,12.0
335,Timofey Mozgov\mozgoti01,C,28,CLE,46,45,1148,6.2,10.5,.590,0.0,0.0,,6.2,10.5,.590,2.9,4.1,.708,3.5,6.5,10.0,1.2,0.6,1.8,2.2,3.5,15.2
336,Shabazz Muhammad\muhamsh01,SG,22,MIN,38,13,866,8.1,16.5,.489,0.8,2.1,.392,7.2,14.4,.503,4.3,6.0,.717,2.6,3.8,6.4,1.8,0.7,0.3,1.5,2.0,21.3
337,Toure' Murry\murryto01,SG-PG,25,TOT,5,0,18,4.0,10.0,.400,0.0,0.0,,4.0,10.0,.400,4.0,4.0,1.000,2.0,0.0,2.0,2.0,2.0,0.0,8.0,4.0,12.0
337,Toure' Murry\murryto01,PG,25,UTA,1,0,1,0.0,36.0,.000,0.0,0.0,,0.0,36.0,.000,0.0,0.0,,0.0,0.0,0.0,0.0,0.0,0.0,0.0,0.0,0.0
337,Toure' Murry\murryto01,SG,25,WAS,4,0,17,4.2,8.5,.500,0.0,0.0,,4.2,8.5,.500,4.2,4.2,1.000,2.1,0.0,2.1,2.1,2.1,0.0,8.5,4.2,12.7
338,Mike Muscala\muscami01,PF,23,ATL,40,8,502,6.0,10.8,.550,0.6,1.6,.409,5.3,9.3,.574,1.6,1.8,.880,3.7,4.8,8.5,1.8,1.1,1.4,1.5,3.7,14.1
339,Shabazz Napier\napiesh01,PG,23,MIA,51,10,1012,3.1,8.1,.382,1.5,4.2,.364,1.6,3.9,.400,1.6,2.0,.786,0.6,3.4,4.0,4.6,1.4,0.1,2.9,2.7,9.3
340,Gary Neal\nealga01,SG,30,TOT,54,1,1193,5.7,15.2,.374,1.5,4.9,.305,4.2,10.2,.407,3.5,4.1,.867,0.4,3.5,3.9,3.0,0.7,0.0,2.0,2.7,16.4
340,Gary Neal\nealga01,SG,30,CHO,43,0,931,5.5,15.4,.359,1.5,5.1,.293,4.0,10.2,.392,3.4,3.9,.863,0.5,3.1,3.6,3.1,0.6,0.0,2.1,2.7,16.0
340,Gary Neal\nealga01,SG,30,MIN,11,1,262,6.2,14.4,.429,1.5,4.3,.355,4.7,10.2,.459,4.0,4.5,.879,0.0,4.8,4.8,2.7,1.0,0.0,1.4,2.5,17.9
341,Jameer Nelson\nelsoja01,PG,32,TOT,63,29,1407,5.2,12.9,.407,2.3,6.6,.345,3.0,6.3,.472,0.6,0.9,.667,0.8,2.9,3.7,6.5,1.2,0.2,2.8,3.5,13.4
341,Jameer Nelson\nelsoja01,PG,32,DAL,23,23,584,3.8,10.0,.374,2.3,6.3,.369,1.4,3.7,.383,0.4,0.5,.875,0.9,3.0,3.9,5.9,0.9,0.1,2.4,3.3,10.3
341,Jameer Nelson\nelsoja01,PG,32,BOS,6,1,121,2.7,12.2,.220,1.5,7.4,.200,1.2,4.8,.250,1.8,2.7,.667,0.9,4.2,5.1,9.8,2.1,0.0,2.7,3.9,8.6
341,Jameer Nelson\nelsoja01,PG,32,DEN,34,5,702,6.9,15.4,.450,2.4,6.7,.354,4.6,8.7,.524,0.6,1.0,.579,0.8,2.6,3.4,6.4,1.3,0.2,3.1,3.6,16.8
342,Andrew Nicholson\nichoan01,PF,25,ORL,40,3,492,6.1,13.9,.437,1.0,3.0,.317,5.1,10.9,.470,1.1,1.8,.600,1.2,4.8,6.0,1.6,0.4,0.9,1.8,3.7,14.2
343,Joakim Noah\noahjo01,C,29,CHI,67,67,2049,3.3,7.5,.445,0.0,0.0,.000,3.3,7.5,.447,1.8,3.1,.603,3.8,7.5,11.3,5.5,0.8,1.3,2.2,3.6,8.5
344,Nerlens Noel\noelne01,C,20,PHI,75,71,2311,4.7,10.2,.462,0.0,0.0,,4.7,10.2,.462,2.2,3.6,.609,2.9,6.6,9.5,2.0,2.1,2.2,2.3,3.2,11.6
345,Lucas Nogueira\noguelu01,C,22,TOR,6,0,23,3.1,12.5,.250,0.0,0.0,,3.1,12.5,.250,3.1,6.3,.500,3.1,14.1,17.2,1.6,3.1,0.0,3.1,9.4,9.4
346,Steve Novak\novakst01,SF-PF,31,TOT,35,0,197,4.0,10.2,.393,3.5,8.8,.396,0.5,1.5,.375,0.0,0.4,.000,0.4,3.7,4.0,2.0,0.0,0.4,0.9,4.2,11.5
346,Steve Novak\novakst01,SF,31,UTA,22,0,109,5.3,11.6,.457,5.3,10.9,.485,0.0,0.7,.000,0.0,0.7,.000,0.3,5.0,5.3,2.0,0.0,0.3,1.0,4.3,15.9
346,Steve Novak\novakst01,PF,31,OKC,13,0,88,2.5,8.6,.286,1.2,6.1,.200,1.2,2.5,.500,0.0,0.0,,0.4,2.0,2.5,2.0,0.0,0.4,0.8,4.1,6.1
347,Dirk Nowitzki\nowitdi01,PF,36,DAL,77,77,2282,7.7,16.8,.459,1.6,4.3,.380,6.0,12.4,.486,4.0,4.6,.882,0.7,6.5,7.2,2.3,0.6,0.5,1.3,2.5,21.0
348,Jusuf Nurkić\nurkiju01,C,20,DEN,62,27,1103,5.6,12.5,.446,0.0,0.1,.000,5.6,12.4,.449,2.7,4.3,.636,4.1,8.4,12.5,1.6,1.7,2.2,2.8,6.8,13.9
349,Johnny O'Bryant\obryajo01,PF,21,MIL,34,15,368,4.3,11.7,.367,0.0,0.0,,4.3,11.7,.367,1.2,2.6,.444,2.5,3.7,6.3,1.7,0.5,0.4,2.4,4.3,9.8
350,Kyle O'Quinn\oquinky01,PF,24,ORL,51,17,824,5.2,10.6,.492,0.5,1.9,.279,4.7,8.7,.538,1.9,2.5,.772,2.0,6.7,8.7,2.6,1.4,1.7,2.4,4.8,12.8
351,Victor Oladipo\oladivi01,SG,22,ORL,72,71,2573,6.6,15.2,.436,1.2,3.5,.339,5.4,11.7,.464,3.7,4.5,.819,0.7,3.5,4.2,4.1,1.7,0.3,2.9,2.6,18.1
352,Kelly Olynyk\olynyke01,C,23,BOS,64,13,1423,6.3,13.4,.475,1.5,4.4,.349,4.8,8.9,.538,2.4,3.4,.684,2.3,5.3,7.7,2.8,1.6,1.0,2.5,5.4,16.6
353,Arinze Onuaku\onuakar01,C,27,MIN,6,1,68,6.4,7.4,.857,0.0,0.0,,6.4,7.4,.857,1.6,4.2,.375,3.7,7.4,11.1,2.1,0.5,1.6,1.1,3.2,14.3
354,Zaza Pachulia\pachuza01,C,30,MIL,73,45,1730,5.0,11.0,.454,0.0,0.1,.000,5.0,10.9,.456,2.6,3.3,.788,4.1,6.3,10.4,3.7,1.7,0.4,2.8,3.5,12.6
355,Kostas Papanikolaou\papanko01,SF,24,HOU,43,1,795,3.1,8.9,.350,1.4,4.8,.292,1.7,4.1,.418,0.6,0.8,.722,1.8,3.6,5.3,3.8,1.3,0.6,2.5,3.2,8.2
356,Jannero Pargo\pargoja01,PG,35,CHO,9,0,73,7.4,17.3,.429,4.4,10.8,.409,3.0,6.4,.462,1.0,1.0,1.000,0.0,1.5,1.5,3.9,0.0,0.0,1.5,3.9,20.2
357,Jabari Parker\parkeja01,PF,19,MIL,25,25,738,6.3,12.8,.490,0.2,0.8,.250,6.1,12.0,.506,2.2,3.2,.697,2.4,4.3,6.7,2.0,1.5,0.2,2.3,2.0,15.0
358,Tony Parker\parketo01,PG,32,SAS,68,68,1953,7.4,15.3,.486,0.7,1.6,.427,6.7,13.7,.493,2.4,3.1,.783,0.3,2.1,2.4,6.2,0.8,0.0,2.7,2.0,18.0
359,Chandler Parsons\parsoch01,SF,26,DAL,66,66,2186,6.3,13.7,.462,2.2,5.7,.380,4.1,7.9,.521,2.3,3.2,.720,1.1,4.3,5.3,2.7,1.1,0.3,1.6,2.3,17.1
360,Patrick Patterson\pattepa01,PF,25,TOR,81,4,2156,4.0,8.9,.449,1.8,4.7,.371,2.3,4.2,.536,1.1,1.3,.788,2.1,5.1,7.2,2.6,1.0,0.7,0.9,2.5,10.8
361,Chris Paul\paulch01,PG,29,LAC,82,82,2857,7.2,14.7,.485,1.8,4.4,.398,5.4,10.3,.523,3.6,4.0,.900,0.7,4.1,4.7,10.6,2.0,0.2,2.4,2.6,19.7
362,Adreian Payne\paynead01,PF,23,TOT,32,22,739,4.4,10.7,.414,0.0,0.4,.111,4.4,10.3,.427,1.5,2.2,.652,2.3,5.6,7.9,1.5,0.9,0.4,2.1,4.3,10.4
362,Adreian Payne\paynead01,PF,23,ATL,3,0,19,3.8,13.3,.286,0.0,1.9,.000,3.8,11.4,.333,1.9,3.8,.500,1.9,5.7,7.6,0.0,1.9,0.0,0.0,7.6,9.5
362,Adreian Payne\paynead01,PF,23,MIN,29,22,720,4.4,10.6,.418,0.0,0.4,.125,4.4,10.2,.429,1.4,2.2,.659,2.3,5.5,7.9,1.5,0.9,0.5,2.2,4.2,10.4
363,Elfrid Payton\paytoel01,PG,20,ORL,82,63,2489,4.4,10.2,.425,0.2,0.6,.262,4.2,9.6,.435,1.7,3.1,.551,1.5,3.5,5.0,7.7,2.1,0.3,2.9,2.8,10.6
364,Nikola Peković\pekovni01,C,29,MIN,31,29,815,6.1,14.5,.424,0.0,0.0,,6.1,14.5,.424,4.8,5.7,.837,3.9,6.4,10.3,1.2,0.8,0.5,1.9,2.6,17.1
365,Kendrick Perkins\perkike01,C,30,TOT,68,3,1148,3.2,7.1,.449,0.0,0.0,.000,3.2,7.1,.451,1.3,2.6,.506,2.9,7.2,10.0,1.6,0.5,1.3,3.0,5.1,7.7
365,Kendrick Perkins\perkike01,C,30,OKC,51,3,981,3.0,6.8,.441,0.0,0.0,.000,3.0,6.8,.443,1.4,2.8,.507,2.9,7.3,10.2,1.6,0.5,1.4,2.7,5.0,7.4
365,Kendrick Perkins\perkike01,C,30,CLE,17,0,167,4.3,8.8,.488,0.0,0.0,,4.3,8.8,.488,0.9,1.7,.500,2.4,6.5,8.8,1.7,0.4,0.9,4.5,5.8,9.5
366,Paul Pierce\piercpa01,SF,37,WAS,73,73,1914,5.5,12.3,.447,2.2,5.7,.389,3.3,6.6,.496,3.1,3.9,.781,0.8,4.7,5.5,2.7,0.9,0.5,1.7,3.0,16.3
367,Mason Plumlee\plumlma01,C,24,BRK,82,45,1743,5.8,10.1,.573,0.0,0.1,.000,5.8,10.0,.576,3.2,6.5,.495,3.6,7.0,10.6,1.5,1.3,1.3,2.2,4.3,14.8
368,Miles Plumlee\plumlmi01,C,26,TOT,73,28,1194,4.1,7.7,.535,0.0,0.0,,4.1,7.7,.535,0.7,1.4,.478,3.4,6.3,9.6,1.0,1.2,2.0,1.5,3.3,8.9
368,Miles Plumlee\plumlmi01,C,26,PHO,54,28,1005,3.8,7.0,.549,0.0,0.0,,3.8,7.0,.549,0.7,1.4,.500,3.4,6.4,9.8,1.0,1.3,2.0,1.6,3.5,8.3
368,Miles Plumlee\plumlmi01,C,26,MIL,19,0,189,5.5,11.2,.492,0.0,0.0,,5.5,11.2,.492,0.6,1.5,.375,3.2,5.5,8.8,1.3,1.1,2.1,1.1,2.3,11.6
369,Quincy Pondexter\pondequ01,SF-SG,26,TOT,75,30,1793,3.8,9.0,.421,1.8,4.9,.373,1.9,4.1,.478,1.4,1.9,.740,1.1,2.9,3.9,1.9,0.4,0.5,1.0,3.0,10.8
369,Quincy Pondexter\pondequ01,SG,26,MEM,30,2,540,3.2,9.0,.356,1.1,4.9,.233,2.1,4.1,.500,1.4,2.0,.700,1.3,2.5,3.8,1.9,0.3,0.3,0.7,3.1,8.9
369,Quincy Pondexter\pondequ01,SF,26,NOP,45,28,1253,4.0,9.0,.449,2.1,4.9,.433,1.9,4.1,.468,1.4,1.9,.758,0.9,3.0,4.0,1.9,0.4,0.5,1.2,3.0,11.6
370,Otto Porter\porteot01,SF,21,WAS,74,13,1432,4.4,9.8,.450,0.9,2.6,.337,3.5,7.2,.491,1.5,2.0,.734,1.8,3.8,5.6,1.6,1.1,0.8,1.3,2.4,11.2
371,Dwight Powell\poweldw01,PF,23,TOT,29,0,236,4.7,10.2,.463,0.5,1.7,.273,4.3,8.5,.500,3.8,5.0,.758,2.7,4.9,7.6,1.4,1.4,0.9,1.7,6.1,13.7
371,Dwight Powell\poweldw01,PF,23,BOS,5,0,9,16.0,20.0,.800,0.0,0.0,,16.0,20.0,.800,4.0,8.0,.500,0.0,4.0,4.0,0.0,8.0,0.0,8.0,4.0,36.0
371,Dwight Powell\poweldw01,PF,23,DAL,24,0,227,4.3,9.8,.435,0.5,1.7,.273,3.8,8.1,.471,3.8,4.9,.774,2.9,4.9,7.8,1.4,1.1,1.0,1.4,6.2,12.8
372,Phil Pressey\pressph01,PG,23,BOS,50,0,600,3.8,10.4,.368,1.0,3.9,.246,2.9,6.5,.440,2.0,2.9,.673,0.8,4.0,4.8,7.0,1.8,0.4,2.5,3.2,10.6
373,A.J. Price\priceaj01,PG,28,TOT,26,0,324,5.7,15.2,.372,1.7,6.3,.263,4.0,8.9,.450,1.8,2.7,.667,0.7,2.9,3.6,5.1,0.8,0.0,1.6,1.7,14.8
373,A.J. Price\priceaj01,PG,28,IND,10,0,193,7.3,16.6,.438,2.8,7.3,.385,4.5,9.3,.480,2.2,3.4,.667,0.4,2.2,2.6,5.0,0.7,0.0,1.9,1.7,19.6
373,A.J. Price\priceaj01,PG,28,CLE,11,0,87,3.7,14.1,.265,0.0,4.6,.000,3.7,9.5,.391,1.7,2.5,.667,1.7,4.6,6.2,5.4,1.2,0.0,1.2,0.4,9.1
373,A.J. Price\priceaj01,PG,28,PHO,5,0,44,2.5,11.5,.214,0.0,5.7,.000,2.5,5.7,.429,0.0,0.0,,0.0,2.5,2.5,4.9,0.0,0.0,0.8,4.1,4.9
374,Ronnie Price\pricero01,PG,31,LAL,43,20,982,2.8,8.2,.345,1.1,4.0,.284,1.7,4.2,.404,1.3,1.6,.800,0.7,1.8,2.5,6.0,2.5,0.1,1.9,4.3,8.1
375,Pablo Prigioni\prigipa01,PG,37,TOT,67,3,1197,2.7,6.9,.399,1.7,5.0,.343,1.0,1.9,.548,1.1,1.2,.854,0.9,2.7,3.6,5.1,2.4,0.0,1.9,2.6,8.2
375,Pablo Prigioni\prigipa01,PG,37,NYK,43,3,795,3.1,7.3,.422,1.9,5.2,.374,1.1,2.1,.543,1.0,1.2,.846,0.8,2.8,3.6,4.7,2.4,0.0,2.1,2.4,9.1
375,Pablo Prigioni\prigipa01,PG,37,HOU,24,0,402,2.1,6.0,.343,1.3,4.6,.275,0.8,1.4,.563,1.2,1.3,.867,1.1,2.4,3.5,6.0,2.4,0.0,1.3,3.1,6.5
376,Tayshaun Prince\princta01,SF,34,TOT,58,16,1397,4.6,10.4,.440,0.8,1.7,.463,3.8,8.6,.436,1.3,1.7,.754,1.3,4.1,5.4,2.4,0.7,0.4,0.9,1.4,11.2
376,Tayshaun Prince\princta01,SF,34,MEM,26,9,628,4.3,10.5,.410,0.9,1.9,.455,3.4,8.6,.400,1.4,1.7,.833,1.2,3.6,4.8,2.1,0.5,0.3,0.9,1.3,10.9
376,Tayshaun Prince\princta01,SF,34,BOS,9,0,198,6.0,10.7,.559,0.9,1.5,.625,5.1,9.3,.549,0.9,1.1,.833,1.1,4.4,5.5,3.3,0.9,0.4,0.7,1.3,13.8
376,Tayshaun Prince\princta01,SF,34,DET,23,7,571,4.4,10.1,.431,0.7,1.6,.423,3.7,8.4,.433,1.2,1.8,.655,1.6,4.5,6.1,2.4,0.9,0.5,1.0,1.6,10.6
377,Miroslav Raduljica\radulmi01,C,27,MIN,5,0,23,4.7,12.5,.375,0.0,0.0,,4.7,12.5,.375,3.1,3.1,1.000,3.1,4.7,7.8,0.0,1.6,0.0,3.1,12.5,12.5
378,Julius Randle\randlju01,PF,20,LAL,1,0,14,2.6,7.7,.333,0.0,0.0,,2.6,7.7,.333,0.0,5.1,.000,0.0,0.0,0.0,0.0,0.0,0.0,2.6,2.6,5.1
379,Shavlik Randolph\randosh01,PF,31,TOT,21,0,126,2.6,10.0,.257,0.0,1.4,.000,2.6,8.6,.300,1.7,3.4,.500,4.6,6.3,10.9,1.1,1.4,0.9,0.9,4.6,6.9
379,Shavlik Randolph\randosh01,PF,31,PHO,16,0,101,2.1,8.9,.240,0.0,1.4,.000,2.1,7.5,.286,1.8,3.6,.500,4.3,5.0,9.3,1.1,1.4,0.7,0.7,4.6,6.1
379,Shavlik Randolph\randosh01,PF,31,BOS,5,0,25,4.3,14.4,.300,0.0,1.4,.000,4.3,13.0,.333,1.4,2.9,.500,5.8,11.5,17.3,1.4,1.4,1.4,1.4,4.3,10.1
380,Zach Randolph\randoza01,PF,33,MEM,71,71,2304,7.1,14.6,.487,0.1,0.3,.350,7.0,14.2,.490,3.6,4.7,.765,3.5,8.2,11.7,2.4,1.1,0.2,2.4,2.7,17.9
381,J.J. Redick\redicjj01,SG,30,LAC,78,78,2409,6.7,14.0,.477,3.0,6.8,.437,3.7,7.2,.515,2.7,3.0,.901,0.3,2.2,2.5,2.0,0.6,0.1,1.4,2.0,19.1
382,Glen Rice Jr.\ricegl02,SG,24,WAS,5,0,43,2.5,12.6,.200,0.8,5.9,.143,1.7,6.7,.250,3.3,5.0,.667,1.7,1.7,3.3,1.7,0.0,0.0,1.7,9.2,9.2
383,Jason Richardson\richaja01,SG,34,PHI,19,15,416,5.4,15.4,.348,2.7,8.3,.323,2.7,7.1,.378,1.5,1.9,.773,1.1,4.6,5.7,3.3,1.1,0.3,1.4,2.4,14.9
384,Luke Ridnour\ridnolu01,PG,33,ORL,47,0,683,4.0,9.3,.426,1.1,3.3,.317,2.9,6.0,.487,0.9,1.1,.857,0.4,3.2,3.6,5.1,1.1,0.2,2.0,3.5,9.9
385,Austin Rivers\riverau01,PG-SG,22,TOT,76,5,1563,4.7,11.4,.409,0.9,3.0,.298,3.8,8.4,.449,2.0,2.9,.675,0.6,2.9,3.5,3.6,1.1,0.3,1.5,3.4,12.2
385,Austin Rivers\riverau01,SG,22,NOP,35,3,772,4.0,10.4,.387,0.7,2.3,.280,3.4,8.0,.419,2.5,3.3,.746,0.6,2.6,3.2,4.1,0.8,0.3,1.4,3.0,11.1
385,Austin Rivers\riverau01,PG,22,LAC,41,2,791,5.3,12.5,.427,1.1,3.7,.309,4.2,8.8,.477,1.5,2.5,.582,0.7,3.1,3.8,3.1,1.4,0.3,1.6,3.7,13.2
386,Andre Roberson\roberan03,SG,23,OKC,67,65,1286,2.6,5.6,.458,0.6,2.4,.247,2.0,3.2,.612,0.6,1.3,.479,1.7,5.5,7.1,2.0,1.5,0.8,1.3,3.9,6.4
387,Brian Roberts\roberbr01,PG,29,CHO,72,10,1330,4.8,12.2,.389,1.7,5.2,.321,3.1,7.0,.440,1.8,2.0,.892,0.4,2.6,3.0,4.4,0.9,0.2,1.5,2.0,13.0
388,Glenn Robinson III\robingl02,SG-SF,21,TOT,35,1,261,3.6,9.2,.388,0.7,2.6,.263,2.9,6.6,.438,2.2,3.3,.667,2.1,3.3,5.4,1.5,0.8,0.1,1.5,2.1,10.1
388,Glenn Robinson III\robingl02,SG,21,MIN,25,0,108,2.7,8.0,.333,0.3,2.0,.167,2.3,6.0,.389,4.0,5.3,.750,1.3,3.3,4.7,1.0,1.0,0.0,1.0,1.7,9.7
388,Glenn Robinson III\robingl02,SF,21,PHI,10,1,153,4.2,10.1,.419,0.9,3.1,.308,3.3,7.1,.467,0.9,1.9,.500,2.6,3.3,5.9,1.9,0.7,0.2,1.9,2.4,10.4
389,Nate Robinson\robinna01,PG,30,TOT,42,1,591,5.4,15.5,.345,1.9,6.8,.277,3.5,8.7,.399,1.9,2.8,.674,1.0,2.0,3.0,5.9,1.2,0.2,1.8,4.6,14.5
389,Nate Robinson\robinna01,PG,30,DEN,33,1,465,5.5,15.8,.348,1.9,7.1,.261,3.6,8.7,.420,2.0,3.1,.650,1.1,1.9,3.0,6.0,1.1,0.2,1.7,5.3,14.9
389,Nate Robinson\robinna01,PG,30,LAC,9,0,126,4.9,14.6,.333,2.0,5.7,.350,2.9,8.9,.323,1.4,1.7,.833,0.9,2.3,3.1,5.7,1.7,0.0,2.3,2.3,13.1
390,Thomas Robinson\robinth01,PF,23,TOT,54,4,798,5.7,11.7,.485,0.0,0.1,.000,5.7,11.6,.488,2.5,4.8,.528,4.3,9.4,13.7,1.5,1.4,0.9,2.7,4.7,13.9
390,Thomas Robinson\robinth01,PF,23,POR,32,4,391,4.3,8.4,.516,0.0,0.0,,4.3,8.4,.516,1.9,4.4,.438,3.0,9.2,12.2,0.8,1.5,1.0,3.0,5.0,10.6
390,Thomas Robinson\robinth01,PF,23,PHI,22,0,407,7.0,14.9,.467,0.0,0.2,.000,7.0,14.8,.473,3.1,5.1,.603,5.5,9.6,15.0,2.1,1.4,0.8,2.3,4.4,17.1
391,Rajon Rondo\rondora01,PG,28,TOT,68,68,2018,4.9,11.5,.426,0.5,1.5,.314,4.4,10.0,.444,0.6,1.4,.397,1.3,5.4,6.7,9.6,1.6,0.1,3.7,2.7,10.8
391,Rajon Rondo\rondora01,PG,28,BOS,22,22,699,4.2,10.3,.405,0.4,1.6,.250,3.8,8.7,.435,0.6,1.9,.333,1.3,7.2,8.5,12.2,1.9,0.2,3.9,2.2,9.4
391,Rajon Rondo\rondora01,PG,28,DAL,46,46,1319,5.3,12.1,.436,0.5,1.5,.352,4.8,10.7,.448,0.5,1.1,.452,1.3,4.4,5.7,8.2,1.5,0.1,3.7,3.0,11.6
392,Derrick Rose\rosede01,PG,26,CHI,51,51,1530,8.0,19.6,.405,1.8,6.4,.280,6.2,13.3,.465,3.6,4.4,.813,0.8,3.0,3.8,5.9,0.8,0.4,3.8,1.5,21.3
393,Terrence Ross\rosste01,SF,23,TOR,82,61,2092,5.3,13.0,.410,2.5,6.7,.372,2.8,6.2,.452,0.8,1.0,.786,0.6,3.3,3.9,1.5,0.9,0.4,1.2,2.3,13.9
394,Ricky Rubio\rubiori01,PG,24,MIN,22,22,692,4.1,11.4,.356,0.7,2.7,.255,3.4,8.7,.387,3.0,3.7,.803,1.0,5.5,6.5,10.0,2.0,0.1,3.3,3.1,11.8
395,Damjan Rudež\rudezda01,SF,28,IND,68,2,1047,4.1,9.0,.452,2.4,5.8,.406,1.7,3.2,.538,0.6,0.8,.696,0.3,1.3,1.6,1.8,0.6,0.2,1.6,2.7,11.1
396,Brandon Rush\rushbr01,SG,29,GSW,33,0,271,1.5,7.2,.204,0.4,3.6,.111,1.1,3.6,.296,0.7,1.5,.455,0.5,4.9,5.4,1.6,0.7,1.6,1.5,3.6,4.0
397,Robert Sacre\sacrero01,C,25,LAL,67,18,1133,4.0,9.7,.412,0.0,0.0,.000,4.0,9.7,.413,1.7,2.6,.671,2.8,4.6,7.4,1.7,0.9,1.4,1.1,3.8,9.8
398,John Salmons\salmojo01,SF,35,NOP,21,0,270,2.1,6.4,.333,1.1,3.5,.308,1.1,2.9,.364,0.3,0.5,.500,0.5,2.3,2.8,1.7,1.2,0.5,0.7,3.3,5.6
399,JaKarr Sampson\sampsja02,SF,21,PHI,74,32,1131,4.6,11.0,.422,1.0,4.0,.244,3.7,7.0,.525,2.0,3.0,.670,1.1,4.1,5.2,2.5,1.2,0.8,2.4,4.3,12.3
400,Larry Sanders\sandela01,C,26,MIL,27,26,586,5.3,10.6,.500,0.0,0.0,,5.3,10.6,.500,1.5,2.9,.500,4.1,6.1,10.2,1.4,1.6,2.4,1.7,6.4,12.0
401,Dennis Schröder\schrode01,PG,21,ATL,77,10,1516,6.7,15.8,.427,1.2,3.5,.351,5.5,12.3,.449,3.5,4.3,.827,0.7,3.2,3.9,7.5,1.2,0.1,3.6,3.0,18.2
402,Luis Scola\scolalu01,PF,34,IND,81,16,1659,6.5,13.9,.467,0.1,0.4,.250,6.4,13.5,.474,3.4,4.9,.699,3.0,8.4,11.4,2.3,1.0,0.4,2.0,4.2,16.6
403,Mike Scott\scottmi01,PF,26,ATL,68,0,1123,6.4,14.5,.444,2.1,6.2,.344,4.3,8.4,.517,2.0,2.5,.792,1.4,4.9,6.4,2.4,0.8,0.1,1.3,2.7,17.0
404,Thabo Sefolosha\sefolth01,SF,30,ATL,52,7,976,3.8,9.2,.418,0.9,2.9,.321,2.9,6.3,.462,1.7,2.1,.776,2.0,6.3,8.2,2.8,2.0,0.8,1.4,2.5,10.3
405,Kevin Séraphin\serapke01,C,25,WAS,79,0,1235,6.7,13.1,.513,0.0,0.1,.000,6.7,13.1,.516,1.7,2.4,.707,2.5,5.9,8.4,1.7,0.3,1.7,2.9,5.7,15.2
406,Ramon Sessions\sessira01,PG,28,TOT,64,10,1188,3.8,10.1,.374,0.6,1.8,.317,3.2,8.3,.387,4.0,5.2,.769,0.7,3.7,4.4,5.5,0.9,0.0,2.6,2.2,12.2
406,Ramon Sessions\sessira01,PG,28,SAC,36,7,642,3.5,10.3,.344,0.3,1.6,.214,3.2,8.7,.368,3.6,4.9,.727,0.7,3.1,3.9,5.4,0.7,0.0,2.9,2.5,11.0
406,Ramon Sessions\sessira01,PG,28,WAS,28,3,546,4.1,10.0,.411,0.9,2.1,.406,3.2,7.8,.412,4.5,5.6,.812,0.7,4.3,4.9,5.7,1.1,0.0,2.3,1.8,13.6
407,Iman Shumpert\shumpim01,SG,24,TOT,62,25,1545,4.5,11.0,.410,1.6,4.6,.342,2.9,6.4,.458,1.0,1.5,.672,1.3,3.9,5.2,3.1,1.9,0.4,2.1,3.2,11.6
407,Iman Shumpert\shumpim01,SG,24,NYK,24,24,625,5.1,12.4,.409,1.3,3.8,.348,3.7,8.6,.436,1.4,2.1,.676,1.3,3.4,4.7,4.5,1.7,0.2,2.4,3.9,12.9
407,Iman Shumpert\shumpim01,SG,24,CLE,38,1,920,4.1,10.0,.410,1.7,5.1,.338,2.4,4.9,.484,0.7,1.1,.667,1.3,4.3,5.6,2.2,2.0,0.5,1.9,2.8,10.6
408,Alexey Shved\shvedal01,SG,26,TOT,42,9,767,6.2,15.7,.397,2.2,6.5,.338,4.0,9.2,.439,5.7,7.0,.807,1.1,3.6,4.6,5.0,1.4,0.3,2.3,2.3,20.4
408,Alexey Shved\shvedal01,SG,26,PHI,17,0,285,6.6,16.4,.400,2.1,7.2,.298,4.4,9.2,.479,6.1,7.2,.842,1.0,1.8,2.8,5.8,1.8,0.1,2.3,2.7,21.3
408,Alexey Shved\shvedal01,SG,26,HOU,9,0,59,4.9,14.6,.333,2.4,7.3,.333,2.4,7.3,.333,5.5,6.7,.818,0.6,1.8,2.4,1.8,0.6,0.0,3.1,1.2,17.7
408,Alexey Shved\shvedal01,SG,26,NYK,16,9,423,6.2,15.4,.403,2.2,6.0,.371,4.0,9.4,.423,5.4,7.0,.780,1.2,5.0,6.2,4.9,1.3,0.4,2.1,2.1,20.1
409,Henry Sims\simshe01,C,24,PHI,73,32,1399,6.1,12.9,.474,0.1,0.6,.182,6.0,12.4,.488,2.7,3.5,.774,3.1,6.1,9.2,2.0,1.0,0.8,2.5,3.5,15.1
410,Kyle Singler\singlky01,SF,26,TOT,80,58,1743,3.6,9.2,.386,2.0,5.0,.398,1.6,4.2,.371,0.8,1.1,.769,0.7,3.3,4.0,1.8,1.0,0.4,1.1,3.2,9.9
410,Kyle Singler\singlky01,SF,26,DET,54,40,1287,3.9,9.8,.400,2.1,5.2,.406,1.8,4.6,.393,0.8,1.0,.806,0.6,3.2,3.9,1.9,0.9,0.4,1.2,2.7,10.8
410,Kyle Singler\singlky01,SF,26,OKC,26,18,456,2.5,7.6,.333,1.6,4.3,.370,0.9,3.3,.286,0.9,1.3,.688,0.8,3.6,4.3,1.4,1.1,0.6,1.0,4.3,7.5
411,Donald Sloan\sloando01,PG,27,IND,53,21,1107,4.7,11.5,.408,1.3,4.3,.313,3.4,7.3,.464,2.0,2.5,.779,0.4,4.3,4.7,6.2,0.7,0.0,2.1,1.5,12.7
412,Marcus Smart\smartma01,PG,20,BOS,67,38,1808,3.5,9.5,.367,1.8,5.4,.335,1.7,4.1,.410,1.6,2.5,.646,1.2,3.2,4.4,4.1,2.0,0.4,1.8,3.5,10.4
413,Greg Smith\smithgr02,PF,24,DAL,42,2,363,3.0,4.9,.612,0.0,0.0,,3.0,4.9,.612,2.0,3.9,.513,2.6,5.3,7.8,0.9,0.7,1.1,1.1,5.3,7.9
414,Ish Smith\smithis01,PG,26,TOT,55,14,832,6.2,15.9,.390,0.8,2.6,.300,5.4,13.3,.407,1.5,2.5,.596,0.6,3.7,4.3,7.8,1.6,0.3,3.4,2.2,14.6
414,Ish Smith\smithis01,PG,26,OKC,30,0,155,3.5,10.5,.333,0.2,1.2,.200,3.3,9.3,.350,1.4,2.1,.667,1.2,5.1,6.3,6.5,0.9,0.2,2.1,2.8,8.6
414,Ish Smith\smithis01,PG,26,PHI,25,14,677,6.8,17.1,.398,0.9,2.9,.309,5.9,14.2,.416,1.5,2.6,.583,0.5,3.4,3.9,8.1,1.7,0.3,3.7,2.0,16.0
415,J.R. Smith\smithjr01,SG,29,TOT,70,51,2080,5.5,13.1,.417,2.8,7.4,.383,2.6,5.7,.462,0.9,1.2,.750,0.5,3.3,3.8,3.4,1.4,0.4,1.7,2.8,14.7
415,J.R. Smith\smithjr01,SG,29,NYK,24,6,619,5.9,14.6,.402,1.9,5.2,.356,4.0,9.4,.429,1.6,2.3,.692,0.2,3.1,3.4,4.7,1.0,0.2,2.6,2.6,15.2
415,J.R. Smith\smithjr01,SG,29,CLE,46,45,1461,5.3,12.4,.425,3.2,8.3,.390,2.0,4.1,.494,0.7,0.8,.818,0.6,3.3,3.9,2.8,1.6,0.4,1.3,2.9,14.4
416,Jason Smith\smithja02,C,28,NYK,82,31,1785,5.2,11.9,.434,0.3,0.8,.357,4.9,11.1,.440,2.6,3.1,.830,2.0,4.6,6.5,2.8,0.6,0.9,2.1,4.1,13.2
417,Josh Smith\smithjo03,PF,29,TOT,83,35,2300,6.5,15.4,.419,1.1,3.6,.316,5.4,11.9,.451,2.0,4.0,.498,2.4,5.9,8.3,4.3,1.4,1.8,3.2,3.6,16.1
417,Josh Smith\smithjo03,PF,29,DET,28,28,896,6.1,15.7,.391,0.4,1.5,.243,5.8,14.2,.407,2.1,4.5,.468,2.1,6.0,8.1,5.3,1.5,1.9,2.9,3.3,14.7
417,Josh Smith\smithjo03,PF,29,HOU,55,7,1404,6.7,15.3,.438,1.6,4.9,.330,5.1,10.4,.489,1.9,3.7,.521,2.6,5.8,8.4,3.7,1.3,1.7,3.4,3.7,16.9
418,Russ Smith\smithru01,PG,23,TOT,12,0,65,4.4,13.8,.320,1.1,6.1,.182,3.3,7.8,.429,6.6,7.2,.923,0.6,2.8,3.3,4.4,1.7,0.0,6.6,7.2,16.6
418,Russ Smith\smithru01,PG,23,NOP,6,0,29,2.5,12.4,.200,1.2,7.4,.167,1.2,5.0,.250,0.0,0.0,,0.0,3.7,3.7,2.5,0.0,0.0,8.7,7.4,6.2
418,Russ Smith\smithru01,PG,23,MEM,6,0,36,6.0,15.0,.400,1.0,5.0,.200,5.0,10.0,.500,12.0,13.0,.923,1.0,2.0,3.0,6.0,3.0,0.0,5.0,7.0,25.0
419,Tony Snell\snellto01,SF,23,CHI,72,22,1412,4.1,9.5,.429,1.9,5.0,.371,2.2,4.4,.494,1.1,1.4,.800,0.8,3.7,4.5,1.6,0.8,0.3,1.2,2.2,11.1
420,Marreese Speights\speigma01,C,27,GSW,76,9,1207,9.5,19.3,.492,0.1,0.5,.278,9.3,18.7,.498,4.5,5.3,.843,3.3,6.4,9.7,2.1,0.6,1.0,2.4,5.6,23.6
421,Tiago Splitter\splitti01,C,30,SAS,52,35,1030,5.9,10.6,.558,0.0,0.0,,5.9,10.6,.558,3.1,4.2,.750,3.2,5.6,8.8,2.7,1.2,1.3,2.1,3.6,15.0
422,Nik Stauskas\stausni01,SG,21,SAC,73,1,1127,3.4,9.5,.365,1.5,4.8,.322,1.9,4.7,.408,1.8,2.0,.859,0.4,2.5,2.8,2.1,0.6,0.5,1.3,2.9,10.2
423,Lance Stephenson\stephla01,SG,24,CHO,61,25,1573,4.7,12.6,.376,0.4,2.4,.171,4.3,10.2,.425,1.6,2.5,.627,0.9,5.4,6.3,5.5,0.9,0.2,2.9,3.1,11.5
424,Greg Stiemsma\stiemgr01,C,29,TOR,17,0,66,3.3,4.4,.750,0.0,0.0,,3.3,4.4,.750,1.1,2.2,.500,4.9,3.3,8.2,1.6,1.1,0.0,3.8,8.2,7.6
425,David Stockton\stockda01,PG,23,SAC,3,0,33,2.2,6.5,.333,1.1,2.2,.500,1.1,4.4,.250,3.3,6.5,.500,0.0,2.2,2.2,9.8,2.2,0.0,4.4,1.1,8.7
426,Jarnell Stokes\stokeja01,PF,21,MEM,19,2,126,6.0,10.6,.568,0.0,0.0,,6.0,10.6,.568,4.3,8.0,.536,4.6,5.1,9.7,1.1,1.4,1.4,2.0,7.1,16.3
427,Amar'e Stoudemire\stoudam01,PF,32,TOT,59,15,1245,7.9,14.2,.557,0.0,0.1,.000,7.9,14.1,.562,3.9,5.4,.720,3.2,6.3,9.5,1.3,0.8,1.1,2.3,4.7,19.7
427,Amar'e Stoudemire\stoudam01,PF,32,NYK,36,14,865,7.0,12.9,.543,0.0,0.1,.000,7.0,12.8,.549,3.9,5.3,.740,3.5,6.7,10.2,1.5,0.8,1.4,2.6,4.6,18.0
427,Amar'e Stoudemire\stoudam01,PF,32,DAL,23,1,380,9.9,17.0,.581,0.0,0.1,.000,9.9,16.9,.584,3.8,5.6,.678,2.6,5.4,8.0,0.8,0.9,0.4,1.4,4.7,23.5
428,Rodney Stuckey\stuckro01,PG,28,IND,71,36,1874,6.4,14.5,.440,1.1,2.7,.390,5.3,11.8,.452,3.4,4.1,.819,0.7,4.1,4.8,4.2,1.1,0.2,2.3,2.5,17.2
429,Jared Sullinger\sullija01,PF,22,BOS,58,49,1566,7.1,16.3,.439,1.2,4.2,.283,6.0,12.0,.494,2.2,3.0,.744,3.4,6.8,10.1,3.1,1.0,1.0,1.8,3.5,17.7
430,Jeff Taylor\tayloje03,SF,25,CHO,29,13,430,3.8,9.5,.395,0.9,3.0,.306,2.8,6.5,.436,2.2,3.4,.634,1.2,3.3,4.4,1.8,1.0,0.1,1.6,3.0,10.6
431,Jeff Teague\teaguje01,PG,26,ATL,73,72,2228,6.6,14.3,.460,1.1,3.3,.343,5.4,11.0,.496,4.4,5.2,.862,0.5,2.5,3.0,8.3,2.0,0.5,3.3,2.2,18.8
432,Mirza Teletović\teletmi01,PF,29,BRK,40,4,892,4.9,12.9,.382,2.5,7.8,.321,2.4,5.1,.476,1.3,1.9,.717,1.1,6.7,7.8,1.9,0.6,0.6,2.1,3.0,13.7
433,Sebastian Telfair\telfase01,PG,29,OKC,16,1,327,5.1,13.8,.368,2.0,6.6,.300,3.1,7.2,.431,2.6,3.7,.706,0.2,3.1,3.3,5.0,1.1,0.0,2.0,3.2,14.8
434,Garrett Temple\templga01,SG,28,WAS,52,18,735,3.3,8.3,.400,1.6,4.3,.375,1.7,4.0,.427,1.7,2.4,.729,1.2,3.2,4.4,2.7,2.1,0.4,1.7,3.7,10.0
435,Jason Terry\terryja01,SG,37,HOU,77,18,1641,4.1,9.8,.422,2.8,7.1,.390,1.4,2.7,.504,0.9,1.1,.813,0.3,2.3,2.7,3.2,1.4,0.4,1.6,2.5,11.9
436,Isaiah Thomas\thomais02,PG,25,TOT,67,1,1726,7.0,16.6,.420,2.7,7.2,.373,4.3,9.4,.457,6.3,7.3,.868,0.7,2.5,3.2,5.9,1.2,0.1,3.0,3.1,23.0
436,Isaiah Thomas\thomais02,PG,25,PHO,46,1,1181,6.6,15.6,.426,2.5,6.3,.391,4.2,9.3,.449,5.6,6.4,.872,0.8,2.5,3.3,5.2,1.4,0.2,2.7,3.2,21.4
436,Isaiah Thomas\thomais02,PG,25,BOS,21,0,545,7.7,18.8,.411,3.2,9.2,.345,4.6,9.6,.473,7.8,9.0,.861,0.5,2.4,2.9,7.5,0.8,0.0,3.6,3.0,26.4
437,Lance Thomas\thomala01,PF-SF,26,TOT,62,37,1490,4.4,10.7,.412,0.2,0.5,.318,4.2,10.1,.417,1.7,2.4,.727,1.6,3.1,4.7,1.7,0.9,0.2,1.8,2.4,10.7
437,Lance Thomas\thomala01,SF,26,OKC,22,13,450,3.6,10.1,.357,0.0,0.1,.000,3.6,10.0,.360,1.8,2.6,.697,2.2,3.8,6.0,1.6,0.9,0.0,1.4,3.0,9.0
437,Lance Thomas\thomala01,PF,26,NYK,40,24,1040,4.7,10.9,.434,0.2,0.7,.333,4.5,10.2,.441,1.7,2.3,.742,1.3,2.9,4.2,1.7,0.9,0.3,2.0,2.2,11.4
438,Malcolm Thomas\thomama01,PF,26,PHI,17,0,194,3.3,7.4,.450,0.0,1.3,.000,3.3,6.1,.545,1.7,2.4,.692,3.0,7.4,10.4,1.3,0.6,0.2,2.4,3.2,8.4
439,Tyrus Thomas\thomaty01,PF,28,MEM,2,0,7,5.1,5.1,1.000,0.0,0.0,,5.1,5.1,1.000,10.3,10.3,1.000,0.0,0.0,0.0,5.1,0.0,0.0,0.0,0.0,20.6
440,Hollis Thompson\thompho01,SG,23,PHI,71,23,1776,4.5,11.0,.413,2.3,5.8,.401,2.2,5.2,.426,1.3,1.8,.708,1.1,2.9,4.0,1.7,1.2,0.5,1.3,2.9,12.7
441,Jason Thompson\thompja02,PF,28,SAC,81,63,1991,3.6,7.7,.470,0.0,0.0,.000,3.6,7.7,.471,1.6,2.6,.622,2.5,7.1,9.6,1.5,0.6,1.0,1.5,4.3,8.9
442,Klay Thompson\thompkl01,SG,24,GSW,77,77,2455,8.8,19.0,.463,3.5,8.0,.439,5.3,11.1,.481,3.3,3.8,.879,0.4,3.2,3.6,3.3,1.3,0.9,2.2,1.8,24.5
443,Tristan Thompson\thomptr01,PF,23,CLE,82,15,2194,4.4,8.0,.547,0.0,0.0,,4.4,8.0,.547,2.6,4.1,.641,4.5,6.3,10.8,0.6,0.6,1.0,1.4,3.1,11.4
444,Marcus Thornton\thornma01,SG,27,TOT,48,0,721,7.0,17.2,.406,2.7,7.1,.378,4.3,10.1,.426,2.3,2.8,.821,1.1,3.1,4.3,1.8,1.3,0.3,1.3,1.9,19.0
444,Marcus Thornton\thornma01,SG,27,BOS,39,0,640,7.1,17.2,.416,2.9,7.0,.419,4.2,10.2,.414,2.4,2.9,.824,1.1,3.0,4.1,1.9,1.2,0.4,1.2,2.0,19.6
444,Marcus Thornton\thornma01,SG,27,PHO,9,0,81,5.8,17.8,.325,0.9,8.4,.105,4.9,9.3,.524,1.8,2.2,.800,1.8,4.0,5.8,0.9,2.7,0.0,2.2,1.3,14.2
445,Anthony Tolliver\tollian01,PF,29,TOT,76,11,1432,4.0,9.9,.410,2.7,7.3,.366,1.4,2.6,.534,1.4,1.7,.783,1.3,4.7,5.9,1.5,0.6,0.4,1.3,3.4,12.1
445,Anthony Tolliver\tollian01,PF,29,PHO,24,0,272,3.4,9.8,.351,3.2,8.2,.387,0.3,1.6,.167,0.5,0.8,.667,0.8,5.0,5.8,1.3,0.5,0.1,1.5,2.6,10.6
445,Anthony Tolliver\tollian01,PF,29,DET,52,11,1160,4.2,9.9,.423,2.5,7.1,.360,1.6,2.8,.582,1.6,2.0,.794,1.4,4.6,6.0,1.5,0.6,0.5,1.2,3.6,12.5
446,P.J. Tucker\tuckepj01,SF,29,PHO,78,63,2383,3.9,9.0,.438,1.3,3.8,.345,2.6,5.2,.506,1.6,2.2,.727,1.7,5.9,7.6,1.8,1.6,0.3,1.5,2.7,10.8
447,Ronny Turiaf\turiaro01,C,32,MIN,2,0,19,0.0,0.0,,0.0,0.0,,0.0,0.0,,0.0,0.0,,0.0,1.9,1.9,3.8,0.0,0.0,0.0,0.0,0.0
448,Hedo Türkoğlu\turkohe01,SF,35,LAC,62,2,705,4.2,9.6,.441,3.1,7.1,.432,1.2,2.5,.469,0.3,0.6,.545,0.3,4.8,5.1,1.9,1.0,0.4,1.5,3.4,11.8
449,Evan Turner\turneev01,SG,26,BOS,82,57,2260,5.1,11.9,.429,0.5,1.9,.277,4.6,10.0,.458,1.7,2.2,.752,0.6,6.0,6.6,7.2,1.3,0.3,3.2,2.9,12.4
450,Ekpe Udoh\udohek01,PF,27,LAC,33,0,128,3.1,6.8,.458,0.0,0.0,,3.1,6.8,.458,2.0,2.5,.778,2.0,5.3,7.3,2.3,2.3,2.0,2.0,5.6,8.2
451,Beno Udrih\udrihbe01,PG,32,MEM,79,12,1494,5.9,12.2,.487,0.6,2.3,.268,5.3,9.8,.539,2.1,2.5,.853,0.5,3.0,3.4,5.3,1.1,0.2,2.1,2.1,14.6
452,Jonas Valančiūnas\valanjo01,C,22,TOR,80,80,2096,6.4,11.2,.572,0.0,0.0,.000,6.4,11.2,.573,3.7,4.7,.786,3.7,8.2,11.9,0.7,0.6,1.6,1.9,3.8,16.5
453,Anderson Varejão\varejan01,C,32,CLE,26,26,636,6.3,11.3,.555,0.0,0.1,.000,6.3,11.2,.561,1.9,2.5,.733,3.2,6.4,9.6,2.0,1.1,0.9,2.0,3.3,14.4
454,Greivis Vásquez\vasqugr01,PG,28,TOR,82,29,1991,5.4,13.1,.408,2.4,6.3,.379,2.9,6.8,.436,0.9,1.2,.758,0.4,3.5,3.9,5.5,0.8,0.2,2.2,3.2,14.0
455,Charlie Villanueva\villach01,PF,30,DAL,64,1,678,8.0,19.2,.414,4.4,11.7,.376,3.6,7.5,.475,1.1,1.9,.571,1.6,6.3,7.9,1.0,0.8,1.2,1.5,3.4,21.4
456,Noah Vonleh\vonleno01,PF,19,CHO,25,0,259,4.2,10.6,.395,0.7,1.8,.385,3.5,8.8,.397,2.5,3.6,.692,3.9,8.1,12.0,0.6,0.6,1.3,1.5,2.8,11.5
457,Nikola Vučević\vucevni01,C,24,ORL,74,74,2529,9.0,17.2,.523,0.0,0.1,.333,9.0,17.1,.524,2.3,3.1,.752,3.4,8.1,11.5,2.1,0.8,0.8,2.1,3.1,20.3
458,Dwyane Wade\wadedw01,SG,33,MIA,62,62,1971,9.3,19.8,.470,0.5,1.9,.284,8.8,17.9,.489,5.2,6.8,.768,1.1,2.9,4.0,5.5,1.3,0.4,3.8,1.9,24.3
459,Dion Waiters\waitedi01,SG,23,TOT,80,23,2208,6.1,15.4,.396,1.2,4.0,.297,4.9,11.4,.431,1.9,2.8,.680,0.7,2.5,3.1,2.7,1.5,0.3,1.8,2.5,15.3
459,Dion Waiters\waitedi01,SG,23,CLE,33,3,786,6.3,15.7,.404,1.0,3.9,.256,5.3,11.7,.453,2.2,2.7,.783,0.5,2.1,2.6,3.4,2.0,0.5,2.3,2.7,15.8
459,Dion Waiters\waitedi01,SG,23,OKC,47,20,1422,6.0,15.3,.392,1.3,4.1,.319,4.7,11.2,.419,1.8,2.8,.625,0.7,2.7,3.4,2.3,1.2,0.3,1.6,2.4,15.1
460,Henry Walker\walkebi01,SF,27,MIA,24,13,628,3.3,9.6,.345,2.6,7.6,.341,0.7,2.1,.361,0.8,1.0,.778,0.4,4.3,4.7,1.7,1.4,0.5,1.4,4.4,10.0
461,Kemba Walker\walkeke02,PG,24,CHO,62,58,2119,6.4,16.7,.385,1.4,4.8,.304,5.0,11.9,.418,4.0,4.8,.827,0.6,3.1,3.7,5.4,1.5,0.5,1.7,1.6,18.3
462,John Wall\walljo01,PG,24,WAS,79,79,2837,6.6,14.8,.445,0.8,2.8,.300,5.8,12.0,.478,3.6,4.6,.785,0.5,4.2,4.6,10.1,1.8,0.6,3.9,2.3,17.6
463,Gerald Wallace\wallage01,SF,32,BOS,32,0,286,1.8,4.3,.412,0.1,0.4,.333,1.6,3.9,.419,0.8,1.9,.400,2.1,5.0,7.2,1.4,1.9,0.5,2.3,2.4,4.4
464,T.J. Warren\warretj01,SF,21,PHO,40,1,614,6.6,12.5,.528,0.3,1.2,.238,6.3,11.3,.560,0.8,1.1,.737,2.4,2.6,5.0,1.5,1.1,0.5,1.6,3.0,14.4
465,C.J. Watson\watsocj01,PG,30,IND,57,21,1422,4.6,10.6,.434,1.8,4.4,.400,2.8,6.1,.459,3.5,4.2,.826,0.5,3.7,4.1,5.3,1.4,0.2,2.5,2.7,14.4
466,David Wear\wearda01,PF,24,SAC,2,0,7,0.0,10.3,.000,0.0,5.1,.000,0.0,5.1,.000,0.0,0.0,,10.3,0.0,10.3,5.1,0.0,0.0,0.0,5.1,0.0
467,Travis Wear\weartr01,SF,24,NYK,51,1,672,4.5,11.2,.402,0.6,1.6,.367,3.9,9.6,.408,1.1,1.4,.769,1.7,4.0,5.7,2.1,0.8,0.6,1.9,2.9,10.7
468,Martell Webster\webstma02,SF,28,WAS,32,0,352,2.5,9.3,.264,1.0,4.4,.233,1.4,4.9,.292,4.9,6.5,.750,1.0,3.7,4.7,1.7,0.7,0.1,2.3,2.5,10.8
469,David West\westda01,PF,34,IND,66,66,1895,6.1,13.0,.471,0.1,0.4,.200,6.1,12.7,.479,2.3,3.1,.739,2.1,6.5,8.5,4.2,0.9,0.9,2.3,3.0,14.6
470,Russell Westbrook\westbru01,PG,26,OKC,67,67,2302,9.8,23.0,.426,1.3,4.5,.299,8.5,18.5,.457,8.5,10.2,.835,1.9,5.7,7.6,9.0,2.2,0.2,4.6,2.9,29.5
471,Hassan Whiteside\whiteha01,C,25,MIA,48,32,1142,7.7,12.2,.628,0.0,0.0,,7.7,12.2,.628,2.5,4.9,.500,4.6,10.6,15.2,0.2,0.9,3.9,1.8,4.1,17.8
472,Shayne Whittington\whittsh01,PF,23,IND,20,0,108,6.3,14.0,.452,0.3,2.0,.167,6.0,12.0,.500,6.0,7.7,.783,3.3,6.3,9.7,2.0,1.7,0.7,1.7,6.0,19.0
473,Andrew Wiggins\wiggian01,SF,19,MIN,82,82,2969,6.0,13.8,.437,0.5,1.5,.310,5.6,12.3,.453,4.3,5.7,.760,1.6,2.9,4.5,2.1,1.0,0.6,2.1,2.3,16.8
474,C.J. Wilcox\wilcocj01,SG,24,LAC,21,0,101,5.7,13.5,.421,2.5,6.8,.368,3.2,6.8,.474,0.7,0.7,1.000,0.4,2.1,2.5,2.9,1.1,0.4,3.6,2.5,14.6
475,Deron Williams\willide01,PG,30,BRK,68,55,2114,5.1,13.1,.387,1.5,4.0,.367,3.6,9.1,.395,3.4,4.1,.834,0.5,3.5,4.0,7.6,1.1,0.3,2.6,2.7,15.1
476,Derrick Williams\willide02,PF,23,SAC,74,6,1462,5.3,11.9,.447,1.2,3.8,.314,4.1,8.1,.511,3.3,4.8,.684,1.0,4.0,5.0,1.2,0.8,0.1,1.4,1.6,15.2
477,Elliot Williams\williel01,SG,25,TOT,13,0,119,4.2,11.2,.378,2.4,5.4,.444,1.8,5.7,.316,0.3,1.2,.250,0.0,2.4,2.4,3.6,1.2,0.0,1.2,3.6,11.2
477,Elliot Williams\williel01,SG,25,UTA,5,0,42,5.1,11.1,.462,4.3,6.0,.714,0.9,5.1,.167,0.9,1.7,.500,0.0,2.6,2.6,3.4,1.7,0.0,3.4,0.9,15.4
477,Elliot Williams\williel01,SG,25,NOP,8,0,77,3.7,11.2,.333,1.4,5.1,.273,2.3,6.1,.385,0.0,0.9,.000,0.0,2.3,2.3,3.7,0.9,0.0,0.0,5.1,8.9
478,Lou Williams\willilo02,SG,28,TOR,80,0,2016,6.7,16.6,.404,2.7,8.0,.340,4.0,8.6,.464,6.1,7.1,.861,0.4,2.3,2.7,2.9,1.6,0.2,1.8,1.8,22.2
479,Marvin Williams\willima02,PF,28,CHO,78,37,2035,3.7,8.8,.424,1.7,4.7,.358,2.0,4.1,.500,1.1,1.5,.713,1.0,5.8,6.8,1.8,1.2,0.6,1.1,2.6,10.2
480,Mo Williams\willima01,PG,32,TOT,68,33,1980,6.2,15.6,.397,2.2,6.3,.342,4.0,9.3,.434,3.0,3.4,.872,0.4,2.8,3.2,7.7,0.8,0.3,3.1,2.9,17.5
480,Mo Williams\willima01,PG,32,MIN,41,19,1149,5.6,14.0,.403,1.8,5.3,.347,3.8,8.7,.437,2.5,2.9,.851,0.4,2.7,3.1,8.2,0.9,0.3,3.2,3.2,15.6
480,Mo Williams\willima01,PG,32,CHO,27,14,831,7.0,17.9,.390,2.6,7.7,.337,4.4,10.2,.430,3.6,4.0,.892,0.4,2.9,3.3,7.1,0.7,0.3,3.0,2.6,20.1
481,Reggie Williams\willire02,SF,28,SAS,20,0,105,5.1,13.4,.385,1.0,6.5,.158,4.1,6.9,.600,1.4,1.4,1.000,1.7,4.1,5.8,3.4,0.3,0.0,0.7,4.1,12.7
482,Shawne Williams\willish03,SF,28,TOT,63,22,1087,4.0,9.9,.403,2.1,5.9,.360,1.9,4.0,.467,1.2,1.3,.875,1.2,4.3,5.5,1.5,0.8,0.7,1.0,4.5,11.3
482,Shawne Williams\willish03,SF,28,MIA,44,22,924,4.0,9.4,.425,2.3,5.9,.395,1.6,3.4,.477,1.1,1.3,.848,1.1,4.4,5.4,1.4,0.8,0.7,0.9,4.5,11.4
482,Shawne Williams\willish03,SF,28,DET,19,0,163,4.2,13.3,.317,0.9,5.7,.154,3.3,7.5,.441,1.5,1.5,1.000,2.0,4.0,6.0,1.8,0.9,0.9,1.5,4.2,10.8
483,Jeff Withey\witheje01,C,24,NOP,37,0,259,4.4,8.9,.500,0.0,0.0,,4.4,8.9,.500,4.7,6.9,.680,3.2,5.7,8.9,1.5,0.6,2.5,1.7,3.6,13.6
484,Nate Wolters\woltena01,PG,23,TOT,21,0,247,2.9,8.3,.351,0.0,1.0,.000,2.9,7.3,.400,0.3,0.9,.333,1.2,3.8,5.0,3.1,1.2,0.3,1.9,2.6,6.1
484,Nate Wolters\woltena01,PG,23,MIL,11,0,142,3.0,7.9,.387,0.0,1.3,.000,3.0,6.6,.462,0.3,1.0,.250,0.5,3.5,4.1,2.5,1.3,0.0,0.8,2.8,6.3
484,Nate Wolters\woltena01,PG,23,NOP,10,0,105,2.7,8.9,.308,0.0,0.7,.000,2.7,8.2,.333,0.3,0.7,.500,2.1,4.1,6.2,3.8,1.0,0.7,3.4,2.4,5.8
485,Brandan Wright\wrighbr03,PF,27,TOT,75,7,1449,5.8,9.0,.642,0.0,0.1,.000,5.8,8.9,.647,1.9,2.8,.696,3.2,4.8,8.0,1.0,1.2,2.3,0.8,2.5,13.5
485,Brandan Wright\wrighbr03,PF,27,DAL,27,0,505,7.2,9.6,.748,0.0,0.0,,7.2,9.6,.748,2.6,3.4,.750,3.6,4.2,7.8,0.7,1.2,3.0,0.9,3.1,17.0
485,Brandan Wright\wrighbr03,PF,27,BOS,8,0,86,5.0,8.8,.571,0.0,0.0,,5.0,8.8,.571,0.8,1.7,.500,2.9,4.2,7.1,3.3,0.4,2.1,2.1,1.7,10.9
485,Brandan Wright\wrighbr03,PF,27,PHO,40,7,858,5.0,8.7,.580,0.0,0.1,.000,5.0,8.6,.588,1.7,2.5,.667,2.9,5.2,8.1,1.0,1.3,2.0,0.7,2.3,11.7
486,Dorell Wright\wrighdo01,SF,29,POR,48,2,592,4.4,11.6,.379,2.5,6.6,.380,1.9,5.0,.378,2.1,2.6,.810,0.9,5.9,6.8,2.5,1.2,0.7,1.1,3.3,13.3
487,Tony Wroten\wroteto01,PG,21,PHI,30,15,895,7.0,17.5,.403,1.5,5.7,.261,5.6,11.7,.473,4.8,7.2,.667,0.9,2.6,3.5,6.3,1.9,0.3,4.5,2.9,20.4
488,James Young\youngja01,SG,19,BOS,31,0,332,3.9,11.1,.353,1.8,7.2,.258,2.1,3.9,.528,1.7,3.1,.552,1.0,3.6,4.6,1.4,0.9,0.2,0.5,2.4,11.4
489,Nick Young\youngni01,SG,29,LAL,42,0,1000,6.3,17.1,.366,3.0,8.1,.369,3.3,9.0,.363,4.8,5.3,.892,0.6,2.8,3.5,1.5,0.8,0.4,1.6,3.0,20.3
490,Thaddeus Young\youngth01,PF,26,TOT,76,68,2434,6.7,14.3,.466,0.6,1.7,.330,6.1,12.6,.484,1.9,3.0,.655,1.9,4.2,6.1,2.6,1.8,0.4,1.7,2.5,15.8
490,Thaddeus Young\youngth01,PF,26,MIN,48,48,1605,6.5,14.4,.451,0.4,1.5,.292,6.1,12.9,.469,2.0,2.9,.682,1.7,3.8,5.5,3.0,1.9,0.4,1.7,2.6,15.4
490,Thaddeus Young\youngth01,PF,26,BRK,28,20,829,7.0,14.2,.495,0.8,2.2,.380,6.2,12.0,.516,1.9,3.1,.606,2.3,5.0,7.2,1.7,1.7,0.3,1.8,2.4,16.8
491,Cody Zeller\zelleco01,C,22,CHO,62,45,1487,4.2,9.0,.461,0.0,0.0,1.000,4.1,9.0,.460,3.1,4.0,.774,2.3,6.4,8.8,2.4,0.8,1.2,1.5,3.8,11.4
492,Tyler Zeller\zellety01,C,25,BOS,82,59,1731,7.1,12.9,.549,0.0,0.0,,7.1,12.9,.549,3.2,3.9,.823,3.0,6.6,9.7,2.4,0.4,1.1,1.6,4.3,17.3